Division,WeightClassKg,Place,Name,Team,BodyweightKg,Best3SquatKg,Best3BenchKg,Best3DeadliftKg,TotalKg,Equipment,Event,Sex
Girls,44.23,1,Marissa Ruiz,Gregory-Portland,44.09,115.67,45.36,127.01,288.03,Single-ply,SBD,F
Girls,44.23,2,MaKayla Cortez,Port Lavaca Calhoun,43.77,113.4,58.97,113.4,285.76,Single-ply,SBD,F
Girls,44.23,3,Chelsea Mason,Forney,44.18,106.59,54.43,115.67,276.69,Single-ply,SBD,F
Girls,44.23,4,Diane Chau,Port Lavaca Calhoun,43.86,115.67,43.09,113.4,272.16,Single-ply,SBD,F
Girls,44.23,5,Brittany Villarreal,San Antonio Southside,43.09,106.59,52.16,102.06,260.82,Single-ply,SBD,F
Girls,44.23,6,Esme Dela Cruz,San Antonio Southside,44.18,104.33,43.09,102.06,249.48,Single-ply,SBD,F
Girls,44.23,7,Leanna Gottschault,Port Lavaca Calhoun,43.77,97.52,47.63,102.06,247.21,Single-ply,SBD,F
Girls,44.23,8,Ariel Coronado,San Antonio Southside,43.27,102.06,40.82,102.06,244.94,Single-ply,SBD,F
Girls,44.23,9,Laura Martinez,Denison,43.68,90.72,29.48,124.74,244.94,Single-ply,SBD,F
Girls,44.23,10,Sarah Mitchell,Wylie East,43.86,92.99,43.09,106.59,242.67,Single-ply,SBD,F
Girls,44.23,11,Odalis Garduno,Victoria West,43.68,90.72,45.36,99.79,235.87,Single-ply,SBD,F
Girls,44.23,12,Mariah Savala,Terrell,43.86,90.72,36.29,108.86,235.87,Single-ply,SBD,F
Girls,44.23,13,Alex Alvarez #1,Corpus Christi Tuloso-Midway,44.18,79.38,40.82,97.52,217.72,Single-ply,SBD,F
Girls,44.23,14,Anamarie Fajardo,Kyle Lehman,44,86.18,29.48,86.18,201.85,Single-ply,SBD,F
Girls,44.23,15,Katelyn Keneson,Vidor,44.18,74.84,29.48,95.25,199.58,Single-ply,SBD,F
Girls,44.23,16,Samantha Rodriguez,Kyle Lehman,43.86,77.11,27.22,86.18,190.51,Single-ply,SBD,F
Girls,44.23,17,Morgan Gilbert,San Angelo Lake View,41.87,58.97,27.22,72.57,158.76,Single-ply,SBD,F
Girls,44.23,DQ,Criselda Serna,Freeport Brazosport,43.59,,,,,Single-ply,SBD,F
Girls,44.23,DQ,Alexa Magana,Seguin,43.09,86.18,38.56,,,Single-ply,SBD,F
Girls,47.85,1,Makaley Harper,Nederland,47.58,115.67,65.77,140.61,322.05,Single-ply,SBD,F
Girls,47.85,2,Jennifer Martinez #9,Fort Worth North Side,46.77,124.74,58.97,117.93,301.64,Single-ply,SBD,F
Girls,47.85,3,Tearose Hudson,Wylie,47.58,120.2,49.9,117.93,288.03,Single-ply,SBD,F
Girls,47.85,4,Darian Garza,Port Lavaca Calhoun,46.77,111.13,58.97,115.67,285.76,Single-ply,SBD,F
Girls,47.85,5,Marisol Munoz,San Antonio Southside,46.77,111.13,52.16,120.2,283.5,Single-ply,SBD,F
Girls,47.85,6,Kassidy Colianni,Port Lavaca Calhoun,46.99,106.59,54.43,120.2,281.23,Single-ply,SBD,F
Girls,47.85,7,Julissa Ortiz,Beeville Jones,46.77,108.86,45.36,113.4,267.62,Single-ply,SBD,F
Girls,47.85,8,Erin Mitchell,Lumberton,46.67,90.72,54.43,115.67,260.82,Single-ply,SBD,F
Girls,47.85,9,Evonny Mendoza,Elgin,46.18,108.86,47.63,102.06,258.55,Single-ply,SBD,F
Girls,47.85,10,Norma Nerio,Burleson Centennial,46.58,99.79,43.09,111.13,254.01,Single-ply,SBD,F
Girls,47.85,11,Kim Balderas,Plainview,47.76,92.99,47.63,108.86,249.48,Single-ply,SBD,F
Girls,47.85,12,Skye Johnson,Denison,47.26,86.18,43.09,111.13,240.4,Single-ply,SBD,F
Girls,47.85,13,Melissa Butler,Longview Pine Tree,47.76,83.91,47.63,97.52,229.06,Single-ply,SBD,F
Girls,47.85,14,Melissa Lucio,Plainview,47.76,95.25,36.29,92.99,224.53,Single-ply,SBD,F
Girls,47.85,NS,Frances Contreras,Corpus Christi Tuloso-Midway,,,,,,Single-ply,SBD,F
Girls,47.85,DQ,Brianna Hernandez,Floresville,47.67,,,,,Single-ply,SBD,F
Girls,47.85,DQ,Kristen Alaniz,Alice,47.26,108.86,,,,Single-ply,SBD,F
Girls,47.85,DQ,Breanna Ingram,Longview Pine Tree,47.36,,,,,Single-ply,SBD,F
Girls,47.85,DQ,Clara Lopez,San Antonio Kennedy,46.67,,,,,Single-ply,SBD,F
Girls,51.94,1,Andie Hernandez,Seguin,50.39,136.08,65.77,131.54,333.39,Single-ply,SBD,F
Girls,51.94,2,Alyssa Lefevre,Dripping Springs,51.39,117.93,79.38,136.08,333.39,Single-ply,SBD,F
Girls,51.94,3,Shelby Williams,Waller,50.67,108.86,52.16,161.03,322.05,Single-ply,SBD,F
Girls,51.94,4,Francely Lopez,Longview Pine Tree,51.89,115.67,61.23,145.15,322.05,Single-ply,SBD,F
Girls,51.94,5,Miranda Smith,Port Lavaca Calhoun,51.48,120.2,61.23,129.27,310.71,Single-ply,SBD,F
Girls,51.94,6,Taylor Tamez,Longview Pine Tree,48.76,122.47,61.23,124.74,308.44,Single-ply,SBD,F
Girls,51.94,7,Clarissa Molina,Pharr Valley View,51.07,124.74,61.23,117.93,303.91,Single-ply,SBD,F
Girls,51.94,8,Ciara Haddock,Burleson Centennial,50.98,127.01,52.16,122.47,301.64,Single-ply,SBD,F
Girls,51.94,9,Demi Lugo,Port Lavaca Calhoun,51.07,117.93,61.23,113.4,292.57,Single-ply,SBD,F
Girls,51.94,10,Katelyn Watts,Wylie,51.66,104.33,58.97,111.13,274.42,Single-ply,SBD,F
Girls,51.94,11,Aliyah Tyson,Wylie,51.26,104.33,52.16,115.67,272.16,Single-ply,SBD,F
Girls,51.94,12,Samantha Cabrera,Plainview,48.67,106.59,47.63,115.67,269.89,Single-ply,SBD,F
Girls,51.94,13,Amanda Perez,Laredo Nixon,51.66,83.91,52.16,113.4,249.48,Single-ply,SBD,F
Girls,51.94,14,Kaylynn Ortiz,Plainview,50.76,70.31,36.29,106.59,213.19,Single-ply,SBD,F
Girls,51.94,DQ,Brittany Ybarra,San Antonio Southside,50.67,,,,,Single-ply,SBD,F
Girls,51.94,DQ,Belen Morales,San Antonio Kennedy,51.89,,,,,Single-ply,SBD,F
Girls,51.94,DQ,Miranda Moya,Port Lavaca Calhoun,51.07,,,,,Single-ply,SBD,F
Girls,51.94,DQ,Amanda Nealy,Freeport Brazosport,51.57,,,,,Single-ply,SBD,F
Girls,56.02,1,Marissa Martinez,Port Lavaca Calhoun,55.16,147.42,79.38,147.42,374.21,Single-ply,SBD,F
Girls,56.02,2,Leslee Flores,San Antonio Kennedy,54.39,129.27,68.04,147.42,344.73,Single-ply,SBD,F
Girls,56.02,3,Brooke Downs,Port Lavaca Calhoun,54.88,136.08,72.57,131.54,340.19,Single-ply,SBD,F
Girls,56.02,4,Cecily Gonzalez,Alice,54.48,136.08,56.7,138.35,331.12,Single-ply,SBD,F
Girls,56.02,5,Courtney Price,Orange Little Cypress-Mauriceville,52.16,131.54,65.77,131.54,328.85,Single-ply,SBD,F
Girls,56.02,6,April Botello,San Antonio Southside,54.3,133.81,54.43,129.27,317.51,Single-ply,SBD,F
Girls,56.02,7,Mery Vargas,Kyle Lehman,54.88,127.01,54.43,136.08,317.51,Single-ply,SBD,F
Girls,56.02,8,Chasity Sims,Lindale,55.38,122.47,49.9,140.61,312.98,Single-ply,SBD,F
Girls,56.02,9,Lorissa Medina,Pharr Valley View,54.98,133.81,52.16,124.74,310.71,Single-ply,SBD,F
Girls,56.02,10,Ivy Walker,Mansfield Summit,54.39,113.4,56.7,136.08,306.17,Single-ply,SBD,F
Girls,56.02,11,Jessica Simmons,Lockhart,55.47,120.2,49.9,136.08,306.17,Single-ply,SBD,F
Girls,56.02,12,Alyza Lomas,Edcouch-Elsa,55.79,124.74,56.7,124.74,306.17,Single-ply,SBD,F
Girls,56.02,13,Talissa Soto,Corpus Christi Calallen,55.29,120.2,43.09,138.35,301.64,Single-ply,SBD,F
Girls,56.02,14,Abi Reilly,Wichita Falls Rider,55.29,120.2,58.97,120.2,299.37,Single-ply,SBD,F
Girls,56.02,15,Beatriz Mages,Little Elm,55.47,113.4,52.16,120.2,285.76,Single-ply,SBD,F
Girls,56.02,16,Mikayla Brinson,Lumberton,54.79,104.33,54.43,115.67,274.42,Single-ply,SBD,F
Girls,56.02,17,Katelan House,San Angelo Lake View,55.88,108.86,54.43,99.79,263.08,Single-ply,SBD,F
Girls,56.02,18,Hunter Hernandez #4,San Angelo Lake View,55.79,108.86,47.63,102.06,258.55,Single-ply,SBD,F
Girls,56.02,DQ,Nicole Borger,Lindale,54.66,,,,,Single-ply,SBD,F
Girls,56.02,DQ,Cassidy Estrada,Lewisville The Colony,55.79,,,,,Single-ply,SBD,F
Girls,56.02,DQ,Bianca Alvarez,Alice,55.07,,,,,Single-ply,SBD,F
Girls,60.1,1,Kristian Villegas,Port Lavaca Calhoun,59.47,163.29,90.72,163.29,417.3,Single-ply,SBD,F
Girls,60.1,2,Gisela Torres,Pharr Valley View,59.69,131.54,61.23,149.69,342.46,Single-ply,SBD,F
Girls,60.1,3,Breanna Heller,Victoria West,59.96,124.74,61.23,142.88,328.85,Single-ply,SBD,F
Girls,60.1,4,Abby McFall,Port Lavaca Calhoun,59.28,136.08,56.7,131.54,324.32,Single-ply,SBD,F
Girls,60.1,5,Abbey Evans,Waxahachie,59.87,111.13,68.04,140.61,319.78,Single-ply,SBD,F
Girls,60.1,6,Kali Palomarez,Kyle Lehman,58.79,122.47,49.9,140.61,312.98,Single-ply,SBD,F
Girls,60.1,7,Bailee Russell,Wichita Falls,59.87,129.27,43.09,140.61,312.98,Single-ply,SBD,F
Girls,60.1,8,Melanie Valdez,Wylie,59.56,129.27,54.43,120.2,303.91,Single-ply,SBD,F
Girls,60.1,9,Heidi Munoz,Kyle Lehman,59.19,108.86,54.43,136.08,299.37,Single-ply,SBD,F
Girls,60.1,10,Breanne Haesche,Conroe Caney Creek,59.19,120.2,45.36,127.01,292.57,Single-ply,SBD,F
Girls,60.1,11,Gabby Garza,Bay City,57.88,108.86,45.36,127.01,281.23,Single-ply,SBD,F
Girls,60.1,12,Karina Palacio,San Angelo Lake View,56.29,97.52,36.29,122.47,256.28,Single-ply,SBD,F
Girls,60.1,DQ,Malori Garcia,Plainview,59.69,,,,,Single-ply,SBD,F
Girls,60.1,DQ,Raven Reese,Longview Pine Tree,59.56,,,,,Single-ply,SBD,F
Girls,67.36,1,Bree Gossett,Cleburne,62.87,179.17,86.18,167.83,433.18,Single-ply,SBD,F
Girls,67.36,2,Mae Saguil,Frisco Heritage,64.18,174.63,81.65,163.29,419.57,Single-ply,SBD,F
Girls,67.36,3,Natalie Lyssy,Port Lavaca Calhoun,64.77,158.76,77.11,147.42,383.29,Single-ply,SBD,F
Girls,67.36,4,Clarissa Garcia,Corpus Christi Calallen,65.18,145.15,77.11,145.15,367.41,Single-ply,SBD,F
Girls,67.36,5,Perla Resendez,Port Lavaca Calhoun,62.6,161.03,61.23,142.88,365.14,Single-ply,SBD,F
Girls,67.36,6,Tiffany Lease,Corpus Christi Tuloso-Midway,66.18,156.49,54.43,140.61,351.53,Single-ply,SBD,F
Girls,67.36,7,Zoey Dierlam,Port Lavaca Calhoun,66.59,133.81,72.57,142.88,349.27,Single-ply,SBD,F
Girls,67.36,8,Norma Chapa,Donna North,64.77,138.35,70.31,138.35,347,Single-ply,SBD,F
Girls,67.36,9,Evelyn Vela,Gregory-Portland,65.59,140.61,70.31,136.08,347,Single-ply,SBD,F
Girls,67.36,10,Tieara Troy-Boyd,Seguin,66.59,133.81,68.04,140.61,342.46,Single-ply,SBD,F
Girls,67.36,11,Alyssa Montoya,Bay City,66.18,129.27,61.23,145.15,335.66,Single-ply,SBD,F
Girls,67.36,12,Olivia Rauch,Dripping Springs,65.09,140.61,58.97,133.81,333.39,Single-ply,SBD,F
Girls,67.36,13,Kathy Gaytan,Terrell,66.27,136.08,61.23,136.08,333.39,Single-ply,SBD,F
Girls,67.36,14,Briana Jones,Red Oak,65.27,133.81,49.9,145.15,328.85,Single-ply,SBD,F
Girls,67.36,15,Loreal Jones,Wylie,67.31,136.08,49.9,142.88,328.85,Single-ply,SBD,F
Girls,67.36,16,Symone Powell,Freeport Brazosport,65.77,111.13,54.43,140.61,306.17,Single-ply,SBD,F
Girls,67.36,17,Shyann Nevares,Plainview,65.86,111.13,52.16,92.99,256.28,Single-ply,SBD,F
Girls,67.36,18,Julisa Medrano,San Angelo Lake View,64.18,90.72,40.82,106.59,238.14,Single-ply,SBD,F
Girls,75.07,1,Katherine Otah,Wylie,72.39,158.76,83.91,197.31,439.98,Single-ply,SBD,F
Girls,75.07,2,Haley Goertz,Bastrop,70.9,151.95,68.04,174.63,394.63,Single-ply,SBD,F
Girls,75.07,3,Alyssa Herrington,New Caney Porter,72.08,158.76,77.11,151.95,387.82,Single-ply,SBD,F
Girls,75.07,4,Yoshyra Skinner,Waxahachie,74.16,147.42,72.57,156.49,376.48,Single-ply,SBD,F
Girls,75.07,5,Allison Macias,Alice,73.89,142.88,63.5,154.22,360.61,Single-ply,SBD,F
Girls,75.07,6,Daniela Gaytan,Fort Worth North Side,71.26,151.95,56.7,149.69,358.34,Single-ply,SBD,F
Girls,75.07,7,Kamilla Wanza,Huntsville,72.76,127.01,63.5,158.76,349.27,Single-ply,SBD,F
Girls,75.07,8,Breelyn Thames,Lumberton,70.4,131.54,68.04,140.61,340.19,Single-ply,SBD,F
Girls,75.07,9,Kelsie Dailey,Elgin,71.89,129.27,49.9,154.22,333.39,Single-ply,SBD,F
Girls,75.07,10,Kaley Carpenter,Corpus Christi Tuloso-Midway,73.57,151.95,68.04,102.06,322.05,Single-ply,SBD,F
Girls,75.07,11,Kristin Alvarado,San Angelo Lake View,68.99,92.99,45.36,131.54,269.89,Single-ply,SBD,F
Girls,75.07,12,Stephanie Hernandez,Plainview,72.67,90.72,56.7,99.79,247.21,Single-ply,SBD,F
Girls,75.07,DQ,Korina Gonzalez,Pharr Valley View,71.4,,,,,Single-ply,SBD,F
Girls,82.33,1,Elizabeth Neitch,Victoria West,81.37,161.03,92.99,158.76,412.77,Single-ply,SBD,F
Girls,82.33,2,Kristen Mosoba,Cleburne,80.29,163.29,88.45,156.49,408.23,Single-ply,SBD,F
Girls,82.33,3,Brittany Burton,Vidor,80.97,167.83,86.18,129.27,383.29,Single-ply,SBD,F
Girls,82.33,4,Alexandra Howard,Lockhart,80.38,149.69,58.97,170.1,378.75,Single-ply,SBD,F
Girls,82.33,5,Daisy Padilla,Bastrop,79.56,151.95,70.31,154.22,376.48,Single-ply,SBD,F
Girls,82.33,6,Aerial Zavala,Waxahachie,79.06,145.15,63.5,158.76,367.41,Single-ply,SBD,F
Girls,82.33,7,Mercedes Hernandez,Plainview,82.05,151.95,61.23,142.88,356.07,Single-ply,SBD,F
Girls,82.33,8,Ericah Fletcher,Burleson Centennial,81.28,138.35,52.16,156.49,347,Single-ply,SBD,F
Girls,82.33,9,Madalyn Whaley,Wylie,82.28,147.42,61.23,138.35,347,Single-ply,SBD,F
Girls,82.33,10,April Gutierrez,Beeville Jones,79.2,140.61,74.84,127.01,342.46,Single-ply,SBD,F
Girls,82.33,11,Mahogany Ellis,Beaumont Ozen,80.97,124.74,52.16,149.69,326.59,Single-ply,SBD,F
Girls,82.33,12,Jamie Herrell,Wichita Falls Rider,77.29,127.01,58.97,133.81,319.78,Single-ply,SBD,F
Girls,82.33,13,Diamond Marshall,Waxahachie,80.69,108.86,45.36,122.47,276.69,Single-ply,SBD,F
Girls,82.33,DQ,Amberly Asiatico,Plainview,80.47,,,,,Single-ply,SBD,F
Girls,90.04,1,Mikayla Kohn,Vidor,87.68,181.44,90.72,163.29,435.45,Single-ply,SBD,F
Girls,90.04,2,Kylea Nix,Gregory-Portland,84.87,170.1,70.31,170.1,410.5,Single-ply,SBD,F
Girls,90.04,3,Alyssa Ybarra,Edcouch-Elsa,88.27,149.69,70.31,165.56,385.55,Single-ply,SBD,F
Girls,90.04,4,Christina Ramirez,Kyle Lehman,88.5,163.29,63.5,154.22,381.02,Single-ply,SBD,F
Girls,90.04,5,Kimberlynn Patzold,New Caney Porter,84.19,147.42,77.11,145.15,369.68,Single-ply,SBD,F
Girls,90.04,6,Courtney Duncan,Carrollton Creekview,88.09,142.88,61.23,158.76,362.87,Single-ply,SBD,F
Girls,90.04,7,Ashley Blandford,San Angelo Lake View,85.18,138.35,74.84,147.42,360.61,Single-ply,SBD,F
Girls,90.04,8,Lorraine Negrini,Conroe Caney Creek,88.59,163.29,77.11,111.13,351.53,Single-ply,SBD,F
Girls,90.04,9,Alexis Johnson,Forney,88.59,136.08,68.04,142.88,347,Single-ply,SBD,F
Girls,90.04,10,Shantea Flow,Hutto,87.77,115.67,56.7,145.15,317.51,Single-ply,SBD,F
Girls,90.04,11,Karizma Alexander,Waxahachie,86.36,113.4,56.7,138.35,308.44,Single-ply,SBD,F
Girls,90.04,NS,Alexis Turner,Mansfield Summit,,,,,,Single-ply,SBD,F
Girls,90.04,DQ,Thyme Martinez,Plainview,83.96,,,,,Single-ply,SBD,F
Girls,90.04,DQ,Nadia Gomez,Uvalde,88,165.56,,,,Single-ply,SBD,F
Girls,100.02,1,Natalie Guerra,Kyle Lehman,99.16,199.58,108.86,165.56,474,Single-ply,SBD,F
Girls,100.02,2,Ashleigh Burgess,New Caney,96.07,158.76,88.45,163.29,410.5,Single-ply,SBD,F
Girls,100.02,3,Ashley Olivarez,Beeville Jones,99.47,165.56,97.52,142.88,405.97,Single-ply,SBD,F
Girls,100.02,4,Valerie Moncivais,Laredo Cigarroa,95.07,181.44,65.77,145.15,392.36,Single-ply,SBD,F
Girls,100.02,5,Faith Francis,Forney,93.58,158.76,77.11,127.01,362.87,Single-ply,SBD,F
Girls,100.02,6,Julia Green,San Angelo Lake View,94.08,142.88,74.84,142.88,360.61,Single-ply,SBD,F
Girls,100.02,7,Summer Sanders,Forney,95.89,145.15,79.38,131.54,356.07,Single-ply,SBD,F
Girls,100.02,8,Jasmine Perry,Waller,91.17,131.54,52.16,147.42,331.12,Single-ply,SBD,F
Girls,100.02,9,Leticia Lopez,Waco University,95.3,136.08,54.43,136.08,326.59,Single-ply,SBD,F
Girls,100.02,DQ,Katrena Njiki,Wylie,99.16,,,,,Single-ply,SBD,F
Girls,100.02,DQ,Leslie Quijada,Royse City,96.57,,,,,Single-ply,SBD,F
Girls,100.02,DQ,Jasmine Ayena,Mansfield Summit,92.9,142.88,72.57,,,Single-ply,SBD,F
Girls,100.02,DQ,Carissa Castillo,Plainview,99.47,,,,,Single-ply,SBD,F
Girls,100.02+,1,Lexi Harris,Cleburne,144.97,199.58,117.93,201.85,519.36,Single-ply,SBD,F
Girls,100.02+,2,Cheyenne Kennedy,Livingston,141.07,208.65,133.81,174.63,517.1,Single-ply,SBD,F
Girls,100.02+,3,McKayla Durham,North Forney,145.78,204.12,95.25,147.42,446.79,Single-ply,SBD,F
Girls,100.02+,4,Jeanette Olachia,Port Lavaca Calhoun,107.86,172.37,74.84,165.56,412.77,Single-ply,SBD,F
Girls,100.02+,5,Nicki Ciesko,Montgomery,105.69,183.7,74.84,149.69,408.23,Single-ply,SBD,F
Girls,100.02+,6,Nikki Chavez,Plainview,117.16,131.54,79.38,176.9,387.82,Single-ply,SBD,F
Girls,100.02+,7,Hailey Shogart,Waxahachie,108.36,154.22,79.38,140.61,374.21,Single-ply,SBD,F
Girls,100.02+,8,Karina Davalos,Laredo Nixon,109.09,145.15,77.11,145.15,367.41,Single-ply,SBD,F
Girls,100.02+,9,Sabrina Reyes,Fort Worth North Side,112.99,149.69,58.97,149.69,358.34,Single-ply,SBD,F
Girls,100.02+,10,Allesa Blue,San Angelo Lake View,101.47,124.74,58.97,145.15,328.85,Single-ply,SBD,F
Girls,100.02+,11,Roz Sheppard,Dripping Springs,112.58,127.01,65.77,113.4,306.17,Single-ply,SBD,F
Girls,100.02+,NS,Serena Saldivar,Wylie,,,,,,Single-ply,SBD,F
Girls,100.02+,DQ,Bayleigh Smith,Lumberton,117.66,,,,,Single-ply,SBD,F
