Division,WeightClassKg,Place,Name,Team,BodyweightKg,Best3SquatKg,Best3BenchKg,Best3DeadliftKg,TotalKg,Equipment,Event,Sex
Boys,51.71,1,Logan Shaw,Buffalo,51.62,115.67,61.23,120.2,297.1,Single-ply,SBD,M
Boys,51.71,2,Roberto Ortiz,Venus,47.72,102.06,63.5,106.59,272.16,Single-ply,SBD,M
Boys,51.71,3,Chase Paschal,Blooming Grove,50.17,104.33,54.43,111.13,269.89,Single-ply,SBD,M
Boys,51.71,4,Jackson Usery,Blooming Grove,51.71,92.99,43.09,102.06,238.14,Single-ply,SBD,M
Boys,51.71,DQ,Jacob Jankowski,Dawson,48.99,70.31,,,,Single-ply,SBD,M
Boys,55.79,1,Eduardo Perez,Venus,55.43,170.1,86.18,170.1,426.38,Single-ply,SBD,M
Boys,55.79,2,Noah Vasquez,Palmer,54.88,156.49,97.52,151.95,405.97,Single-ply,SBD,M
Boys,55.79,3,Joe Velasquez,Blooming Grove,53.34,122.47,65.77,142.88,331.12,Single-ply,SBD,M
Boys,55.79,4,Jose Gonzalez #12,Hillsboro,54.61,106.59,70.31,113.4,290.3,Single-ply,SBD,M
Boys,55.79,5,Justin Johnson,Hubbard,53.34,95.25,70.31,115.67,281.23,Single-ply,SBD,M
Boys,55.79,6,Daniel Gutierrez,Palmer,53.71,90.72,72.57,113.4,276.69,Single-ply,SBD,M
Boys,55.79,7,Lucas Walker,Dawson,54.79,90.72,54.43,120.2,265.35,Single-ply,SBD,M
Boys,55.79,8,Andrew Silva,Rice,54.34,83.91,47.63,115.67,247.21,Single-ply,SBD,M
Boys,55.79,9,Macon Hurford,Blooming Grove,53.07,70.31,45.36,77.11,192.78,Single-ply,SBD,M
Boys,59.87,1,Alex Schaefer,Venus,59.78,181.44,97.52,185.97,464.93,Single-ply,SBD,M
Boys,59.87,2,Sergio Watkins,Blooming Grove,59.06,181.44,95.25,179.17,455.86,Single-ply,SBD,M
Boys,59.87,3,Haydon Isbell,Teague,59.78,140.61,79.38,149.69,369.68,Single-ply,SBD,M
Boys,59.87,4,Jaydon Clemons,Italy,57.88,136.08,97.52,129.27,362.87,Single-ply,SBD,M
Boys,59.87,5,Gabriel Leal,Venus,56.61,113.4,79.38,124.74,317.51,Single-ply,SBD,M
Boys,59.87,6,Brandon Renteria,Buffalo,56.43,106.59,61.23,124.74,292.57,Single-ply,SBD,M
Boys,59.87,7,Ashton Buxkemper,Hillsboro,59.42,102.06,68.04,111.13,281.23,Single-ply,SBD,M
Boys,59.87,8,Nick Lopez,Palmer,56.97,106.59,56.7,108.86,272.16,Single-ply,SBD,M
Boys,59.87,9,Nathan Jones #4,Corsicana Mildred,56.7,90.72,54.43,117.93,263.08,Single-ply,SBD,M
Boys,59.87,DQ,Riley Baker,Wortham,56.7,,,,,Single-ply,SBD,M
Boys,67.13,1,Israel Castillo,Venus,67.13,208.65,99.79,204.12,512.56,Single-ply,SBD,M
Boys,67.13,2,Ricardo Alvarez,Alvarado,66.04,154.22,90.72,183.7,428.64,Single-ply,SBD,M
Boys,67.13,3,Corbin Donoho,Corsicana Mildred,62.32,158.76,86.18,161.03,405.97,Single-ply,SBD,M
Boys,67.13,4,Zackary Sanders #2,Red Oak,66.04,129.27,83.91,158.76,371.95,Single-ply,SBD,M
Boys,67.13,5,Adam Elkins,Dawson,62.41,149.69,74.84,145.15,369.68,Single-ply,SBD,M
Boys,67.13,6,Tommy Bernal,Rice,65.68,124.74,74.84,136.08,335.66,Single-ply,SBD,M
Boys,67.13,7,Jayson Oliver,Hubbard,65.59,124.74,74.84,122.47,322.05,Single-ply,SBD,M
Boys,74.84,1,David Berrera,Venus,69.58,199.58,99.79,176.9,476.27,Single-ply,SBD,M
Boys,74.84,2,Zeke Gonzalez,Hillsboro,72.12,161.03,106.59,176.9,444.52,Single-ply,SBD,M
Boys,74.84,3,John Vaughn,Buffalo,72.21,167.83,106.59,170.1,444.52,Single-ply,SBD,M
Boys,74.84,4,Dakota Lewis,Blooming Grove,70.13,151.95,102.06,174.63,428.64,Single-ply,SBD,M
Boys,74.84,5,Issac Canalas,Rice,73.66,158.76,95.25,174.63,428.64,Single-ply,SBD,M
Boys,74.84,6,Trey Atkeinson,Corsicana Mildred,68.04,142.88,83.91,151.95,378.75,Single-ply,SBD,M
Boys,74.84,7,Austin Thompson,Alvarado,74.66,129.27,95.25,142.88,367.41,Single-ply,SBD,M
Boys,74.84,8,Anthony Bonilla,Rice,74.84,136.08,74.84,151.95,362.87,Single-ply,SBD,M
Boys,74.84,9,Kevin Cooper,Red Oak,73.21,142.88,83.91,133.81,360.61,Single-ply,SBD,M
Boys,74.84,10,Brandon Coker,Wortham,74.48,129.27,70.31,142.88,342.46,Single-ply,SBD,M
Boys,74.84,11,Bryson Clark,Rice,73.39,92.99,74.84,129.27,297.1,Single-ply,SBD,M
Boys,82.1,1,Azaya Patrick,Teague,82.1,206.38,124.74,219.99,551.11,Single-ply,SBD,M
Boys,82.1,2,Canon Arnold,Alvarado,81.74,192.78,131.54,190.51,514.83,Single-ply,SBD,M
Boys,82.1,3,Kolby Pederson,Hubbard,75.02,190.51,127.01,190.51,508.02,Single-ply,SBD,M
Boys,82.1,4,Dee Johnson,Red Oak,78.83,174.63,117.93,183.7,476.27,Single-ply,SBD,M
Boys,82.1,5,Neiman Turner,Hillsboro,79.92,163.29,106.59,199.58,469.47,Single-ply,SBD,M
Boys,82.1,6,Tyler Stroud,Maypearl,80.83,161.03,97.52,181.44,439.98,Single-ply,SBD,M
Boys,82.1,7,Gino Lara,Venus,80.74,181.44,88.45,167.83,437.72,Single-ply,SBD,M
Boys,82.1,8,Michael Flores,Hillsboro,81.19,158.76,106.59,170.1,435.45,Single-ply,SBD,M
Boys,82.1,9,Carson Rucks,Blooming Grove,81.28,142.88,106.59,156.49,405.97,Single-ply,SBD,M
Boys,82.1,10,Jordan Mata,Hillsboro,78.38,142.88,102.06,151.95,396.89,Single-ply,SBD,M
Boys,82.1,11,Josh Smith #28,Corsicana Mildred,81.19,142.88,90.72,154.22,387.82,Single-ply,SBD,M
Boys,82.1,12,Rj Courmier,Hubbard,77.66,133.81,92.99,124.74,351.53,Single-ply,SBD,M
Boys,82.1,13,Dallas McGee,Wortham,78.29,90.72,52.16,113.4,256.28,Single-ply,SBD,M
Boys,82.1,DQ,Jordan DeShaume,Dawson,77.47,90.72,,,,Single-ply,SBD,M
Boys,89.81,1,Elder Arellano,Rice,85.73,183.7,151.95,231.33,566.99,Single-ply,SBD,M
Boys,89.81,2,Anthony Perales,Red Oak,89.36,213.19,124.74,206.38,544.31,Single-ply,SBD,M
Boys,89.81,3,Dylan Martin,Wortham,86.18,217.72,102.06,222.26,542.04,Single-ply,SBD,M
Boys,89.81,4,Brian Black,Palmer,88.81,204.12,136.08,201.85,542.04,Single-ply,SBD,M
Boys,89.81,5,Elias Reyes,Alvarado,86.36,190.51,111.13,190.51,492.15,Single-ply,SBD,M
Boys,89.81,6,Aaron Watson,Red Oak,83.64,165.56,111.13,204.12,480.81,Single-ply,SBD,M
Boys,89.81,7,Ameer Muhammad,Red Oak,88.54,174.63,102.06,181.44,458.13,Single-ply,SBD,M
Boys,89.81,8,Derek Ford,Alvarado,89.81,174.63,102.06,181.44,458.13,Single-ply,SBD,M
Boys,89.81,9,Dustin Greeson,Maypearl,83.37,145.15,90.72,142.88,378.75,Single-ply,SBD,M
Boys,99.79,1,Christopher Flores,Hillsboro,98.16,240.4,185.97,213.19,639.57,Single-ply,SBD,M
Boys,99.79,2,Jonas Rickman,Palmer,98.79,204.12,158.76,226.8,589.67,Single-ply,SBD,M
Boys,99.79,3,Justin Horn #1,Corsicana Mildred,99.79,226.8,136.08,204.12,566.99,Single-ply,SBD,M
Boys,99.79,4,AJ Harris,Rice,91.81,210.92,122.47,215.46,548.85,Single-ply,SBD,M
Boys,99.79,5,Cade Lewis,Venus,92.99,215.46,120.2,210.92,546.58,Single-ply,SBD,M
Boys,99.79,6,Joctan Librado,Hillsboro,90.9,208.65,122.47,165.56,496.68,Single-ply,SBD,M
Boys,99.79,7,Preston Young,Red Oak,97.43,192.78,106.59,197.31,496.68,Single-ply,SBD,M
Boys,99.79,8,Austin Scott,Rice,98.34,174.63,124.74,197.31,496.68,Single-ply,SBD,M
Boys,99.79,9,Zane Guerra,Dawson,99.06,165.56,120.2,199.58,485.34,Single-ply,SBD,M
Boys,99.79,10,Clayton Munster,Wortham,95.25,158.76,90.72,161.03,410.5,Single-ply,SBD,M
Boys,99.79,DQ,Jaden Kistler,Corsicana Mildred,90.9,142.88,,,,Single-ply,SBD,M
Boys,109.77,1,Saul Diaz,Rice,104.05,183.7,129.27,204.12,517.1,Single-ply,SBD,M
Boys,109.77,2,Shamar Richardson,Dawson,107.23,181.44,124.74,210.92,517.1,Single-ply,SBD,M
Boys,109.77,3,Asa Henson,Buffalo,103.87,165.56,88.45,158.76,412.77,Single-ply,SBD,M
Boys,109.77,4,Cesar Reyes,Alvarado,108.68,136.08,99.79,145.15,381.02,Single-ply,SBD,M
Boys,109.77,5,Zion Barnes,Hubbard,106.23,129.27,102.06,142.88,374.21,Single-ply,SBD,M
Boys,109.77,6,Justin Winchester,Dawson,101.7,131.54,83.91,156.49,371.95,Single-ply,SBD,M
Boys,109.77,7,Terry Reel,Teague,106.87,140.61,74.84,156.49,371.95,Single-ply,SBD,M
Boys,109.77,DQ,Zyuan Jones,Red Oak,106.59,,,,,Single-ply,SBD,M
Boys,124.74,1,Logan Salisbury,Wortham,110.13,192.78,142.88,208.65,544.31,Single-ply,SBD,M
Boys,124.74,2,Terry Dixon,Italy,122.47,188.24,140.61,188.24,517.1,Single-ply,SBD,M
Boys,124.74,3,Ben Lancone,Palmer,111.77,181.44,117.93,201.85,501.22,Single-ply,SBD,M
Boys,124.74,4,Kaleb Fergeson,Blooming Grove,124.47,158.76,122.47,195.04,476.27,Single-ply,SBD,M
Boys,124.74,5,Hugo Heredia,Rice,124.65,204.12,124.74,136.08,464.93,Single-ply,SBD,M
Boys,124.74,6,Seth Eastwood,Maypearl,123.2,181.44,113.4,165.56,460.4,Single-ply,SBD,M
Boys,124.74,7,Garrett Poehls,Palmer,110.77,170.1,102.06,147.42,419.57,Single-ply,SBD,M
Boys,124.74,8,Tanner Drain,Blooming Grove,118.3,142.88,111.13,165.56,419.57,Single-ply,SBD,M
Boys,124.74,9,Jahaziel Compean,Hillsboro,124.19,158.76,102.06,154.22,415.04,Single-ply,SBD,M
Boys,124.74,10,Wright Quinton,Maypearl,122.29,151.95,97.52,151.95,401.43,Single-ply,SBD,M
Boys,124.74,11,Ray Reimim,Corsicana Mildred,119.84,154.22,88.45,145.15,387.82,Single-ply,SBD,M
Boys,124.74,12,Kain Cooper,Red Oak,115.12,142.88,83.91,142.88,369.68,Single-ply,SBD,M
Boys,124.74,13,Landon Routh,Maypearl,115.12,147.42,74.84,136.08,358.34,Single-ply,SBD,M
Boys,124.74,DQ,Bear Williams,Corsicana Mildred,111.31,,,,,Single-ply,SBD,M
Boys,124.74,DQ,Travis Lemons,Teague,115.12,204.12,,,,Single-ply,SBD,M
Boys,124.74+,1,Chris Kortes,Trinidad,165.11,256.28,120.2,219.99,596.47,Single-ply,SBD,M
Boys,124.74+,2,Caleb Hernandez,Palmer,129,181.44,142.88,192.78,517.1,Single-ply,SBD,M
Boys,124.74+,3,Payton McClain,Red Oak,139.53,176.9,136.08,183.7,496.68,Single-ply,SBD,M
Boys,124.74+,4,Ethan Patterson,Buffalo,125.01,117.93,124.74,154.22,396.89,Single-ply,SBD,M
Boys,124.74+,DQ,Josh Encinia,Dawson,136.26,176.9,,,,Single-ply,SBD,M
