Place,Name,CyrillicName,BirthYear,BodyweightKg,Bench1Kg,Bench2Kg,Bench3Kg,Best3BenchKg,WeightClassKg,Event,Equipment,Division,Sex,TotalKg,BirthDate
1,Konstantin Bareev,Константин Бареев,1969,126.15,190,-200,200,200,120+,B,Raw,Masters 2,M,200,
1,Oleg Narodovyy,Олег Народовый,1957,108.75,155,162.5,167.5,167.5,120,B,Raw,Masters 3,M,167.5,
1,Mikhail Kryukov,Михаил Крюков,1972,72.6,-145,145,-155,145,74,B,Single-ply,Masters 1,M,145,
