Place,Name,Sex,Event,Division,WeightClassKg,Equipment,BirthYear,State,BodyweightKg,Squat1Kg,Squat2Kg,Squat3Kg,Best3SquatKg,Bench1Kg,Bench2Kg,Bench3Kg,Best3BenchKg,Deadlift1Kg,Deadlift2Kg,Deadlift3Kg,Best3DeadliftKg,TotalKg,Age,BirthDate
1,Robyn Mohr,F,B,FR-M2,57,Raw,1966,FL,55.26,,,,,50,55,57.5,57.5,,,,,57.5,,
1,Susan Tischler,F,B,FR-M3,63,Raw,1953,FL,62.3,,,,,57.5,-65,-65,57.5,,,,,57.5,,
1,Angela Quiroga,F,B,FR-O,47,Raw,1993,FL,46.24,,,,,32.5,37.5,-40,37.5,,,,,37.5,,
1,Jon Kennedy,M,B,M-M1,120+,Single-ply,1973,FL,163.32,,,,,142.5,185,192.5,192.5,,,,,192.5,,
1,Mosbeh Elkenany,M,B,M-M2,83,Single-ply,1969,FL,82.99,,,,,225,235,-240,235,,,,,235,,
1,Omar Sherman,M,B,MR-M1,74,Raw,1979,FL,73.89,,,,,160,167.5,172.5,172.5,,,,,172.5,,
1,Reginald Miles,M,B,MR-M1,83,Raw,1972,FL,82.98,,,,,195,-200,200,200,,,,,200,,
1,Darian Bryant,M,B,MR-M2,93,Raw,1966,FL,85.32,,,,,167.5,175,180,180,,,,,180,,
1,John March,M,B,MR-M3,74,Raw,1957,FL,71.77,,,,,105,110,-112.5,110,,,,,110,,
1,William Sander,M,B,MR-M4,83,Raw,1941,FL,81.72,,,,,95,97.5,-100,97.5,,,,,97.5,,
1,Omar Sherman,M,B,MR-O,74,Raw,1979,FL,73.89,,,,,160,167.5,172.5,172.5,,,,,172.5,,
2,Russell Montero,M,B,MR-O,74,Raw,1991,FL,68.97,,,,,127.5,137.5,142.5,142.5,,,,,142.5,,
3,Imani Martinez,M,B,MR-O,74,Raw,1993,FL,73.5,,,,,107.5,117.5,-120,117.5,,,,,117.5,,
4,John March,M,B,MR-O,74,Raw,1957,FL,71.77,,,,,105,110,-112.5,110,,,,,110,,
1,Reginald Miles,M,B,MR-O,83,Raw,1972,FL,82.98,,,,,195,-200,200,200,,,,,200,,
2,Jonathan Losa,M,B,MR-O,83,Raw,1982,FL,82.47,,,,,180,190,195,195,,,,,195,,
3,Del Dennis,M,B,MR-O,83,Raw,1983,FL,82.82,,,,,162.5,172.5,-182.5,172.5,,,,,172.5,,
1,Elias Ortega,M,B,MR-O,120+,Raw,1993,FL,136.55,,,,,112.5,120,127.5,127.5,,,,,127.5,,
1,Andrew Cohen,M,B,MR-SO,105,Raw,1980,FL,99.04,,,,,80,87.5,-92.5,87.5,,,,,87.5,,
1,Robyn Mohr,F,D,FR-M2,57,Raw,1966,FL,55.26,,,,,,,,,107.5,117.5,-122.5,117.5,117.5,,
1,Michele Cannella,F,D,FR-M3,57,Raw,1959,FL,56.25,,,,,,,,,87.5,97.5,105,105,105,,
1,Justin Dixon,M,D,MR-C,66,Raw,1997,FL,65.34,,,,,,,,,172.5,190,-200,190,190,,
1,Jovan Selvon,M,D,MR-M1,105,Raw,1974,FL,104.94,,,,,,,,,267.5,277.5,-282.5,277.5,277.5,,
1,Bill Shuping,M,D,MR-M3,83,Raw,1958,FL,79.56,,,,,,,,,152.5,162.5,182.5,182.5,182.5,,
1,Justin Dixon,M,D,MR-O,66,Raw,1997,FL,65.34,,,,,,,,,172.5,190,-200,190,190,,
1,Gian-Pierre Lopez,M,D,MR-O,83,Raw,1993,FL,82.9,,,,,,,,,280,295,-307.5,295,295,,
1,Jovan Selvon,M,D,MR-PF,105,Raw,1974,FL,104.94,,,,,,,,,267.5,277.5,-282.5,277.5,277.5,,
1,Taylor Young #2,F,SBD,FR-C,84,Raw,1999,FL,79.7,92.5,97.5,102.5,102.5,-57.5,57.5,65,65,112.5,127.5,132.5,132.5,300,,
1,Ana Soneira-Saiz,F,SBD,FR-Jr,52,Raw,1995,FL,49.78,-62.5,67.5,72.5,72.5,37.5,42.5,-45,42.5,92.5,100,105,105,220,,
1,Kelly Flanagan,F,SBD,FR-Jr,57,Raw,1995,FL,52.5,95,100,107.5,107.5,42.5,45,50,50,105,115,-122.5,115,272.5,,
1,Liz Lopez,F,SBD,FR-Jr,63,Raw,1995,FL,62.39,102.5,107.5,-110,107.5,42.5,47.5,-52.5,47.5,110,115,117.5,117.5,272.5,,
2,Rebecca Reyna,F,SBD,FR-Jr,63,Raw,1997,FL,59.64,67.5,75,-77.5,75,45,-47.5,47.5,47.5,92.5,-102.5,-102.5,92.5,215,,
1,Jaritza Crespo,F,SBD,FR-Jr,84,Raw,1998,FL,77.01,107.5,115,120,120,-52.5,52.5,60,60,117.5,122.5,130,130,310,,
1,Shannon Mosca,F,SBD,FR-M1,63,Raw,1977,FL,61.81,110,117.5,125,125,72.5,77.5,-80,77.5,147.5,157.5,-162.5,157.5,360,,
1,Robyn Mohr,F,SBD,FR-M2,57,Raw,1966,FL,55.26,87.5,97.5,100,100,50,55,57.5,57.5,107.5,117.5,-122.5,117.5,275,,
2,Kimberly Creighton,F,SBD,FR-M2,57,Raw,1964,FL,55.01,67.5,72.5,77.5,77.5,42.5,45,47.5,47.5,92.5,97.5,107.5,107.5,232.5,,
1,JoAnne Friedman,F,SBD,FR-M2,63,Raw,1965,FL,61.99,87.5,97.5,-100,97.5,45,50,55,55,107.5,117.5,-140,117.5,270,,
1,Lynette Grondahl,F,SBD,FR-M2,72,Raw,1969,FL,71.71,90,100,107.5,107.5,57.5,62.5,65,65,122.5,137.5,-145,137.5,310,,
1,Karen Monos,F,SBD,FR-M2,84,Raw,1968,FL,81.77,-107.5,107.5,115,115,-52.5,57.5,60,60,-117.5,122.5,130,130,305,,
1,Michele Cannella,F,SBD,FR-M3,57,Raw,1959,FL,56.25,72.5,82.5,-87.5,82.5,42.5,45,-52.5,45,87.5,97.5,105,105,232.5,,
1,Ann Whitmarsh,F,SBD,FR-M3,63,Raw,1953,FL,62.12,70,75,77.5,77.5,35,-40,-40,35,87.5,95,100,100,212.5,,
1,Grace Russo,F,SBD,FR-O,52,Raw,1987,FL,51.59,110,115,-120,115,52.5,55,57.5,57.5,127.5,135,142.5,142.5,315,,
2,Claudia Couto Morreo,F,SBD,FR-O,52,Raw,1981,FL,51.65,72.5,80,85,85,42.5,47.5,-52.5,47.5,95,102.5,-107.5,102.5,235,,
1,Lauren Quinones,F,SBD,FR-O,57,Raw,1991,FL,55.93,-135,135,142.5,142.5,65,70,72.5,72.5,152.5,160,167.5,167.5,382.5,,
2,Mariya Yermak,F,SBD,FR-O,57,Raw,1989,FL,55.65,135,140,-142.5,140,60,65,67.5,67.5,130,140,142.5,142.5,350,,
3,Dorothy Chan,F,SBD,FR-O,57,Raw,1999,FL,55.83,90,95,100,100,55,-60,60,60,120,130,137.5,137.5,297.5,,
4,Elizabeth Oleski,F,SBD,FR-O,57,Raw,1987,FL,54.09,97.5,102.5,-107.5,102.5,-52.5,52.5,55,55,97.5,105,107.5,107.5,265,,
5,Tera Whaley,F,SBD,FR-O,57,Raw,1984,FL,55.97,-75,75,-77.5,75,57.5,62.5,-65,62.5,107.5,117.5,122.5,122.5,260,,
1,Shannon Mosca,F,SBD,FR-O,63,Raw,1977,FL,61.81,110,117.5,125,125,72.5,77.5,-80,77.5,147.5,157.5,-162.5,157.5,360,,
2,Genesis Brown Schemidt,F,SBD,FR-O,63,Raw,1992,FL,59.91,85,95,-97.5,95,57.5,65,-70,65,107.5,-117.5,117.5,117.5,277.5,,
3,Heidy Lopez,F,SBD,FR-O,63,Raw,1994,FL,60.81,-77.5,85,92.5,92.5,40,45,-50,45,87.5,95,100,100,237.5,,
1,Anna Homak,F,SBD,FR-O,72,Raw,1983,FL,64.64,150,157.5,-160,157.5,77.5,85,-90,85,155,-160,-160,155,397.5,,
2,Holly Baxter,F,SBD,FR-O,72,Raw,1989,FL,68.62,120,-127.5,-127.5,120,67.5,70,72.5,72.5,142.5,147.5,152.5,152.5,345,,
3,Harlee Bradford,F,SBD,FR-O,72,Raw,1995,FL,69.49,92.5,102.5,110,110,70,77.5,85,85,127.5,142.5,150,150,345,,
4,Faith Clough,F,SBD,FR-O,72,Raw,1982,FL,63.24,85,-92.5,100,100,-52.5,55,-60,55,92.5,95,-105,95,250,,
5,Cristee Monahan,F,SBD,FR-O,72,Raw,1982,FL,66.66,67.5,70,-72.5,70,52.5,55,-57.5,55,92.5,95,97.5,97.5,222.5,,
DQ,Amanda Smith,F,SBD,FR-O,72,Raw,1990,FL,68.37,-90,-92.5,-100,,57.5,60,-65,60,102.5,107.5,112.5,112.5,,,
1,Megan Minter,F,SBD,FR-O,84,Raw,1990,FL,83.88,150,-160,160,160,100,112.5,-115,112.5,160,170,177.5,177.5,450,,
2,Jenna Fox,F,SBD,FR-O,84,Raw,1991,MI,83.3,142.5,150,155,155,72.5,75,80,80,160,170,182.5,182.5,417.5,,
3,Erika Lamb,F,SBD,FR-O,84,Raw,1992,FL,81.65,130,137.5,142.5,142.5,-92.5,92.5,97.5,97.5,150,160,165,165,405,,
4,Olivia Hicks,F,SBD,FR-O,84,Raw,1993,FL,83.95,145,152.5,-160,152.5,60,65,-67.5,65,157.5,-170,-170,157.5,375,,
5,Kelly Hafkey,F,SBD,FR-O,84,Raw,1981,FL,82.59,-125,125,135,135,75,77.5,-80,77.5,140,147.5,152.5,152.5,365,,
6,Melissa Nadeau,F,SBD,FR-O,84,Raw,1980,FL,81.45,107.5,110,-115,110,62.5,-70,-70,62.5,167.5,-177.5,,167.5,340,,
7,Rachel Sachs,F,SBD,FR-O,84,Raw,1988,FL,72.08,92.5,-107.5,-110,92.5,62.5,67.5,-75,67.5,115,125,142.5,142.5,302.5,,
8,Katarina Roman,F,SBD,FR-O,84,Raw,1988,FL,73.29,-85,85,87.5,87.5,57.5,62.5,65,65,107.5,120,130,130,282.5,,
1,Floribeth Morales,F,SBD,FR-O,84+,Raw,1993,FL,117.17,155,165,170,170,85,90,92.5,92.5,155,165,167.5,167.5,430,,
2,Leslie Abbott,F,SBD,FR-O,84+,Raw,1988,FL,98.88,125,130,137.5,137.5,75,77.5,82.5,82.5,165,175,-182.5,175,395,,
1,Lauren Quinones,F,SBD,FR-PF,57,Raw,1991,FL,55.93,-135,135,142.5,142.5,65,70,72.5,72.5,152.5,160,167.5,167.5,382.5,,
1,Amanda Marx,F,SBD,FR-T3,57,Raw,1999,FL,54.78,97.5,-107.5,-115,97.5,-45,55,-62.5,55,95,102.5,107.5,107.5,260,,
1,Yulissa Davis,F,SBD,FR-T3,72,Raw,2001,FL,71.51,97.5,105,-110,105,-62.5,65,-67.5,65,102.5,110,-115,110,280,,
DQ,Jon Kennedy,M,SBD,M-M1,120+,Single-ply,1973,FL,163.32,-192.5,-255,-255,,142.5,185,192.5,192.5,142.5,182.5,-227.5,182.5,,,
1,Justin Dixon,M,SBD,MR-C,66,Raw,1997,FL,65.34,132.5,142.5,150,150,92.5,100,-102.5,100,172.5,190,-200,190,440,,
2,Daniel Schell,M,SBD,MR-C,66,Raw,1999,FL,61.23,90,95,97.5,97.5,62.5,67.5,72.5,72.5,95,105,110,110,280,,
1,Jacob Brody-Ogborn,M,SBD,MR-C,83,Raw,1999,FL,79.84,117.5,125,132.5,132.5,87.5,92.5,97.5,97.5,165,180,187.5,187.5,417.5,,
2,Gregory Durant,M,SBD,MR-C,83,Raw,1998,FL,81.8,120,125,127.5,127.5,70,80,-85,80,145,152.5,160,160,367.5,,
1,Justin Dixon,M,SBD,MR-Jr,66,Raw,1997,FL,65.34,132.5,142.5,150,150,92.5,100,-102.5,100,172.5,190,-200,190,440,,
1,Richard Llanes,M,SBD,MR-Jr,74,Raw,1997,FL,73.31,210,215,220,220,135,142.5,147.5,147.5,227.5,-232.5,-232.5,227.5,595,,
2,Thomas John,M,SBD,MR-Jr,74,Raw,1998,FL,74,-165,175,182.5,182.5,132.5,140,145,145,215,235,240,240,567.5,,
3,Edgard Paguaga,M,SBD,MR-Jr,74,Raw,1998,FL,72.59,165,172.5,182.5,182.5,117.5,125,130,130,-185,185,195,195,507.5,,
1,Joshua Marte,M,SBD,MR-Jr,83,Raw,1995,FL,82.22,182.5,195,210,210,135,-145,147.5,147.5,247.5,267.5,280,280,637.5,,
2,Syed Hussain,M,SBD,MR-Jr,83,Raw,1996,FL,80.85,-145,-145,145,145,-117.5,117.5,120,120,145,165,177.5,177.5,442.5,,
3,Elvis Hernandez,M,SBD,MR-Jr,83,Raw,1995,FL,78.46,125,135,145,145,95,102.5,-112.5,102.5,160,175,185,185,432.5,,
DQ,Ahmad Mobarak,M,SBD,MR-Jr,83,Raw,1998,FL,78.37,-175,-175,-182.5,,117.5,-125,125,125,205,220,227.5,227.5,,,
1,Joshua Villa,M,SBD,MR-Jr,93,Raw,1995,FL,84.88,257.5,265,270,270,155,162.5,165,165,265,275,277.5,277.5,712.5,,
2,Ahsan Shareef,M,SBD,MR-Jr,93,Raw,1996,FL,91.1,212.5,222.5,-235,222.5,110,120,127.5,127.5,250,262.5,-272.5,262.5,612.5,,
3,Graham Allen,M,SBD,MR-Jr,93,Raw,1997,NC,92.65,185,200,-207.5,200,125,-135,,125,230,247.5,-257.5,247.5,572.5,,
4,Henrique Torres,M,SBD,MR-Jr,93,Raw,1998,FL,91.89,170,180,195,195,112.5,122.5,-137.5,122.5,200,215,-227.5,215,532.5,,
5,Ryan Amores,M,SBD,MR-Jr,93,Raw,1998,FL,90.6,170,182.5,-185,182.5,115,122.5,-125,122.5,215,-225,-225,215,520,,
6,John Doelman,M,SBD,MR-Jr,93,Raw,1997,FL,86.04,162.5,175,-185,175,112.5,122.5,-125,122.5,205,215,-227.5,215,512.5,,
7,Felipe Pareja,M,SBD,MR-Jr,93,Raw,1998,FL,92.51,165,182.5,-197.5,182.5,92.5,105,-112.5,105,185,195,217.5,217.5,505,,
8,Sean Burgers,M,SBD,MR-Jr,93,Raw,1997,FL,85.14,127.5,135,142.5,142.5,75,77.5,82.5,82.5,142.5,150,160,160,385,,
1,Noel Brown,M,SBD,MR-Jr,120,Raw,1995,FL,118.56,235,242.5,250,250,145,152.5,155,155,237.5,252.5,272.5,272.5,677.5,,
1,Michael Astrologo,M,SBD,MR-Jr,120+,Raw,1998,FL,140.93,312.5,322.5,-330,322.5,227.5,-240,240,240,-270,280,-290,280,842.5,,
2,George Clauson,M,SBD,MR-Jr,120+,Raw,1997,FL,133.9,190,205,217.5,217.5,130,140,150,150,227.5,245,-262.5,245,612.5,,
DQ,Dalton Hart,M,SBD,MR-Jr,120+,Raw,1997,FL,128.82,-182.5,-195,-195,,137.5,142.5,,142.5,227.5,-245,,227.5,,,
1,Jovan Selvon,M,SBD,MR-M1,105,Raw,1974,FL,104.94,227.5,237.5,-240,237.5,135,-140,-140,135,267.5,277.5,-282.5,277.5,650,,
1,Julian Ulvang,M,SBD,MR-M2,93,Raw,1962,FL,91.82,190,205,215,215,150,160,-165,160,190,210,,210,585,,
1,Michael Czop,M,SBD,MR-M3,105,Raw,1956,FL,104.35,155,162.5,167.5,167.5,70,77.5,-82.5,77.5,187.5,197.5,202.5,202.5,447.5,,
1,Charles Brennan,M,SBD,MR-O,59,Raw,1990,FL,58.97,175,-182.5,-182.5,175,127.5,132.5,-137.5,132.5,-200,210,-215,210,517.5,,
1,Matthew Levit,M,SBD,MR-O,66,Raw,1994,FL,65.56,162.5,170,-175,170,100,105,107.5,107.5,182.5,195,-202.5,195,472.5,,
2,Justin Dixon,M,SBD,MR-O,66,Raw,1997,FL,65.34,132.5,142.5,150,150,92.5,100,-102.5,100,172.5,190,-200,190,440,,
DQ,Janne Astorga,M,SBD,MR-O,66,Raw,1997,FL,63.88,172.5,182.5,-187.5,182.5,-102.5,105,110,110,-217.5,-220,-220,,,,
1,Richard Llanes,M,SBD,MR-O,74,Raw,1997,FL,73.31,210,215,220,220,135,142.5,147.5,147.5,227.5,-232.5,-232.5,227.5,595,,
2,Ryan Smach,M,SBD,MR-O,74,Raw,1995,FL,70.08,190,200,212.5,212.5,132.5,140,-152.5,140,220,230,-242.5,230,582.5,,
3,Thomas John,M,SBD,MR-O,74,Raw,1998,FL,74,-165,175,182.5,182.5,132.5,140,145,145,215,235,240,240,567.5,,
4,Andre Carrion,M,SBD,MR-O,74,Raw,1994,FL,72.66,165,172.5,-182.5,172.5,117.5,122.5,127.5,127.5,220,-225,,220,520,,
5,Santiago Carrillo,M,SBD,MR-O,74,Raw,1995,FL,73.22,180,-195,-195,180,105,112.5,-120,112.5,215,-227.5,-227.5,215,507.5,,
6,Imani Martinez,M,SBD,MR-O,74,Raw,1993,FL,73.5,150,162.5,-167.5,162.5,107.5,117.5,-120,117.5,192.5,207.5,-215,207.5,487.5,,
7,Anthony Flores,M,SBD,MR-O,74,Raw,1998,FL,67.1,-125,130,-137.5,130,87.5,95,102.5,102.5,132.5,140,150,150,382.5,,
1,Adam Steede,M,SBD,MR-O,83,Raw,1993,FL,82.85,237.5,247.5,255,255,145,152.5,157.5,157.5,282.5,297.5,312.5,312.5,725,,
2,Hector Condis,M,SBD,MR-O,83,Raw,1990,FL,82.38,-227.5,227.5,-240,227.5,152.5,160,-162.5,160,272.5,285,292.5,292.5,680,,
3,Jonathan Losa,M,SBD,MR-O,83,Raw,1982,FL,82.47,215,230,-237.5,230,180,190,195,195,237.5,245,-252.5,245,670,,
4,Gian-Pierre Lopez,M,SBD,MR-O,83,Raw,1993,FL,82.9,170,182.5,195,195,147.5,155,160,160,280,295,-307.5,295,650,,
5,Kennith Holley,M,SBD,MR-O,83,Raw,1987,FL,80.93,215,-222.5,-222.5,215,145,147.5,-150,147.5,272.5,275,-277.5,275,637.5,,
6,Matthew Buyers,M,SBD,MR-O,83,Raw,1996,FL,80.97,185,195,-202.5,195,130,135,-137.5,135,240,250,-257.5,250,580,,
7,Ricardo Porro,M,SBD,MR-O,83,Raw,1994,FL,77.85,170,182.5,192.5,192.5,130,137.5,142.5,142.5,225,235,242.5,242.5,577.5,,
8,Michael Plummer,M,SBD,MR-O,83,Raw,1993,FL,76.05,155,165,172.5,172.5,125,-132.5,137.5,137.5,217.5,227.5,235,235,545,,
9,David Dorcine,M,SBD,MR-O,83,Raw,1996,FL,77.67,130,155,170,170,97.5,115,117.5,117.5,172.5,185,190,190,477.5,,
10,Kevin Mata,M,SBD,MR-O,83,Raw,1995,FL,81.31,145,150,155,155,102.5,110,-117.5,110,187.5,197.5,205,205,470,,
1,Joshua Villa,M,SBD,MR-O,93,Raw,1995,FL,84.88,257.5,265,270,270,155,162.5,165,165,265,275,277.5,277.5,712.5,,
2,Jafej Faya,M,SBD,MR-O,93,Raw,1999,FL,91.47,242.5,265,272.5,272.5,142.5,150,155,155,262.5,-285,285,285,712.5,,
3,Matthew Otero,M,SBD,MR-O,93,Raw,1979,FL,92.39,235,245,255,255,145,155,-160,155,250,-260,260,260,670,,
4,Joshua Rickey,M,SBD,MR-O,93,Raw,1987,FL,88.84,225,230,235,235,135,142.5,147.5,147.5,247.5,260,-272.5,260,642.5,,
5,Nicholas Sexton,M,SBD,MR-O,93,Raw,1990,FL,89.78,200,212.5,227.5,227.5,135,142.5,155,155,220,235,247.5,247.5,630,,
6,Eric Friedman,M,SBD,MR-O,93,Raw,1988,FL,91.99,215,230,237.5,237.5,127.5,132.5,-137.5,132.5,235,257.5,260,260,630,,
7,Julian Ulvang,M,SBD,MR-O,93,Raw,1962,FL,91.82,190,205,215,215,150,160,-165,160,190,210,,210,585,,
8,Cesar Arean,M,SBD,MR-O,93,Raw,1984,FL,91.49,190,200,-210,200,102.5,110,117.5,117.5,192.5,205,217.5,217.5,535,,
9,Nicholas Holloway,M,SBD,MR-O,93,Raw,1996,FL,89.91,165,180,185,185,90,97.5,105,105,210,220,232.5,232.5,522.5,,
1,Cayman Battle,M,SBD,MR-O,105,Raw,1995,FL,103.75,-290,300,-317.5,300,182.5,192.5,197.5,197.5,290,305,320,320,817.5,,
2,Luis Lopez #12,M,SBD,MR-O,105,Raw,1985,FL,104.33,260,277.5,-285,277.5,167.5,175,-182.5,175,262.5,280,292.5,292.5,745,,
3,Layne Norton,M,SBD,MR-O,105,Raw,1981,FL,102.64,245,262.5,275,275,155,165,172.5,172.5,257.5,270,285,285,732.5,,
4,Henry Morar,M,SBD,MR-O,105,Raw,1999,FL,98.72,205,222.5,232.5,232.5,175,-188,-188,175,235,252.5,255,255,662.5,,
5,Christian Armand,M,SBD,MR-O,105,Raw,1987,FL,103.65,175,200,-210,200,182.5,-200,-200,182.5,255,277.5,-285,277.5,660,,
6,Andre Henry,M,SBD,MR-O,105,Raw,1989,FL,100.72,217.5,230,240,240,-142.5,150,-165,150,247.5,265,-280,265,655,,
7,Reginald Auguste,M,SBD,MR-O,105,Raw,1993,FL,102.71,225,237.5,,237.5,162.5,170,-175,170,245,-262.5,-262.5,245,652.5,,
8,Vincent Porcelli,M,SBD,MR-O,105,Raw,1997,FL,103.33,177.5,192.5,210,210,115,122.5,-137.5,122.5,210,227.5,240,240,572.5,,
1,David Rocklage,M,SBD,MR-O,120,Raw,1989,FL,117.1,282.5,302.5,-317.5,302.5,130,142.5,150,150,282.5,305,320,320,772.5,,
DD,Michael Bird,M,SBD,MR-O,120,Raw,1994,FL,115.76,260,275,290,290,177.5,187.5,-195,187.5,265,287.5,-300,287.5,,,
2,Shawn Kershner,M,SBD,MR-O,120,Raw,1986,FL,118.74,227.5,235,-242.5,235,155,-160,-160,155,260,-270,-270,260,650,,
1,Ken Morris,M,SBD,MR-O,120+,Raw,1985,FL,142.28,310,-322.5,-322.5,310,195,207.5,215,215,327.5,345,-350,345,870,,
2,Michael Astrologo,M,SBD,MR-O,120+,Raw,1998,FL,140.93,312.5,322.5,-330,322.5,227.5,-240,240,240,-270,280,-290,280,842.5,,
3,Justin Stine,M,SBD,MR-O,120+,Raw,1992,FL,134.98,275,277.5,280,280,175,187.5,-192.5,187.5,275,280,-287.5,280,747.5,,
4,Shaun Krin,M,SBD,MR-O,120+,Raw,1981,FL,130.61,197.5,207.5,210,210,152.5,-162.5,-162.5,152.5,260,-272.5,-272.5,260,622.5,,
5,Michael Smith Jr,M,SBD,MR-O,120+,Raw,1983,FL,141.92,-170,185,-195,185,102.5,115,-137.5,115,215,232.5,240,240,540,,
1,Jacob Zander,M,SBD,MR-PF,120,Raw,1995,FL,118.96,135,-142.5,142.5,142.5,90,97.5,-102.5,97.5,165,187.5,197.5,197.5,437.5,,
1,Fabio Casal,M,SBD,MR-T1,74,Raw,2003,FL,70.82,107.5,115,125,125,82.5,87.5,95,95,122.5,127.5,-137.5,127.5,347.5,,
1,Andrew Gleason,M,SBD,MR-T1,83,Raw,2003,FL,74.55,130,142.5,152.5,152.5,-80,80,-85,80,-167.5,175,-180,175,407.5,,
1,Ethan Gottlieb,M,SBD,MR-T2,93,Raw,2002,FL,92.79,125,137.5,150,150,95,-102.5,110,110,137.5,150,175,175,435,,
2,Jonathon Lawdan,M,SBD,MR-T2,93,Raw,2001,FL,86.2,85,115,145,145,-85,92.5,-105,92.5,170,177.5,-185,177.5,415,,
1,Allan Hernandez,M,SBD,MR-T3,83,Raw,2000,FL,78.39,112.5,-120,120,120,75,80,-85,80,175,182.5,-195,182.5,382.5,,
1,Henry Morar,M,SBD,MR-T3,105,Raw,1999,FL,98.72,205,222.5,232.5,232.5,175,-188,-188,175,235,252.5,255,255,662.5,,
1,Heather Belmonte,F,BD,FR-M1,63,Raw,1975,FL,62.54,,,,,42.5,47.5,52.5,52.5,115,125,-137.5,125,177.5,,
1,Susan Tischler,F,BD,FR-M3,63,Raw,1953,FL,62.3,,,,,57.5,-65,-65,57.5,80,85,92.5,92.5,150,,
1,Jon Kennedy,M,BD,M-M1,120+,Single-ply,1973,FL,163.32,,,,,142.5,185,192.5,192.5,142.5,182.5,-227.5,182.5,375,,
G,Devaun Brewster,M,BD,MR-G,83,Raw,1995,FL,76.13,,,,,125,132.5,-142.5,132.5,225,-247.5,-247.5,225,357.5,,
1,Rick Rasamny,M,BD,MR-M3,93,Raw,1953,FL,85.8,,,,,107.5,112.5,-120,112.5,152.5,165,175,175,287.5,,
1,William Sander,M,BD,MR-M4,83,Raw,1941,FL,81.72,,,,,95,97.5,-100,97.5,97.5,102.5,105,105,202.5,,
1,Charles Brennan,M,BD,MR-O,59,Raw,1990,FL,58.97,,,,,127.5,132.5,-137.5,132.5,-200,210,-215,210,342.5,,
1,Hector Condis,M,BD,MR-O,83,Raw,1990,FL,82.38,,,,,152.5,160,-162.5,160,272.5,285,292.5,292.5,452.5,,
1,Nathan Zephir,M,BD,MR-O,105,Raw,1991,FL,103.89,,,,,180,190,197.5,197.5,272.5,285,292.5,292.5,490,,
1,Zaher Al-issa,M,BD,MR-T3,93,Raw,2001,FL,87.71,,,,,100,105,-110,105,157.5,165,182.5,182.5,287.5,,
