WeightClassKg,Name,Best3SquatKg,Best3BenchKg,Best3DeadliftKg,TotalKg,Place,BodyweightKg,Event,Equipment,Division,Sex,AgeRange
67.5,C. Miles,170,110,200,480,1,,SBD,Single-ply,M-E-Masters,M,40-99
75,R. Jordan,180,140,150,470,1,,SBD,Single-ply,M-E-Masters,M,40-99
82.5,B. Dixon,227.5,132.5,262.5,622.5,1,,SBD,Single-ply,M-E-Masters,M,40-99
82.5,D. Jones,185,95,260,540,2,,SBD,Single-ply,M-E-Masters,M,40-99
90,D. Arundel,180,145,207.5,532.5,1,,SBD,Single-ply,M-E-Masters,M,40-99
100,D. Lewis,215,125,255,595,1,,SBD,Single-ply,M-E-Masters,M,40-99
125,M. Brown,270,130,300,700,1,,SBD,Single-ply,M-E-Masters,M,40-99
125+,T. Perdue,200,150,230,580,1,,SBD,Single-ply,M-E-Masters,M,40-99
