Division,WeightClassKg,Place,Name,Team,BodyweightKg,Best3SquatKg,Best3BenchKg,Best3DeadliftKg,TotalKg,Equipment,Event,Sex
Boys,51.71,1,Anthony Garcia,Weslaco,51.71,131.54,79.38,149.69,360.61,Single-ply,SBD,M
Boys,51.71,2,Kevin Sierra,PSJA Southwest,51.71,115.67,81.65,151.95,349.27,Single-ply,SBD,M
Boys,51.71,3,Alex Mena,Weslaco,51.71,124.74,72.57,145.15,342.46,Single-ply,SBD,M
Boys,51.71,4,Joe Anthony Tamez,PSJA Memorial,51.71,115.67,65.77,136.08,317.51,Single-ply,SBD,M
Boys,51.71,5,Josh Yzaguirre,San Benito,51.71,106.59,70.31,136.08,312.98,Single-ply,SBD,M
Boys,51.71,6,Ray Martinez,Santa Rosa,51.71,90.72,56.7,136.08,283.5,Single-ply,SBD,M
Boys,51.71,7,Jaden Trevino,PSJA,51.71,102.06,56.7,113.4,272.16,Single-ply,SBD,M
Boys,51.71,8,Cody Acosta,PSJA,51.71,97.52,56.7,111.13,265.35,Single-ply,SBD,M
Boys,51.71,9,Jj Garza,Donna,51.71,102.06,49.9,102.06,254.01,Single-ply,SBD,M
Boys,55.79,1,Fernando Arevalo,PSJA Memorial,55.79,106.59,74.84,111.13,292.57,Single-ply,SBD,M
Boys,55.79,DQ,Kaleb Espinoza,Donna,55.79,174.63,,,,Single-ply,SBD,M
Boys,59.87,1,Randy Medellin,San Benito,59.87,183.7,108.86,185.97,478.54,Single-ply,SBD,M
Boys,59.87,2,Allan Cruz,Mission Veterans Memorial,59.87,174.63,102.06,165.56,442.25,Single-ply,SBD,M
Boys,59.87,3,Mike Tamez,Donna,59.87,154.22,95.25,183.7,433.18,Single-ply,SBD,M
Boys,59.87,4,Alexis Hernandez,Donna,59.87,149.69,95.25,145.15,390.09,Single-ply,SBD,M
Boys,59.87,5,Matthew Ortiz,Weslaco,59.87,124.74,104.33,145.15,374.21,Single-ply,SBD,M
Boys,59.87,6,Artemio Balderas,PSJA Memorial,59.87,138.35,79.38,138.35,356.07,Single-ply,SBD,M
Boys,59.87,DQ,Elijah Ramirez,Port Isabel,59.87,,,,,Single-ply,SBD,M
Boys,67.13,1,Joshua Garcia,Weslaco,67.13,213.19,115.67,217.72,546.58,Single-ply,SBD,M
Boys,67.13,2,Jesse Rodriguez,PSJA Memorial,67.13,210.92,124.74,199.58,535.24,Single-ply,SBD,M
Boys,67.13,3,Jacob Zuniga,San Benito,67.13,183.7,86.18,195.04,464.93,Single-ply,SBD,M
Boys,67.13,4,Ronnie Longoria,Sharyland Pioneer,67.13,170.1,86.18,188.24,444.52,Single-ply,SBD,M
Boys,67.13,5,Jonathon E,Santa Rosa,67.13,131.54,99.79,172.37,403.7,Single-ply,SBD,M
Boys,67.13,6,Sean De La Garza,Mission Veterans Memorial,67.13,145.15,97.52,158.76,401.43,Single-ply,SBD,M
Boys,67.13,7,Aj Munuguia,Mission Veterans Memorial,67.13,131.54,86.18,131.54,349.27,Single-ply,SBD,M
Boys,67.13,8,Ian Vela,Port Isabel,67.13,138.35,68.04,138.35,344.73,Single-ply,SBD,M
Boys,67.13,9,Luis Martinez,PSJA,62.6,117.93,70.31,129.27,317.51,Single-ply,SBD,M
Boys,67.13,10,Daniel Mireles,PSJA Memorial,67.13,124.74,65.77,115.67,306.17,Single-ply,SBD,M
Boys,67.13,11,Agustion E,Santa Rosa,67.13,104.33,63.5,106.59,274.42,Single-ply,SBD,M
Boys,74.84,1,Erin Estevanes,Weslaco,74.84,215.46,133.81,247.21,596.47,Single-ply,SBD,M
Boys,74.84,2,Chris Jackson #13,Weslaco,74.84,215.46,117.93,219.99,553.38,Single-ply,SBD,M
Boys,74.84,3,Edward Alvarez,San Benito,74.84,197.31,108.86,201.85,508.02,Single-ply,SBD,M
Boys,74.84,4,Jacob Hernandez,PSJA Memorial,74.84,183.7,124.74,188.24,496.68,Single-ply,SBD,M
Boys,74.84,5,Joe H Rodriguez,PSJA Southwest,70.76,192.78,117.93,181.44,492.15,Single-ply,SBD,M
Boys,74.84,6,Frank Marin,Weslaco,74.84,183.7,117.93,176.9,478.54,Single-ply,SBD,M
Boys,74.84,7,Romeo Lopez,Sharyland Pioneer,74.84,170.1,113.4,190.51,474,Single-ply,SBD,M
Boys,74.84,8,Brandon Ramos,La Joya,74.84,208.65,92.99,172.37,474,Single-ply,SBD,M
Boys,74.84,9,Eric Ginez,Donna,74.84,185.97,97.52,176.9,460.4,Single-ply,SBD,M
Boys,74.84,10,Julian Flores,San Benito,74.84,170.1,99.79,165.56,435.45,Single-ply,SBD,M
Boys,74.84,11,Justin R,Santa Rosa,74.84,149.69,86.18,149.69,385.55,Single-ply,SBD,M
Boys,74.84,12,Gustavo Antonio,Port Isabel,74.84,147.42,77.11,122.47,347,Single-ply,SBD,M
Boys,74.84,13,Jesus Lopez,Rio Grande City,74.84,142.88,58.97,131.54,333.39,Single-ply,SBD,M
Boys,74.84,14,Justin Jiminez,PSJA,74.84,99.79,72.57,104.33,276.69,Single-ply,SBD,M
Boys,74.84,DQ,Nelson Meija,Port Isabel,74.84,,,,,Single-ply,SBD,M
Boys,74.84,DQ,Dagan Wise,Port Isabel,74.84,,,,,Single-ply,SBD,M
Boys,74.84,DQ,Jon Anthony Saenz,PSJA Memorial,74.84,,,,,Single-ply,SBD,M
Boys,74.84,DQ,Sylvester Cedillo,Mission Veterans Memorial,74.84,222.26,,,,Single-ply,SBD,M
Boys,74.84,DQ,Jacob Gracia,Weslaco,74.84,,,,,Single-ply,SBD,M
Boys,82.1,1,Jesus Reyna,Weslaco,82.1,240.4,129.27,222.26,591.94,Single-ply,SBD,M
Boys,82.1,2,Robert Garza,Donna,82.1,238.14,136.08,213.19,587.4,Single-ply,SBD,M
Boys,82.1,3,Trey Caballero,Weslaco,82.1,206.38,127.01,222.26,555.65,Single-ply,SBD,M
Boys,82.1,4,Javi Sanchez,Weslaco,82.1,174.63,117.93,217.72,510.29,Single-ply,SBD,M
Boys,82.1,5,Senon Moya,Sharyland Pioneer,82.1,204.12,122.47,176.9,503.49,Single-ply,SBD,M
Boys,82.1,6,Carlos Martinez,Sharyland Pioneer,82.1,185.97,111.13,192.78,489.88,Single-ply,SBD,M
Boys,82.1,7,Sal Mendez,PSJA Southwest,82.1,151.95,138.35,192.78,483.08,Single-ply,SBD,M
Boys,82.1,8,Lazaro Rodriguez,PSJA Memorial,82.1,190.51,99.79,190.51,480.81,Single-ply,SBD,M
Boys,82.1,9,Jorge Gutierrez,PSJA Memorial,82.1,183.7,120.2,165.56,469.47,Single-ply,SBD,M
Boys,82.1,10,Derek Matamoras,PSJA Memorial,82.1,183.7,90.72,183.7,458.13,Single-ply,SBD,M
Boys,82.1,11,Alex Mancha,PSJA,82.1,167.83,95.25,170.1,433.18,Single-ply,SBD,M
Boys,82.1,DQ,Esai Camacho,Port Isabel,82.1,174.63,,,,Single-ply,SBD,M
Boys,82.1,DQ,Yonny Villarreal,La Joya,82.1,206.38,,,,Single-ply,SBD,M
Boys,89.81,1,Gilbert Trevino,Weslaco,89.81,276.69,174.63,249.48,700.8,Single-ply,SBD,M
Boys,89.81,2,Daniel Yanez,Donna,89.81,247.21,142.88,210.92,601.01,Single-ply,SBD,M
Boys,89.81,3,Juan Aguirre,San Benito,89.81,219.99,147.42,219.99,587.4,Single-ply,SBD,M
Boys,89.81,4,Jose Nicoleau,Sharyland Pioneer,89.81,219.99,136.08,213.19,569.26,Single-ply,SBD,M
Boys,89.81,5,Tony Cerda,La Joya,89.81,217.72,136.08,213.19,566.99,Single-ply,SBD,M
Boys,89.81,6,Nick Chavez,Donna,89.81,210.92,133.81,217.72,562.45,Single-ply,SBD,M
Boys,89.81,7,Julio Reyna,PSJA Southwest,89.81,208.65,129.27,222.26,560.19,Single-ply,SBD,M
Boys,89.81,8,Victor Garza,PSJA Southwest,89.81,215.46,131.54,181.44,528.44,Single-ply,SBD,M
Boys,89.81,9,Jordan Nichols,Weslaco,89.81,195.04,131.54,190.51,517.1,Single-ply,SBD,M
Boys,89.81,10,Michael Gonzalez,Weslaco,89.81,197.31,108.86,192.78,498.95,Single-ply,SBD,M
Boys,89.81,11,Steven Martinez,Weslaco,89.81,174.63,106.59,210.92,492.15,Single-ply,SBD,M
Boys,89.81,12,Carlos Martinez,PSJA,89.81,181.44,115.67,181.44,478.54,Single-ply,SBD,M
Boys,89.81,13,Jonathan Garcia #7,PSJA Memorial,89.81,167.83,120.2,183.7,471.74,Single-ply,SBD,M
Boys,89.81,14,Caleb Longoria,Rio Grande City,89.81,124.74,83.91,138.35,347,Single-ply,SBD,M
Boys,99.79,1,Heriberto Hernandez,Weslaco,99.79,247.21,131.54,233.6,612.35,Single-ply,SBD,M
Boys,99.79,2,Ricky Ramirez,PSJA Southwest,99.79,231.33,154.22,206.38,591.94,Single-ply,SBD,M
Boys,99.79,3,Marco Zuñiga,San Benito,99.79,231.33,122.47,233.6,587.4,Single-ply,SBD,M
Boys,99.79,4,Matt Torres,San Benito,99.79,226.8,145.15,204.12,576.06,Single-ply,SBD,M
Boys,99.79,5,Gilbert Guerreo,Donna,99.79,195.04,102.06,204.12,501.22,Single-ply,SBD,M
Boys,99.79,6,Juan Resendez,La Joya,99.79,176.9,127.01,179.17,483.08,Single-ply,SBD,M
Boys,99.79,7,Oscar Pena,Mission Veterans Memorial,99.79,167.83,102.06,208.65,478.54,Single-ply,SBD,M
Boys,99.79,8,Mike Perez,Mission Veterans Memorial,99.79,183.7,104.33,183.7,471.74,Single-ply,SBD,M
Boys,99.79,9,Victor G,Santa Rosa,99.79,176.9,86.18,158.76,421.84,Single-ply,SBD,M
Boys,99.79,10,José Fernández,La Joya,99.79,176.9,88.45,147.42,412.77,Single-ply,SBD,M
Boys,99.79,DQ,Carlos Bocannegra,Port Isabel,99.79,181.44,,,,Single-ply,SBD,M
Boys,99.79,DQ,Juan Apango,Port Isabel,99.79,183.7,,,,Single-ply,SBD,M
Boys,109.77,1,Andres Enriquez,PSJA,109.77,267.62,163.29,195.04,625.96,Single-ply,SBD,M
Boys,109.77,2,Mark Cisneros,Donna,109.77,254.01,133.81,215.46,603.28,Single-ply,SBD,M
Boys,109.77,3,Rey Rodriguez,Weslaco,109.77,183.7,102.06,195.04,480.81,Single-ply,SBD,M
Boys,109.77,4,Fernando Robles,Rio Grande City,109.77,176.9,81.65,167.83,426.38,Single-ply,SBD,M
Boys,109.77,5,Eddie Garza,Rio Grande City,109.77,158.76,102.06,158.76,419.57,Single-ply,SBD,M
Boys,109.77,6,Elisco G,Santa Rosa,109.77,142.88,77.11,113.4,333.39,Single-ply,SBD,M
Boys,109.77,DQ,JP Torres,Donna,109.77,217.72,,,,Single-ply,SBD,M
Boys,124.74,1,Roger Benavides,Rio Grande City,124.74,249.48,149.69,233.6,632.76,Single-ply,SBD,M
Boys,124.74,2,Ramiro Reza,San Benito,124.74,244.94,154.22,226.8,625.96,Single-ply,SBD,M
Boys,124.74,3,Shawn Gonzalez,PSJA Southwest,124.74,233.6,142.88,233.6,610.08,Single-ply,SBD,M
Boys,124.74,4,Alfono Cerda,Weslaco,124.74,226.8,140.61,206.38,573.79,Single-ply,SBD,M
Boys,124.74,5,Rudy De La Torre,Weslaco,124.74,238.14,117.93,192.78,548.85,Single-ply,SBD,M
Boys,124.74,6,Angel Valdez,PSJA Southwest,124.74,208.65,136.08,197.31,542.04,Single-ply,SBD,M
Boys,124.74,7,Juan Mireles,Port Isabel,124.74,206.38,120.2,183.7,510.29,Single-ply,SBD,M
Boys,124.74,DQ,Ricky Leyva,La Joya,124.74,,,,,Single-ply,SBD,M
Boys,124.74+,1,Brandon Perez,Weslaco,127.01,233.6,131.54,199.58,564.72,Single-ply,SBD,M
Boys,124.74+,2,Pedro Sandoval,Weslaco,127.46,183.7,133.81,183.7,501.22,Single-ply,SBD,M
Boys,124.74+,3,Robert Perez,Weslaco,127.01,185.97,129.27,183.7,498.95,Single-ply,SBD,M
Boys,124.74+,4,Frank Hernandez,Port Isabel,127.01,183.7,124.74,149.69,458.13,Single-ply,SBD,M
