Name,State,Sex,Event,Equipment,Age,Division,BodyweightKg,WeightClassKg,Squat1Kg,Squat2Kg,Squat3Kg,Squat4Kg,Best3SquatKg,Bench1Kg,Bench2Kg,Bench3Kg,Bench4Kg,Best3BenchKg,Deadlift1Kg,Deadlift2Kg,Deadlift3Kg,Deadlift4Kg,Best3DeadliftKg,TotalKg,Place
Dennise Larios,AZ,F,SBD,Raw,,Submasters 35-39,43.14,44,37.5,40,-42.5,,40,27.5,30,-32.5,,30,80,90,97.5,,97.5,167.5,1
Rocky Luedeker,AZ,F,SBD,Raw,,Masters 60-64,42.91,44,22.5,27.5,40,,40,22.5,27.5,32.5,,32.5,25,47.5,,,47.5,120,1
Chloe Eckard,AZ,F,SBD,Raw,,Teen 12-13,47.63,48,45,50,52.5,,52.5,25,27.5,-30,,27.5,57.5,60,62.5,,62.5,142.5,1
Roxanne Chance,AZ,F,SBD,Raw,,Masters 60-64,45.4,48,45,47.5,-50,,47.5,30,-35,-35,,30,65,70,72.5,,72.5,150,1
Bianca Luedeker,AZ,F,SBD,Raw,,Open,50.89,52,82.5,87.5,-90,,87.5,62.5,65,-67.5,,65,125,130,-135,,130,282.5,3
Maria Kitterhagen,AZ,F,SBD,Raw,,Juniors 20-24,57.02,60,67.5,75,,,75,40,-45,-45,,40,107.5,115,127.5,,127.5,242.5,7
Elizabeth Seeber,AZ,F,SBD,Raw,,Open,64.18,67.5,70,72.5,77.5,,77.5,37.5,42.5,-45,,42.5,107.5,112.5,120,,120,240,11
Lydia Crain,AZ,F,SBD,Raw,,Masters 45-49,67.4,67.5,52.5,55,-60,,55,-42.5,42.5,45,,45,95,102.5,-105,,102.5,202.5,2
Lu Ann Posey,AZ,F,SBD,Raw,,Masters 60-64,64.68,67.5,42.5,47.5,52.5,,52.5,32.5,35,37.5,,37.5,82.5,87.5,92.5,,92.5,182.5,1
Pamela Ferree,AZ,F,SBD,Raw,,Masters 50-54,73.98,75,-95,95,,,95,47.5,-50,-50,,47.5,140,145,-150,,145,287.5,1
Deana Tollertson,AZ,F,SBD,Raw,,Open,71.44,75,120,125,130,,130,72.5,75,-77.5,,75,125,132.5,140,,140,345,1
Linda Kubiak,AZ,F,SBD,Raw,,Masters 50-54,82.69,90,92.5,97.5,102.5,,102.5,52.5,55,57.5,,57.5,125,135,-140,,135,295,1
Andrea Johnson,AZ,F,SBD,Raw,,Open,122.29,90+,-90,90,-95,,90,,,,,,82.5,-97.5,97.5,,97.5,,DQ
Sheri Hurd,AZ,F,SBD,Raw,,Open,108.95,90+,-80,80,85,,85,62.5,67.5,-70,,67.5,100,110,115,,115,267.5,3
Sheri Hurd,AZ,F,SBD,Raw,,Masters 40-44,108.95,90+,-80,80,85,,85,62.5,67.5,-70,,67.5,100,110,115,,115,267.5,1
Sam Hancock,AZ,M,SBD,Raw,,Youth,23.59,30,30,32.5,35,,35,20,-22.5,22.5,,22.5,40,45,47.5,,47.5,105,1
Michael Kahan,AZ,M,SBD,Raw,,Open,44.86,48,52.5,-60,60,62.5,60,52.5,55,57.5,,57.5,100,-110,-110,,100,217.5,1
Michael Kahan,AZ,M,SBD,Raw,,Masters 50-54,44.86,48,52.5,-60,60,62.5,60,52.5,55,57.5,,57.5,100,-110,-110,,100,217.5,1
Jerry Trubman,AZ,M,SBD,Raw,,Submasters 35-39,65.73,67.5,122.5,132.5,135,,135,-87.5,87.5,-90,,87.5,142,150,-160,,150,372.5,1
Mathew Brey,AZ,M,SBD,Raw,,Teen 16-17,69.4,75,95,-100,-100,,95,80,85,-90,,85,125,-130,135,,135,315,1
Leonel Jimenez,AZ,M,SBD,Raw,,Teen 18-19,73.39,75,142.5,150,155,,155,-97.5,97.5,-100,,97.5,150,165,172.5,,172.5,425,4
Lee Luedeker,AZ,M,SBD,Raw,,Masters 65-69,70.13,75,105,112.5,117.5,,117.5,97.5,100,105,-107.5,105,165,180,185,,185,407.5,2
Israel Flores,AZ,M,SBD,Raw,,Teen 18-19,81.1,82.5,102.5,125,132.5,,132.5,70,82.5,85,,85,125,135,142.5,,142.5,360,2
Chad Penson,NM,M,SBD,Raw,,Open,81.33,82.5,237.5,242.5,-250,,242.5,170,182.5,187.5,,187.5,255,272,-275,,272,702,1
Chad Penson,NM,M,SBD,Raw,,Law/Fire/Military,81.33,82.5,237.5,242.5,-250,,242.5,170,182.5,187.5,,187.5,255,272,-275,,272,702,1
Casey Joe Mast,AZ,M,SBD,Raw,,Open,79.47,82.5,150,165,-170,,165,97.5,-100,-100,,97.5,172.5,192.5,200,,200,462.5,9
Aaron Trail,AZ,M,SBD,Raw,,Open,82.24,82.5,155,-160,,,155,125,130,135,,135,235,250,260,,260,550,4
Nolan Hyland,AZ,M,SBD,Raw,,Open,76.57,82.5,142.5,160,-165,,160,-127.5,-127.5,127.5,,127.5,205,-210,-210,,205,492.5,8
David Lynch,AZ,M,SBD,Raw,,Juniors 20-24,85.37,90,167.5,175,182.5,,182.5,117.5,130,-135,,130,175,192.5,202.5,,202.5,515,6
Aaron Maddox,AZ,M,SBD,Raw,,Submasters 35-39,88.86,90,130,137.5,142.5,,142.5,97.5,-100,-100,,97.5,-162.5,162.5,-165,,162.5,402.5,4
Ethan E Ellisor,AZ,M,SBD,Raw,,Open,88.54,90,205,215,227.5,,227.5,127.5,137.5,-140,,137.5,255,277.5,-280,,277.5,642.5,1
Brian Trail,AZ,M,SBD,Raw,,Open,94.48,100,187.5,195,200,,200,162.5,-165,,,162.5,275,-280,,,275,637.5,2
Josh Conner,AZ,M,SBD,Raw,,Submasters 35-39,90.9,100,225,232.5,240,,240,165,170,172.5,,172.5,272.5,287.5,292.5,,292.5,705,1
Matthew Santucci,AZ,M,SBD,Raw,,Submasters 35-39,92.35,100,110,120,127.5,,127.5,92.5,-100,-100,,92.5,170,-175,-175,,170,390,2
Stephen Portell,AZ,M,SBD,Raw,,Masters 45-49,98.16,100,130,135,137.5,,137.5,95,100,105,,105,167.5,172.5,-180,,172.5,415,1
Cesar Sotelo-Figueroa,AZ,M,SBD,Raw,,Juniors 20-24,105.32,110,160,165,172.5,,172.5,125,-130,-130,,125,175,182.5,190,,190,487.5,5
Caleb Cattermole,AZ,M,SBD,Raw,,Juniors 20-24,106.82,110,212.5,225,230,,230,165,175,182.5,,182.5,222.5,235,245,,245,657.5,1
Everett Brill,AZ,M,SBD,Raw,,Open,108.05,110,255,265,272.5,,272.5,165,172.5,-180,,172.5,260,272.5,282.5,,282.5,727.5,2
Bill Faiband,AZ,M,SBD,Raw,,Masters 70-74,106.23,110,85,-90,-90,,85,112.5,122.5,127.5,,127.5,102.5,115,125,,125,337.5,1
Jerremy Maisen Bach,AZ,M,SBD,Raw,,Submasters 35-39,121.7,125,125,150,162.5,,162.5,,,,,,,,,,,,DQ
Glen Tenove,CA,M,SBD,Raw,,Masters 60-64,122.56,125,110,125,140,,140,182.5,-190,195,,195,170,182.5,195,,195,530,1
Chris Goodwin,AZ,M,SBD,Raw,,Submasters 35-39,168.65,140+,185,-195,205,,205,127.5,135,137.5,,137.5,205,215,-220,,215,557.5,2
Chloe Eckard,AZ,F,BD,Raw,,Teen 12-13,47.63,48,,,,,,-22.5,25,27.5,-30,27.5,57.5,60,62.5,,62.5,90,1
Diane Brill,NV,F,BD,Raw,,Open,57.11,60,,,,,,60,70,72.5,73.5,72.5,100,107.5,-110,,107.5,180,2
Diane Brill,NV,F,BD,Raw,,Masters 55-59,57.11,60,,,,,,60,70,72.5,73.5,72.5,100,107.5,-110,,107.5,180,1
Lee Luedeker,AZ,M,BD,Raw,,Masters 65-69,70.13,75,,,,,,97.5,100,105,,105,157.5,165,180,185,180,285,2
Glen Tenove,CA,M,BD,Raw,,Masters 60-64,122.56,125,,,,,,182.5,-190,195,,195,170,182.5,195,,195,390,1
Rocky Luedeker,AZ,F,BD,Raw,,Masters 60-64,42.91,44,,,,,,22.5,27.5,32.5,,32.5,25,47.5,,,47.5,80,1
Bianca Luedeker,AZ,F,BD,Raw,,Open,50.89,52,,,,,,62.5,65,-67.5,,65,125,130,-135,,130,195,2
Susan Daigle-Leach,AZ,F,BD,Raw,,Masters 55-59,67.04,67.5,,,,,,50,52.5,53,,53,82.5,92.5,-100,,92.5,145.5,1
Deana Tollertson,AZ,F,BD,Raw,,Open,71.44,75,,,,,,72.5,75,-77.5,,75,125,132.5,140,,140,215,2
Sheri Hurd,AZ,F,BD,Raw,,Masters 40-44,108.95,90+,,,,,,62.5,67.5,-70,,67.5,100,110,115,,115,182.5,1
Sheri Hurd,AZ,F,BD,Raw,,Open,108.95,90+,,,,,,62.5,67.5,-70,,67.5,100,110,115,,115,182.5,1
Sam Hancock,AZ,M,BD,Raw,,Youth,23.59,30,,,,,,20,-22.5,22.5,,22.5,40,45,47.5,,47.5,70,1
Jacob Holly,AZ,M,BD,Raw,,Open,67.36,67.5,,,,,,67.5,-70,-70,,67.5,125,135,165,,165,232.5,2
Jerry Trubman,AZ,M,BD,Raw,,Submasters 35-39,65.73,67.5,,,,,,-87.5,87.5,90,,90,142.5,150,-160,,150,240,1
Aaron Trail,AZ,M,BD,Raw,,Open,82.24,82.5,,,,,,125,130,135,,135,235,250,260,,260,395,1
Ed Regua,AZ,M,BD,Raw,,Masters 60-64,82.05,82.5,,,,,,122.5,127.5,130,,130,160,172.5,-175,,172.5,302.5,1
Brian Trail,AZ,M,BD,Raw,,Open,94.48,100,,,,,,162.5,-165,,,162.5,275,-280,,,275,437.5,1
Larry Savage,AZ,M,BD,Raw,,Masters 50-54,108.82,110,,,,,,140,145,152.5,,152.5,175,185,192.5,,192.5,345,1
Susan Daigle-Leach,AZ,F,B,Raw,,Masters 55-59,67.04,67.5,,,,,,50,52.5,53,,53,,,,,,53,1
Erika Grill,AZ,F,B,Raw,,Masters 60-64,78.24,82.5,,,,,,75,85,92.5,,92.5,,,,,,92.5,1
Scott Craig,AZ,M,B,Raw,,Masters 65-69,74.48,75,,,,,,132.5,137.5,140,142.5,140,,,,,,140,1
Dan Gordan,AZ,M,B,Raw,,Masters 65-69,75,75,,,,,,97.5,-100,-100,,97.5,,,,,,97.5,2
Bill Cross,AZ,M,B,Raw,,Masters 70-74,74.21,75,,,,,,112.5,-115,-115,,112.5,,,,,,112.5,1
James Moore,AZ,M,B,Raw,,Masters 50-54,81.74,82.5,,,,,,127.5,132.5,135,,135,,,,,,135,1
Perry Bassett,AZ,M,B,Raw,,Masters 70-74,82.1,82.5,,,,,,131,132.5,-135,,132.5,,,,,,132.5,1
Ethan Riston,AZ,M,B,Raw,,Open,88.09,90,,,,,,152.5,165,170,,170,,,,,,170,2
Dana Lambert,AZ,M,B,Raw,,Masters 40-44,107.37,110,,,,,,185,200,212.5,,212.5,,,,,,212.5,1
Lance Grush,CA,M,B,Raw,,Masters 45-49,108,110,,,,,,160,165,170,,170,,,,,,170,1
Lance Grush,CA,M,B,Raw,,Open,108,110,,,,,,160,165,170,,170,,,,,,170,2
Larry Savage,AZ,M,B,Raw,,Masters 50-54,108.82,110,,,,,,140,145,152.5,,152.5,,,,,,152.5,2
Michael Hawkins #3,AZ,M,B,Raw,,Masters 65-69,103.83,110,,,,,,100,110,-115,,110,,,,,,110,1
Jacob Hurd,AZ,M,B,Raw,,Submasters 35-39,112.31,125,,,,,,150,165,170,,170,,,,,,170,1
Glen Tenove,CA,M,B,Raw,,Masters 60-64,122.56,125,,,,,,182.5,-195,195,,195,,,,,,195,1
Ed Lucas,AZ,M,B,Raw,,Masters 65-69,127.1,140,,,,,,102.5,130,-135,,130,,,,,,130,1
Susan Daigle-Leach,AZ,F,D,Raw,,Masters 55-59,67.04,67.5,,,,,,,,,,,82.5,92.5,-100,,92.5,92.5,1
Chris Coffman,NM,M,D,Raw,,Submasters 35-39,73.16,75,,,,,,,,,,,192.5,195,-200,,195,195,1
Tanner Austin,AZ,M,D,Raw,,Juniors 20-24,91.31,100,,,,,,,,,,,192.5,212.5,227.5,,227.5,227.5,1
Grant Heller,AZ,M,D,Raw,,Masters 50-54,126.19,140,,,,,,,,,,,182.5,192.5,202.5,,202.5,202.5,1
Brad Smallridge,MI,M,SBD,Raw,,Open,74.57,75,170,180,182.5,,182.5,105,-115,-115,,105,187.5,200,210,,210,497.5,4
Bob Nicholas,KY,M,SBD,Raw,,Masters 70-74,81.37,82.5,127.5,-142.5,142.5,,142.5,87.5,100,-102.5,,100,-177.5,,,,,,DQ
Jonathan Thurman,KY,M,SBD,Raw,,Open,89.36,90,155,167.5,182.5,,182.5,-130,137.5,147.5,,147.5,200,215,-227.5,,215,545,11
James Logsdon,KY,M,SBD,Raw,,Open,83.19,90,67.5,77.5,85,,85,67.5,77.5,80,,80,135,145,147.5,,147.5,312.5,18
Blake Hodges,KY,M,SBD,Raw,,Juniors 20-24,89.81,90,170,182.5,187.5,,187.5,107.5,112.5,-117.5,,112.5,212.5,227.5,235,,235,535,5
Matthew Hawthorne,KY,M,SBD,Raw,,Submasters 35-39,89.27,90,202.5,215,-227.5,,215,110,-120,-120,,110,255,275,-285,,275,600,1
James Logsdon,KY,M,SBD,Raw,,Submasters 35-39,83.19,90,67.5,77.5,85,,85,67.5,77.5,80,,80,135,145,147.5,,147.5,312.5,5
Matt Keller,MO,M,SBD,Raw,,Open,93.71,100,200,207.5,215,,215,160,-170,,,160,225,-235,-235,,225,600,4
Shawn Fante,KY,M,SBD,Raw,,Open,99.16,100,130,180,200,,200,135,147.5,-162.5,,147.5,220,230,-235,,230,577.5,7
Chesleigh Denison,KY,M,SBD,Raw,,Open,99.79,100,182.5,-205,-205,,182.5,125,140,-147.5,,140,210,220,230,,230,552.5,10
Dalton Brown,KY,M,SBD,Raw,,Teen 18-19,94.62,100,-125,125,150,,150,105,112.5,-117.5,,112.5,192.5,210,-227.5,,210,472.5,3
Tyler Eldridge,KY,M,SBD,Raw,,Juniors 20-24,108.14,110,-197.5,-197.5,197.5,,197.5,130,140,147.5,,147.5,185,197.5,-205,,197.5,542.5,4
Robert Gaines,VA,M,SBD,Raw,,Open,134.81,140,205,227.5,240.5,,240.5,185,187.5,190,,190,250,272.5,-280,,272.5,703,3
Robert Gaines,VA,M,SBD,Raw,,Masters 50-54,134.81,140,205,227.5,240.5,,240.5,185,187.5,190,,190,250,272.5,-280,,272.5,703,1
Scott Margolis,OH,M,BD,Raw,,Open,122.2,125,,,,,,170,175,182.5,-187.5,182.5,195,217.5,237.5,,237.5,420,1
Mitchell Maglorie,OH,M,BD,Raw,,Open,114.76,125,,,,,,-162.5,165,-172.5,,165,237.5,-257.5,-257.5,,237.5,402.5,2
Scott Margolis,OH,M,BD,Raw,,Submasters 35-39,122.2,125,,,,,,170,175,182.5,-187.5,182.5,195,217.5,237.5,,237.5,420,1
Mitchell Maglorie,OH,M,BD,Raw,,Submasters 35-39,114.76,125,,,,,,-162.5,165,-172.5,,165,237.5,-257.5,-257.5,,237.5,402.5,2
Robert Gaines,VA,M,BD,Raw,,Open,134.81,140,,,,,,185,187.5,190,,190,250,272.5,-280,,272.5,462.5,1
Robert Gaines,VA,M,BD,Raw,,Masters 50-54,134.81,140,,,,,,185,187.5,190,,190,250,272.5,-280,,272.5,462.5,1
Ryan Troiano,PA,M,B,Raw,,Open,74.84,75,,,,,,145,152.5,-157.5,,152.5,,,,,,152.5,1
William Beavin,KY,M,B,Raw,,Masters 60-64,81.01,82.5,,,,,,-125,125,132.5,,132.5,,,,,,132.5,1
Philip Roehner,MI,M,B,Raw,,Masters 45-49,104.51,110,,,,,,,,,,,,,,,,,DQ
Chris Fawbush,KY,M,B,Raw,,Open,118.75,125,,,,,,150,160,165,-167.5,165,,,,,,165,4
Marvin Bishop,OH,M,B,Raw,,Open,182.62,140+,,,,,,142.5,152.5,-182.5,,152.5,,,,,,152.5,2
Marvin Bishop,OH,M,B,Raw,,Submasters 35-39,182.62,140+,,,,,,142.5,152.5,-182.5,,152.5,,,,,,152.5,1
Lonnie Atkins,,M,D,Raw,,Masters 40-44,210.01,140+,,,,,,,,,,,210,217.5,-225,,217.5,217.5,1
Clayton Cook,KY,M,D,Raw,,Masters 40-44,146.78,140+,,,,,,,,,,,147.5,150,155,,155,155,2
Brandon Johnson,KY,M,D,Raw,,Submasters 35-39,74.66,75,,,,,,,,,,,185,192.5,-200,,192.5,192.5,2
John Krawchinson,IN,M,D,Raw,,Masters 55-59,80.47,82.5,,,,,,,,,,,142.5,155,-165,,155,155,2
Dan Myers,KY,M,D,Raw,,Masters 40-44,89.18,90,,,,,,,,,,,195,212.5,232.5,,232.5,232.5,1
Jennifer Waldron,KY,F,SBD,Raw,,Submasters 35-39,50.62,52,65,70,75,,75,32.5,37.5,-45,,37.5,85,90,95,,95,207.5,1
Miranda Weiter,KY,F,SBD,Raw,,Open,66.13,67.5,110,117.5,-122.5,,117.5,75,80,-82.5,,80,125,132.5,-140,,132.5,330,2
Miranda Weiter,KY,F,SBD,Raw,,Juniors 20-24,66.13,67.5,110,117.5,-122.5,,117.5,75,80,-82.5,,80,125,132.5,-140,,132.5,330,1
Ashley Linton,KY,F,SBD,Raw,,Open,73.94,75,85,102.5,-107.5,,102.5,55,62.5,-67.5,,62.5,120,130,137.5,,137.5,302.5,4
Elizabeth Leonhardt,KY,F,SBD,Raw,,Juniors 20-24,72.85,75,-97.5,-110,110,,110,55,-57.5,57.5,,57.5,135,150,165,,165,332.5,1
Allisha Guzdial,KY,F,SBD,Raw,,Open,81.92,82.5,-102.5,102.5,-105,,102.5,62.5,65,67.5,,67.5,117.5,125,137.5,,137.5,307.5,3
Brandi Sneed,IN,F,SBD,Raw,,Open,88.9,90,145,150,155,,155,92.5,97.5,100,,100,165,170,-180,,170,425,1
Julie Moeller,KY,F,SBD,Raw,,Masters 45-49,95.44,90+,-102.5,115,125,,125,47.5,55,-62.5,,55,125,135,-147.5,,135,315,1
Rachel Harrington,KY,F,BD,Raw,,Open,66.95,67.5,,,,,,50,55,-60,,55,125,135,140,,140,195,1
Troy Brown,,M,D,Raw,,Open,99.79,90+,,,,,,,,,,,-300,,,,,,DQ
Alyssa Natario,MA,F,SBD,Raw,21,Juniors 20-24,51.71,52,-80,-82.5,-82.5,,,45,47.5,-50,,47.5,97.5,100,110,,110,,DQ
Norma Barber,NY,F,SBD,Raw,56,Masters 55-59,65.68,67.5,42.5,45,50,,50,42.5,47.5,50,,50,72.5,80,82.5,,82.5,182.5,1
Kelsey Dudgeon,CT,F,SBD,Raw,21,Juniors 20-24,61.69,67.5,70,75,-82.5,,75,37.5,40,-42.5,,40,80,85,90,,90,205,4
Ashley Falandys,MA,F,SBD,Raw,29,Open,65.68,67.5,75,-85,-85,,75,42.5,-47.5,-47.5,,42.5,102.5,110,115,,115,232.5,12
Scott Fillion,MA,M,SBD,Raw,40,Masters 40-44,108.59,110,-190,-190,190,,190,-175,-175,-175,,-175,215,230,-240,,230,,DQ
Ari Kutin,NJ,M,SBD,Raw,13,Teen 12-13,60.51,67.5,90,100,107.5,,107.5,47.5,50,52.5,,52.5,97.5,,,,97.5,257.5,1
Ashlee Jasak,MA,F,SBD,Raw,32,Open,54.16,56,77.5,80,87.5,,87.5,52.5,57.5,-62.5,,57.5,110,120,-135,,120,265,5
Amanda-Rae Sullivan,CT,F,SBD,Raw,26,Open,72.39,75,92.5,97.5,102.5,,102.5,47.5,50,-55,,50,112.5,117.5,122.5,,122.5,275,6
Brian Shea,MA,M,SBD,Raw,17,Teen 16-17,76.29,82.5,100,105,-112.5,,105,52.5,60,65,,65,105,110,120,,120,290,3
Jennifer Matos,MA,F,SBD,Raw,31,Open,64.05,67.5,97.5,105,115,,115,57.5,67.5,-75,,67.5,120,130,140,,140,322.5,5
Josh Willis,MA,M,SBD,Raw,18,Teen 18-19,55.43,56,-105,110,122.5,,122.5,82.5,-85,-85,,82.5,115,125,-132.5,,125,330,1
Jack McGrath,MA,M,SBD,Raw,15,Teen 14-15,66.5,67.5,110,-117.5,122.5,,122.5,60,67.5,-77.5,,67.5,122.5,130,140,,140,330,1
Naomi Kutin,NJ,F,SBD,Raw,14,Open,55.79,56,125,-132.5,132.5,,132.5,52.5,-57.5,-57.5,,52.5,137.5,147.5,-157.5,,147.5,332.5,3
Naomi Kutin,NJ,F,SBD,Raw,14,Teen 14-15,55.79,56,125,-132.5,132.5,,132.5,52.5,-57.5,-57.5,,52.5,137.5,147.5,-157.5,,147.5,332.5,1
Lindsay Ferzoco,MA,F,SBD,Raw,31,Open,58.42,60,115,120,122.5,,122.5,67.5,72.5,75,,75,135,140,-147.5,,140,337.5,1
Dylan Bissonette,NY,M,SBD,Raw,24,Juniors 20-24,86.91,90,125,127.5,135,,135,80,82.5,-87.5,,82.5,142.5,-145,145,,145,362.5,7
Jake Freedman,NH,M,SBD,Raw,44,Masters 40-44,74.66,75,92.5,115,125,,125,125,-130,-132.5,,125,90,105,115,,115,365,1
Jon Demarais,NY,M,SBD,Raw,30,Open,70.03,75,132.5,142.5,-147.5,,142.5,107.5,112.5,-115,,112.5,162.5,172.5,-177.5,,172.5,427.5,8
Ambrose DeMarco,MA,M,SBD,Raw,19,Teen 18-19,63.41,67.5,142.5,152.5,160,,160,-92.5,97.5,-102.5,,97.5,165,182.5,190,,190,447.5,1
Larry Emerson,MA,M,SBD,Raw,68,Masters 65-69,80.74,82.5,142.5,150,155,,155,87.5,90,92.5,,92.5,205,215,220,,220,467.5,1
Scott Provost,CT,M,SBD,Raw,33,Open,80.01,82.5,155,162.5,170,,170,125,-130,-130,,125,187.5,192.5,205,,205,500,7
Thomas Van Langen,CT,M,SBD,Raw,26,Open,78.2,82.5,157.5,162.5,172.5,,172.5,135,140,145,,145,200,215,-227.5,,215,532.5,5
Joshua Hurwitz,MA,M,SBD,Raw,23,Juniors 20-24,84.1,90,152.5,162.5,167.5,,167.5,135,-142.5,142.5,,142.5,205,215,227.5,,227.5,537.5,4
Nicholas DiMinni,NJ,M,SBD,Raw,23,Open,74.84,75,230,-245,-245,,230,125,-140,-140,,125,217.5,-227.5,-227.5,,217.5,572.5,2
Nicholas DiMinni,NJ,M,SBD,Raw,23,Juniors 20-24,74.84,75,230,-245,-245,,230,125,-140,-140,,125,217.5,-227.5,-227.5,,217.5,572.5,1
Chad Dakin,MA,M,SBD,Raw,23,Juniors 20-24,87.18,90,185,197.5,202.5,,202.5,135,142.5,-145,,142.5,205,222.5,230,,230,575,3
Mike Rossi,MA,M,SBD,Raw,33,Open,96.52,100,185,197.5,-202.5,,197.5,135,142.5,-150,,142.5,222.5,242.5,-257.5,,242.5,582.5,5
Ed Kutin,NJ,M,SBD,Raw,53,Open,99.97,100,182.5,192.5,-200,,192.5,140,142.5,145,,145,230,245,-255,,245,582.5,6
David Lyons,NY,M,SBD,Raw,23,Open,79.83,82.5,207.5,215,222.5,,222.5,165,170,-172.5,,170,230,237.5,-240,,237.5,630,3
Jefferson Lett,MA,M,SBD,Raw,55,Masters 55-59,109.13,110,232.5,242.5,-250,,242.5,152.5,160,165,,165,257.5,277.5,,,277.5,685,1
Cameron Gillespie,CT,M,BD,Raw,28,Open,144.61,140+,,,,,,210,217.5,-222.5,,217.5,295,317.5,330,,330,547.5,1
Raymond Barber,NY,M,B,Raw,58,Masters 55-59,74.48,75,,,,,,87.5,-92.5,-92.5,,87.5,,,,,,87.5,3
John Bessette,NC,M,B,Raw,58,Masters 55-59,81.56,82.5,,,,,,130,-140,-140,,130,,,,,,130,1
Robert Cutts,MA,M,B,Raw,56,Masters 55-59,179.17,140+,,,,,,192.5,200.5,205,207.5,205,,,,,,205,1
Taran Richter,MA,M,D,Raw,18,Teen 18-19,79.65,82.5,,,,,,,,,,,165,182.5,190,,190,190,2
Allision Cross,MD,F,SBD,Raw,27,Open,50.35,52,,,,,100,,,,,60,,,,,132.5,292.5,2
Megan Bruce,MD,F,SBD,Raw,16,Teen 16-17,50.35,52,,,,,55,,,,,25,,,,,60,140,2
Nicole Tomkins-Flagg,MD,F,SBD,Raw,28,Open,54.88,56,,,,,95,,,,,50,,,,,110,255,6
Melissa Barber,MD,F,SBD,Raw,28,Open,56,56,,,,,125,,,,,67.5,,,,,192.5,385,1
Tensley Clowser,VA,F,SBD,Raw,21,Juniors 20-24,53.52,56,,,,,102.5,,,,,65,,,,,147.5,315,1
Lauren Parrinello,MD,F,SBD,Raw,23,Juniors 20-24,59.42,60,,,,,102.5,,,,,65,,,,,130,297.5,3
Angela Baker,MD,F,SBD,Raw,47,Masters 45-49,58.06,60,,,,,45,,,,,40,,,,,85,170,1
Elia Goffi,MD,F,SBD,Raw,18,Teen 18-19,65.77,67.5,,,,,85,,,,,47.5,,,,,117.5,250,1
Mary Beth Flagg,DE,F,SBD,Raw,56,Masters 55-59,66.22,67.5,,,,,47.5,,,,,37.5,,,,,92.5,177.5,2
Kelly Chance,VA,F,SBD,Raw,29,Open,67.5,67.5,,,,,120,,,,,80,,,,,145,345,1
Rose BrownEagle,MD,F,SBD,Raw,30,Open,83.46,90,,,,,117.5,,,,,65,,,,,152.5,335,6
Erin Antroinen,MD,F,SBD,Raw,32,Open,,90+,,,,,112.5,,,,,75,,,,,137.5,325,2
Raymond Kaminski,PA,M,SBD,Raw,11,Youth,67.5,67.5,,,,,47.5,,,,,27.5,,,,,82.5,157.5,1
Conner Maloney,MD,M,SBD,Raw,15,Teen 14-15,68.04,75,,,,,95,,,,,50,,,,,130,275,1
Steven Clayton,MD,M,SBD,Raw,19,Teen 18-19,73.48,75,,,,,175,,,,,125,,,,,207.5,507.5,2
Ryan Kirkpatrick,VA,M,SBD,Raw,26,Open,71.67,75,,,,,127.5,,,,,105,,,,,175,407.5,9
Adam Silverman,DC,M,SBD,Raw,22,Juniors 20-24,72.57,75,,,,,135,,,,,107.5,,,,,182.5,425,5
Joseph DeSimone,MD,M,SBD,Raw,24,Juniors 20-24,73.48,75,,,,,160,,,,,122.5,,,,,205,487.5,2
Robert Velisek,MD,M,SBD,Raw,25,Open,80.74,82.5,,,,,162.5,,,,,120,,,,,170,452.5,10
Daniel Flagg,MD,M,SBD,Raw,26,Open,80.74,82.5,,,,,125,,,,,85,,,,,185,395,13
John Anderson,NY,M,SBD,Raw,27,Open,81.65,82.5,,,,,132.5,,,,,115,,,,,165,412.5,12
Cody Collier,MD,M,SBD,Raw,28,Open,89.36,90,,,,,235,,,,,140,,,,,262.5,637.5,2
Matthew Smith #16,PA,M,SBD,Raw,30,Open,88,90,,,,,197.5,,,,,125,,,,,267.5,590,6
Sylvester Joosten,PA,M,SBD,Raw,30,Open,88,90,,,,,165,,,,,100,,,,,230,495,15
Benjamin Coe,MD,M,SBD,Raw,27,Open,90,90,,,,,155,,,,,155,,,,,192.5,502.5,14
Jacobi Crawley,MD,M,SBD,Raw,28,Open,90,90,,,,,185,,,,,140,,,,,227.5,552.5,9
Gene Santomartino,MD,M,SBD,Raw,51,Open,88.9,90,,,,,192.5,,,,,145,,,,,263.5,601,5
Gene Santomartino,MD,M,SBD,Raw,51,Masters 50-54,88.9,90,,,,,192.5,,,,,145,,,,,263.5,601,1
Jeff Simmons,MD,M,SBD,Raw,25,Open,92.53,100,,,,,157.5,,,,,132.5,,,,,262.5,552.5,9
Michael Eaton,MD,M,SBD,Raw,39,Open,107.05,110,,,,,290,,,,,172.5,,,,,365,827.5,1
Jakob Eide,MD,M,SBD,Raw,21,Juniors 20-24,100.7,110,,,,,200,,,,,130,,,,,250,580,3
Michael Eaton,MD,M,SBD,Raw,39,Submasters 35-39,107.05,110,,,,,290,,,,,172.5,,,,,365,827.5,1
John Flagg,MD,M,SBD,Raw,32,Open,114.76,125,,,,,232.5,,,,,170,,,,,280,682.5,4
Andrew Sien,MD,M,SBD,Raw,16,Teen 16-17,123.38,125,,,,,210,,,,,120,,,,,240,570,1
Wayne LaFleur,MD,M,SBD,Raw,43,Masters 40-44,120.66,125,,,,,195,,,,,160,,,,,197.5,552.5,2
John S. Jones Jr,MD,M,SBD,Raw,29,Open,125.65,140,,,,,262.5,,,,,210,,,,,280,752.5,1
Shane Green,MD,M,SBD,Raw,35,Submasters 35-39,152.41,140+,,,,,207.5,,,,,135,,,,,240,582.5,1
Kelly Chance,VA,F,B,Raw,29,Open,67.5,67.5,,,,,,,,,,80,,,,,,80,1
Karen Posey,MD,F,B,Raw,55,Masters 55-59,114.31,90+,,,,,,,,,,52.5,,,,,,52.5,1
Randy Elbert,MD,M,B,Raw,46,Open,88.9,90,,,,,,,,,,150,,,,,,150,10
Randy Elbert,MD,M,B,Raw,46,Masters 45-49,88.9,90,,,,,,,,,,150,,,,,,150,2
Khristopher Jordan,MD,M,B,Raw,30,Open,97.98,100,,,,,,,,,,145,,,,,,145,2
Bob Muretta,VA,M,B,Raw,44,Open,107.95,110,,,,,,,,,,160,,,,,,160,3
Bob Muretta,VA,M,B,Raw,44,Masters 40-44,107.95,110,,,,,,,,,,160,,,,,,160,2
Biviana Seijo,DC,F,D,Raw,41,Masters 40-44,64.86,67.5,,,,,,,,,,,,,,,145.5,145.5,1
Cara Vargas,VA,F,D,Raw,33,Open,74.39,75,,,,,,,,,,,,,,,152.5,152.5,1
Brandon Powell,MD,M,D,Raw,16,Teen 16-17,56,56,,,,,,,,,,,,,,,125,125,1
James Baskkin,DC,M,D,Raw,26,Open,88,90,,,,,,,,,,,,,,,227.5,227.5,3
Gene Santomartino,MD,M,D,Raw,51,Masters 50-54,88.9,90,,,,,,,,,,,,,,,263.5,263.5,1
Roy Apseloff,VA,M,D,Raw,58,Masters 55-59,89.36,90,,,,,,,,,,,,,,,250,250,1
Michael Eaton,MD,M,D,Raw,39,Open,107.05,110,,,,,,,,,,,,,,,365,365,1
Michael Eaton,MD,M,D,Raw,39,Submasters 35-39,107.05,110,,,,,,,,,,,,,,,365,365,1
Larry Carroll,DC,M,D,Raw,48,Masters 45-49,106.59,110,,,,,,,,,,,,,,,227.5,227.5,1
Natasha Navarro,FL,F,BD,Raw,21,Juniors 20-24,49.44,52,,,,,,60,,,,60,,,,,135,195,1
Linda Leightley,VA,F,BD,Raw,71,Masters 70-74,59.42,60,,,,,,45,,,,45,,,,,122.5,167.5,1
Cara Vargas,VA,F,BD,Raw,33,Open,74.39,75,,,,,,72.5,,,,72.5,,,,,152.5,225,1
Graham Bartholomew,MD,M,BD,Raw,57,Masters 55-59,88.45,90,,,,,,82.5,,,,82.5,,,,,207.5,290,1
Bruce Knox,MD,M,BD,Raw,30,Open,107.95,110,,,,,,185,,,,185,,,,,287.5,472.5,1
Larry Carroll,DC,M,BD,Raw,48,Masters 45-49,106.59,110,,,,,,150,,,,150,,,,,227.5,377.5,1
Brooke Zak,NC,F,SBD,Raw,,Youth,34.93,44,25,30,35,,35,12,14.5,17,,17,37.5,50,55,,55,107,2
Mackenzie Taylor,NC,F,SBD,Raw,,Youth,31.21,44,20,30,35,,35,12,15,-18,,15,-47.5,50,,,50,100,3
Anna Zak,NC,F,SBD,Raw,,Teen 12-13,46.99,48,30,-40,-45,,30,15,19.5,-24.5,,19.5,50,60,65,114.5,65,,DQ
Jessica Smith,NC,F,SBD,Raw,,Open,51.62,52,75,85,91.5,,91.5,45,47.5,48,-53,48,100,110,117.5,122.5,117.5,257,4
John Buck Ammons,NC,M,SBD,Raw,,Open,50.53,52,75,82.5,92.5,,92.5,55,-57.5,-57.5,,55,100,122.5,132.5,,132.5,280,1
John Buck Ammons,NC,M,SBD,Raw,,Teen 16-17,50.53,52,75,82.5,92.5,,92.5,55,-57.5,-57.5,,55,100,122.5,132.5,,132.5,280,1
Allison Broughton,NC,F,SBD,Raw,,Open,55.7,56,70,75,-80,,75,40,-42.5,-42.5,,40,75,80,85,,85,200,8
Rachel Jordan,NC,F,SBD,Raw,,Open,59.51,60,90,97.5,100,,100,57.5,62.5,67.5,,67.5,117.5,125,130,,130,297.5,4
Kate Rupert,NC,F,SBD,Raw,,Open,66.95,67.5,-85,-95,-95,,-85,60,-65,65,,65,95,105,112.5,,112.5,,DQ
Lori Bailey,NC,F,SBD,Raw,,Open,63.59,67.5,80,-87.5,-96,,80,55,60,65.5,,65.5,80,92.5,107.5,,107.5,253,9
Ben Zak,NC,M,SBD,Raw,,Open,67.04,67.5,110,123,-130,,123,90,100,-105,,100,153,168,,,168,391,5
Thomas Miele,NC,M,SBD,Raw,,Teen 16-17,62.23,67.5,-75,75,77.5,,77.5,-50,-52.5,-52.5,,,100,105,110,,110,,DQ
Hanna Holden,NC,F,SBD,Raw,,Open,74.39,75,95,100,-108,,100,50,55,-57.5,,55,110,120,127.5,-146.5,127.5,282.5,5
Hanna Holden,NC,F,SBD,Raw,,Teen 16-17,74.39,75,95,100,-108,,100,50,55,-57.5,,55,110,120,127.5,-146.5,127.5,282.5,1
Jenn Zak,NC,F,SBD,Raw,,Open,70.13,75,82.5,87.5,,,87.5,45,50,-55,,50,100,108,115,,115,252.5,7
Jenn Zak,NC,F,SBD,Raw,,Submasters 35-39,70.13,75,82.5,87.5,,,87.5,45,50,-55,,50,100,108,115,,115,252.5,1
Tim Metcalf,NC,M,SBD,Raw,,Masters 55-59,74.93,75,80,92.5,-102.5,,92.5,92.5,102.5,-110,,102.5,137.5,145,147.5,,147.5,342.5,2
Kevin Outland,NC,M,SBD,Raw,,Open,73.03,75,142.5,152.5,-160,,152.5,122.5,130,135,,135,172.5,182.5,190,,190,477.5,5
Kevin Outland,NC,M,SBD,Raw,,Masters 45-49,73.03,75,142.5,152.5,-160,,152.5,122.5,130,135,,135,172.5,182.5,190,,190,477.5,1
Andrew Boca,NC,M,SBD,Raw,,Teen 16-17,81.1,82.5,-92.5,92.5,100,,100,62.5,65,70,,70,140,147.5,157.5,,157.5,327.5,2
Carlita Farmer,NC,F,SBD,Raw,,Open,81.47,82.5,125,142.5,155,,155,82.5,92.5,-97.5,,92.5,165,185,192.5,197.5,192.5,440,1
Allyson Sarnowski,NC,F,SBD,Raw,,Open,82.01,82.5,55,62.5,67.5,,67.5,45,-47.5,-47.5,,45,100,117.5,127.5,,127.5,240,8
Carlita Farmer,NC,F,SBD,Raw,,Juniors 20-24,81.47,82.5,125,142.5,155,,155,82.5,92.5,-97.5,,92.5,165,185,192.5,197.5,192.5,440,1
Allyson Sarnowski,NC,F,SBD,Raw,,Teen 16-17,82.01,82.5,55,62.5,67.5,,67.5,45,-47.5,-47.5,,45,100,117.5,127.5,,127.5,240,1
Yogi Frank Sumner,NC,M,SBD,Raw,,Masters 65-69,79.83,82.5,62.5,80,82.5,,82.5,70,75,80,,80,115,120,125,287.5,125,,DQ
Brandon Pettit,NC,M,SBD,Raw,,Open,81.37,82.5,195,210,227.5,,227.5,110,120,135,,135,235,260,285,,285,647.5,2
Aryah Seymore,NC,F,SBD,Raw,,Open,86.55,90,90,92.5,97.5,,97.5,60,62.5,65,,65,125,132.5,137.5,,137.5,300,7
Brandon Pettit,NC,M,SBD,Raw,,Juniors 20-24,81.37,82.5,195,210,227.5,,227.5,110,120,135,,135,235,260,285,,285,647.5,2
Aryah Seymore,NC,F,SBD,Raw,,Teen 14-15,86.55,90,90,92.5,97.5,,97.5,60,62.5,65,,65,125,132.5,137.5,,137.5,300,1
Josh Cue,NC,M,SBD,Raw,,Open,89.27,90,165,180,190,,190,122.5,130,132.5,,132.5,220,232.5,237.5,,237.5,560,8
Mark Garrett,VA,M,SBD,Raw,,Open,88.72,90,165,175,185,,185,127.5,132.5,-137.5,,132.5,217.5,227.5,-235,,227.5,545,10
Brian McIntyre,VA,M,SBD,Raw,,Open,87.18,90,170,-180,180,,180,132.5,137.5,-142.5,,137.5,192.5,205,-217.5,,205,522.5,12
DeMarion Farmer,NC,M,SBD,Raw,,Open,99.7,100,185,192.5,202.5,,202.5,142,152.5,-162.5,,152.5,227.5,240,252.5,,252.5,607.5,3
Donald Beishl,NC,M,SBD,Raw,,Open,96.16,100,180,187.5,-192.5,,187.5,130,-137.5,137.5,,137.5,225,-237.5,237.5,,237.5,562.5,8
Mario Todorov,NC,M,SBD,Raw,,Open,96.34,100,-182.5,-185,185,,185,142.5,-150,-150,,142.5,195,-220,-220,,195,522.5,12
Ray Berry,NC,M,SBD,Raw,,Open,96.52,100,135,145,155,,155,125,132.5,140,,140,185,195,200,,200,495,14
Ira Brooks,VA,M,SBD,Raw,,Open,98.7,100,115,122.5,-137.5,,122.5,92.5,-102.5,-102.5,,92.5,137.5,147.5,160,,160,375,15
Cameron Maxwell,NJ,M,SBD,Raw,,Open,98.52,100,227.5,240.25,-250,,240.25,-185,-185,-185,,,260,-277.5,-277.5,,260,,DQ
Chance Henderson,NC,M,SBD,Raw,,Open,99.7,100,-165,-165,-165,,-165,92.5,100,-107.5,,100,150,170,185,,185,,DQ
Gene Berry,NC,M,SBD,Raw,,Open,109.41,110,190,-200,200,,200,140,145,150,,150,195,205,217.5,,217.5,567.5,4
Nolan Toti,NC,M,SBD,Raw,,Open,106.59,110,142.5,162.5,190,,190,120,130,142.5,,142.5,185,207.5,215,,215,547.5,5
James Bright,NC,M,SBD,Raw,,Open,127.55,140,185,200,205,,205,-100,100,-107.5,,100,180,205,-207.5,,205,510,6
Joey Markel,NC,M,SBD,Raw,,Open,157.12,140+,75,92.5,125,,125,75,80,85,,85,150,172.5,182.5,,182.5,392.5,2
Ray Berry,NC,M,SBD,Raw,,Masters 55-59,96.52,100,135,145,155,,155,125,132.5,140,,140,185,195,200,,200,495,3
Ira Brooks,VA,M,SBD,Raw,,Masters 70-74,98.7,100,115,122.5,-137.5,,122.5,92.5,-102.5,-102.5,,92.5,137.5,147.5,160,,160,375,1
Cameron Maxwell,NJ,M,SBD,Raw,,Teen 18-19,98.52,100,227.5,240.25,-250,,240.25,-185,-185,-185,,,260,-277.5,-277.5,,260,,DQ
Chance Henderson,NC,M,SBD,Raw,,Teen 16-17,99.7,100,-165,-165,-165,,,92.5,100,-107.5,,100,150,170,185,,185,,DQ
Gene Berry,NC,M,SBD,Raw,,Masters 55-59,109.41,110,190,-200,200,,200,140,145,150,,150,195,205,217.5,,217.5,567.5,2
Nolan Toti,NC,M,SBD,Raw,,Teen 16-17,106.59,110,142.5,162.5,190,,190,120,130,142.5,,142.5,185,207.5,215,,215,547.5,2
James Bright,NC,M,SBD,Raw,,Teen 18-19,127.55,140,185,200,205,,205,-100,100,-107.5,,100,180,205,-207.5,,205,510,1
Joey Markel,NC,M,SBD,Raw,,Juniors 20-24,157.12,140+,75,92.5,125,,125,75,80,85,,85,150,172.5,182.5,,182.5,392.5,2
Ashely Christiansen,NC,F,BD,Raw,,Teen 16-17,44,44,,,,,,37.5,41,44,-46,44,67.5,71.5,78,79.5,78,122,1
Marshall Cooper,NC,M,BD,Raw,,Youth,25.58,48,,,,,,13,-16,-16,,13,37.5,-47.5,-47.5,,37.5,50.5,1
Jessica Smith,NC,F,BD,Raw,,Open,51.62,52,,,,,,45,47.5,48,-53,48,100,110,117.5,122.5,117.5,165.5,3
John Buck Ammons,NC,M,BD,Raw,,Open,50.53,52,,,,,,55,-57.5,-57.5,,55,100,122.5,132.5,,132.5,187.5,1
Jessica Smith,NC,F,BD,Raw,,Teen 16-17,51.62,52,,,,,,45,47.5,48,-53,48,100,110,117.5,122.5,117.5,165.5,1
John Buck Ammons,NC,M,BD,Raw,,Teen 16-17,50.53,52,,,,,,55,-57.5,-57.5,,55,100,122.5,132.5,,132.5,187.5,1
Dylan Cooper,NC,M,BD,Raw,,Youth,49.08,52,,,,,,19.5,-24.5,,,19.5,50,-65,65,,65,84.5,1
Kelly Wescott,NC,F,BD,Raw,,Masters 55-59,57.88,60,,,,,,52.5,57.5,60,61,60,57.5,67.5,77.5,85,77.5,137.5,2
Rachel Jordan,NC,F,BD,Raw,,Open,59.51,60,,,,,,57.5,62.5,67.5,,67.5,117.5,125,130,,130,197.5,1
Lauren Cooper,NC,F,BD,Raw,,Open,59.96,60,,,,,,45,47.5,-52.5,,47.5,100,112.5,122.5,,122.5,170,3
Kate Rupert,NC,F,BD,Raw,,Open,66.95,67.5,,,,,,60,-65,65,,65,95,105,112.5,,112.5,177.5,3
Rachel Jordan,NC,F,BD,Raw,,Juniors 20-24,59.51,60,,,,,,57.5,62.5,67.5,,67.5,117.5,125,130,,130,197.5,1
Lauren Cooper,NC,F,BD,Raw,,Teen 18-19,59.96,60,,,,,,45,47.5,-52.5,,47.5,100,112.5,122.5,,122.5,170,1
Kate Rupert,NC,F,BD,Raw,,Masters 40-44,66.95,67.5,,,,,,60,-65,65,,65,95,105,112.5,,112.5,177.5,1
Fred Wescott,NC,M,BD,Raw,,Masters 60-64,67.13,67.5,,,,,,85,-92.5,,,85,170,182.5,-192.5,,182.5,267.5,1
Ben Zak,NC,M,BD,Raw,,Open,67.04,67.5,,,,,,90,100,-105,,100,153,168,,,168,268,1
Ben Zak,NC,M,BD,Raw,,Masters 45-49,67.04,67.5,,,,,,90,100,-105,,100,153,168,,,168,268,1
Thomas Miele,NC,M,BD,Raw,,Teen 16-17,62.23,67.5,,,,,,-50,-52.5,-52.5,,,100,105,110,,110,,DQ
Hanna Holden,NC,F,BD,Raw,,Open,74.39,75,,,,,,50,55,-57.5,,55,110,120,127.5,146.5,127.5,182.5,3
Jenn Zak,NC,F,BD,Raw,,Open,70.13,75,,,,,,45,50,-55,,50,100,108,115,,115,165,4
Hanna Holden,NC,F,BD,Raw,,Teen 16-17,74.39,75,,,,,,50,55,-57.5,,55,110,120,127.5,146.5,127.5,182.5,1
Jenn Zak,NC,F,BD,Raw,,Submasters 35-39,70.13,75,,,,,,45,50,-55,,50,100,108,115,,115,165,1
Kristina-Marie Coleman,VA,F,BD,Raw,,Teen 18-19,71.3,75,,,,,,67.5,77.5,-85,,77.5,122.5,147.5,152.5,,152.5,230,1
Kevin Outland,NC,M,BD,Raw,,Open,73.03,75,,,,,,122.5,130,135,,135,172.5,182.5,190,,190,325,1
Kevin Outland,NC,M,BD,Raw,,Masters 45-49,73.03,75,,,,,,122.5,130,135,,135,172.5,182.5,190,,190,325,1
Yogi Frank Sumner,NC,M,BD,Raw,,Masters 65-69,79.83,82.5,,,,,,70,75,80,,80,115,120,125,,125,205,1
Hyacinth Joseph,NC,F,BD,Raw,,Masters 55-59,86.36,90,,,,,,72.5,80,-82.5,,80,100,117.5,125,127.5,125,205,1
Ray Berry,NC,M,BD,Raw,,Open,96.52,100,,,,,,125,132.5,140,,140,185,195,200,,200,340,2
Chance Henderson,NC,M,BD,Raw,,Open,99.7,100,,,,,,92.5,100,-107.5,,100,150,170,185,,185,285,3
Ira Brooks,VA,M,BD,Raw,,Open,98.7,100,,,,,,92.5,-102.5,-102.5,,92.5,137.5,,,,137.5,230,4
Gene Berry,NC,M,BD,Raw,,Open,109.41,110,,,,,,140,145,150,,150,195,205,217.5,,217.5,367.5,2
Nolan Toti,NC,M,BD,Raw,,Open,106.59,110,,,,,,120,130,142.5,,142.5,185,207.5,215,,215,357.5,3
Ray Berry,NC,M,BD,Raw,,Masters 55-59,96.52,100,,,,,,125,132.5,140,,140,185,195,200,,200,340,2
Chance Henderson,NC,M,BD,Raw,,Teen 16-17,99.7,100,,,,,,92.5,100,-107.5,,100,150,170,185,,185,285,1
Ira Brooks,VA,M,BD,Raw,,Masters 70-74,98.7,100,,,,,,92.5,-102.5,-102.5,,92.5,137.5,,,,137.5,230,1
Gene Berry,NC,M,BD,Raw,,Masters 55-59,109.41,110,,,,,,140,145,150,,150,195,205,217.5,,217.5,367.5,1
Nolan Toti,NC,M,BD,Raw,,Teen 16-17,106.59,110,,,,,,120,130,142.5,,142.5,185,207.5,215,,215,357.5,1
Samuel Kurtich,NC,M,BD,Raw,,Teen 14-15,107.73,110,,,,,,50,52.5,-55,,52.5,100,110,125,,125,177.5,1
James Bright,NC,M,BD,Raw,,Open,127.55,140,,,,,,-100,100,-107.5,,100,180,205,-207.5,,205,305,2
Joey Markel,NC,M,BD,Raw,,Open,157.12,140+,,,,,,75,80,85,,85,150,172.5,182.5,,182.5,267.5,3
Jessica Smith,NC,F,B,Raw,,Open,51.62,52,,,,,,45,47.5,48,-53,48,,,,,,48,2
John Buck Ammons,NC,M,B,Raw,,Open,50.53,52,,,,,,55,-57.5,-57.5,,55,,,,,,55,1
James Bright,NC,M,BD,Raw,,Teen 18-19,127.55,140,,,,,,-100,100,-107.5,,100,180,205,-207.5,,205,305,1
Joey Markel,NC,M,BD,Raw,,Juniors 20-24,157.12,140+,,,,,,75,80,85,,85,150,172.5,182.5,,182.5,267.5,1
Jessica Smith,NC,F,B,Raw,,Teen 16-17,51.62,52,,,,,,45,47.5,48,-53,48,,,,,,48,1
John Buck Ammons,NC,M,B,Raw,,Teen 16-17,50.53,52,,,,,,55,-57.5,-57.5,,55,,,,,,55,1
Dylan Cooper,NC,M,B,Raw,,Youth,49.08,52,,,,,,13,19.5,-24.5,,19.5,,,,,,19.5,1
Rachel Jordan,NC,F,B,Raw,,Juniors 20-24,59.51,60,,,,,,57.5,62.5,67.5,,67.5,,,,,,67.5,1
Kelly Wescott,NC,F,B,Raw,,Masters 55-59,57.88,60,,,,,,52.5,57.5,60,61,60,,,,,,60,1
Lauren Cooper,NC,F,B,Raw,,Teen 18-19,59.96,60,,,,,,45,47.5,-52.5,,47.5,,,,,,47.5,1
Kate Rupert,NC,F,B,Raw,,Open,66.95,67.5,,,,,,60,-65,65,,65,,,,,,65,4
Tim Metcalf,NC,M,B,Raw,,Masters 55-59,74.93,75,,,,,,92.5,102.5,-110,,102.5,,,,,,102.5,2
Ben Zak,NC,M,B,Raw,,Masters 45-49,67.04,67.5,,,,,,90,100,-105,,100,,,,,,100,1
Fred Wescott,NC,M,B,Raw,,Masters 60-64,67.13,67.5,,,,,,85,-92.5,,,85,,,,,,85,1
Thomas Miele,NC,M,B,Raw,,Teen 16-17,62.23,67.5,,,,,,-50,-52.5,-52.5,,-50,,,,,,,DQ
Randy Elbert,MD,M,B,Raw,46,Open,89,90,,,,,,145,150,155,,155,,,,,,155,3
Jim McKenna,PA,M,B,Raw,67,Open,89.1,90,,,,,,142.5,-145,-145,,142.5,,,,,,142.5,12
Randy Elbert,MD,M,B,Raw,46,Open,89,90,,,,,,145,150,155,,155,,,,,,155,4
Jim McKenna,PA,M,B,Raw,67,Open,89.1,90,,,,,,142.5,-145,-145,,142.5,,,,,,142.5,13
Randy Elbert,MD,M,B,Raw,46,Open,89,90,,,,,,145,150,155,,155,,,,,,155,5
Jim McKenna,PA,M,B,Raw,67,Open,89.1,90,,,,,,142.5,-145,-145,,142.5,,,,,,142.5,14
Randy Elbert,MD,M,B,Raw,46,Open,89,90,,,,,,145,150,155,,155,,,,,,155,6
Jim McKenna,PA,M,B,Raw,67,Open,89.1,90,,,,,,142.5,-145,-145,,142.5,,,,,,142.5,15
Randy Elbert,MD,M,B,Raw,46,Open,89,90,,,,,,145,150,155,,155,,,,,,155,7
Jim McKenna,PA,M,B,Raw,67,Open,89.1,90,,,,,,142.5,-145,-145,,142.5,,,,,,142.5,16
Randy Elbert,MD,M,B,Raw,46,Open,89,90,,,,,,145,150,155,,155,,,,,,155,8
Kristina-Marie Coleman,VA,F,B,Raw,,Teen 18-19,71.3,75,,,,,,67.5,77.5,-85,,77.5,,,,,,77.5,1
Hanna Holden,NC,F,B,Raw,,Teen 16-17,74.39,75,,,,,,50,55,-57.5,,55,,,,,,55,1
Jenn Zak,NC,F,B,Raw,,Submasters 35-39,70.13,75,,,,,,45,50,-55,,50,,,,,,50,1
Yogi Frank Sumner,NC,M,B,Raw,,Masters 65-69,79.83,82.5,,,,,,70,75,80,,80,,,,,,80,1
John Cooper,NC,M,B,Raw,,Masters 40-44,89.18,90,,,,,,137.5,140,142.5,,142.5,,,,,,142.5,1
Ray Matusko,NC,M,B,Raw,,Masters 50-54,98.52,100,,,,,,150,162.5,-170,,162.5,,,,,,162.5,1
Ray Berry,NC,M,B,Raw,,Masters 55-59,96.52,100,,,,,,125,132.5,140,,140,,,,,,140,1
Ira Brooks,VA,M,B,Raw,,Masters 70-74,98.7,100,,,,,,92.5,-102.5,-102.5,,92.5,,,,,,92.5,1
Chance Henderson,NC,M,B,Raw,,Teen 16-17,99.7,100,,,,,,92.5,100,-107.5,,100,,,,,,100,1
Gary Edwards,NC,M,B,Raw,,Law/Fire/Military,108.86,110,,,,,,-145,145,150,,150,,,,,,150,2
Gary Edwards,NC,M,B,Raw,,Masters 50-54,108.86,110,,,,,,-145,145,150,,150,,,,,,150,3
Gene Berry,NC,M,B,Raw,,Masters 55-59,109.41,110,,,,,,140,145,150,,150,,,,,,150,1
James Clark,NC,M,B,Raw,,Masters 60-64,102.6,110,,,,,,115,124,125,,125,,,,,,125,1
Raven Atkins,NC,M,B,Raw,,Teen 14-15,104.14,110,,,,,,-72.5,72.5,80,,80,,,,,,80,2
Samuel Kurtich,NC,M,B,Raw,,Teen 14-15,107.73,110,,,,,,50,52.5,-55,,52.5,,,,,,52.5,3
Chris Ritter,NC,M,B,Raw,,Teen 16-17,105.96,110,,,,,,-90,-90,-92.5,,-90,,,,,,,DQ
Patrick McMillan,VA,M,B,Raw,,Law/Fire/Military,122.47,125,,,,,,190,200,206,210,206,,,,,,206,1
Patrick McMillan,VA,M,B,Raw,,Open,122.47,125,,,,,,190,200,206,210,206,,,,,,206,1
Clifton Burse,VA,M,B,Raw,,Open,123.92,125,,,,,,-197.5,197.5,-206,,197.5,,,,,,197.5,2
Matt Beickert,NC,M,B,Raw,,Law/Fire/Military,120.2,125,,,,,,142.5,152.5,-160,,152.5,,,,,,152.5,2
Carl Elliott,NC,M,B,Raw,,Law/Fire/Military,129.73,140,,,,,,190,200,205,-210,205,,,,,,205,1
Matt Beickert,NC,M,B,Raw,,Open,120.2,125,,,,,,142.5,152.5,-160,,152.5,,,,,,152.5,5
Carl Elliott,NC,M,B,Raw,,Open,129.73,140,,,,,,190,200,205,-210,205,,,,,,205,1
James Bright,NC,M,B,Raw,,Open,127.55,140,,,,,,-100,100,-107.5,,100,,,,,,100,3
Joey Markel,NC,M,B,Raw,,Open,157.12,140+,,,,,,75,80,85,,85,,,,,,85,3
Patrick McMillan,VA,M,B,Raw,,Masters 40-44,122.47,125,,,,,,190,200,206,210,206,,,,,,206,1
Clifton Burse,VA,M,B,Raw,,Masters 55-59,123.92,125,,,,,,-197.5,197.5,-206,,197.5,,,,,,197.5,1
Matt Beickert,NC,M,B,Raw,,Masters 45-49,120.2,125,,,,,,142.5,152.5,-160,,152.5,,,,,,152.5,1
Carl Elliott,NC,M,B,Raw,,Masters 40-44,129.73,140,,,,,,190,200,205,-210,205,,,,,,205,1
James Bright,NC,M,B,Raw,,Teen 18-19,127.55,140,,,,,,-100,100,-107.5,,100,,,,,,100,1
Joey Markel,NC,M,B,Raw,,Juniors 20-24,157.12,140+,,,,,,75,80,85,,85,,,,,,85,1
Marshall Cooper,NC,M,D,Raw,,Youth,25.58,48,,,,,,,,,,,37.5,-47.5,-47.5,,37.5,37.5,1
Jessica Smith,NC,F,D,Raw,,Teen 16-17,51.62,52,,,,,,,,,,,100,110,117.5,122.5,117.5,117.5,1
John Buck Ammons,NC,M,D,Raw,,Open,50.53,52,,,,,,,,,,,100,122.5,132.5,,132.5,132.5,1
John Buck Ammons,NC,M,D,Raw,,Teen 16-17,50.53,52,,,,,,,,,,,100,122.5,132.5,,132.5,132.5,1
Dylan Cooper,NC,M,D,Raw,,Youth,49.08,52,,,,,,,,,,,50,-65,65,,65,65,1
Rachel Jordan,NC,F,D,Raw,,Open,59.51,60,,,,,,,,,,,117.5,125,130,,130,130,1
Lauren Cooper,NC,F,D,Raw,,Open,59.96,60,,,,,,,,,,,100,112.5,122.5,,122.5,122.5,2
Kelly Wescott,NC,F,D,Raw,,Open,57.88,60,,,,,,,,,,,57.5,67.5,77.5,85,77.5,77.5,3
Fred Wescott,NC,M,D,Raw,,Open,67.13,67.5,,,,,,,,,,,170,182.5,-192.5,,182.5,182.5,1
Ben Zak,NC,M,D,Raw,,Open,67.04,67.5,,,,,,,,,,,153,168,,,168,168,2
Tim Metcalf,NC,M,D,Raw,,Open,74.93,75,,,,,,,,,,,137.5,145,147.5,,147.5,147.5,1
Thomas Miele,NC,M,D,Raw,,Open,62.23,67.5,,,,,,,,,,,100,105,110,,110,110,3
Rachel Jordan,NC,F,D,Raw,,Juniors 20-24,59.51,60,,,,,,,,,,,117.5,125,130,,130,130,1
Lauren Cooper,NC,F,D,Raw,,Teen 18-19,59.96,60,,,,,,,,,,,100,112.5,122.5,,122.5,122.5,1
Kelly Wescott,NC,F,D,Raw,,Masters 55-59,57.88,60,,,,,,,,,,,57.5,67.5,77.5,85,77.5,77.5,1
Fred Wescott,NC,M,D,Raw,,Masters 60-64,67.13,67.5,,,,,,,,,,,170,182.5,-192.5,,182.5,182.5,1
Ben Zak,NC,M,D,Raw,,Masters 45-49,67.04,67.5,,,,,,,,,,,153,168,,,168,168,1
Tim Metcalf,NC,M,D,Raw,,Masters 55-59,74.93,75,,,,,,,,,,,137.5,145,147.5,,147.5,147.5,1
Thomas Miele,NC,M,D,Raw,,Teen 16-17,62.23,67.5,,,,,,,,,,,100,105,110,,110,110,1
Kristina-Marie Coleman,VA,F,D,Raw,,Teen 18-19,71.3,75,,,,,,,,,,,122.5,147.5,152.5,,152.5,152.5,1
Hanna Holden,NC,F,D,Raw,,Teen 16-17,74.39,75,,,,,,,,,,,110,120,127.5,-147,127.5,127.5,1
Jenn Zak,NC,F,D,Raw,,Submasters 35-39,70.13,75,,,,,,,,,,,100,108,115,,115,115,1
Hanna Holden,NC,F,D,Raw,,Open,74.39,75,,,,,,,,,,,110,120,127.5,,127.5,127.5,2
Jenn Zak,NC,F,D,Raw,,Open,70.13,75,,,,,,,,,,,100,108,115,,115,115,3
Garrett Hence,VA,M,D,Raw,,Open,81.37,82.5,,,,,,,,,,,-292.5,-292.5,-292.5,,,,DQ
Cameron Maxwell,NJ,M,D,Raw,,Open,98.52,100,,,,,,,,,,,260,-277.5,-277.5,,260,260,1
Ray Berry,NC,M,D,Raw,,Open,96.52,100,,,,,,,,,,,185,195,200,,200,200,2
Chance Henderson,NC,M,D,Raw,,Open,99.7,100,,,,,,,,,,,150,170,185,,185,185,3
Ira Brooks,VA,M,D,Raw,,Open,98.7,100,,,,,,,,,,,137.5,147.5,160,,160,160,4
Gene Berry,NC,M,D,Raw,,Open,109.41,110,,,,,,,,,,,195,205,217.5,,217.5,217.5,3
Nolan Toti,NC,M,D,Raw,,Open,106.59,110,,,,,,,,,,,185,207.5,215,,215,215,4
Chris Ritter,NC,M,D,Raw,,Open,105.96,110,,,,,,,,,,,150,155,-160,,155,155,5
Samuel Kurtich,NC,M,D,Raw,,Open,107.73,110,,,,,,,,,,,100,110,125,,125,125,6
Cameron Maxwell,NJ,M,D,Raw,,Teen 18-19,98.52,100,,,,,,,,,,,260,-277.5,-277.5,,260,260,1
Ray Berry,NC,M,D,Raw,,Masters 55-59,96.52,100,,,,,,,,,,,185,195,200,,200,200,1
Chance Henderson,NC,M,D,Raw,,Teen 16-17,99.7,100,,,,,,,,,,,150,170,185,,185,185,1
Ira Brooks,VA,M,D,Raw,,Masters 70-74,98.7,100,,,,,,,,,,,137.5,147.5,160,,160,160,1
Gene Berry,NC,M,D,Raw,,Masters 55-59,109.41,110,,,,,,,,,,,195,205,217.5,,217.5,217.5,1
Nolan Toti,NC,M,D,Raw,,Teen 16-17,106.59,110,,,,,,,,,,,185,207.5,215,,215,215,1
Chris Ritter,NC,M,D,Raw,,Teen 16-17,105.96,110,,,,,,,,,,,150,155,-160,,155,155,2
Samuel Kurtich,NC,M,D,Raw,,Teen 14-15,107.73,110,,,,,,,,,,,100,110,125,,125,125,1
Bob Shirley,VA,M,D,Raw,,Masters 60-64,120.2,125,,,,,,,,,,,175,185,-190,,185,185,3
Marni Frandson,NE,F,SBD,Raw,,Submasters 35-39,46.72,48,65,73,75,-77.5,75,35,40,45,,45,80,87.5,97.5,,97.5,217.5,1
Marni Frandson,NE,F,SBD,Raw,,Open,46.72,48,65,73,75,-77.5,75,35,40,45,,45,80,87.5,97.5,,97.5,217.5,1
Andrea Golden,IA,F,SBD,Raw,,Juniors 20-24,58.97,60,92.5,97.5,-105,,97.5,47.5,50,-52.5,,50,127.5,137.5,-145,,137.5,285,4
Cameron Fisher,NE,M,SBD,Raw,,Teen 14-15,65.54,67.5,-65,67.5,77.5,,77.5,60,67.5,70,,70,110,115,125,,125,272.5,2
Jamie Holmberg,IA,F,SBD,Raw,,Teen 18-19,66.68,67.5,-105,-107.5,-107.5,,-105,-55,55,57.5,,57.5,107.5,117.5,130,,130,,DQ
Ashley Galvan,NE,F,SBD,Raw,,Open,65.32,67.5,85,95,,,95,55,-60,-60,,55,112.5,-125,,,112.5,262.5,7
Rachael Johnson #2,NE,F,SBD,Raw,,Open,67.13,67.5,95,105,112.5,,112.5,62.5,67.5,72.5,,72.5,110,127.5,137.5,,137.5,322.5,6
Stan Lysholm,IA,M,SBD,Raw,,Open,65.77,67.5,160,172.5,185,,185,100,105,-107.5,,105,185,202.5,212.2,,212.2,502.2,3
Levi Graybill,NE,M,SBD,Raw,,Juniors 20-24,74.16,75,-122.5,130,-142.5,,130,122.5,-127.5,-127.5,,122.5,172.5,180,182.5,,182.5,435,4
Ronnie Powell,NE,M,SBD,Raw,,Masters 65-69,74.39,75,102.5,115,125,,125,107.5,117.5,,,117.5,202.5,,,,202.5,445,1
Charles Edward,IA,M,SBD,Raw,,Law/Fire/Military,71.21,75,155,185,192.5,,192.5,107.5,115,-127.5,,115,172.5,195,-212.5,,195,502.5,1
Susan Casey,IA,F,SBD,Raw,,Masters 45-49,82.1,82.5,77.5,85,97.5,,97.5,47.5,52.5,57.5,,57.5,90,97.5,102.5,,102.5,257.5,1
Shane Sheets,WY,M,SBD,Raw,,Masters 50-54,80.51,82.5,95,100,105,,105,95,100,-105,,100,147.5,152.5,155,,155,360,2
Hannah Dorcey,NE,F,SBD,Raw,,Open,82.1,82.5,85,92.5,-95,,92.5,55,57.5,-62.5,,57.5,110,117.5,125,,125,275,5
Brandon Mitzel,IA,M,SBD,Raw,,Juniors 20-24,89.36,90,192.5,205,212.5,,212.5,127.5,135.5,-142.5,,135.5,235,-245,-245,,235,583,2
Jay Petersen,NE,M,SBD,Raw,,Open,89.36,90,210,215,-217.5,,215,130,137.5,-142.5,,137.5,267.5,277.5,282.5,,282.5,635,3
Angela Hobbs,NE,F,SBD,Raw,,Open,88.9,90,137.5,145,150,,150,75,80,-85,,80,160,172.5,185,,185,415,2
Don McReynolds,NE,M,SBD,Raw,,Masters 45-49,157.17,140+,150,-165,172.5,,172.5,147,160,-182.5,,160,265,280,295,,295,627.5,1
Marni Frandson,NE,F,B,Raw,,Submasters 35-39,46.95,48,,,,,,35,40,45,,45,,,,,,45,1
Marni Frandson,NE,F,B,Raw,,Open,46.95,48,,,,,,35,40,45,,45,,,,,,45,1
Rachael Johnson #2,NE,F,B,Raw,,Open,67.13,67.5,,,,,,62.5,67.5,72.5,,72.5,,,,,,72.5,2
Viet Tran,NE,M,B,Raw,,Masters 40-44,65.09,67.5,,,,,,152.5,157.5,160,-162.5,160,,,,,,160,1
Pat Baird,NE,M,B,Raw,,Masters 45-49,80.29,82.5,,,,,,130,-137.5,137.5,,137.5,,,,,,137.5,3
Mike Stanchfield,MN,M,B,Raw,,Masters 45-49,80.51,82.5,,,,,,130,140,147.5,,147.5,,,,,,147.5,1
Chris Walter,NE,M,B,Raw,,Masters 40-44,92.99,100,,,,,,200,-207.5,207.5,210,207.5,,,,,,207.5,1
Jeremey Meyer,NE,M,B,Raw,,Law/Fire/Military,100.02,110,,,,,,190,195,-200,,195,,,,,,195,1
Jeremey Meyer,NE,M,B,Raw,,Submasters 35-39,100.02,110,,,,,,190,195,-200,,195,,,,,,195,1
Clayton Boeke,IA,M,B,Raw,,Teen 14-15,106.82,110,,,,,,125,135,-142.5,,135,,,,,,135,1
John Probasco,NE,M,B,Raw,,Masters 50-54,109.54,110,,,,,,152.5,155,,,155,,,,,,155,1
Michael Madigan,CO,M,B,Raw,,Masters 55-59,133.36,140,,,,,,155,-170,-170,,155,,,,,,155,1
Marni Frandson,NE,F,D,Raw,,Submasters 35-39,46.95,48,,,,,,,,,,,80,87.5,97.5,,97.5,97.5,1
Marni Frandson,NE,F,D,Raw,,Open,46.95,48,,,,,,,,,,,80,87.5,97.5,,97.5,97.5,1
Mike Stanchfield,MN,M,D,Raw,,Masters 45-49,80.51,82.5,,,,,,,,,,,170,185,200,,200,200,1
Gary Wallace,NE,M,D,Raw,,Submasters 35-39,88.22,90,,,,,,,,,,,215,227.5,235,,235,235,1
Jay Petersen,NE,M,D,Raw,,Open,89.36,90,,,,,,,,,,,267.5,277.5,282.5,,282.5,282.5,1
Brian Tippery,IA,M,D,Raw,,Masters 45-49,109.77,110,,,,,,,,,,,165,182.5,200,,200,200,2
August Yoder,NE,M,BD,Raw,,Teen 16-17,74.84,75,,,,,,105,110,-115,,110,165,177.5,-187.5,,177.5,287.5,1
Jake Garner,NE,M,BD,Raw,,Juniors 20-24,73.71,75,,,,,,105,110,115,,115,165,177.5,190,,190,305,1
Ronnie Powell,NE,M,BD,Raw,,Masters 65-69,74.39,75,,,,,,107.5,-117.5,117.5,,117.5,202.5,,,,202.5,320,1
Rickey Nelsen,SD,M,BD,Raw,,Open,70.53,75,,,,,,120,132.5,-140,,132.5,150,170,-180,,170,302.5,2
Eddie Ortiz Jr,NE,M,BD,Raw,,Masters 45-49,80.51,82.5,,,,,,125,130,-137.5,,130,165,182.5,197.5,,197.5,327.5,1
Seth Heywood,NE,M,BD,Raw,,Submasters 35-39,86.18,90,,,,,,125,130,132.5,,132.5,175,182.5,-187.5,,182.5,315,2
Tonnie Alliance,OH,F,SBD,Raw,70,Masters 70-74,67.13,67.5,-45,-45,45,,45,40,-47.5,-47.5,,40,102.5,110,118.5,122.5,118.5,203.5,1
Alivia Houston,PA,F,SBD,Raw,16,Open,51.26,52,52.5,57.5,-60,,57.5,30,33.5,36.5,,36.5,82.5,90,95,,95,189,5
Alivia Houston,PA,F,SBD,Raw,16,Teen 16-17,51.26,52,52.5,57.5,-60,,57.5,30,33.5,36.5,,36.5,82.5,90,95,,95,189,1
Jesa Jenkins,OH,F,SBD,Raw,25,Open,73.48,75,-125,130,137.5,,137.5,57.5,62.5,67.5,,67.5,132.5,140,-142.5,,140,345,2
Jennifer Wieczorek,PA,F,SBD,Raw,45,Open,63.05,67.5,55,60,62.5,,62.5,35,37.5,40,,40,92.5,100,105,,105,207.5,13
Cindy Stritzinger,PA,F,SBD,Raw,41,Open,88.9,90,100,107.5,112.5,,112.5,70,75,-77.5,,75,137.5,150,-157.5,,150,337.5,5
Jennifer Wieczorek,PA,F,SBD,Raw,45,Masters 45-49,63.05,67.5,55,60,62.5,,62.5,35,37.5,40,,40,92.5,100,105,,105,207.5,1
Cindy Stritzinger,PA,F,SBD,Raw,41,Masters 40-44,88.9,90,100,107.5,112.5,,112.5,70,75,-77.5,,75,137.5,150,-157.5,,150,337.5,1
Donald Piazza,OH,M,SBD,Raw,60,Masters 60-64,72.57,75,107.5,115,117.5,,117.5,85,-90,-90,,85,147.5,155,162.5,,162.5,365,1
Joseph Joseph,PA,M,SBD,Raw,28,Open,85.28,90,-172.5,187.5,-205,,187.5,147.5,-170,-170,,147.5,230,-260,,,230,565,7
Jeff Lawson #3,PA,M,SBD,Raw,52,Open,123.83,125,222.5,235,245,,245,130,137.5,142.5,,142.5,255,265,-275,,265,652.5,6
Jeff Lawson #3,PA,M,SBD,Raw,52,Masters 50-54,123.83,125,222.5,235,245,,245,130,137.5,142.5,,142.5,255,265,-275,,265,652.5,1
Tony DiLucente,OH,M,SBD,Raw,58,Masters 55-59,98.88,100,-170,170,175,,175,135,140,142.5,,142.5,202.5,217.5,-227.5,,217.5,535,2
Ryan Siege,PA,M,SBD,Raw,28,Open,119.29,125,160,170,-185,,170,-142.5,152.5,-160,,152.5,180,197.5,205,,205,527.5,8
Eric Willow,NY,M,SBD,Raw,47,Open,147.87,140+,215,-238,-238,,215,145,160,162.5,,162.5,220,237.5,,,237.5,615,1
Denise Jaffe,OH,F,B,Raw,50,Open,54.43,56,,,,,,37.5,42.5,45,,45,,,,,,45,1
Eric Willow,NY,M,SBD,Raw,47,Masters 45-49,147.87,140+,215,-238,,,215,145,160,162.5,,162.5,220,237.5,,,237.5,615,2
Denise Jaffe,OH,F,B,Raw,50,Masters 50-54,54.43,56,,,,,,37.5,42.5,45,,45,,,,,,45,1
Cindy Stritzinger,PA,F,B,Raw,41,Masters 40-44,88.9,90,,,,,,70,75,-77.5,,75,,,,,,75,1
Bob Dunn,OH,M,B,Raw,57,Masters 55-59,94.35,100,,,,,,90,95,97.5,,97.5,,,,,,97.5,3
Dale Storch,OH,M,B,Raw,62,Masters 60-64,99.79,100,,,,,,132.5,135,137.5,,137.5,,,,,,137.5,2
Joseph Joseph,PA,M,B,Raw,23,Open,85.28,90,,,,,,147.5,-170,-170,,147.5,,,,,,147.5,11
Dave Purpura,OH,M,B,Raw,55,Masters 55-59,98.88,100,,,,,,110,122.5,-142.5,,122.5,,,,,,122.5,2
Timothy J. Day,OH,M,B,Raw,60,Masters 60-64,98.88,100,,,,,,160,170,177.5,182.5,177.5,,,,,,177.5,1
Richard Smith,PA,M,B,Raw,23,Open,71.67,75,,,,,,95,100,102.5,,102.5,,,,,,102.5,3
Richard Smith,PA,M,B,Raw,23,Juniors 20-24,71.67,75,,,,,,95,100,102.5,,102.5,,,,,,102.5,1
Brad Lovejoy,OH,M,B,Raw,58,Masters 55-59,118.39,125,,,,,,150,155,-160,,155,,,,,,155,2
Aaron Morman,OH,M,B,Raw,34,Open,153.77,140+,,,,,,217.5,235,-240,,235,,,,,,235,1
Dave Heintzel,PA,M,D,Raw,55,Open,79.83,82.5,,,,,,,,,,,185,200,207.5,,207.5,207.5,2
Dave Heintzel,PA,M,D,Raw,55,Masters 55-59,79.83,82.5,,,,,,,,,,,185,200,207.5,,207.5,207.5,1
Jeff Lawson #3,OH,M,D,Raw,52,Masters 50-54,123.83,125,,,,,,,,,,,255,265,-275,,265,265,1
Mandy Jo Deckard,OH,F,D,Raw,36,Submasters 35-39,102.51,90+,,,,,,,,,,,142.5,157.5,-162.5,,157.5,157.5,1
Joseph Joseph,PA,M,D,Raw,23,Open,85.28,90,,,,,,,,,,,230,-260,,,230,230,2
Anthony Pfenninger,OH,M,D,Raw,28,Open,88.9,90,,,,,,,,,,,110,115,135,,135,135,4
Tonnie Alliance,OH,F,BD,Raw,70,Masters 70-74,67.13,67.5,,,,,,40,-47.5,-47.5,,40,102.5,110,118.5,-122.5,118.5,158.5,1
Charles Barth,IL,M,BD,Raw,15,Teen 14-15,89.81,90,,,,,,57.5,65,70,,70,120,137.5,147.5,,147.5,217.5,2
Tony DiLucente,OH,M,BD,Raw,58,Masters 55-59,98.88,100,,,,,,135,140,142.5,,142.5,202.5,217.5,-227.5,,217.5,360,1
Aaron Morman,OH,M,BD,Raw,34,Open,153.77,140+,,,,,,217.5,235,-240,,235,45,300,-320,,300,535,2
Jill Neziri,NY,F,SBD,Raw,32,Open,45.6,48,,,,,67.5,,,,,45,,,,,90,202.5,2
Amy Smith #4,PA,F,SBD,Raw,40,Masters 40-44,51.7,52,,,,,62.5,,,,,55,,,,,70,187.5,1
Miranda Chambers,PA,F,SBD,Raw,16,Open,55.1,56,,,,,120,,,,,77.5,,,,,145,342.5,2
Miranda Chambers,PA,F,SBD,Raw,16,Teen 16-17,55.1,56,,,,,120,,,,,77.5,,,,,145,342.5,1
Patrys Garcia-Gonzalez,PA,F,SBD,Raw,34,Open,53.8,56,,,,,85,,,,,42.5,,,,,107.5,235,7
Genevieve Cohen,PA,F,SBD,Raw,22,Open,58.9,60,,,,,120,,,,,65,,,,,137.5,322.5,2
Briana Foster,PA,F,SBD,Raw,24,Open,58.5,60,,,,,107.5,,,,,62.5,,,,,137.5,307.5,3
Sarah Sickert,PA,F,SBD,Raw,20,Open,60,60,,,,,85,,,,,57.5,,,,,127.5,270,5
Genevieve Cohen,PA,F,SBD,Raw,22,Juniors 20-24,58.9,60,,,,,120,,,,,65,,,,,137.5,322.5,1
Briana Foster,PA,F,SBD,Raw,24,Juniors 20-24,58.5,60,,,,,107.5,,,,,62.5,,,,,137.5,307.5,2
Sarah Sickert,PA,F,SBD,Raw,20,Juniors 20-24,60,60,,,,,85,,,,,57.5,,,,,127.5,270,5
Sage Rush,PA,F,SBD,Raw,23,Juniors 20-24,59.3,60,,,,,87.5,,,,,47.5,,,,,117.5,252.5,6
Jane Bickel,PA,F,SBD,Raw,55,Masters 55-59,56.4,60,,,,,72.5,,,,,40,,,,,110,222.5,1
Alicia Haynes,MD,F,SBD,Raw,28,Open,66.4,67.5,,,,,120,,,,,57.5,,,,,150,327.5,4
Sheri Patterson,PA,F,SBD,Raw,39,Open,65.1,67.5,,,,,80,,,,,57.5,,,,,117.5,255,8
Nyela Herrandez,PA,F,SBD,Raw,12,Teen 12-13,62.2,67.5,,,,,67.5,,,,,37.5,,,,,97.5,202.5,1
Madison Hendricks,PA,F,SBD,Raw,17,Teen 16-17,63.7,67.5,,,,,102.5,,,,,47.5,,,,,145,295,1
Rosalie Hutson,PA,F,SBD,Raw,20,Juniors 20-24,65.5,67.5,,,,,117.5,,,,,57.5,,,,,142.5,317.5,2
Colby Neubauer,PA,F,SBD,Raw,30,Open,70.6,75,,,,,125,,,,,70,,,,,147.5,342.5,3
Kim Doutt,PA,F,SBD,Raw,55,Open,78.1,82.5,,,,,90,,,,,70,,,,,117.5,277.5,4
Kim Doutt,PA,F,SBD,Raw,55,Masters 55-59,78.1,82.5,,,,,90,,,,,70,,,,,117.5,277.5,1
Lindsey King,NY,F,SBD,Raw,34,Open,79.6,82.5,,,,,90,,,,,52.5,,,,,130,272.5,6
Emma Thomas,PA,F,SBD,Raw,15,Open,82.2,82.5,,,,,100,,,,,45,,,,,110,255,7
Emma Thomas,PA,F,SBD,Raw,15,Teen 14-15,82.2,82.5,,,,,100,,,,,45,,,,,110,255,1
Lisa Smith,PA,F,SBD,Raw,44,Masters 40-44,82.3,82.5,,,,,110,,,,,75,,,,,107.5,292.5,1
Rebecca Tucker,NY,F,SBD,Raw,33,Open,90,90,,,,,135,,,,,90,,,,,170,395,3
Joni Talavera,PA,F,SBD,Raw,34,Open,84.5,90,,,,,85,,,,,52.5,,,,,102.5,240,8
Gary Teeter,PA,M,SBD,Raw,51,Masters 50-54,59.8,60,,,,,115,,,,,107.5,,,,,142.5,365,1
Chris Ferranti,VA,M,SBD,Raw,27,Open,66.7,67.5,,,,,185,,,,,127.5,,,,,235,547.5,1
Bradley Gabin,PA,M,SBD,Raw,21,Open,64.8,67.5,,,,,145,,,,,105,,,,,185,435,4
Bradley Gabin,PA,M,SBD,Raw,21,Juniors 20-24,64.8,67.5,,,,,145,,,,,105,,,,,185,435,1
Paul Griffith,PA,M,SBD,Raw,70,Masters 70-74,66.6,67.5,,,,,132.5,,,,,65,,,,,142.5,340,1
Kevin Pataky,PA,M,SBD,Raw,30,Open,74,75,,,,,197.5,,,,,125,,,,,257.5,580,1
Adam Toroniewski,PA,M,SBD,Raw,26,Open,74.3,75,,,,,180,,,,,122.5,,,,,227.5,530,3
Britt Steele,NJ,M,SBD,Raw,33,Open,73.9,75,,,,,,,,,,,,,,,,,DQ
Dan Ferranti,PA,M,SBD,Raw,23,Juniors 20-24,73.7,75,,,,,147.5,,,,,125,,,,,200,472.5,3
Michael Frey,NY,M,SBD,Raw,56,Masters 55-59,73.8,75,,,,,137.5,,,,,110,,,,,160,407.5,1
Joe Orengia,PA,M,SBD,Raw,70,Open,81.1,82.5,,,,,132.5,,,,,95,,,,,190.5,418,11
Joe Orengia,PA,M,SBD,Raw,70,Masters 70-74,81.1,82.5,,,,,132.5,,,,,95,,,,,190.5,418,1
Chandler Sanchez,PA,M,SBD,Raw,16,Teen 16-17,75.6,82.5,,,,,170,,,,,132.5,,,,,200,502.5,1
Charles Courtney,PA,M,SBD,Raw,22,Juniors 20-24,81.8,82.5,,,,,210,,,,,137.5,,,,,240,587.5,3
Jared Frey,NY,M,SBD,Raw,20,Juniors 20-24,82,82.5,,,,,142.5,,,,,105,,,,,200,447.5,4
Jim Smith #4,PA,M,SBD,Raw,39,Submasters 35-39,81.3,82.5,,,,,185,,,,,112.5,,,,,190,487.5,1
Terry Hendricks,PA,M,SBD,Raw,51,Masters 50-54,78.3,82.5,,,,,132.5,,,,,92.5,,,,,187.5,412.5,1
Russell McGrail-Cox,MD,M,SBD,Raw,25,Open,87.9,90,,,,,227.5,,,,,152.5,,,,,240,620,4
Don Kuhns,PA,M,SBD,Raw,64,Open,89.5,90,,,,,165,,,,,122.5,,,,,220,507.5,13
Don Kuhns,PA,M,SBD,Raw,64,Masters 60-64,89.5,90,,,,,165,,,,,122.5,,,,,220,507.5,1
Oren Kramek,NY,M,SBD,Raw,33,Open,87.4,90,,,,,165,,,,,112.5,,,,,215,492.5,16
Joseph Bowen,PA,M,SBD,Raw,33,Open,88.7,90,,,,,120,,,,,87.5,,,,,155,362.5,17
Abed Abu-Sakoot,VA,M,SBD,Raw,31,Open,98.6,100,,,,,252.5,,,,,170,,,,,302.5,725,1
Nick Sutton,PA,M,SBD,Raw,18,Open,93.5,100,,,,,185,,,,,115,,,,,217.5,517.5,13
Nick Sutton,PA,M,SBD,Raw,18,Teen 18-19,93.5,100,,,,,185,,,,,115,,,,,217.5,517.5,1
Adam Greeley,PA,M,SBD,Raw,39,Open,98.2,100,,,,,,,,,,,,,,,,,DQ
Robert Robinson,PA,M,SBD,Raw,23,Juniors 20-24,96.4,100,,,,,202.5,,,,,135,,,,,237.5,575,1
Ray Reese,PA,M,SBD,Raw,40,Masters 40-44,98.4,100,,,,,197.5,,,,,157.5,,,,,230,585,1
Mark Devlin,NJ,M,SBD,Raw,53,Masters 50-54,97.8,100,,,,,170,,,,,,,,,,,,DQ
Robert Ludwig,PA,M,SBD,Raw,56,Masters 55-59,98.9,100,,,,,217.5,,,,,160.5,,,,,245,623,1
Robert Eckhart,PA,M,SBD,Raw,43,Open,109.3,110,,,,,197.5,,,,,185,,,,,230,612.5,3
Robert Eckhart,PA,M,SBD,Raw,43,Masters 40-44,109.3,110,,,,,197.5,,,,,185,,,,,230,612.5,1
Nick Cataldi,PA,M,SBD,Raw,17,Teen 16-17,107.8,110,,,,,275,,,,,157.5,,,,,272.5,705,1
Theo Vlahos,NJ,M,SBD,Raw,18,Teen 18-19,105.8,110,,,,,200,,,,,115,,,,,215,530,1
Kyle Schuster,PA,M,SBD,Raw,22,Open,114.1,125,,,,,280,,,,,190,,,,,272.5,742.5,1
Kyle Schuster,PA,M,SBD,Raw,22,Juniors 20-24,114.1,125,,,,,280,,,,,190,,,,,272.5,742.5,1
Drew Mawson,NJ,M,SBD,Raw,25,Open,122.9,125,,,,,250,,,,,162.5,,,,,245,657.5,5
James Prendergast,NY,M,SBD,Raw,54,Masters 50-54,116.1,125,,,,,165,,,,,122.5,,,,,190,477.5,2
Raymond Clasing,MD,M,SBD,Raw,56,Masters 55-59,123.4,125,,,,,175,,,,,170,,,,,205,550,1
Troy Dugan,PA,M,SBD,Raw,25,Open,134.7,140,,,,,267.5,,,,,130,,,,,262.5,660,4
David Biesecker,PA,M,SBD,Raw,34,Open,126,140,,,,,220,,,,,160,,,,,235,615,5
Sarah Sickert,PA,F,B,Raw,20,Juniors 20-24,60,60,,,,,,52.5,55,57.5,,57.5,,,,,,57.5,2
Bre Schneider,PA,F,B,Raw,23,Juniors 20-24,81.7,82.5,,,,,,57.5,62.5,65,,65,,,,,,65,1
Kim Doutt,PA,F,B,Raw,55,Masters 55-59,78.1,82.5,,,,,,65,70,-72.5,,70,,,,,,70,1
Nick Oddo,PA,M,B,Raw,27,Open,59.9,60,,,,,,47.5,-52.5,-52.5,,47.5,,,,,,47.5,1
Bradley Gabin,PA,M,B,Raw,21,Juniors 20-24,64.8,67.5,,,,,,92.5,100,105,,105,,,,,,105,1
Chris Spairanna,PA,M,B,Raw,41,Masters 40-44,74,75,,,,,,60,67.5,72.5,,72.5,,,,,,72.5,1
Kevin Boyer,PA,M,B,Raw,42,Open,75.1,82.5,,,,,,82.5,87.5,95,,95,,,,,,95,1
Vinnie Gengaro,NJ,M,B,Raw,61,Masters 60-64,81,82.5,,,,,,112.5,120,125,,125,,,,,,125,2
Joe Orengia,PA,M,B,Raw,70,Masters 70-74,81.1,82.5,,,,,,87.5,92.5,95,,95,,,,,,95,2
Jeff McDaniel,PA,M,B,Raw,34,Open,89.2,90,,,,,,187.5,-197.5,-197.5,,187.5,,,,,,187.5,1
Randy Elbert,MD,M,B,Raw,46,Open,89,90,,,,,,145,150,155,,155,,,,,,155,9
Jim McKenna,PA,M,B,Raw,67,Open,89.1,90,,,,,,142.5,-145,-145,,142.5,,,,,,142.5,17
Randy Elbert,MD,M,B,Raw,46,Masters 45-49,89,90,,,,,,145,150,155,,155,,,,,,155,1
Jim McKenna,PA,M,B,Raw,67,Masters 65-69,89.1,90,,,,,,142.5,-145,-145,,142.5,,,,,,142.5,1
Pat Clarke,PA,M,B,Raw,35,Submasters 35-39,87.3,90,,,,,,122.5,127.5,132.5,,132.5,,,,,,132.5,1
Craig Maurer,PA,M,B,Raw,63,Masters 60-64,85,90,,,,,,57.5,62.5,67.5,,67.5,,,,,,67.5,1
Danny Clarke,PA,M,B,Raw,27,Open,94.1,100,,,,,,-142.5,142.5,-147.5,,142.5,,,,,,142.5,3
Donnie Laudenslager,PA,M,B,Raw,22,Juniors 20-24,98.5,100,,,,,,60,70,-77.5,,70,,,,,,70,1
Robert Eckhart,PA,M,B,Raw,43,Open,109.3,110,,,,,,175,185,-195,,185,,,,,,185,1
Andrew Norris,DE,M,B,Raw,30,Open,120.6,125,,,,,,187.5,192.5,195,,195,,,,,,195,3
David Biesecker,PA,M,B,Raw,34,Open,126,140,,,,,,160,-185,-185,,160,,,,,,160,2
Vaughn Maldfeld,NY,M,B,Raw,75,Masters 75-79,126.4,140,,,,,,60,67.5,72.5,,72.5,,,,,,72.5,1
Linda Strong-Denerly,NY,F,D,Raw,45,Masters 45-49,50.6,52,,,,,,,,,,,52.5,60,65,,65,65,1
Alicia Haynes,MD,F,D,Raw,28,Open,66.4,67.5,,,,,,,,,,,150,-165,-165,,150,150,1
Kim Doutt,PA,F,D,Raw,55,Masters 55-59,78.1,82.5,,,,,,,,,,,110,115,117.5,,117.5,117.5,1
Nick Oddo,PA,M,D,Raw,27,Open,59.9,60,,,,,,,,,,,70,80,87.5,,87.5,87.5,1
Chris Spairanna,PA,M,D,Raw,41,Masters 40-44,74,75,,,,,,,,,,,125,137.5,145,,145,145,1
Gleb Epelbaum,PA,M,D,Raw,36,Open,80.9,82.5,,,,,,,,,,,250,275,280,,280,280,1
Vinnie Gengaro,NJ,M,D,Raw,61,Masters 60-64,81,82.5,,,,,,,,,,,160,172.5,-182.5,,172.5,172.5,1
Joe Orengia,PA,M,D,Raw,70,Masters 70-74,81.1,82.5,,,,,,,,,,,170,182.5,190.5,,190.5,190.5,1
Terry McCarthy,PA,M,D,Raw,52,Masters 50-54,85.4,90,,,,,,,,,,,127.5,137.5,140,,140,140,2
Craig Maurer,PA,M,D,Raw,63,Masters 60-64,85,90,,,,,,,,,,,100,110,115,,115,115,1
Donnie Laudenslager,PA,M,D,Raw,22,Juniors 20-24,98.5,100,,,,,,,,,,,115,125,132.5,,132.5,132.5,2
Derek Neubauer,PA,M,D,Raw,34,Open,108.9,110,,,,,,,,,,,227.5,-240,-240,,227.5,227.5,2
Bob Feeney,PA,M,D,Raw,63,Masters 60-64,117.3,125,,,,,,,,,,,180,192.5,195,,195,195,1
Vaughn Maldfeld,NY,M,D,Raw,75,Masters 75-79,126.4,140,,,,,,,,,,,105,115,127.5,,127.5,127.5,1
Megan Lieu,VA,F,SBD,Raw,20,Juniors 20-24,51.8,52,,,,,95,,,,,40,,,,,125,260,1
Natasha Beasley,VA,F,SBD,Raw,33,Open,51.75,52,,,,,87.5,,,,,67.5,,,,,142.5,297.5,1
Toni Herrmann,VA,F,SBD,Raw,27,Open,54.93,56,,,,,117.5,,,,,60,,,,,120,297.5,4
Beth Permelia,VA,F,SBD,Raw,50,Masters 50-54,55.88,56,,,,,52.5,,,,,42.5,,,,,117.5,212.5,1
Lisa Suda,VA,F,SBD,Raw,27,Open,59.51,60,,,,,140,,,,,67.5,,,,,157.5,365,1
Caitlin Ivey,VA,F,SBD,Raw,22,Juniors 20-24,65.05,67.5,,,,,102.5,,,,,40,,,,,140,282.5,3
Deeanna Burnah,MD,F,SBD,Raw,30,Law/Fire/Military,62.87,67.5,,,,,67.5,,,,,67.5,,,,,92.5,227.5,1
Kristi Rowley,VA,F,SBD,Raw,31,Open,81.83,82.5,,,,,125,,,,,50,,,,,135,310,2
Charlotte Baker,VA,F,SBD,Raw,48,Open,89.86,90,,,,,105,,,,,70,,,,,165,340,4
Charlotte Baker,VA,F,SBD,Raw,48,Masters 45-49,89.86,90,,,,,105,,,,,70,,,,,165,340,1
Robin Callan,VA,F,SBD,Raw,25,Open,109.32,90+,,,,,157.5,,,,,70,,,,,157.5,385,1
Drew Meincke,VA,M,SBD,Raw,37,Submasters 35-39,58.69,60,,,,,50,,,,,57.5,,,,,122.5,230,1
Jim Marchio,VA,M,SBD,Raw,60,Masters 60-64,59.06,60,,,,,117.5,,,,,90,,,,,197.5,405,1
Luis Ardon,VA,M,SBD,Raw,24,Open,66.13,67.5,,,,,172.5,,,,,145,,,,,212.5,530,2
Oscar Joya,VA,M,SBD,Raw,17,Teen 16-17,67.2,67.5,,,,,155,,,,,110,,,,,182.5,447.5,1
John Senesky,VA,M,SBD,Raw,16,Teen 16-17,65.83,67.5,,,,,117.5,,,,,75,,,,,110,302.5,2
Jeff Kline,VA,M,SBD,Raw,33,Open,73.48,75,,,,,145,,,,,122.5,,,,,182.5,450,6
Jason Bumgarner,VA,M,SBD,Raw,32,Open,70.35,75,,,,,155,,,,,107.5,,,,,177.5,440,7
Ryan Coffey,PA,M,SBD,Raw,19,Teen 18-19,73.55,75,,,,,200,,,,,142.5,,,,,245,587.5,1
Eric Williams,VA,M,SBD,Raw,19,Teen 18-19,73.39,75,,,,,175,,,,,117.5,,,,,182.5,475,3
John Permelia,VA,M,SBD,Raw,53,Masters 50-54,74.03,75,,,,,137.5,,,,,120,,,,,175,432.5,1
Anil Singh,VA,M,SBD,Raw,24,Open,80.79,82.5,,,,,160,,,,,117.5,,,,,227.5,505,6
Chase Davidison,VA,M,SBD,Raw,19,Teen 18-19,76.57,82.5,,,,,130,,,,,85,,,,,185,400,1
Ryan Kiecker,VA,M,SBD,Raw,24,Juniors 20-24,81.56,82.5,,,,,227.5,,,,,162.5,,,,,272.5,662.5,1
Anthony Permelia,VA,M,SBD,Raw,24,Juniors 20-24,82.15,82.5,,,,,125,,,,,85,,,,,182.5,392.5,5
Marquell Snowden,VA,M,SBD,Raw,42,Masters 40-44,84.41,90,,,,,145,,,,,130,,,,,200,475,1
Luke Siler,VA,M,SBD,Raw,30,Open,90.31,100,,,,,190,,,,,135,,,,,207.5,532.5,11
Jeremy Ebersole,WV,M,SBD,Raw,24,Juniors 20-24,88.5,90,,,,,215,,,,,137.5,,,,,272.5,625,1
Edgar Tapia,VA,M,SBD,Raw,37,Submasters 35-39,89.09,90,,,,,190,,,,,130,,,,,237.5,557.5,2
Matthew Holtry,NC,M,SBD,Raw,37,Submasters 35-39,88.5,90,,,,,162.5,,,,,112.5,,,,,235,510,3
Chris Solyom,VA,M,SBD,Raw,33,Open,106.64,110,,,,,172.5,,,,,125,,,,,250,547.5,6
Joe Saad,VA,M,SBD,Raw,22,Juniors 20-24,108.14,110,,,,,227.5,,,,,147.5,,,,,247.5,622.5,2
Colin McGrath,VA,M,SBD,Raw,21,Open,118.48,125,,,,,240,,,,,172.5,,,,,272.5,685,3
Maxx Philpott,VA,M,SBD,Raw,15,Teen 14-15,120.84,125,,,,,187.5,,,,,125,,,,,182.5,495,1
DJ Stinson,VA,M,SBD,Raw,40,Masters 40-44,121.47,125,,,,,192.5,,,,,160,,,,,227.5,580,1
Ken McCusker,MD,M,SBD,Raw,46,Masters 45-49,124.56,125,,,,,102.5,,,,,137.5,,,,,195,435,1
Troy Winfrey,VA,M,SBD,Raw,33,Open,137.94,140,,,,,280,,,,,190,,,,,260,730,2
Natasha Beasley,VA,F,B,Raw,33,Open,51.75,52,,,,,,,,,,67.5,,,,,,67.5,1
Mona Espinosa,VA,F,B,Raw,34,Open,64,67.5,,,,,,,,,,65,,,,,,65,3
Ana Snowden,VA,F,B,Raw,43,Masters 40-44,74.3,75,,,,,,,,,,52.5,,,,,,52.5,1
Jennie Merritt,VA,F,B,Raw,45,Masters 45-49,89.27,90,,,,,,,,,,70,,,,,,70,1
Rebecca Black,VA,F,B,Raw,40,Masters 40-44,112.99,90+,,,,,,,,,,67.5,,,,,,67.5,1
Noah Rine,NY,M,B,Raw,12,Teen 12-13,53.71,56,,,,,,,,,,30,,,,,,30,1
Gary Teeter,PA,M,B,Raw,51,Masters 50-54,59.24,60,,,,,,,,,,108,,,,,,108,1
Elliot Anderson,VA,M,B,Raw,15,Teen 14-15,65.68,67.5,,,,,,,,,,97.5,,,,,,97.5,1
Jason Leavitt,VA,M,B,Raw,51,Masters 50-54,68.04,75,,,,,,,,,,125,,,,,,125,1
Raymond Harris,VA,M,B,Raw,56,Open,74.03,75,,,,,,,,,,140,,,,,,140,2
Raymond Harris,VA,M,B,Raw,56,Masters 55-59,74.03,75,,,,,,,,,,140,,,,,,140,1
Kohl Yourkovich,VA,M,B,Raw,18,Teen 18-19,79.65,82.5,,,,,,,,,,115,,,,,,115,1
Axel Anderson,VA,M,B,Raw,45,Masters 45-49,81.24,82.5,,,,,,,,,,140,,,,,,140,2
Matthew Holtry,NC,M,B,Raw,37,Submasters 35-39,88.5,90,,,,,,,,,,112.5,,,,,,112.5,2
Derek Dickinson,VA,M,B,Raw,27,Open,99.38,100,,,,,,,,,,182.5,,,,,,182.5,1
Don Witter,PA,M,B,Raw,54,Open,94.35,100,,,,,,,,,,107.5,,,,,,107.5,5
John Moore,VA,M,B,Raw,78,Open,96.52,100,,,,,,,,,,115,,,,,,115,4
Don Witter,PA,M,B,Raw,54,Masters 50-54,94.35,100,,,,,,,,,,107.5,,,,,,107.5,2
John Moore,VA,M,B,Raw,78,Masters 75-79,96.52,100,,,,,,,,,,115,,,,,,115,1
Sue Jeffers,NY,F,D,Raw,38,Submasters 35-39,59.6,60,,,,,,,,,,,,,,,107.5,107.5,1
Theresa Drzewiecki,NY,F,D,Raw,64,Masters 60-64,64.95,67.5,,,,,,,,,,,,,,,107.5,107.5,1
Kohl Yourkovich,VA,M,D,Raw,18,Teen 18-19,79.65,82.5,,,,,,,,,,,,,,,197.5,197.5,1
Matthew Holtry,NC,M,D,Raw,37,Submasters 35-39,88.5,90,,,,,,,,,,,,,,,235,235,2
Don Witter,PA,M,D,Raw,54,Masters 50-54,94.35,100,,,,,,,,,,,,,,,165,165,1
Bob Shirley,VA,M,D,Raw,63,Masters 60-64,120.66,125,,,,,,,,,,,,,,,187.5,187.5,2
Natasha Beasley,VA,F,BD,Raw,33,Open,51.75,52,,,,,,,,,,67.5,,,,,142.5,210,1
Catherine Reynolds,VA,F,BD,Raw,16,Teen 16-17,57.15,60,,,,,,,,,,52.5,,,,,95,147.5,1
Jillian Foit,NY,F,BD,Raw,30,Open,65.59,67.5,,,,,,,,,,70,,,,,120,190,2
Mona Espinosa,VA,F,BD,Raw,34,Open,64,67.5,,,,,,,,,,65,,,,,95,160,4
Chelsea Gifford,NY,F,BD,Raw,27,Open,65.41,67.5,,,,,,,,,,47.5,,,,,110,157.5,5
Spencer Beasley,VA,M,BD,Raw,25,Open,72.62,75,,,,,,,,,,110,,,,,152.5,262.5,3
Marty Farris,VA,M,BD,Raw,39,Submasters 35-39,92.99,100,,,,,,,,,,122.5,,,,,200,322.5,1
Matthew Holtry,NC,M,BD,Raw,37,Submasters 35-39,88.5,90,,,,,,,,,,112.5,,,,,235,347.5,1
Maddie Campbell,,F,SBD,Raw,,Youth,43,44,30,35,42.5,,42.5,16,20,27.5,,27.5,40,47.5,52.5,57.5,52.5,122.5,1
Mallory Triplet,,F,SBD,Raw,,Teen 16-17,63.55,67.5,70,75,80,,80,37.5,-45,45,,45,92.5,100,102.5,110,102.5,227.5,2
Ashely Bergman,,F,SBD,Raw,,Open,63.5,67.5,75,-82.5,-82.5,,75,52.5,57.5,-60,,57.5,102.5,115,-125,,115,247.5,10
Jess Campbell,,F,SBD,Raw,,Open,66.72,67.5,108,-115,-115,,108,70,75,-82.5,,75,137.5,142.5,147.5,150,147.5,330,3
Quinn Lindsay,,M,SBD,Raw,,Teen 12-13,97.07,100,-72.5,85,95,,95,52.5,60,65,,65,100,112.5,125,137.5,125,285,1
CJ Lindsay,,M,SBD,Raw,,Teen 12-13,71.3,75,72.5,80,90,,90,57.5,67.5,75,-80.5,75,100,115,132.5,140,132.5,297.5,1
Shane Sheets,,M,SBD,Raw,,Masters 50-54,79.38,82.5,80,90,92.5,,92.5,87.5,95,-103,,95,130,147.5,-162.5,,147.5,335,3
Clayton Moore,,M,SBD,Raw,,Teen 16-17,100,100,130,148,160,,160,130,148,160,,160,142.5,170,182.5,,182.5,502.5,1
Tim Blatt,,M,SBD,Raw,,Masters 50-54,87.36,90,165,-175,-175,,165,165,-175,-175,,165,167.5,177.5,187.5,,187.5,517.5,2
Benjamin Ramos,,M,SBD,Raw,,Teen 18-19,91.41,100,165,175,-185,,175,-125,128,-143,,128,165,175,192.5,200,192.5,495,2
Garrett Angell,,M,SBD,Raw,,Juniors 20-24,155.9,140+,183,190,195,,195,133,138,-140,,138,217.5,-225,-225,,217.5,550,1
Tristan Tilberg,,M,SBD,Raw,,Open,123.64,125,185,198,210,,210,143,-155,-155,,143,227.5,237.5,-245,,237.5,590,7
Anthony Montanez,,M,SBD,Raw,,Juniors 20-24,129.73,140,230,245,-260,,245,-165,-173,-173,,-165,265,-277.5,-280,,265,,DQ
Brian Rezac,,M,SBD,Raw,,Submasters 35-39,129.91,140,-210,210,-215,,210,165,-170,-170,,165,207.5,210,215,-217.5,215,590,1
Aaron Erickson,,M,SBD,Raw,,Open,116.12,125,235,-245,260,,260,143,160,165,-183,165,235,252.5,265,,265,690,2
Aaron Erickson,,M,SBD,Raw,,Teen 18-19,116.12,125,235,-245,260,,260,143,160,165,-183,165,235,252.5,265,,265,690,1
Celeste Lindsay,,F,BD,Raw,,Youth,30.16,35,,,,,,9,12,-17,,12,30,32.5,40,42.5,40,52,1
Carissa Lindsay,,F,BD,Raw,,Youth,42.82,44,,,,,,11,16,-23,,16,32.5,37.5,45,52.5,45,61,1
Lindsay Lindsay,,F,BD,Raw,,Open,79.29,82.5,,,,,,45,52.5,55,-60,55,100,110,112.5,-120,112.5,167.5,1
Maya Gentry,,F,BD,Raw,,Youth,29.7,30,,,,,,7,-15,18,,18,25,32.5,37.5,40,37.5,55.5,1
Coy Trainor,,M,BD,Raw,,Teen 14-15,85.87,90,,,,,,75,82.5,-90,,82.5,142.5,160,170,-182.5,170,252.5,1
Missy Gentry,,F,B,Raw,,Open,79.83,82.5,,,,,,95,-103,-103,,95,,,,,,95,1
Missy Gentry,,F,B,Raw,,Submasters 35-39,79.83,82.5,,,,,,95,-103,-103,,95,,,,,,95,1
Marvin Rodenbeck,,M,B,Raw,,Masters 50-54,129.55,140,,,,,,208,220,-228,,220,,,,,,220,1
Greg Srock,,M,B,Raw,,Open,113.4,125,,,,,,122.5,-125,-125,,122.5,,,,,,122.5,6
Greg Srock,,M,B,Raw,,Law/Fire/Military,113.4,125,,,,,,122.5,-125,-125,,122.5,,,,,,122.5,3
