Division,WeightClassKg,Place,Name,Team,BodyweightKg,Best3SquatKg,Best3BenchKg,Best3DeadliftKg,TotalKg,Equipment,Event,Sex
Boys,55.79,1,Wylie Brown,Nacogdoches,51.8,158.76,83.91,158.76,401.43,Single-ply,SBD,M
Boys,51.71,2,Cody Henrico,Queen City,50.98,108.86,68.04,142.88,319.78,Single-ply,SBD,M
Boys,51.71,3,Jesse Peacock,Diana New Diana,50.35,115.67,77.11,124.74,317.51,Single-ply,SBD,M
Boys,51.71,4,Gilbert Garcia,Longview Spring Hill,51.53,111.13,65.77,120.2,297.1,Single-ply,SBD,M
Boys,51.71,5,Noe Solache,Marshall,49.62,88.45,58.97,124.74,272.16,Single-ply,SBD,M
Boys,51.71,6,Corbin Feauto,Normangee,51.53,95.25,56.7,108.86,260.82,Single-ply,SBD,M
Boys,55.79,1,Aaron Johnson,Jefferson,53.89,161.03,83.91,151.95,396.89,Single-ply,SBD,M
Boys,55.79,2,Brian Pafford,Cushing,52.8,142.88,92.99,149.69,385.55,Single-ply,SBD,M
Boys,55.79,3,Daniel Pafford,Cushing,54.98,147.42,68.04,149.69,365.14,Single-ply,SBD,M
Boys,55.79,4,Ryan Fincher,Queen City,55.7,142.88,74.84,145.15,362.87,Single-ply,SBD,M
Boys,59.87,5,Hunter Johnson,Waskom,55.97,111.13,70.31,131.54,312.98,Single-ply,SBD,M
Boys,55.79,6,Carvante Walker,Marshall,52.53,104.33,56.7,131.54,292.57,Single-ply,SBD,M
Boys,55.79,DQ,Zach Hartman,Troup,55.52,,,,,Single-ply,SBD,M
Boys,59.87,1,Kendrell Wilson,Longview,56.88,158.76,90.72,183.7,433.18,Single-ply,SBD,M
Boys,67.13,2,Tristen Burt,Queen City,60.06,142.88,83.91,158.76,385.55,Single-ply,SBD,M
Boys,59.87,3,Riley Slocum,Longview Pine Tree,56.7,147.42,74.84,158.76,381.02,Single-ply,SBD,M
Boys,59.87,4,Caleb Bush,Elysian Fields,58.06,138.35,88.45,147.42,374.21,Single-ply,SBD,M
Boys,59.87,5,Brayden Mason,Troup,58.06,149.69,74.84,140.61,365.14,Single-ply,SBD,M
Boys,59.87,6,Jaylon Brown,Marshall,58.79,111.13,68.04,138.35,317.51,Single-ply,SBD,M
Boys,59.87,7,Ethan Armstrong,New Boston,59.6,113.4,65.77,129.27,308.44,Single-ply,SBD,M
Boys,59.87,8,Peyton Cooper,Elysian Fields,59.51,111.13,68.04,113.4,292.57,Single-ply,SBD,M
Boys,59.87,9,Josh Garza,New Boston,56.25,104.33,63.5,122.47,290.3,Single-ply,SBD,M
Boys,59.87,DQ,Keegan Mazel,Jefferson,59.19,,,,,Single-ply,SBD,M
Boys,59.87,DQ,Jake Rasberry,Troup,57.33,,,,,Single-ply,SBD,M
Boys,67.13,1,Ja'Vontay Williams,Nacogdoches,65.23,204.12,90.72,213.19,508.02,Single-ply,SBD,M
Boys,67.13,2,Javonte Parker,Marshall,64.14,185.97,104.33,215.46,505.76,Single-ply,SBD,M
Boys,67.13,3,Kolton Morgan,Queen City,65.77,179.17,108.86,158.76,446.79,Single-ply,SBD,M
Boys,67.13,4,Janarious Bailey,Rockwall-Heath,64.86,142.88,106.59,176.9,426.38,Single-ply,SBD,M
Boys,67.13,5,Tye Lafayette,Jefferson,62.78,165.56,88.45,154.22,408.23,Single-ply,SBD,M
Boys,67.13,6,Dejuan Beal Jr,Tyler,67.04,158.76,92.99,145.15,396.89,Single-ply,SBD,M
Boys,74.84,7,Christian Johnson,Longview Spring Hill,67.22,154.22,81.65,154.22,390.09,Single-ply,SBD,M
Boys,67.13,8,Lucas Poliff,Cushing,66.04,129.27,74.84,142.88,347,Single-ply,SBD,M
Boys,67.13,9,Casey McMullan,Elysian Fields,65.23,133.81,68.04,142.88,344.73,Single-ply,SBD,M
Boys,67.13,10,Mason Reeves,Cushing,62.51,113.4,65.77,113.4,292.57,Single-ply,SBD,M
Boys,67.13,11,Chase Cruz,Elysian Fields,64.23,68.04,45.36,86.18,199.58,Single-ply,SBD,M
Boys,67.13,DQ,Miles Pearson,Diana New Diana,64.95,,,,,Single-ply,SBD,M
Boys,67.13,DQ,Panch Wott,Cushing,66.41,,,,,Single-ply,SBD,M
Boys,67.13,DQ,Taylor Jackson #1,Cushing,64.5,,,,,Single-ply,SBD,M
Boys,67.13,DQ,Justin Johnson,Mount Enterprise,64.77,,,,,Single-ply,SBD,M
Boys,67.13,DQ,J Whitley,Nacogdoches,64.95,,,,,Single-ply,SBD,M
Boys,67.13,DQ,Dj Hicks,New London West Rusk,66.41,,,,,Single-ply,SBD,M
Boys,74.84,1,Nolan Allen,Marshall,74.39,226.8,131.54,217.72,576.06,Single-ply,SBD,M
Boys,74.84,2,Cornelius Zachary,Longview,73.84,226.8,95.25,238.14,560.19,Single-ply,SBD,M
Boys,74.84,3,Chavis Mills,Marshall,72.76,188.24,104.33,217.72,510.29,Single-ply,SBD,M
Boys,74.84,4,Jarrett Morgan,Queen City,73.75,195.04,111.13,204.12,510.29,Single-ply,SBD,M
Boys,82.1,5,James Reese,Gladewater,74.93,170.1,106.59,204.12,480.81,Single-ply,SBD,M
Boys,74.84,6,Payton Phillips,Hawkins,72.67,204.12,83.91,183.7,471.74,Single-ply,SBD,M
Boys,74.84,7,JC Garcia,Waskom,74.03,188.24,99.79,181.44,469.47,Single-ply,SBD,M
Boys,74.84,8,Mar'Kevion Silmon,Marshall,68.04,172.37,92.99,195.04,460.4,Single-ply,SBD,M
Boys,74.84,9,Brett Martin,Troup,69.85,167.83,97.52,195.04,460.4,Single-ply,SBD,M
Boys,74.84,10,Cody Ball,Queen City,74.03,181.44,90.72,181.44,453.59,Single-ply,SBD,M
Boys,74.84,11,Taylor Lang,Elysian Fields,73.21,188.24,88.45,161.03,437.72,Single-ply,SBD,M
Boys,74.84,12,Da'lyn Coipson,Mount Enterprise,72.12,147.42,86.18,195.04,428.64,Single-ply,SBD,M
Boys,74.84,13,Colby Shaw,Laird Hill Leveretts Chapel,71.03,176.9,83.91,165.56,426.38,Single-ply,SBD,M
Boys,74.84,14,Pierce Adams,Nacogdoches,68.76,181.44,81.65,158.76,421.84,Single-ply,SBD,M
Boys,74.84,15,Deion Russell,Gladewater,73.75,136.08,97.52,170.1,403.7,Single-ply,SBD,M
Boys,74.84,16,Kyle McGinnis,Waskom,74.3,145.15,86.18,154.22,385.55,Single-ply,SBD,M
Boys,74.84,17,Dante Byerely,Laird Hill Leveretts Chapel,70.03,154.22,68.04,158.76,381.02,Single-ply,SBD,M
Boys,74.84,18,Dustin Harrison,White Oak,72.39,136.08,86.18,158.76,381.02,Single-ply,SBD,M
Boys,74.84,19,Jose Cerda,New London West Rusk,69.85,115.67,70.31,136.08,322.05,Single-ply,SBD,M
Boys,82.1,DQ,Brody Price,Jefferson,74.93,,,,,Single-ply,SBD,M
Boys,74.84,DQ,Harrison Griffin,Diana New Diana,69.76,,,,,Single-ply,SBD,M
Boys,82.1,1,Clay Layman,Longview,80.29,235.87,127.01,251.74,614.62,Single-ply,SBD,M
Boys,82.1,2,Josh Scott,Rockwall-Heath,81.1,226.8,142.88,222.26,591.94,Single-ply,SBD,M
Boys,82.1,3,Kameron Younger,Daingerfield,81.37,217.72,122.47,195.04,535.24,Single-ply,SBD,M
Boys,82.1,4,Jimmy Rodgers,Laird Hill Leveretts Chapel,79.02,172.37,142.88,210.92,526.17,Single-ply,SBD,M
Boys,82.1,5,Jacob Deaguero,White Oak,77.84,181.44,129.27,210.92,521.63,Single-ply,SBD,M
Boys,89.81,6,Quay Ward,Longview Pine Tree,82.28,195.04,120.2,197.31,512.56,Single-ply,SBD,M
Boys,82.1,7,Micahh Smith,Marshall,79.74,192.78,97.52,217.72,508.02,Single-ply,SBD,M
Boys,82.1,8,Zhymell Bowie,Jefferson,75.93,170.1,120.2,183.7,474,Single-ply,SBD,M
Boys,82.1,9,Anthony Rose,Jefferson,80.56,190.51,104.33,174.63,469.47,Single-ply,SBD,M
Boys,82.1,10,Aaron Ratliff,Normangee,78.93,170.1,108.86,188.24,467.2,Single-ply,SBD,M
Boys,82.1,11,Jesse Graham,Nacogdoches,79.74,204.12,90.72,172.37,467.2,Single-ply,SBD,M
Boys,82.1,12,Tyler Cheves,Mount Vernon,77.11,179.17,102.06,174.63,455.86,Single-ply,SBD,M
Boys,82.1,13,Parker Hailey,Queen City,81.65,156.49,104.33,188.24,449.06,Single-ply,SBD,M
Boys,82.1,14,Alex Marcial,Tyler,77.56,163.29,102.06,172.37,437.72,Single-ply,SBD,M
Boys,82.1,15,Evan Guillery,Nacogdoches,75.75,149.69,95.25,158.76,403.7,Single-ply,SBD,M
Boys,82.1,16,Jabari Caddell,Tyler,77.38,136.08,97.52,145.15,378.75,Single-ply,SBD,M
Boys,82.1,17,Darryl Pock,Gladewater,75.84,,92.99,183.7,276.69,Single-ply,BD,M
Boys,82.1,DQ,Kyle Rapp,Diana New Diana,79.02,,,,,Single-ply,BD,M
Boys,82.1,DQ,Toby Palmer,Diana New Diana,78.11,,,,,Single-ply,BD,M
Boys,82.1,DQ,Cruz Renteria,Longview Pine Tree,77.29,,,,,Single-ply,BD,M
Boys,82.1,DQ,Ridge Reddick,Overton,81.74,,,,,Single-ply,BD,M
Boys,82.1,DQ,Taylor Young #4,Ore City,76.02,,,,,Single-ply,BD,M
Boys,82.1,DQ,Wilfredo Valladares,Tyler,82.1,,,,,Single-ply,BD,M
Boys,82.1,DQ,Cody Presson,White Oak,77.56,,,,,Single-ply,BD,M
Boys,89.81,1,Felipe Amaro,Laird Hill Leveretts Chapel,87.09,256.28,136.08,197.31,589.67,Single-ply,SBD,M
Boys,89.81,2,Cory Flanagan,Longview,84.19,213.19,120.2,238.14,571.53,Single-ply,SBD,M
Boys,89.81,3,Bryan Gilliland,Longview,86.09,226.8,113.4,208.65,548.85,Single-ply,SBD,M
Boys,89.81,4,Drake Murry,Marshall,87.09,208.65,115.67,222.26,546.58,Single-ply,SBD,M
Boys,89.81,5,Keanu Fathal,Corsicana Mildred,84.55,208.65,124.74,210.92,544.31,Single-ply,SBD,M
Boys,89.81,6,Mark Overman,Laird Hill Leveretts Chapel,85.46,195.04,140.61,204.12,539.77,Single-ply,SBD,M
Boys,89.81,7,Clay Wilkerson,Rockwall-Heath,84.55,215.46,127.01,188.24,530.7,Single-ply,SBD,M
Boys,89.81,8,Seth Hensley,Henderson,88.63,188.24,102.06,235.87,526.17,Single-ply,SBD,M
Boys,89.81,9,Tony Burns,Mount Enterprise,87,192.78,142.88,181.44,517.1,Single-ply,SBD,M
Boys,89.81,10,Justin Taylor,Daingerfield,88.18,199.58,99.79,208.65,508.02,Single-ply,SBD,M
Boys,89.81,11,Jaylon Hardeman,Jefferson,87,190.51,102.06,192.78,485.34,Single-ply,SBD,M
Boys,89.81,12,Chris Reese,Queen City,87.82,154.22,102.06,197.31,453.59,Single-ply,SBD,M
Boys,89.81,13,Shelton Williams,Marshall,84.01,181.44,86.18,181.44,449.06,Single-ply,SBD,M
Boys,89.81,14,Nathan Boutin,Henderson,87.18,161.03,99.79,176.9,437.72,Single-ply,SBD,M
Boys,89.81,15,Easton Droddy,Queen City,84.73,154.22,92.99,154.22,401.43,Single-ply,SBD,M
Boys,89.81,16,James Payne,Nacogdoches,89.63,136.08,102.06,163.29,401.43,Single-ply,SBD,M
Boys,89.81,17,Ricardo Sanchez,Laird Hill Leveretts Chapel,82.55,167.83,81.65,136.08,385.55,Single-ply,SBD,M
Boys,89.81,18,Jaylon Jackson,Longview,89.18,226.8,127.01,,353.8,Single-ply,SB,M
Boys,89.81,19,Grant Stansberry,Gladewater Sabine,88.36,204.12,115.67,,319.78,Single-ply,SB,M
Boys,89.81,20,Cory Wilkerson,Rockwall-Heath,83.1,176.9,111.13,,288.03,Single-ply,SB,M
Boys,89.81,DQ,Lane Peek,New Boston,88.27,,,,,Single-ply,SB,M
Boys,89.81,DQ,Dilllon Green,Longview Spring Hill,86,,,,,Single-ply,SB,M
Boys,99.79,1,Omar French,Longview,95.44,240.4,108.86,281.23,630.49,Single-ply,SBD,M
Boys,99.79,2,Zack McGuire,Ore City,93.89,226.8,129.27,226.8,582.87,Single-ply,SBD,M
Boys,99.79,3,Chris Ferguson,Longview Pine Tree,91.72,226.8,127.01,201.85,555.65,Single-ply,SBD,M
Boys,99.79,4,Parker Hartcraft,Queen City,98.88,235.87,111.13,192.78,539.77,Single-ply,SBD,M
Boys,99.79,5,Keelin Munoz,White Oak,94.53,206.38,113.4,199.58,519.36,Single-ply,SBD,M
Boys,99.79,6,Reese Mathews,Elysian Fields,95.07,190.51,117.93,190.51,498.95,Single-ply,SBD,M
Boys,99.79,7,D'Luis West,Troup,96.62,170.1,108.86,204.12,483.08,Single-ply,SBD,M
Boys,99.79,8,Shaundrick Williams,Tyler,92.53,183.7,120.2,147.42,451.32,Single-ply,SBD,M
Boys,99.79,9,Luis Medrano,Nacogdoches,98.16,163.29,99.79,170.1,433.18,Single-ply,SBD,M
Boys,99.79,10,Nic Odom,Overton,99.61,174.63,81.65,158.76,415.04,Single-ply,SBD,M
Boys,99.79,11,Luke Rice,Elysian Fields,93.26,145.15,90.72,158.76,394.63,Single-ply,SBD,M
Boys,99.79,DQ,George Anthony,New London West Rusk,96.8,,,,,Single-ply,SBD,M
Boys,109.77,1,Katrail Flanagan,Marshall,108.59,219.99,115.67,244.94,580.6,Single-ply,SBD,M
Boys,109.77,2,Austin Cruz,Cushing,109.59,233.6,122.47,222.26,578.33,Single-ply,SBD,M
Boys,109.77,3,Stacy Nelson,Longview,102.97,235.87,108.86,231.33,576.06,Single-ply,SBD,M
Boys,109.77,4,Jj Nwigwe,Rockwall-Heath,108.14,201.85,140.61,224.53,566.99,Single-ply,SBD,M
Boys,109.77,5,Colton Defur,Hawkins,104.42,229.06,138.35,197.31,564.72,Single-ply,SBD,M
Boys,109.77,6,Brandon Gann,Gladewater Sabine,100.88,210.92,127.01,215.46,553.38,Single-ply,SBD,M
Boys,109.77,7,Jaylon Reese,Tyler,103.69,183.7,138.35,231.33,553.38,Single-ply,SBD,M
Boys,109.77,8,Jassavia Reese,Tyler,101.06,192.78,120.2,231.33,544.31,Single-ply,SBD,M
Boys,109.77,9,Mikey Grubbs,Mount Enterprise,105.41,215.46,122.47,204.12,542.04,Single-ply,SBD,M
Boys,109.77,10,Weston Thomas,Henderson,109.23,190.51,113.4,208.65,512.56,Single-ply,SBD,M
Boys,109.77,11,Brandon Galindo,Elysian Fields,104.05,201.85,117.93,181.44,501.22,Single-ply,SBD,M
Boys,109.77,12,Tristin Wright,Cushing,105.23,181.44,115.67,192.78,489.88,Single-ply,SBD,M
Boys,109.77,13,Trenton Thomas,Henderson,107.86,181.44,108.86,195.04,485.34,Single-ply,SBD,M
Boys,109.77,14,William Reynolds,Diana New Diana,106.05,192.78,102.06,181.44,476.27,Single-ply,SBD,M
Boys,109.77,15,Eric Rodriguez,Overton,109.77,208.65,86.18,181.44,476.27,Single-ply,SBD,M
Boys,109.77,16,Jaibian Jackson,New London West Rusk,108.95,192.78,102.06,170.1,464.93,Single-ply,SBD,M
Boys,109.77,17,Trent Granderson,Queen City,107.32,172.37,95.25,181.44,449.06,Single-ply,SBD,M
Boys,124.74,18,Jacob Cook,Nacogdoches,109.95,161.03,97.52,170.1,428.64,Single-ply,SBD,M
Boys,109.77,19,Baltazar Santiago,Quitman,105.14,163.29,90.72,172.37,426.38,Single-ply,SBD,M
Boys,109.77,20,Adrian Adkins,Tyler,103.6,136.08,90.72,170.1,396.89,Single-ply,SBD,M
Boys,109.77,21,Janal Plant,Elysian Fields,108.32,142.88,83.91,167.83,394.63,Single-ply,SBD,M
Boys,109.77,22,Jack Slack,Henderson,105.69,136.08,83.91,142.88,362.87,Single-ply,SBD,M
Boys,109.77,23,Taylor Minatrea,Waskom,109.04,120.2,74.84,142.88,337.93,Single-ply,SBD,M
Boys,109.77,DQ,Howard Hawkins,Tyler,103.51,,,,,Single-ply,SBD,M
Boys,109.77,DQ,Chris Durham,Diana New Diana,102.6,,,,,Single-ply,SBD,M
Boys,124.74,1,Marquis Hunter,Longview,115.21,233.6,129.27,238.14,601.01,Single-ply,SBD,M
Boys,124.74,2,Aquavion Evans,Mount Vernon,113.85,256.28,124.74,215.46,596.47,Single-ply,SBD,M
Boys,124.74,3,William Mitchell,Longview Pine Tree,115.48,263.08,151.95,181.44,596.47,Single-ply,SBD,M
Boys,124.74+,4,Corey Brister,New London West Rusk,124.92,215.46,124.74,233.6,573.79,Single-ply,SBD,M
Boys,124.74,5,Emiliano Ramirez,Quitman,116.85,199.58,127.01,190.51,517.1,Single-ply,SBD,M
Boys,124.74,6,Hunter Hicks,Longview Spring Hill,114.58,213.19,124.74,176.9,514.83,Single-ply,SBD,M
Boys,124.74,7,Lyle Owens,White Oak,123.83,208.65,138.35,163.29,510.29,Single-ply,SBD,M
Boys,124.74,8,James Carpenter,Jefferson,116.39,208.65,122.47,165.56,496.68,Single-ply,SBD,M
Boys,124.74,9,Mack Boyd,New Boston,113.58,195.04,97.52,188.24,480.81,Single-ply,SBD,M
Boys,124.74,10,Michael Croteau,Overton,117.03,204.12,92.99,170.1,467.2,Single-ply,SBD,M
Boys,124.74,11,Josh Brittain,Longview Spring Hill,114.94,195.04,115.67,151.95,462.66,Single-ply,SBD,M
Boys,124.74+,12,Malik Fulce,New London West Rusk,124.83,158.76,104.33,161.03,424.11,Single-ply,SBD,M
Boys,124.74,13,Jaime Colin,Nacogdoches,124.19,181.44,86.18,149.69,417.3,Single-ply,SBD,M
Boys,124.74,14,Adrian Harris,Tyler,119.48,138.35,104.33,170.1,412.77,Single-ply,SBD,M
Boys,124.74+,1,Adrian Pulido,Tyler,132.9,281.23,158.76,235.87,675.85,Single-ply,SBD,M
Boys,124.74+,2,Marcus Polk,Longview,129.18,254.01,120.2,272.16,646.37,Single-ply,SBD,M
Boys,124.74+,3,Keithan Walker,Daingerfield,133.72,294.84,117.93,208.65,621.42,Single-ply,SBD,M
Boys,124.74+,4,Hunter Coleman,Elysian Fields,140.43,249.48,165.56,204.12,619.15,Single-ply,SBD,M
Boys,124.74+,5,Broderick Washington,Longview,131.09,242.67,120.2,242.67,605.55,Single-ply,SBD,M
Boys,124.74+,6,Justin Stadtfeld,Gladewater,153.68,238.14,142.88,215.46,596.47,Single-ply,SBD,M
Boys,124.74+,7,Taylor McBride,Cushing,131.72,260.82,124.74,208.65,594.21,Single-ply,SBD,M
Boys,124.74+,8,Jorge Guerrero,Rockwall-Heath,139.62,226.8,142.88,206.38,576.06,Single-ply,SBD,M
Boys,124.74+,9,Wesley Prince,Waskom,156.85,213.19,133.81,204.12,551.11,Single-ply,SBD,M
Boys,124.74+,10,Wesley Holmes,New Boston,130,238.14,117.93,190.51,546.58,Single-ply,SBD,M
Boys,124.74+,11,Hunter Fountain,Elysian Fields,137.57,240.4,133.81,172.37,546.58,Single-ply,SBD,M
Boys,124.74+,12,Ryan Cox,Jefferson,141.97,192.78,129.27,192.78,514.83,Single-ply,SBD,M
Boys,124.74+,13,Dee Tennison,Gladewater,133.45,238.14,124.74,142.88,505.76,Single-ply,SBD,M
Boys,124.74+,14,Trenton Davis,New Boston,138.07,170.1,97.52,174.63,442.25,Single-ply,SBD,M
Boys,124.74+,15,Dakota Jeffus,Gladewater,131.63,147.42,106.59,170.1,424.11,Single-ply,SBD,M
Boys,124.74+,16,Trevor Elbert,Rockwall-Heath,132.72,249.48,142.88,,392.36,Single-ply,SB,M
Boys,124.74+,17,Zack Watson,Ore City,147.42,238.14,117.93,,356.07,Single-ply,SB,M
Boys,124.74+,18,Willie Evans,Daingerfield,187.97,226.8,127.01,,353.8,Single-ply,SB,M
