Division,WeightClassKg,Place,Name,Team,BodyweightKg,Best3SquatKg,Best3BenchKg,Best3DeadliftKg,TotalKg,Equipment,Event,Sex
Boys,51.71,1,Nate Garza,Georgetown,51.17,136.08,72.57,145.15,353.8,Single-ply,SBD,M
Boys,51.71,2,Will Solomon,Bastrop Cedar Creek,51.62,122.47,79.38,133.81,335.66,Single-ply,SBD,M
Boys,51.71,3,Rudy Pina,Del Valle,50.53,113.4,68.04,142.88,324.32,Single-ply,SBD,M
Boys,51.71,4,Eli Edwards,Seguin,50.17,113.4,63.5,131.54,308.44,Single-ply,SBD,M
Boys,51.71,5,Mauricio Rangel,Buda Hays,48.9,108.86,70.31,124.74,303.91,Single-ply,SBD,M
Boys,51.71,6,Casey Canaan,Seguin,48.99,83.91,38.56,97.52,219.99,Single-ply,SBD,M
Boys,55.79,1,Ivan Venegas,Dripping Springs,55.79,176.9,102.06,183.7,462.66,Single-ply,SBD,M
Boys,55.79,2,Michael Guerrero,Georgetown East View,54.07,147.42,88.45,149.69,385.55,Single-ply,SBD,M
Boys,55.79,3,Nick Sanchez,Georgetown,52.8,140.61,83.91,149.69,374.21,Single-ply,SBD,M
Boys,55.79,4,Chris Guerrero,Del Valle,54.16,117.93,63.5,158.76,340.19,Single-ply,SBD,M
Boys,55.79,DQ,Colton Caswel,Buda Hays,55.79,104.33,,,,Single-ply,SBD,M
Boys,55.79,DQ,Tucker Klein,Fredericksburg,54.07,,,,,Single-ply,SBD,M
Boys,55.79,DQ,Cameron Saucedo,Kyle Lehman,55.43,174.63,,,,Single-ply,SBD,M
Boys,59.87,1,Trestan Hudnall,Killeen Ellison,59.51,181.44,120.2,204.12,505.76,Single-ply,SBD,M
Boys,59.87,2,Luke Merchant,San Marcos,59.78,156.49,90.72,172.37,419.57,Single-ply,SBD,M
Boys,59.87,3,Marc Anthony Govea,Del Valle,58.6,145.15,77.11,170.1,392.36,Single-ply,SBD,M
Boys,59.87,4,Angel Longoria,Kyle Lehman,59.51,147.42,95.25,147.42,390.09,Single-ply,SBD,M
Boys,59.87,5,Isaac Trejo,San Marcos,55.97,129.27,83.91,142.88,356.07,Single-ply,SBD,M
Boys,59.87,6,Jacob Bohnert,Fredericksburg,58.33,90.72,70.31,129.27,290.3,Single-ply,SBD,M
Boys,59.87,7,Cheney Stephenson,Seguin,57.52,95.25,54.43,113.4,263.08,Single-ply,SBD,M
Boys,67.13,1,Juan Rios,Dripping Springs,66.32,195.04,127.01,201.85,523.9,Single-ply,SBD,M
Boys,67.13,2,Chris Velazquez,Geronimo Navarro,62.69,208.65,120.2,183.7,512.56,Single-ply,SBD,M
Boys,67.13,3,Jason Leal,Buda Hays,65.5,179.17,108.86,188.24,476.27,Single-ply,SBD,M
Boys,67.13,4,Therrance Soto,San Marcos,60.15,165.56,92.99,190.51,449.06,Single-ply,SBD,M
Boys,67.13,5,Klayton Morriss,Bastrop Cedar Creek,65.5,156.49,83.91,172.37,412.77,Single-ply,SBD,M
Boys,67.13,6,Kaleb Thomas,Buda Hays,66.68,154.22,99.79,154.22,408.23,Single-ply,SBD,M
Boys,67.13,7,Ben Muniga,Geronimo Navarro,65.05,90.72,63.5,113.4,267.62,Single-ply,SBD,M
Boys,67.13,DQ,Chandler Brill,Kyle Lehman,67.04,,,,,Single-ply,SBD,M
Boys,67.13,DQ,Ray Heiser,Kyle Lehman,66.59,,,,,Single-ply,SBD,M
Boys,67.13,DQ,Daniel Santana,San Marcos,60.6,,,,,Single-ply,SBD,M
Boys,67.13,DQ,Cody Elizalde,Seguin,66.41,,,,,Single-ply,SBD,M
Boys,67.13,DQ,Ryan Wall,Georgetown East View,65.41,,,,,Single-ply,SBD,M
Boys,74.84,1,Brandon Palomares,Seguin,70.58,238.14,142.88,242.67,623.69,Single-ply,SBD,M
Boys,74.84,2,KeKoa Engleman,Kyle Lehman,74.57,179.17,117.93,215.46,512.56,Single-ply,SBD,M
Boys,74.84,3,Juan Venegas,Dripping Springs,74.75,195.04,127.01,190.51,512.56,Single-ply,SBD,M
Boys,74.84,4,Christian Caballero,San Marcos,74.84,188.24,108.86,213.19,510.29,Single-ply,SBD,M
Boys,74.84,5,Joshua Handley,Fredericksburg,74.84,170.1,120.2,204.12,494.42,Single-ply,SBD,M
Boys,74.84,6,Christian Alvarez,San Marcos,67.68,181.44,104.33,197.31,483.08,Single-ply,SBD,M
Boys,74.84,7,Brodrick Phillips,Buda Hays,74.03,183.7,108.86,185.97,478.54,Single-ply,SBD,M
Boys,74.84,8,Jake Lopez,Buda Hays,73.66,183.7,104.33,172.37,460.4,Single-ply,SBD,M
Boys,74.84,9,Fabricio Williams,Georgetown,73.3,163.29,113.4,172.37,449.06,Single-ply,SBD,M
Boys,74.84,10,Marcus Oliva,Lockhart,69.94,154.22,115.67,172.37,442.25,Single-ply,SBD,M
Boys,74.84,11,Parker Nixon,Seguin,73.12,145.15,90.72,151.95,387.82,Single-ply,SBD,M
Boys,74.84,12,Jesau Batres,Lockhart,71.3,154.22,86.18,138.35,378.75,Single-ply,SBD,M
Boys,74.84,13,Jose Palomino,Del Valle,70.22,136.08,90.72,142.88,369.68,Single-ply,SBD,M
Boys,74.84,14,Gavin West,Fredericksburg,71.3,117.93,63.5,147.42,328.85,Single-ply,SBD,M
Boys,74.84,15,Isaiah Gomez,Del Valle,67.49,92.99,56.7,129.27,278.96,Single-ply,SBD,M
Boys,74.84,16,Joshua Allen,Del Valle,73.3,92.99,54.43,113.4,260.82,Single-ply,SBD,M
Boys,74.84,DQ,Gary Alonzo,Buda Hays,74.12,,,,,Single-ply,SBD,M
Boys,74.84,DQ,Charlie Walker,Geronimo Navarro,74.84,92.99,90.72,,,Single-ply,SBD,M
Boys,82.1,1,Matt Hemphill,Dripping Springs,82.01,281.23,163.29,258.55,703.07,Single-ply,SBD,M
Boys,82.1,2,Euler de Leon,Geronimo Navarro,80.2,210.92,138.35,240.4,589.67,Single-ply,SBD,M
Boys,82.1,3,Devin Norman,Lockhart,80.38,206.38,147.42,215.46,569.26,Single-ply,SBD,M
Boys,82.1,4,Robert Nicholas,Killeen Ellison,78.02,226.8,108.86,222.26,557.92,Single-ply,SBD,M
Boys,82.1,5,Victor Torres,Kyle Lehman,81.01,206.38,127.01,201.85,535.24,Single-ply,SBD,M
Boys,82.1,6,Israel Romero,San Marcos,82.1,183.7,124.74,204.12,512.56,Single-ply,SBD,M
Boys,82.1,7,John Leandro,Seguin,80.1,181.44,106.59,217.72,505.76,Single-ply,SBD,M
Boys,82.1,8,Chanse Hernandez,Seguin,80.1,179.17,124.74,179.17,483.08,Single-ply,SBD,M
Boys,82.1,9,Camren Willwerth,Del Valle,81.19,163.29,95.25,174.63,433.18,Single-ply,SBD,M
Boys,82.1,10,Thong Vu,Seguin,75.57,136.08,104.33,188.24,428.64,Single-ply,SBD,M
Boys,82.1,11,Aaren Casillas,Lockhart,81.19,154.22,79.38,174.63,408.23,Single-ply,SBD,M
Boys,82.1,12,Marco Guardiola,Georgetown East View,81.47,158.76,90.72,151.95,401.43,Single-ply,SBD,M
Boys,82.1,13,Tyler Hughes,Geronimo Navarro,81.65,154.22,83.91,161.03,399.16,Single-ply,SBD,M
Boys,82.1,14,James Gonzalez,Georgetown,76.84,102.06,74.84,102.06,278.96,Single-ply,SBD,M
Boys,82.1,DQ,Gabriel Rodriguez,Kyle Lehman,80.38,190.51,133.81,,,Single-ply,SBD,M
Boys,82.1,DQ,Trystan Birch,Lockhart,78.56,,,,,Single-ply,SBD,M
Boys,89.81,1,David Mata,Georgetown,88.9,256.28,142.88,226.8,625.96,Single-ply,SBD,M
Boys,89.81,2,Harley Ullrich,Seguin,88.72,229.06,151.95,233.6,614.62,Single-ply,SBD,M
Boys,89.81,3,Josh Ewald,Kyle Lehman,89.63,226.8,124.74,240.4,591.94,Single-ply,SBD,M
Boys,89.81,4,Jake Cox,Dripping Springs,85.37,229.06,117.93,242.67,589.67,Single-ply,SBD,M
Boys,89.81,5,Eduardo Ventura,Kyle Lehman,89.27,226.8,129.27,215.46,571.53,Single-ply,SBD,M
Boys,89.81,6,Tyler Law,Geronimo Navarro,84.19,192.78,133.81,226.8,553.38,Single-ply,SBD,M
Boys,89.81,7,Juan Salazar,Seguin,83.19,210.92,120.2,217.72,548.85,Single-ply,SBD,M
Boys,89.81,8,Takai Madgett,San Marcos,88.45,192.78,113.4,217.72,523.9,Single-ply,SBD,M
Boys,89.81,9,Eston Epton,Fredericksburg,85.28,190.51,129.27,199.58,519.36,Single-ply,SBD,M
Boys,89.81,10,Cade Edwards,Bastrop Cedar Creek,88.63,204.12,122.47,190.51,517.1,Single-ply,SBD,M
Boys,89.81,11,Nick Williams,Buda Hays,89.36,215.46,111.13,174.63,501.22,Single-ply,SBD,M
Boys,89.81,12,Kaleb Key,Dripping Springs,87.54,190.51,102.06,206.38,498.95,Single-ply,SBD,M
Boys,89.81,13,Belema Dennis,Del Valle,82.19,190.51,108.86,192.78,492.15,Single-ply,SBD,M
Boys,89.81,14,Connor Travers,Dripping Springs,87.91,158.76,115.67,197.31,471.74,Single-ply,SBD,M
Boys,89.81,15,Jason Iwabuchi,Buda Hays,87.72,172.37,90.72,163.29,426.38,Single-ply,SBD,M
Boys,89.81,16,Cole Booker,Geronimo Navarro,88.72,111.13,95.25,183.7,390.09,Single-ply,SBD,M
Boys,89.81,17,Jonathan Stuart,Del Valle,88.72,122.47,74.84,145.15,342.46,Single-ply,SBD,M
Boys,89.81,DQ,Maui Trevino,Austin Lake Travis,87.54,188.24,131.54,,,Single-ply,SBD,M
Boys,89.81,DQ,David Reyna,Geronimo Navarro,88.9,,,,,Single-ply,SBD,M
Boys,99.79,1,Garrett Luensmann,Seguin,99.61,263.08,142.88,244.94,650.91,Single-ply,SBD,M
Boys,99.79,2,Seth Sanchez,Kyle Lehman,95.98,226.8,138.35,249.48,614.62,Single-ply,SBD,M
Boys,99.79,3,Stone Jones,Bastrop Cedar Creek,99.7,222.26,117.93,240.4,580.6,Single-ply,SBD,M
Boys,99.79,4,Jacob Turner,Bastrop Cedar Creek,98.52,226.8,138.35,208.65,573.79,Single-ply,SBD,M
Boys,99.79,5,Jeremiah Aviles,Seguin,95.44,199.58,142.88,213.19,555.65,Single-ply,SBD,M
Boys,99.79,6,Joey Gonzalez,Georgetown East View,95.89,174.63,124.74,195.04,494.42,Single-ply,SBD,M
Boys,99.79,7,Brian Ortiz,Del Valle,90.99,147.42,102.06,183.7,433.18,Single-ply,SBD,M
Boys,99.79,8,Xavier Acosta,Del Valle,92.08,151.95,106.59,174.63,433.18,Single-ply,SBD,M
Boys,99.79,9,Ryan Durnell,Austin Lake Travis,92.62,158.76,90.72,176.9,426.38,Single-ply,SBD,M
Boys,99.79,10,Zackary Perez,San Marcos,94.17,154.22,102.06,145.15,401.43,Single-ply,SBD,M
Boys,99.79,11,Caleb Sammons,Georgetown East View,97.07,142.88,99.79,158.76,401.43,Single-ply,SBD,M
Boys,99.79,12,Ryan Colliau,Austin Lake Travis,99.43,147.42,102.06,142.88,392.36,Single-ply,SBD,M
Boys,99.79,DQ,Rick Reyes,Buda Hays,98.34,,,,,Single-ply,SBD,M
Boys,99.79,DQ,Ryan Leal,Buda Hays,98.16,,,,,Single-ply,SBD,M
Boys,99.79,DQ,Adam Vineyard,Georgetown East View,97.52,,,,,Single-ply,SBD,M
Boys,99.79,DQ,Rosendo Bahena,Del Valle,91.53,149.69,97.52,,,Single-ply,SBD,M
Boys,109.77,1,Keane Davis,Seguin,108.77,249.48,154.22,272.16,675.85,Single-ply,SBD,M
Boys,109.77,2,David Sillero,Lockhart,109.23,210.92,156.49,188.24,555.65,Single-ply,SBD,M
Boys,109.77,3,Adam Palomares,Buda Hays,101.42,226.8,124.74,192.78,544.31,Single-ply,SBD,M
Boys,109.77,4,Aaron Ward,Seguin,108.95,204.12,122.47,197.31,523.9,Single-ply,SBD,M
Boys,109.77,5,Jaime Guerra,Lockhart,106.41,199.58,120.2,199.58,519.36,Single-ply,SBD,M
Boys,109.77,6,Brandon Rangel,San Marcos,101.51,199.58,113.4,199.58,512.56,Single-ply,SBD,M
Boys,109.77,7,John Sanchez #5,San Marcos,107.41,195.04,115.67,190.51,501.22,Single-ply,SBD,M
Boys,109.77,8,Samson Rena,Del Valle,101.7,174.63,106.59,176.9,458.13,Single-ply,SBD,M
Boys,109.77,9,Cole Smith #2,Georgetown East View,109.23,158.76,92.99,161.03,412.77,Single-ply,SBD,M
Boys,109.77,10,Justin Burnett,Buda Hays,101.24,140.61,92.99,149.69,383.29,Single-ply,SBD,M
Boys,124.74,1,Tyvionne Roaches,Kyle Lehman,124.74,294.84,190.51,244.94,730.28,Single-ply,SBD,M
Boys,124.74,2,Zion Petty,Lockhart,124.65,272.16,183.7,238.14,694,Single-ply,SBD,M
Boys,124.74,3,Dylan Hatfield,Geronimo Navarro,123.1,272.16,183.7,206.38,662.24,Single-ply,SBD,M
Boys,124.74,4,Andrew Salem,Austin Lake Travis,115.21,226.8,167.83,210.92,605.55,Single-ply,SBD,M
Boys,124.74,5,Landon West,Fredericksburg,117.48,192.78,127.01,217.72,537.51,Single-ply,SBD,M
Boys,124.74,6,Daniel Herrera,Seguin,110.5,190.51,120.2,199.58,510.29,Single-ply,SBD,M
Boys,124.74,7,Joshua Jett,Georgetown,110.77,185.97,113.4,183.7,483.08,Single-ply,SBD,M
Boys,124.74,8,Joshua Torres,Del Valle,111.04,185.97,104.33,174.63,464.93,Single-ply,SBD,M
Boys,124.74,9,Brayan Vasquez,Del Valle,112.04,147.42,115.67,197.31,460.4,Single-ply,SBD,M
Boys,124.74,10,Dawson Weiss,Austin Lake Travis,111.13,172.37,113.4,172.37,458.13,Single-ply,SBD,M
Boys,124.74,11,Cody Beran,Del Valle,111.22,165.56,111.13,151.95,428.64,Single-ply,SBD,M
Boys,124.74,DQ,Jacob Cano,Del Valle,123.1,,,,,Single-ply,SBD,M
Boys,124.74,DQ,Reed Leonardis,Buda Hays,121.38,,,,,Single-ply,SBD,M
Boys,124.74+,1,Scale Igiehon,Del Valle,148.87,267.62,142.88,251.74,662.24,Single-ply,SBD,M
Boys,124.74+,2,Sergio Hernandez,Geronimo Navarro,148.42,213.19,172.37,231.33,616.89,Single-ply,SBD,M
Boys,124.74+,3,Michael Rodriguez #10,Georgetown East View,139.62,233.6,145.15,222.26,601.01,Single-ply,SBD,M
Boys,124.74+,4,Caleb Hargraves,Geronimo Navarro,127.82,215.46,145.15,210.92,571.53,Single-ply,SBD,M
Boys,124.74+,5,Dietrich Summons,Del Valle,144.42,185.97,102.06,210.92,498.95,Single-ply,SBD,M
Boys,124.74+,6,Armando Barron,Del Valle,132.54,147.42,92.99,170.1,410.5,Single-ply,SBD,M
