Place,Name,CyrillicName,BirthYear,BodyweightKg,Bench1Kg,Bench2Kg,Bench3Kg,Best3BenchKg,TotalKg,WeightClassKg,Event,Equipment,Division,Sex,BirthDate
1,Yana Zadorina,Яна Задорина,1982,46.65,70,75,77.5,77.5,77.5,47,B,Raw,Open,F,
1,Tatyana Rikhelgof,Татьяна Рихельгоф,1997,50.8,55,57.5,60,60,60,52,B,Raw,Open,F,
1,Natalya Tkacheva,Наталья Ткачева,1977,55.6,75,80,85,85,85,57,B,Raw,Open,F,
2,Kira Pavlovskaya,Кира Павловская,1983,56.9,67.5,70,-72.5,70,70,57,B,Raw,Open,F,
3,Marina Melyokhina,Марина Мелёхина,1986,56.55,65,-67.5,67.5,67.5,67.5,57,B,Raw,Open,F,
1,Irina Poletaeva,Ирина Полетаева,1982,63,100,110,-117.5,110,110,63,B,Raw,Open,F,
2,Tatyana Bogachkina,Татьяна Богачкина,1986,62.15,80,85,-90,85,85,63,B,Raw,Open,F,
3,Oksana Pribylova,Оксана Прибылова,1982,60.85,75,80,-85,80,80,63,B,Raw,Open,F,
1,Svetlana Fokina,Светлана Фокина,1979,72,100,-110,110,110,110,72,B,Raw,Open,F,
2,Yuliya Chernova,Юлия Чернова,1992,71.55,57.5,62.5,65,65,65,72,B,Raw,Open,F,
1,Mariya Layzan,Мария Лайзан,1990,77.05,70,75,-80,75,75,84,B,Raw,Open,F,
1,Evgeniya Shabanova,Евгения Шабанова,1977,89.35,90,95,-102.5,95,95,84+,B,Raw,Open,F,
1,Veniamin Kurakin,Вениамин Куракин,1988,58.65,107.5,115,120,120,120,59,B,Raw,Open,M,
2,Georgiy Tursunov,Георгий Турсунов,1989,58.55,97.5,102.5,-107.5,102.5,102.5,59,B,Raw,Open,M,
3,Mikhail Zakirov,Михаил Закиров,1989,56.7,90,-95,-95,90,90,59,B,Raw,Open,M,
1,Pavel Nikolovskiy,Павел Николовский,1978,65.3,122.5,132.5,137.5,137.5,137.5,66,B,Raw,Open,M,
2,Ivan Mylnikov,Иван Мыльников,1986,65.2,120,130,135,135,135,66,B,Raw,Open,M,
3,Yuriy Dultsev,Юрий Дульцев,1996,63.9,100,105,110,110,110,66,B,Raw,Open,M,
4,Nikolay Emelyanov,Николай Емельянов,1963,65.45,90,-100,100,100,100,66,B,Raw,Open,M,
NS,Igor Kuchin,Игорь Кучин,1967,,,,,,,66,B,Raw,Open,M,
1,Maksim Beloborodov,Максим Белобородов,1983,73.15,170,175,-182.5,175,175,74,B,Raw,Open,M,
2,Andrey Ustinov,Андрей Устинов,1988,74,160,-167.5,,160,160,74,B,Raw,Open,M,
3,Nikolay Konev,Николай Конев,1990,68.55,110,-117.5,117.5,117.5,117.5,74,B,Raw,Open,M,
1,Sergey Shekurov,Сергей Шекуров,1981,81,175,-180,-191,175,175,83,B,Raw,Open,M,
2,Andrey Bukreev,Андрей Букреев,1975,81.15,170,-175,-175,170,170,83,B,Raw,Open,M,
3,Evgeniy Nosach,Евгений Носач,1976,80.8,150,-160,-160,150,150,83,B,Raw,Open,M,
4,Evgeniy Kocheulov,Евгений Кочеулов,1984,82.5,145,150,-152.5,150,150,83,B,Raw,Open,M,
5,Dmitriy Gribkov,Дмитрий Грибков,1984,82.25,140,145,-152.5,145,145,83,B,Raw,Open,M,
DQ,Sergey Vernigor,Сергей Вернигор,1965,81.2,-147.5,-147.5,-147.5,,,83,B,Raw,Open,M,
1,Valeriy Nikishin,Валерий Никишин,1965,92.1,180,185,-200,185,185,93,B,Raw,Open,M,
2,Aleksey Zamyatkin,Алексей Замяткин,1980,91.45,170,-175,,170,170,93,B,Raw,Open,M,
3,Aleksey Tsapa,Алексей Цапа,1995,91,150,152.5,-157.5,152.5,152.5,93,B,Raw,Open,M,
1,Dmitriy Likhanov,Дмитрий Лиханов,1979,101.7,190,200,205,205,205,105,B,Raw,Open,M,
2,Oleg Ulanov,Олег Уланов,1971,100.2,190,197.5,202.5,202.5,202.5,105,B,Raw,Open,M,
3,Sergey Kolesnikov,Сергей Колесников,1977,99.25,180,182.5,185,185,185,105,B,Raw,Open,M,
4,Fyodor Opolev,Фёдор Ополев,1973,101.2,175,-185,185,185,185,105,B,Raw,Open,M,
5,Timur Stolyarov,Тимур Столяров,1968,101.15,170,177.5,180,180,180,105,B,Raw,Open,M,
6,Viktor Prisyazhnyuk,Виктор Присяжнюк,1976,103.7,170,-180,-180,170,170,105,B,Raw,Open,M,
1,Sergey Selezen,Сергей Селезень,1980,120,210,220,230,230,230,120,B,Raw,Open,M,
2,Konstantin Elshin,Константин Ельшин,1986,111.4,220,225,-230,225,225,120,B,Raw,Open,M,
3,Aleksey Kudryavtsev,Алексей Кудрявцев,1988,114.85,205,215,-220,215,215,120,B,Raw,Open,M,
4,Oleg Bokarev,Олег Бокарев,1965,111.8,202.5,-212.5,-215,202.5,202.5,120,B,Raw,Open,M,
5,Denis Divakov,Денис Диваков,1992,114.25,180,-187.5,187.5,187.5,187.5,120,B,Raw,Open,M,
6,Maksim Skobkarev,Максим Скобкарев,1984,115.25,160,-167.5,-167.5,160,160,120,B,Raw,Open,M,
NS,Aleksandr Luchnikov,Александр Лучников,1985,,,,,,,120,B,Raw,Open,M,
1,Stanislav Alekseykin,Станислав Алексейкин,1982,131.35,215,225,-240,225,225,120+,B,Raw,Open,M,
2,Vladimir Mikhlin,Владимир Михлин,1987,123.1,210,-220,-220,210,210,120+,B,Raw,Open,M,
3,Sergey Semakin,Сергей Семакин,1978,120.85,200,-205,-205,200,200,120+,B,Raw,Open,M,
4,Igor Kolmakov,Игорь Колмаков,1965,146.45,140,150,-155,150,150,120+,B,Raw,Open,M,
DD,Valeriy Chernozubov,Валерий Чернозубов,1987,120.1,200,-210,-210,200,,120+,B,Raw,Open,M,
