Division,WeightClassKg,Place,Name,Team,BodyweightKg,Best3SquatKg,Best3BenchKg,Best3DeadliftKg,TotalKg,Equipment,Event,Sex,BirthDate
Boys,51.71,1,Mattox Evans,Big Spring,50.8,122.47,68.04,140.61,331.12,Single-ply,SBD,M,
Boys,51.71,2,Kaleb Lozano,Odessa,51.62,120.2,63.5,129.27,312.98,Single-ply,SBD,M,
Boys,51.71,3,Tyler Waggoner,Stanton,51.62,120.2,58.97,113.4,292.57,Single-ply,SBD,M,
Boys,51.71,4,Carter Biggs,Midland Greenwood,49.49,86.18,45.36,88.45,219.99,Single-ply,SBD,M,
Boys,51.71,5,Bryson Kinsey,Forsan,50.12,74.84,47.63,90.72,213.19,Single-ply,SBD,M,
Boys,55.79,1,Cruz Martinez,Big Spring,55.43,147.42,81.65,154.22,383.29,Single-ply,SBD,M,
Boys,55.79,2,Trey Jimenez,Sweetwater,54.43,122.47,77.11,136.08,335.66,Single-ply,SBD,M,
Boys,55.79,3,Leonardo Murillo,Odessa,53.61,106.59,74.84,124.74,306.17,Single-ply,SBD,M,
Boys,55.79,4,Nick Boyd,Colorado City Colorado,53.98,104.33,70.31,124.74,299.37,Single-ply,SBD,M,
Boys,59.87,1,Isaac Estrada,Odessa,59.87,197.31,131.54,188.24,517.1,Single-ply,SBD,M,
Boys,59.87,2,Sebastian Gonzales,Sweetwater,59.42,165.56,95.25,181.44,442.25,Single-ply,SBD,M,
Boys,59.87,3,Kendal Adames,Sweetwater,59.87,167.83,102.06,167.83,437.72,Single-ply,SBD,M,
Boys,59.87,4,Johnny Jamison,Snyder,58.88,158.76,79.38,154.22,392.36,Single-ply,SBD,M,
Boys,59.87,5,Eric Martinez,Sweetwater,56.97,127.01,81.65,145.15,353.8,Single-ply,SBD,M,
Boys,59.87,6,Kenny Richardson,Big Spring,59.42,129.27,83.91,140.61,353.8,Single-ply,SBD,M,
Boys,59.87,7,Jared Wacker,Midland Classical Academy,56.52,140.61,65.77,131.54,337.93,Single-ply,SBD,M,
Boys,59.87,DQ,Paul McMillian,Midland Classical Academy,59.87,136.08,72.57,,,Single-ply,SBD,M,
Boys,67.13,1,Shawn Mendoza,Big Spring,66.95,183.7,115.67,195.04,494.42,Single-ply,SBD,M,
Boys,67.13,2,Josh Lopez,Big Spring,62.96,170.1,95.25,204.12,469.47,Single-ply,SBD,M,
Boys,67.13,3,Dusty Chavez,Big Spring,65.77,158.76,106.59,188.24,453.59,Single-ply,SBD,M,
Boys,67.13,4,Jermiah Collins,Big Spring,65.05,170.1,86.18,176.9,433.18,Single-ply,SBD,M,
Boys,67.13,5,Ramiro Aguilar,Hawley,66.68,149.69,99.79,174.63,424.11,Single-ply,SBD,M,
Boys,67.13,6,Daniel Estrada,New Home,65.77,158.76,97.52,165.56,421.84,Single-ply,SBD,M,
Boys,67.13,7,Ky Kemper,Coahoma,63.5,158.76,92.99,142.88,394.63,Single-ply,SBD,M,
Boys,67.13,8,Tab Cowan,Midland Greenwood,64.14,142.88,83.91,147.42,374.21,Single-ply,SBD,M,
Boys,67.13,9,Sean Striegler,Coahoma,66.68,136.08,95.25,142.88,374.21,Single-ply,SBD,M,
Boys,67.13,10,Aaron Morales,Odessa Permian,61.69,145.15,79.38,145.15,369.68,Single-ply,SBD,M,
Boys,67.13,11,Eathan Aguilar,Sweetwater,65.32,136.08,79.38,149.69,365.14,Single-ply,SBD,M,
Boys,67.13,12,Joseph Connell,Colorado City Colorado,64.41,117.93,81.65,149.69,349.27,Single-ply,SBD,M,
Boys,67.13,13,Chris Chaney,Colorado City Colorado,65.77,120.2,74.84,149.69,344.73,Single-ply,SBD,M,
Boys,67.13,14,John Breeden,Midland Greenwood,63.78,124.74,61.23,138.35,324.32,Single-ply,SBD,M,
Boys,67.13,15,Kason O'Shields,Hawley,63.96,102.06,83.91,136.08,322.05,Single-ply,SBD,M,
Boys,67.13,16,Teagan Marlowe,Midland,60.24,113.4,68.04,136.08,317.51,Single-ply,SBD,M,
Boys,67.13,17,Braxton Beck,New Home,60.33,117.93,61.23,127.01,306.17,Single-ply,SBD,M,
Boys,67.13,18,Dylan Brown,New Home,66.22,115.67,77.11,113.4,306.17,Single-ply,SBD,M,
Boys,67.13,19,Robert Jerez,Midland Greenwood,61.96,117.93,61.23,120.2,299.37,Single-ply,SBD,M,
Boys,67.13,20,Giovanni Tarango,Midland Greenwood,65.68,104.33,72.57,102.06,278.96,Single-ply,SBD,M,
Boys,67.13,DQ,Maddix Salazar,Hawley,62.87,,,,,Single-ply,SBD,M,
Boys,67.13,DQ,Alex Carey,Hawley,65.32,142.88,,,,Single-ply,SBD,M,
Boys,74.84,1,Alex Carmona,Floydada,73.48,217.72,127.01,204.12,548.85,Single-ply,SBD,M,
Boys,74.84,2,William Collinsworth,Hawley,74.75,206.38,115.67,183.7,505.76,Single-ply,SBD,M,
Boys,74.84,3,Seth Gardea,Midland,74.75,181.44,111.13,183.7,476.27,Single-ply,SBD,M,
Boys,74.84,4,Ethan Brockman,Sweetwater,73.94,181.44,95.25,181.44,458.13,Single-ply,SBD,M,
Boys,74.84,5,Terran Limuel,Odessa Permian,71.21,174.63,97.52,181.44,453.59,Single-ply,SBD,M,
Boys,74.84,6,James Fogle,Odessa,70.22,165.56,95.25,161.03,421.84,Single-ply,SBD,M,
Boys,74.84,7,Thomas Wells,Midland,71.58,163.29,70.31,176.9,410.5,Single-ply,SBD,M,
Boys,74.84,8,Braden Waggoner,Stanton,67.95,136.08,95.25,136.08,367.41,Single-ply,SBD,M,
Boys,74.84,9,Braden St Clair,Snyder,68.67,142.88,77.11,138.35,358.34,Single-ply,SBD,M,
Boys,74.84,10,Grayson Layh,Midland Classical Academy,71.12,115.67,74.84,142.88,333.39,Single-ply,SBD,M,
Boys,74.84,11,Mason Hudgins,Coahoma,67.68,117.93,81.65,129.27,328.85,Single-ply,SBD,M,
Boys,74.84,12,Peter Goeke,Midland Classical Academy,68.49,122.47,61.23,138.35,322.05,Single-ply,SBD,M,
Boys,74.84,DQ,Ryan Austin,Midland Greenwood,68.13,149.69,92.99,,,Single-ply,SBD,M,
Boys,82.1,1,Jezreel Sanchez-Juarez,Odessa,81.1,213.19,142.88,229.06,585.13,Single-ply,SBD,M,
Boys,82.1,2,Dylan Rodriguez,Snyder,80.83,226.8,117.93,215.46,560.19,Single-ply,SBD,M,
Boys,82.1,3,Leo Uresti,Midland Lee,80.47,197.31,133.81,213.19,544.31,Single-ply,SBD,M,
Boys,82.1,4,Jake Connell,Colorado City Colorado,81.65,176.9,136.08,226.8,539.77,Single-ply,SBD,M,
Boys,82.1,5,Tim Avila,Odessa,77.11,206.38,111.13,190.51,508.02,Single-ply,SBD,M,
Boys,82.1,6,Rogelio Cervantes,Big Spring,81.92,181.44,102.06,192.78,476.27,Single-ply,SBD,M,
Boys,82.1,7,Cedrick Brown,Sweetwater,77.56,158.76,97.52,201.85,458.13,Single-ply,SBD,M,
Boys,82.1,8,Isaiah Johnson,Big Spring,80.83,181.44,115.67,161.03,458.13,Single-ply,SBD,M,
Boys,82.1,9,Andrew Suarez,Floydada,79.38,172.37,102.06,170.1,444.52,Single-ply,SBD,M,
Boys,82.1,10,Parker Gwilliam,Odessa Permian,82.1,158.76,99.79,183.7,442.25,Single-ply,SBD,M,
Boys,82.1,11,Kade Miller,Hawley,81.19,142.88,97.52,151.95,392.36,Single-ply,SBD,M,
Boys,82.1,12,Hez Parker,Hawley,80.29,127.01,95.25,158.76,381.02,Single-ply,SBD,M,
Boys,82.1,13,Caedmon Echols,Midland Classical Academy,80.1,120.2,52.16,131.54,303.91,Single-ply,SBD,M,
Boys,82.1,DQ,Peyton Sharpe,Odessa Permian,82.1,136.08,,,,Single-ply,SBD,M,
Boys,89.81,1,Aaron Young,Lamesa Klondike,89.81,222.26,170.1,233.6,625.96,Single-ply,SBD,M,
Boys,89.81,2,Bryson Duncan,Snyder,89.45,254.01,145.15,213.19,612.35,Single-ply,SBD,M,
Boys,89.81,3,Benito Alaniz,Snyder,87.91,235.87,145.15,213.19,594.21,Single-ply,SBD,M,
Boys,89.81,4,Hayden Hall,Midland Lee,84.91,231.33,131.54,215.46,578.33,Single-ply,SBD,M,
Boys,89.81,5,Juan Carreon,Odessa,88.81,179.17,124.74,190.51,494.42,Single-ply,SBD,M,
Boys,89.81,6,Luke Bland,Odessa Permian,85.73,204.12,102.06,185.97,492.15,Single-ply,SBD,M,
Boys,89.81,7,Kyelar Connally,Midland Lee,88.9,165.56,111.13,210.92,487.61,Single-ply,SBD,M,
Boys,89.81,8,Ra Abdurrazaq,Midland,87.82,165.56,108.86,208.65,483.08,Single-ply,SBD,M,
Boys,89.81,9,Kobe Martinez,Hawley,87.09,158.76,95.25,158.76,412.77,Single-ply,SBD,M,
Boys,89.81,10,Tony Hatfield,Stanton,89.54,170.1,104.33,136.08,410.5,Single-ply,SBD,M,
Boys,89.81,11,Justin Gardner,Sweetwater,83.91,99.79,68.04,113.4,281.23,Single-ply,SBD,M,
Boys,89.81,12,John Allan Carby,Stanton,82.19,108.86,65.77,104.33,278.96,Single-ply,SBD,M,
Boys,89.81,DQ,Dylan Boone,Midland Greenwood,84.91,108.86,,,,Single-ply,SBD,M,
Boys,89.81,DQ,Lucas Moreno,Hawley,83.14,120.2,,,,Single-ply,SBD,M,
Boys,99.79,1,Reyes Silva,Snyder,99.06,317.51,158.76,249.48,725.75,Single-ply,SBD,M,
Boys,99.79,2,Gary Brooks,Odessa,98.97,297.1,142.88,215.46,655.44,Single-ply,SBD,M,
Boys,99.79,3,Colton Strickland,Hawley,99.7,215.46,136.08,251.74,603.28,Single-ply,SBD,M,
Boys,99.79,4,Isaiah Rodriguez,Big Spring,97.52,238.14,124.74,238.14,601.01,Single-ply,SBD,M,
Boys,99.79,5,Nathaniel Whitmore,Forsan,99.79,222.26,145.15,213.19,580.6,Single-ply,SBD,M,
Boys,99.79,6,Xander Richardson,Snyder,92.35,229.06,117.93,215.46,562.45,Single-ply,SBD,M,
Boys,99.79,7,Zack Schneider,Coahoma,98.79,210.92,124.74,204.12,539.77,Single-ply,SBD,M,
Boys,99.79,8,Jeremy Le,Sweetwater,99.79,213.19,131.54,183.7,528.44,Single-ply,SBD,M,
Boys,99.79,9,Albert Garcia,Midland Lee,99.79,201.85,111.13,199.58,512.56,Single-ply,SBD,M,
Boys,99.79,10,William Payne #3,Odessa Permian,97.52,204.12,124.74,181.44,510.29,Single-ply,SBD,M,
Boys,99.79,11,Nolan Park,Forsan,93.44,163.29,95.25,181.44,439.98,Single-ply,SBD,M,
Boys,99.79,12,Nick Gonzalez,Coahoma,95.03,165.56,74.84,142.88,383.29,Single-ply,SBD,M,
Boys,99.79,13,Caleb Sutton,Hawley,92.99,136.08,95.25,136.08,367.41,Single-ply,SBD,M,
Boys,99.79,14,Alex Estrada,Midland Greenwood,95.53,142.88,70.31,136.08,349.27,Single-ply,SBD,M,
Boys,99.79,DQ,Isaias Ramirez,Midland Lee,92.35,154.22,,,,Single-ply,SBD,M,
Boys,109.77,1,Ashton Smith,Stanton,103.06,254.01,147.42,215.46,616.89,Single-ply,SBD,M,
Boys,109.77,2,Tate Thompson,Hawley,102.33,215.46,165.56,226.8,607.81,Single-ply,SBD,M,
Boys,109.77,3,Angel Rodríguez #3,Odessa,105.69,217.72,149.69,229.06,596.47,Single-ply,SBD,M,
Boys,109.77,4,Ely Barrera,Sweetwater,107.05,195.04,115.67,249.48,560.19,Single-ply,SBD,M,
Boys,109.77,5,Jacob Johnston,Floydada,109.77,204.12,124.74,226.8,555.65,Single-ply,SBD,M,
Boys,109.77,6,Xavier Salinas,Midland Lee,100.15,204.12,129.27,215.46,548.85,Single-ply,SBD,M,
Boys,109.77,7,Ryan Blain,Midland Lee,101.97,167.83,122.47,183.7,474,Single-ply,SBD,M,
Boys,109.77,8,Nathan Calvery,Odessa,105.32,181.44,106.59,183.7,471.74,Single-ply,SBD,M,
Boys,109.77,9,Cayman Smith,New Home,104.78,172.37,99.79,183.7,455.86,Single-ply,SBD,M,
Boys,124.74,1,Bo Thompson,Hawley,119.39,272.16,215.46,249.48,737.09,Single-ply,SBD,M,
Boys,124.74,2,Dakota Nichols,Hawley,122.74,272.16,183.7,201.85,657.71,Single-ply,SBD,M,
Boys,124.74,3,Zach Heller,Midland Lee,116.48,235.87,176.9,215.46,628.23,Single-ply,SBD,M,
Boys,124.74,4,Andrew Roberts,Big Spring,122.47,226.8,163.29,197.31,587.4,Single-ply,SBD,M,
Boys,124.74,5,Ruben Lujan,Odessa Permian,111.86,229.06,127.01,226.8,582.87,Single-ply,SBD,M,
Boys,124.74,6,Kobe Cervantez,Coahoma,114.31,226.8,136.08,204.12,566.99,Single-ply,SBD,M,
Boys,124.74,7,Thad Hazlewood,Hawley,122.47,208.65,136.08,215.46,560.19,Single-ply,SBD,M,
Boys,124.74,8,Jake Patterson,Forsan,124.28,183.7,117.93,215.46,517.1,Single-ply,SBD,M,
Boys,124.74,9,Payden Alberts,Stanton,117.75,195.04,122.47,183.7,501.22,Single-ply,SBD,M,
Boys,124.74,10,Jb Wright,Forsan,113.13,172.37,120.2,176.9,469.47,Single-ply,SBD,M,
Boys,124.74,11,Cade Owen,Odessa Permian,113.4,158.76,127.01,156.49,442.25,Single-ply,SBD,M,
Boys,124.74,12,Blayne Porras,Odessa Permian,117.03,158.76,97.52,158.76,415.04,Single-ply,SBD,M,
Boys,124.74,DQ,Trey Beavers,Colorado City Colorado,121.56,158.76,104.33,,,Single-ply,SBD,M,
Boys,124.74+,1,Kolter Willeford,Hawley,129.73,362.87,204.12,272.16,839.15,Single-ply,SBD,M,
Boys,124.74+,2,Abram Cabello,Midland Lee,129.27,258.55,154.22,204.12,616.89,Single-ply,SBD,M,
Boys,124.74+,3,Emilio Dominguez,Odessa,134.72,247.21,154.22,204.12,605.55,Single-ply,SBD,M,
Boys,124.74+,4,Zach Roberts,Big Spring,180.53,231.33,145.15,222.26,598.74,Single-ply,SBD,M,
Boys,124.74+,5,Daniel Roberts,Big Spring,125.74,213.19,145.15,197.31,555.65,Single-ply,SBD,M,
Boys,124.74+,6,Angel Longoria,Sweetwater,136.08,170.1,136.08,204.12,510.29,Single-ply,SBD,M,
Boys,124.74+,7,Tizoc Suarez,Midland,125.83,174.63,92.99,181.44,449.06,Single-ply,SBD,M,
Boys,124.74+,8,Marties Rogers,Odessa Permian,127.01,151.95,113.4,163.29,428.64,Single-ply,SBD,M,
Boys,124.74+,9,Deen Jacob,Colorado City Colorado,141.97,151.95,92.99,165.56,410.5,Single-ply,SBD,M,
Boys,124.74+,DQ,Kody Ramsey,Hawley,164.29,235.87,,,,Single-ply,SBD,M,
