Division,WeightClassKg,Place,Name,Team,BodyweightKg,Best3SquatKg,Best3BenchKg,Best3DeadliftKg,TotalKg,Equipment,Event,Sex
Boys,51.71,1,Leo Martinez,Rio Grande City,51.62,147.42,104.33,158.76,410.5,Single-ply,SBD,M
Boys,51.71,2,Javier Farias,Mission,50.8,156.49,65.77,183.7,405.97,Single-ply,SBD,M
Boys,51.71,3,Jesus Puente,La Joya Palmview,51.26,127.01,68.04,147.42,342.46,Single-ply,SBD,M
Boys,51.71,4,Patricio Chavez,Mission Sharyland,51.62,142.88,65.77,131.54,340.19,Single-ply,SBD,M
Boys,51.71,5,Marrio Perez,Weslaco,50.08,124.74,70.31,124.74,319.78,Single-ply,SBD,M
Boys,51.71,6,Seth Epling,Sharyland Pioneer,50.71,72.57,61.23,102.06,235.87,Single-ply,SBD,M
Boys,51.71,7,Martin Alaniz,Sharyland Pioneer,49.44,72.57,40.82,104.33,217.72,Single-ply,SBD,M
Boys,51.71,DQ,Jesus Guerrero,Mission Sharyland,42.37,95.25,,,,Single-ply,SBD,M
Boys,51.71,DQ,Jose Borrego,McAllen,51.07,120.2,,,,Single-ply,SBD,M
Boys,55.79,1,Robert Saenz,Sharyland Pioneer,55.61,179.17,127.01,192.78,498.95,Single-ply,SBD,M
Boys,55.79,2,Kevin Trevino,McAllen Memorial,55.07,138.35,102.06,151.95,392.36,Single-ply,SBD,M
Boys,55.79,3,Miguel Puente,PSJA Southwest,51.89,117.93,70.31,145.15,333.39,Single-ply,SBD,M
Boys,59.87,1,Fernando Martinez,Weslaco,58.6,142.88,83.91,170.1,396.89,Single-ply,SBD,M
Boys,59.87,2,Ismael Talmante,Rio Grande City,58.24,140.61,90.72,163.29,394.63,Single-ply,SBD,M
Boys,59.87,3,Jesus Rosillo,McAllen,59.87,156.49,77.11,151.95,385.55,Single-ply,SBD,M
Boys,59.87,4,Ethan Plantilla,Mission Sharyland,59.06,142.88,63.5,161.03,367.41,Single-ply,SBD,M
Boys,59.87,5,Anthony Trevino,Rio Grande City Grulla,55.88,102.06,65.77,124.74,292.57,Single-ply,SBD,M
Boys,59.87,6,Edwin Flores,Mission,58.51,104.33,43.09,142.88,290.3,Single-ply,SBD,M
Boys,67.13,1,Abraham Hernandez,La Joya Palmview,66.22,265.35,133.81,274.42,673.58,Single-ply,SBD,M
Boys,67.13,2,Coy Burrows,Sharyland Pioneer,67.04,210.92,136.08,208.65,555.65,Single-ply,SBD,M
Boys,67.13,3,Ricardo Pena,Rio Grande City,66.41,188.24,127.01,210.92,526.17,Single-ply,SBD,M
Boys,67.13,4,Daniel Lozano,Weslaco,65.41,188.24,136.08,183.7,508.02,Single-ply,SBD,M
Boys,67.13,5,Moses Olivarez,McAllen Memorial,66.22,195.04,117.93,190.51,503.49,Single-ply,SBD,M
Boys,67.13,6,Joaziel Espinoza,McAllen,67.04,185.97,115.67,185.97,487.61,Single-ply,SBD,M
Boys,67.13,7,Carlos Gonzalez,Sharyland Pioneer,66.41,179.17,97.52,158.76,435.45,Single-ply,SBD,M
Boys,67.13,8,Eduardo Elizondo,Rio Grande City Grulla,62.87,158.76,111.13,163.29,433.18,Single-ply,SBD,M
Boys,67.13,9,Kevin Marroquin,PSJA Southwest,60.78,145.15,72.57,172.37,390.09,Single-ply,SBD,M
Boys,67.13,10,Rolando Saenz,Mission Sharyland,65.68,147.42,77.11,129.27,353.8,Single-ply,SBD,M
Boys,67.13,11,Kamaron Maples,McAllen Memorial,66.5,117.93,86.18,145.15,349.27,Single-ply,SBD,M
Boys,67.13,12,Abraham Salinas,Rio Grande City Grulla,66.41,115.67,88.45,131.54,335.66,Single-ply,SBD,M
Boys,67.13,13,Jacob Rodriguez,Mission Veterans Memorial,65.23,97.52,74.84,129.27,301.64,Single-ply,SBD,M
Boys,67.13,14,Scot Burkett,McAllen Memorial,61.69,95.25,63.5,115.67,274.42,Single-ply,SBD,M
Boys,67.13,15,Jj Hinojosa,Mission Veterans Memorial,66.59,92.99,70.31,102.06,265.35,Single-ply,SBD,M
Boys,74.84,1,Sean De La Garza,Mission,74.21,272.16,158.76,247.21,678.12,Single-ply,SBD,M
Boys,74.84,2,Francisco Marin,Weslaco,72.57,235.87,147.42,235.87,619.15,Single-ply,SBD,M
Boys,74.84,3,Jonathan Casarez,Rio Grande City,71.21,197.31,136.08,215.46,548.85,Single-ply,SBD,M
Boys,74.84,4,Juan Zurita,Rio Grande City,74.39,176.9,131.54,195.04,503.49,Single-ply,SBD,M
Boys,74.84,5,Santino Pasqual,Mission Sharyland,72.39,183.7,102.06,188.24,474,Single-ply,SBD,M
Boys,74.84,6,Devin Alvarado,McAllen Memorial,74.12,154.22,111.13,165.56,430.91,Single-ply,SBD,M
Boys,74.84,7,Kai Jaime,McAllen,72.94,154.22,70.31,167.83,392.36,Single-ply,SBD,M
Boys,74.84,8,Orlando Guzman,La Joya,73.3,147.42,79.38,156.49,383.29,Single-ply,SBD,M
Boys,74.84,9,Vahir Puente,McAllen Memorial,68.31,120.2,72.57,142.88,335.66,Single-ply,SBD,M
Boys,74.84,DQ,Marcus Flores,McAllen,72.39,136.08,,,,Single-ply,SBD,M
Boys,74.84,DQ,Ozzy Garza,PSJA Southwest,67.68,156.49,111.13,,,Single-ply,SBD,M
Boys,82.1,1,Robert La Buff,Weslaco,80.47,219.99,147.42,244.94,612.35,Single-ply,SBD,M
Boys,82.1,2,Franklin Arellano,McAllen,78.83,215.46,124.74,217.72,557.92,Single-ply,SBD,M
Boys,82.1,3,Mauricio Gonzalez,Mission,82.01,215.46,136.08,204.12,555.65,Single-ply,SBD,M
Boys,82.1,4,Julian Hernandez,McAllen Memorial,81.37,192.78,147.42,197.31,537.51,Single-ply,SBD,M
Boys,82.1,5,Sadge Diaz,McAllen,80.2,208.65,115.67,183.7,508.02,Single-ply,SBD,M
Boys,82.1,6,Miguel Renbon,Mission,79.65,179.17,108.86,192.78,480.81,Single-ply,SBD,M
Boys,82.1,7,Alex Garza,Mission Veterans Memorial,81.1,174.63,115.67,188.24,478.54,Single-ply,SBD,M
Boys,82.1,8,Joe Ramos,Rio Grande City Grulla,82.1,163.29,113.4,161.03,437.72,Single-ply,SBD,M
Boys,82.1,9,Roland Briseno,McAllen,81.37,156.49,115.67,142.88,415.04,Single-ply,SBD,M
Boys,82.1,10,Juan Villarreal,Sharyland Pioneer,79.74,115.67,86.18,129.27,331.12,Single-ply,SBD,M
Boys,82.1,DQ,Adam Pena,La Joya,75.48,149.69,,,,Single-ply,SBD,M
Boys,89.81,1,Juan Rodrigurez,Mission,87.09,238.14,131.54,249.48,619.15,Single-ply,SBD,M
Boys,89.81,2,Daniel Villarreal,La Joya,87.18,240.4,136.08,240.4,616.89,Single-ply,SBD,M
Boys,89.81,3,Ryan Alvarez,Rio Grande City,84.19,226.8,120.2,215.46,562.45,Single-ply,SBD,M
Boys,89.81,4,Zeke Lozano,Weslaco,85.91,188.24,138.35,190.51,517.1,Single-ply,SBD,M
Boys,89.81,5,Aaron Garcia,Weslaco,89.81,190.51,113.4,192.78,496.68,Single-ply,SBD,M
Boys,89.81,6,Luis Garza,La Joya,82.74,188.24,106.59,183.7,478.54,Single-ply,SBD,M
Boys,89.81,7,Andrew Torres,Sharyland Pioneer,88,170.1,124.74,136.08,430.91,Single-ply,SBD,M
Boys,89.81,8,Anthony Oliveira #2,Mission Veterans Memorial,83.37,115.67,70.31,120.2,306.17,Single-ply,SBD,M
Boys,89.81,DQ,Albert Monroy,Mission Veterans Memorial,88.63,229.06,,,,Single-ply,SBD,M
Boys,89.81,DQ,Anthony Rodriguez,McAllen,89.36,,,,,Single-ply,SBD,M
Boys,99.79,1,Sebastian Buitron,McAllen,98.16,265.35,129.27,238.14,632.76,Single-ply,SBD,M
Boys,99.79,2,Eddie Hernandez,La Joya Juarez-Lincoln,96.98,235.87,142.88,226.8,605.55,Single-ply,SBD,M
Boys,99.79,3,Dylan Earheart,McAllen Memorial,95.98,249.48,129.27,219.99,598.74,Single-ply,SBD,M
Boys,99.79,4,Eddie Garza,Rio Grande City,92.85,183.7,136.08,213.19,532.97,Single-ply,SBD,M
Boys,99.79,5,Derek Solis,Rio Grande City Grulla,95.44,188.24,129.27,199.58,517.1,Single-ply,SBD,M
Boys,99.79,6,Eric Gutierrez,Mission,97.98,204.12,136.08,170.1,510.29,Single-ply,SBD,M
Boys,99.79,7,Alejandro Flores,Mission,91.44,170.1,106.59,188.24,464.93,Single-ply,SBD,M
Boys,99.79,8,Erik Torres,Sharyland Pioneer,98.07,170.1,124.74,167.83,462.66,Single-ply,SBD,M
Boys,99.79,9,Adam Rojas,PSJA Southwest,98.07,172.37,108.86,156.49,437.72,Single-ply,SBD,M
Boys,99.79,10,Bryan Rosales,Mission,98.43,142.88,102.06,149.69,394.63,Single-ply,SBD,M
Boys,99.79,DQ,Ricardo Ochoa,Mission Veterans Memorial,96.16,,,,,Single-ply,SBD,M
Boys,99.79,DQ,Ivan Garcia,Rio Grande City Grulla,94.8,142.88,,,,Single-ply,SBD,M
Boys,109.77,1,Juan Martinez,La Joya Juarez-Lincoln,109.41,229.06,151.95,229.06,610.08,Single-ply,SBD,M
Boys,109.77,2,Joey Castillo,PSJA Southwest,102.24,247.21,145.15,208.65,601.01,Single-ply,SBD,M
Boys,109.77,3,Bryan Mosqueda,PSJA Southwest,103.51,229.06,151.95,217.72,598.74,Single-ply,SBD,M
Boys,109.77,4,Isreal Monsivaiz,La Joya Juarez-Lincoln,107.59,206.38,129.27,210.92,546.58,Single-ply,SBD,M
Boys,109.77,5,Caleb Longoria,PSJA Southwest,106.59,204.12,136.08,204.12,544.31,Single-ply,SBD,M
Boys,109.77,6,Jaime Gomez,Rio Grande City,105.05,183.7,136.08,206.38,526.17,Single-ply,SBD,M
Boys,109.77,7,Abel Silva,Rio Grande City,104.1,195.04,113.4,195.04,503.49,Single-ply,SBD,M
Boys,109.77,8,Gio Barajas,PSJA Southwest,109.59,213.19,111.13,176.9,501.22,Single-ply,SBD,M
Boys,109.77,9,Arturo Pena,La Joya Palmview,102.69,217.72,95.25,163.29,476.27,Single-ply,SBD,M
Boys,109.77,10,Darrian Olazaon,PSJA Southwest,102.87,199.58,115.67,151.95,467.2,Single-ply,SBD,M
Boys,109.77,11,Sandalio Garcia,Sharyland Pioneer,102.69,174.63,111.13,161.03,446.79,Single-ply,SBD,M
Boys,109.77,12,Alexander Guerra,McAllen Memorial,107.86,181.44,90.72,163.29,435.45,Single-ply,SBD,M
Boys,109.77,13,Joey Gonzalez,McAllen Memorial,108.95,167.83,97.52,170.1,435.45,Single-ply,SBD,M
Boys,109.77,14,Gonzalo Montalvo,Rio Grande City Grulla,100.33,147.42,108.86,138.35,394.63,Single-ply,SBD,M
Boys,124.74,1,Aliver Chapa,La Joya Juarez-Lincoln,118.02,254.01,181.44,244.94,680.39,Single-ply,SBD,M
Boys,124.74,2,Jesus Proa,La Joya Juarez-Lincoln,110.59,263.08,170.1,244.94,678.12,Single-ply,SBD,M
Boys,124.74,3,Juan Rivas,La Joya Palmview,117.66,265.35,145.15,242.67,653.17,Single-ply,SBD,M
Boys,124.74,4,Adrian Fuentes,Weslaco,113.85,249.48,149.69,226.8,625.96,Single-ply,SBD,M
Boys,124.74,5,Luis Salinas,Rio Grande City,121.29,226.8,158.76,238.14,623.69,Single-ply,SBD,M
Boys,124.74,6,Gerardo Lopez,McAllen,123.92,249.48,174.63,190.51,614.62,Single-ply,SBD,M
Boys,124.74,7,Nick Riley,Mission Veterans Memorial,110.4,247.21,131.54,226.8,605.55,Single-ply,SBD,M
Boys,124.74,8,Steven Alvarez,Mission,119.57,215.46,142.88,226.8,585.13,Single-ply,SBD,M
Boys,124.74,9,Austin Cardenas,Weslaco,116.03,226.8,145.15,210.92,582.87,Single-ply,SBD,M
Boys,124.74,10,Juan Rodriguez,Rio Grande City,120.66,226.8,124.74,219.99,571.53,Single-ply,SBD,M
Boys,124.74,11,Miguel Salazar,Rio Grande City Grulla,113.67,213.19,131.54,204.12,548.85,Single-ply,SBD,M
Boys,124.74,12,Raul Martinez,Weslaco,119.48,224.53,124.74,192.78,542.04,Single-ply,SBD,M
Boys,124.74,13,Luis Garcia,Rio Grande City Grulla,113.76,199.58,131.54,192.78,523.9,Single-ply,SBD,M
Boys,124.74,14,Osiel Alonso,La Joya Juarez-Lincoln,110.95,188.24,122.47,170.1,480.81,Single-ply,SBD,M
Boys,124.74,15,Ezequiel Chavea,La Joya,119.29,165.56,102.06,174.63,442.25,Single-ply,SBD,M
Boys,124.74+,1,Alex Rodriguez #2,La Joya,152.77,272.16,156.49,226.8,655.44,Single-ply,SBD,M
Boys,124.74+,2,Julian Vela,Mission,129,265.35,142.88,235.87,644.1,Single-ply,SBD,M
Boys,124.74+,3,Sam Perez,Weslaco,126.82,256.28,151.95,226.8,635.03,Single-ply,SBD,M
Boys,124.74+,4,Sergio Reyna,McAllen Memorial,126.01,244.94,156.49,208.65,610.08,Single-ply,SBD,M
Boys,124.74+,5,Montey Walter,Mission Veterans Memorial,128.09,97.52,65.77,124.74,288.03,Single-ply,SBD,M
