Division,WeightClassKg,Place,Name,Team,BodyweightKg,Best3SquatKg,Best3BenchKg,Best3DeadliftKg,TotalKg,Equipment,Event,Sex
Boys,51.71,1,Cody Henson,Abernathy,49.58,142.88,74.84,158.76,376.48,Single-ply,SBD,M
Boys,51.71,2,Carlos Perez #3,Sundown,50.26,104.33,56.7,138.35,299.37,Single-ply,SBD,M
Boys,51.71,3,Toby Crabb,Slaton,44.72,86.18,56.7,95.25,238.14,Single-ply,SBD,M
Boys,51.71,4,John Calzoncit,Tahoka,49.21,83.91,45.36,102.06,231.33,Single-ply,SBD,M
Boys,55.79,1,Carlos Rodriguez,Olton,53.57,145.15,74.84,165.56,385.55,Single-ply,SBD,M
Boys,55.79,2,Landon Simmons,Slaton,54.93,127.01,72.57,117.93,317.51,Single-ply,SBD,M
Boys,55.79,3,Brayden Sanders,Sundown,55.02,104.33,61.23,131.54,297.1,Single-ply,SBD,M
Boys,55.79,4,Marcus Hernandez #3,Sundown,53.71,90.72,52.16,113.4,256.28,Single-ply,SBD,M
Boys,55.79,5,Angel Ramirez,Tahoka,54.43,81.65,43.09,108.86,233.6,Single-ply,SBD,M
Boys,55.79,DQ,Paxtyn Gwin,Tahoka,55.79,,,,,Single-ply,SBD,M
Boys,59.87,1,Santos Yanez,Slaton,59.6,161.03,83.91,172.37,417.3,Single-ply,SBD,M
Boys,59.87,2,Eddy Betencourt,Slaton,58.79,113.4,68.04,174.63,356.07,Single-ply,SBD,M
Boys,59.87,3,Zack Gilbert,Lubbock Roosevelt,57.79,113.4,86.18,149.69,349.27,Single-ply,SBD,M
Boys,59.87,4,Jakeum DeLaCruz,Abernathy,59.69,122.47,79.38,133.81,335.66,Single-ply,SBD,M
Boys,59.87,5,Truman Richerson,Abernathy,58.6,122.47,77.11,124.74,324.32,Single-ply,SBD,M
Boys,59.87,6,Jose Perez #17,Sundown,57.02,124.74,58.97,138.35,322.05,Single-ply,SBD,M
Boys,67.13,1,Juwan Hamilton,Tahoka,63.68,185.97,90.72,215.46,492.15,Single-ply,SBD,M
Boys,67.13,2,Zach Ponciano,Abernathy,66.5,176.9,104.33,181.44,462.66,Single-ply,SBD,M
Boys,67.13,3,Isaac Hernandez,Sundown,64.91,163.29,86.18,188.24,437.72,Single-ply,SBD,M
Boys,67.13,4,Peyton Lowdermilk,Tahoka,67.13,154.22,99.79,170.1,424.11,Single-ply,SBD,M
Boys,67.13,5,George Flores,Abernathy,66.86,156.49,104.33,151.95,412.77,Single-ply,SBD,M
Boys,67.13,6,Cade Conway,Sundown,62.6,154.22,95.25,154.22,403.7,Single-ply,SBD,M
Boys,67.13,7,Ben Flores,Abernathy,65.41,147.42,83.91,167.83,399.16,Single-ply,SBD,M
Boys,67.13,8,Jesus Rivera,Abernathy,67.13,165.56,95.25,129.27,390.09,Single-ply,SBD,M
Boys,67.13,9,Brandon Ureste,Abernathy,64.86,136.08,83.91,149.69,369.68,Single-ply,SBD,M
Boys,67.13,10,Zach Gallarneau,Lubbock Cooper,67.13,142.88,74.84,147.42,365.14,Single-ply,SBD,M
Boys,67.13,11,Eli Samarron,Sundown,65.09,136.08,83.91,140.61,360.61,Single-ply,SBD,M
Boys,67.13,12,Case Garrett,Lubbock Roosevelt,62.14,111.13,83.91,147.42,342.46,Single-ply,SBD,M
Boys,67.13,13,Xavier Rodriguez,Olton,62.51,97.52,61.23,129.27,288.03,Single-ply,SBD,M
Boys,67.13,14,Ivan Camargo,Tahoka,64.73,108.86,61.23,117.93,288.03,Single-ply,SBD,M
Boys,67.13,15,Pablo Gonzalez,Olton,66.81,90.72,68.04,115.67,274.42,Single-ply,SBD,M
Boys,74.84,1,Blake Hulse,Sundown,70.31,226.8,104.33,226.8,557.92,Single-ply,SBD,M
Boys,74.84,2,Alexander Herevia,Tahoka,70.35,185.97,92.99,204.12,483.08,Single-ply,SBD,M
Boys,74.84,3,Aldo Vasquez,Olton,70.53,185.97,102.06,172.37,460.4,Single-ply,SBD,M
Boys,74.84,4,Isiah Roacha,Slaton,73.62,163.29,102.06,188.24,453.59,Single-ply,SBD,M
Boys,74.84,5,Matthew Diaz,Tahoka,70.26,172.37,77.11,176.9,426.38,Single-ply,SBD,M
Boys,74.84,6,Dawson Sproul,Lubbock Roosevelt,68.58,151.95,97.52,163.29,412.77,Single-ply,SBD,M
Boys,74.84,7,Jon Evan Cortez,Abernathy,72.98,136.08,70.31,154.22,360.61,Single-ply,SBD,M
Boys,74.84,8,Jody Nevill,Tahoka,70.4,90.72,49.9,133.81,274.42,Single-ply,SBD,M
Boys,74.84,DQ,Rashaun Williams,Olton,74.07,124.74,68.04,,,Single-ply,SBD,M
Boys,74.84,DQ,Nathaniel Resendez,Tahoka,73.35,149.69,68.04,,,Single-ply,SBD,M
Boys,82.1,1,Brayden Castillon,Tahoka,78.93,208.65,120.2,217.72,546.58,Single-ply,SBD,M
Boys,82.1,2,Tyler Hairston,Lubbock Cooper,79.51,185.97,104.33,170.1,460.4,Single-ply,SBD,M
Boys,82.1,3,Carson Rush,Lubbock Cooper,77.11,183.7,70.31,181.44,435.45,Single-ply,SBD,M
Boys,82.1,4,Dawson Glover,Tahoka,76.57,154.22,74.84,149.69,378.75,Single-ply,SBD,M
Boys,82.1,5,Miguel Granados,Tahoka,75.75,131.54,74.84,151.95,358.34,Single-ply,SBD,M
Boys,89.81,1,Nicodemus Ayala,Tahoka,88.77,199.58,117.93,190.51,508.02,Single-ply,SBD,M
Boys,89.81,2,Brody Black,Sundown,87.54,208.65,108.86,185.97,503.49,Single-ply,SBD,M
Boys,89.81,3,Hunter Stanley,Sundown,84.28,181.44,106.59,185.97,474,Single-ply,SBD,M
Boys,89.81,4,Logan Duncan,Lubbock Cooper,88,174.63,104.33,181.44,460.4,Single-ply,SBD,M
Boys,89.81,5,Austin Callaway,Abernathy,88,161.03,97.52,181.44,439.98,Single-ply,SBD,M
Boys,89.81,6,Stephen Cortez,Abernathy,89.63,156.49,90.72,156.49,403.7,Single-ply,SBD,M
Boys,89.81,7,Zakary Gragson,Sundown,84.91,158.76,79.38,151.95,390.09,Single-ply,SBD,M
Boys,89.81,8,Logan Abbott,Lubbock Cooper,87.5,149.69,111.13,129.27,390.09,Single-ply,SBD,M
Boys,89.81,9,Sam Fallin,Lubbock Roosevelt,88.22,149.69,79.38,158.76,387.82,Single-ply,SBD,M
Boys,89.81,10,Garrett Emerson,Slaton,86.09,104.33,58.97,161.03,324.32,Single-ply,SBD,M
Boys,89.81,DQ,Mason Walker,Tahoka,83.6,158.76,,,,Single-ply,SBD,M
Boys,99.79,1,Zach Bocanegra,Lubbock Cooper,97.39,249.48,147.42,208.65,605.55,Single-ply,SBD,M
Boys,99.79,2,Jeremy L Hernandez,Sundown,96.75,244.94,113.4,222.26,580.6,Single-ply,SBD,M
Boys,99.79,3,Alberto Sinaloa,Olton,94.57,201.85,133.81,190.51,526.17,Single-ply,SBD,M
Boys,99.79,4,Cameron Bednarz,Lubbock Cooper,90.9,183.7,120.2,199.58,503.49,Single-ply,SBD,M
Boys,99.79,5,Blake Harmon,Tahoka,97.39,188.24,102.06,163.29,453.59,Single-ply,SBD,M
Boys,99.79,6,Bryson Leaks,Abernathy,91.49,145.15,90.72,154.22,390.09,Single-ply,SBD,M
Boys,99.79,7,Kade Hurt,Tahoka,97.07,145.15,72.57,149.69,367.41,Single-ply,SBD,M
Boys,109.77,1,Jesus Benitez,Lubbock Cooper,104.92,285.76,147.42,249.48,682.66,Single-ply,SBD,M
Boys,109.77,2,Ruben Quinonez,Tahoka,101.79,249.48,145.15,210.92,605.55,Single-ply,SBD,M
Boys,109.77,3,Gabriel Chavez,Olton,106.46,260.82,131.54,208.65,601.01,Single-ply,SBD,M
Boys,109.77,4,JR Paiz,Sundown,101.6,231.33,124.74,181.44,537.51,Single-ply,SBD,M
Boys,109.77,5,Jacob Vasquez,Lubbock Cooper,101.42,197.31,122.47,201.85,521.63,Single-ply,SBD,M
Boys,109.77,6,Jd Hogan,Slaton,100.92,140.61,83.91,129.27,353.8,Single-ply,SBD,M
Boys,124.74,1,Andy Casias,Abernathy,113.85,249.48,147.42,233.6,630.49,Single-ply,SBD,M
Boys,124.74,2,Israel Rodriguez,Slaton,112.85,240.4,106.59,204.12,551.11,Single-ply,SBD,M
Boys,124.74+,1,Francisco Saenz,Olton,140.89,281.23,165.56,251.74,698.53,Single-ply,SBD,M
Boys,124.74+,2,Josh Salas,Slaton,143.56,256.28,129.27,190.51,576.06,Single-ply,SBD,M
Boys,124.74+,3,Robert Haney,Lubbock Cooper,125.42,208.65,108.86,176.9,494.42,Single-ply,SBD,M
Boys,124.74+,4,Ayden Visage,Lubbock Cooper,127.64,195.04,90.72,156.49,442.25,Single-ply,SBD,M
Boys,,NS,Sergio Guerrero,Olton,,,,,,Single-ply,SBD,M
Boys,,NS,Juan Pedroza,Olton,,,,,,Single-ply,SBD,M
Boys,,NS,Michael Trevino,Abernathy,,,,,,Single-ply,SBD,M
Boys,,NS,Cameron Hastings,Sundown,,,,,,Single-ply,SBD,M
