Division,WeightClassKg,Place,Name,Team,BodyweightKg,Best3SquatKg,Best3BenchKg,Best3DeadliftKg,TotalKg,Equipment,Event,Sex
Girls,44.23,1,Aiyeem Kelton,Sunnyvale,42.55,83.91,40.82,92.99,217.72,Single-ply,SBD,F
Girls,44.23,2,Annette Roberts,Forney,44.13,90.72,34.02,83.91,208.65,Single-ply,SBD,F
Girls,44.23,3,Amari Sparks,Cedar Hill,44.09,72.57,29.48,81.65,183.7,Single-ply,SBD,F
Girls,47.85,1,Lauren Gilliam,Weatherford,47.26,99.79,40.82,102.06,242.67,Single-ply,SBD,F
Girls,47.85,2,Natalee Castro,Weatherford,47.17,88.45,43.09,99.79,231.33,Single-ply,SBD,F
Girls,47.85,3,Gracie Williams,Kaufman,46.72,79.38,34.02,77.11,190.51,Single-ply,SBD,F
Girls,47.85,4,Aillissa West,Forney,46.27,61.23,24.95,88.45,174.63,Single-ply,SBD,F
Girls,51.94,1,Natalie Garcia,Forney,51.89,113.4,47.63,115.67,276.69,Single-ply,SBD,F
Girls,51.94,2,Taylor Davis #4,Crandall,50.98,102.06,38.56,104.33,244.94,Single-ply,SBD,F
Girls,51.94,3,Jacee Ballow,Eustace,50.8,106.59,38.56,97.52,242.67,Single-ply,SBD,F
Girls,51.94,4,Ashli Watkins,Mabank,51.07,95.25,45.36,99.79,240.4,Single-ply,SBD,F
Girls,51.94,5,Editn Fisher,Royse City,51.53,90.72,45.36,95.25,231.33,Single-ply,SBD,F
Girls,51.94,6,Val Nguyen,Mabank,51.35,99.79,47.63,79.38,226.8,Single-ply,SBD,F
Girls,51.94,7,Kerbe Heydenreich,North Forney,51.89,90.72,38.56,92.99,222.26,Single-ply,SBD,F
Girls,51.94,8,Bailee Raider,Cedar Hill,50.98,79.38,38.56,97.52,215.46,Single-ply,SBD,F
Girls,51.94,9,Marigrace Coleman,Waxahachie,51.26,83.91,40.82,83.91,208.65,Single-ply,SBD,F
Girls,51.94,10,Carla Perez,Canton,51.44,81.65,34.02,83.91,199.58,Single-ply,SBD,F
Girls,56.02,1,Marshalla Padgett,Eustace,54.52,142.88,54.43,145.15,342.46,Single-ply,SBD,F
Girls,56.02,2,Arlandrea Revels,Cedar Hill,54.98,122.47,40.82,124.74,288.03,Single-ply,SBD,F
Girls,56.02,3,Ashton Strange #1,Waxahachie,54.98,108.86,43.09,124.74,276.69,Single-ply,SBD,F
Girls,56.02,4,Uzezi Omakor,Cedar Hill,54.07,90.72,43.09,106.59,240.4,Single-ply,SBD,F
Girls,56.02,5,Lara Jones,Weatherford,55.97,81.65,52.16,86.18,219.99,Single-ply,SBD,F
Girls,56.02,6,Jillian Jones,Weatherford,53.52,83.91,40.82,88.45,213.19,Single-ply,SBD,F
Girls,56.02,7,Shay Belcher,Eustace,53.34,65.77,40.82,95.25,201.85,Single-ply,SBD,F
Girls,56.02,8,Taylor Ritter,Canton,55.97,68.04,34.02,81.65,183.7,Single-ply,SBD,F
Girls,56.02,DQ,Madison Frankum-Gregory,Crandall,53.71,,,,,Single-ply,SBD,F
Girls,56.02,DQ,Brittney Rosenbalm,Weatherford,55.34,102.06,,,,Single-ply,SBD,F
Girls,60.1,1,Maddi Bass,Canton,59.87,131.54,56.7,140.61,328.85,Single-ply,SBD,F
Girls,60.1,2,Jamie Williams #1,Royse City,57.88,131.54,56.7,131.54,319.78,Single-ply,SBD,F
Girls,60.1,3,Bailey Crocker,Forney,58.69,133.81,49.9,133.81,317.51,Single-ply,SBD,F
Girls,60.1,4,Nichole Howard,Kaufman,59.96,136.08,61.23,113.4,310.71,Single-ply,SBD,F
Girls,60.1,5,Kelsie Richmond,Eustace,57.79,122.47,47.63,129.27,299.37,Single-ply,SBD,F
Girls,60.1,6,Katy Williams,Forney,59.51,120.2,56.7,122.47,299.37,Single-ply,SBD,F
Girls,60.1,7,Megan Ellis,Canton,58.06,102.06,58.97,124.74,285.76,Single-ply,SBD,F
Girls,60.1,8,Anna Gaddis,Eustace,57.97,106.59,56.7,117.93,281.23,Single-ply,SBD,F
Girls,60.1,9,Kendal Riley,Mabank,59.06,108.86,52.16,120.2,281.23,Single-ply,SBD,F
Girls,60.1,10,Blair Bennet,North Forney,59.15,104.33,36.29,113.4,254.01,Single-ply,SBD,F
Girls,60.1,11,Emily Harber,Kaufman,57.06,95.25,47.63,92.99,235.87,Single-ply,SBD,F
Girls,60.1,12,Yuli Rosado Alverez,North Forney,59.78,95.25,36.29,95.25,226.8,Single-ply,SBD,F
Girls,60.1,13,Bailey Hubbard,Canton,59.69,86.18,34.02,90.72,210.92,Single-ply,SBD,F
Girls,60.1,DQ,LaDayiza Johnson,Tyler,57.15,68.04,,,,Single-ply,SBD,F
Girls,60.1,DQ,Savannah Johnson,Winona,60.01,117.93,54.43,,,Single-ply,SBD,F
Girls,67.36,1,Maiya Rodriguez,Kaufman,66.13,145.15,58.97,136.08,340.19,Single-ply,SBD,F
Girls,67.36,2,Morgan Lowry,Forney,63.87,142.88,56.7,133.81,333.39,Single-ply,SBD,F
Girls,67.36,3,Britney Berlanga,Winona,62.87,145.15,54.43,127.01,326.59,Single-ply,SBD,F
Girls,67.36,4,Brennan Barnett,Crandall,65.5,133.81,61.23,129.27,324.32,Single-ply,SBD,F
Girls,67.36,5,Cassidy Schubert,Forney,64.5,133.81,49.9,138.35,322.05,Single-ply,SBD,F
Girls,67.36,6,Faith Burleson,Mabank,63.23,117.93,63.5,129.27,310.71,Single-ply,SBD,F
Girls,67.36,7,Julia Duke,Canton,66.68,122.47,54.43,131.54,308.44,Single-ply,SBD,F
Girls,67.36,8,Patricia Hernandez,Canton,60.78,113.4,52.16,122.47,288.03,Single-ply,SBD,F
Girls,67.36,9,Aubrey Dillinger,Weatherford,62.51,111.13,65.77,111.13,288.03,Single-ply,SBD,F
Girls,67.36,10,Mikayla Massara,Waxahachie,62.05,106.59,49.9,124.74,281.23,Single-ply,SBD,F
Girls,67.36,11,Tristen Long,Sunnyvale,65.77,111.13,49.9,111.13,272.16,Single-ply,SBD,F
Girls,67.36,12,Natalie McBride,Waxahachie,66.04,102.06,47.63,111.13,260.82,Single-ply,SBD,F
Girls,67.36,13,Callista Lobato,Waxahachie,63.87,108.86,52.16,95.25,256.28,Single-ply,SBD,F
Girls,67.36,14,McKenna Monk,Forney,65.41,111.13,40.82,92.99,244.94,Single-ply,SBD,F
Girls,67.36,15,Ariyan Willams,Cedar Hill,66.59,79.38,47.63,113.4,240.4,Single-ply,SBD,F
Girls,67.36,16,Alisa Korinek,Crandall,66.13,99.79,38.56,90.72,229.06,Single-ply,SBD,F
Girls,67.36,17,Hannah Valles,Royse City,67.31,95.25,34.02,97.52,226.8,Single-ply,SBD,F
Girls,67.36,18,Payton Roberts #2,Crandall,66.59,79.38,31.75,90.72,201.85,Single-ply,SBD,F
Girls,67.36,DQ,Dulce Hernandez,North Forney,65.95,124.74,,,,Single-ply,SBD,F
Girls,75.07,1,Ashley Purselley,Eustace,72.8,142.88,79.38,140.61,362.87,Single-ply,SBD,F
Girls,75.07,2,Jaden Fair,Greenville,73.21,120.2,61.23,129.27,310.71,Single-ply,SBD,F
Girls,75.07,3,Alyssa Canales,Corsicana,73.84,131.54,54.43,115.67,301.64,Single-ply,SBD,F
Girls,75.07,4,Gabriella Zavala,Waxahachie,72.3,111.13,47.63,131.54,290.3,Single-ply,SBD,F
Girls,75.07,5,Morgan Medley,Canton,70.76,111.13,54.43,113.4,278.96,Single-ply,SBD,F
Girls,75.07,6,Jada Kitna,Waxahachie,72.3,111.13,43.09,117.93,272.16,Single-ply,SBD,F
Girls,75.07,7,Megan Gerlach,Canton,69.67,106.59,38.56,115.67,260.82,Single-ply,SBD,F
Girls,75.07,8,Lauren Galindo,Weatherford,74.98,86.18,31.75,83.91,201.85,Single-ply,SBD,F
Girls,75.07,DQ,Alexis Little,Weatherford,70.58,,,,,Single-ply,SBD,F
Girls,82.33,1,Hailey Jacobs,Winona,81.74,145.15,52.16,145.15,342.46,Single-ply,SBD,F
Girls,82.33,2,Maci Mattingly,Malakoff Cross Roads,80.83,120.2,65.77,147.42,333.39,Single-ply,SBD,F
Girls,82.33,3,Ashley Torres,Crandall,80.01,142.88,56.7,120.2,319.78,Single-ply,SBD,F
Girls,82.33,4,Morgan Dunn,Weatherford,75.39,127.01,54.43,120.2,301.64,Single-ply,SBD,F
Girls,82.33,5,Alexandra De La Cruz,Waxahachie,81.74,120.2,63.5,111.13,294.84,Single-ply,SBD,F
Girls,82.33,6,Ja'Shae Collier,Tyler,77.38,104.33,58.97,117.93,281.23,Single-ply,SBD,F
Girls,82.33,7,Cheyenne Shewmake,North Forney,79.02,113.4,45.36,111.13,269.89,Single-ply,SBD,F
Girls,82.33,8,Monica Wallace,Greenville,78.65,104.33,43.09,95.25,242.67,Single-ply,SBD,F
Girls,82.33,9,Karina Revilla,Royse City,80.74,90.72,47.63,97.52,235.87,Single-ply,SBD,F
Girls,90.04,1,Raini Goodell,Eustace,87.27,172.37,72.57,172.37,417.3,Single-ply,SBD,F
Girls,90.04,2,Taylor Flaishans,Forney,89.99,145.15,56.7,122.47,324.32,Single-ply,SBD,F
Girls,90.04,3,Gaudalupe Solorzano,Weatherford,84.82,120.2,58.97,136.08,315.25,Single-ply,SBD,F
Girls,90.04,4,Riley Moore,Kaufman,88.99,122.47,52.16,117.93,292.57,Single-ply,SBD,F
Girls,90.04,5,Fre'Kelle Rouse,Waxahachie,89.99,111.13,56.7,122.47,290.3,Single-ply,SBD,F
Girls,90.04,6,Vanessa Guido,Corsicana,88.45,102.06,52.16,111.13,265.35,Single-ply,SBD,F
Girls,90.04,7,April Odom,Kaufman,89.99,106.59,38.56,113.4,258.55,Single-ply,SBD,F
Girls,90.04,8,Kay Triana,Corsicana,88.18,63.5,43.09,83.91,190.51,Single-ply,SBD,F
Girls,90.04,DQ,Loran Patterson,North Forney,84.1,,,,,Single-ply,SBD,F
Girls,100.02,1,Sunni Goodell,Eustace,99.61,215.46,88.45,185.97,489.88,Single-ply,SBD,F
Girls,100.02,2,Daisy Ayala,Kaufman,99.88,156.49,68.04,136.08,360.61,Single-ply,SBD,F
Girls,100.02,3,Natalia Mendoza,Crandall,92.08,108.86,52.16,120.2,281.23,Single-ply,SBD,F
Girls,100.02,4,Atenea Santuario,Corsicana,95.62,97.52,47.63,106.59,251.74,Single-ply,SBD,F
Girls,100.02,5,Haley Hernandez,Canton,94.89,111.13,40.82,97.52,249.48,Single-ply,SBD,F
Girls,100.02,6,Cristina Garcia,Crandall,94.26,72.57,45.36,99.79,217.72,Single-ply,SBD,F
Girls,100.02,DQ,Katie Galley,Royse City,97.07,,,,,Single-ply,SBD,F
Girls,100.02+,1,Makayla Frankum,Crandall,110.22,181.44,68.04,131.54,381.02,Single-ply,SBD,F
Girls,100.02+,2,Lorna Baulechong,Corsicana,127.1,136.08,77.11,113.4,326.59,Single-ply,SBD,F
Girls,100.02+,3,Chloe Durham,Tyler,148.78,127.01,65.77,127.01,319.78,Single-ply,SBD,F
Girls,100.02+,4,Caylin Gaines,North Forney,108.32,115.67,52.16,129.27,297.1,Single-ply,SBD,F
Girls,100.02+,5,Alysia Daniels,Canton,117.12,113.4,52.16,129.27,294.84,Single-ply,SBD,F
Girls,100.02+,6,Natalie Monreal,Corsicana,104.14,102.06,61.23,113.4,276.69,Single-ply,SBD,F
Girls,100.02+,7,Kyra Miller,Corsicana,109.59,49.9,34.02,81.65,165.56,Single-ply,SBD,F
Girls,100.02+,DQ,Leslie Quijada,Royse City,105.51,181.44,72.57,,,Single-ply,SBD,F
Girls,100.02+,DQ,Devan Andrews,Waxahachie,104.05,,,,,Single-ply,SBD,F
Girls,,NS,Madison Fisher,Eustace,,,,,,Single-ply,SBD,F
