Division,WeightClassKg,Place,Name,Team,BodyweightKg,Best3SquatKg,Best3BenchKg,Best3DeadliftKg,TotalKg,Equipment,Event,Sex
Girls,44.23,1,Karen Carrasco,Andrews,44.18,90.72,29.48,90.72,210.92,Single-ply,SBD,F
Girls,44.23,2,Kk Cook,Kermit,43.54,79.38,27.22,70.31,176.9,Single-ply,SBD,F
Girls,47.85,1,Madi Werner,Seminole,47.63,115.67,79.38,127.01,322.05,Single-ply,SBD,F
Girls,47.85,2,Victoria Vasquez,Andrews,44.91,95.25,38.56,74.84,208.65,Single-ply,SBD,F
Girls,47.85,3,Whitney Robinson,Andrews,47.45,88.45,34.02,81.65,204.12,Single-ply,SBD,F
Girls,51.94,1,Amanda Rodriguez #1,Seminole,49.35,108.86,70.31,129.27,308.44,Single-ply,SBD,F
Girls,51.94,2,Brittney Patterson,Andrews,51.17,113.4,52.16,117.93,283.5,Single-ply,SBD,F
Girls,51.94,3,Brittany Espinoza,Seminole,50.62,102.06,58.97,111.13,272.16,Single-ply,SBD,F
Girls,51.94,4,April Torres,Odessa,50.62,88.45,34.02,74.84,197.31,Single-ply,SBD,F
Girls,56.02,1,Jennifer Cuellar,Andrews,55.52,99.79,45.36,122.47,267.62,Single-ply,SBD,F
Girls,56.02,2,Eternity Rodriguez,Lamesa,54.16,102.06,52.16,104.33,258.55,Single-ply,SBD,F
Girls,56.02,3,Makenna Lingnau,Andrews,52.62,90.72,36.29,79.38,206.38,Single-ply,SBD,F
Girls,56.02,4,Mavelyn Ramos,Odessa,53.43,72.57,29.48,70.31,172.37,Single-ply,SBD,F
Girls,56.02,5,Marisella Martinez,Lamesa,54.61,63.5,29.48,72.57,165.56,Single-ply,SBD,F
Girls,60.1,1,McKenna Smith,Meadow,60.06,97.52,38.56,124.74,260.82,Single-ply,SBD,F
Girls,60.1,2,Miranda Ramirez,Odessa,57.97,99.79,38.56,106.59,244.94,Single-ply,SBD,F
Girls,60.1,3,Jolynn Flotte,Odessa,57.24,92.99,36.29,92.99,222.26,Single-ply,SBD,F
Girls,60.1,4,Natalie Martinez,Kermit,59.06,86.18,38.56,90.72,215.46,Single-ply,SBD,F
Girls,60.1,5,Kassandra Vazquez,Odessa,58.24,92.99,29.48,79.38,201.85,Single-ply,SBD,F
Girls,60.1,6,Katelyn Dockall,Odessa,58.24,68.04,36.29,88.45,192.78,Single-ply,SBD,F
Girls,67.36,1,Natalie Hernandez,Andrews,66.86,122.47,56.7,108.86,288.03,Single-ply,SBD,F
Girls,67.36,2,Victoria Acosta,Seminole,63.5,104.33,58.97,122.47,285.76,Single-ply,SBD,F
Girls,67.36,3,Kaylie Aranda,Kermit,66.13,117.93,54.43,111.13,283.5,Single-ply,SBD,F
Girls,67.36,4,Lexi Lopez,Lamesa,67.13,120.2,43.09,115.67,278.96,Single-ply,SBD,F
Girls,67.36,5,Keeley Holcomb,Andrews,62.23,117.93,49.9,108.86,276.69,Single-ply,SBD,F
Girls,67.36,6,Haley Gutierrez,Andrews,61.14,124.74,40.82,106.59,272.16,Single-ply,SBD,F
Girls,67.36,7,Sydney Stephens,Midland,65.05,108.86,54.43,104.33,267.62,Single-ply,SBD,F
Girls,67.36,8,Jordan Lopez #1,Midland,65.23,92.99,52.16,90.72,235.87,Single-ply,SBD,F
Girls,67.36,9,Andrea Valles,Kermit,64.77,102.06,34.02,79.38,215.46,Single-ply,SBD,F
Girls,67.36,10,Reagan Perez,Meadow,61.33,81.65,43.09,77.11,201.85,Single-ply,SBD,F
Girls,67.36,11,Jazmin Sanchez,Odessa,67.31,77.11,34.02,79.38,190.51,Single-ply,SBD,F
Girls,75.07,1,Talia Ybarra,Andrews,73.12,136.08,70.31,136.08,342.46,Single-ply,SBD,F
Girls,75.07,2,Vanessa Perez,Seminole,69.67,122.47,65.77,140.61,328.85,Single-ply,SBD,F
Girls,75.07,3,Ragan Holder,Andrews,67.59,111.13,45.36,138.35,294.84,Single-ply,SBD,F
Girls,75.07,4,Marrisa Loera,Midland Lee,72.39,106.59,63.5,117.93,288.03,Single-ply,SBD,F
Girls,75.07,5,Sarah Gomez,Andrews,72.57,127.01,43.09,111.13,281.23,Single-ply,SBD,F
Girls,75.07,6,Ruby Bejarano,Midland,69.76,113.4,49.9,108.86,272.16,Single-ply,SBD,F
Girls,75.07,7,Alyssa Weidrich,Andrews,68.04,97.52,49.9,115.67,263.08,Single-ply,SBD,F
Girls,75.07,8,Sara Zuniga,Midland,69.58,104.33,49.9,108.86,263.08,Single-ply,SBD,F
Girls,75.07,9,Gabriela Pena,Midland,70.58,104.33,52.16,102.06,258.55,Single-ply,SBD,F
Girls,75.07,10,Kyanna Cross,Odessa,72.21,99.79,43.09,72.57,215.46,Single-ply,SBD,F
Girls,75.07,11,Courtney Day,Meadow,73.12,79.38,40.82,88.45,208.65,Single-ply,SBD,F
Girls,82.33,1,Ariene Boyce,Midland,80.47,124.74,70.31,140.61,335.66,Single-ply,SBD,F
Girls,82.33,DQ,Claire McPherson,Midland,80.29,102.06,54.43,,,Single-ply,SBD,F
Girls,90.04,1,Destiny Perez,Seminole,86.82,120.2,56.7,111.13,288.03,Single-ply,SBD,F
Girls,90.04,2,Lucy Arreola,Kermit,84.1,104.33,45.36,92.99,242.67,Single-ply,SBD,F
Girls,90.04,DQ,Beatriz Galindo,Midland,84.91,111.13,56.7,,,Single-ply,SBD,F
Girls,90.04,DQ,Chevelle Powell,Midland Lee,87.27,108.86,,,,Single-ply,SBD,F
Girls,100.02,1,Brianna Lujan,Seminole,96.62,127.01,49.9,120.2,297.1,Single-ply,SBD,F
Girls,100.02,DQ,Markeva King,Midland,90.72,,,,,Single-ply,SBD,F
Girls,100.02,DQ,Melanie Morin,Andrews,99.06,156.49,,,,Single-ply,SBD,F
