Division,WeightClassKg,Place,Name,Team,BodyweightKg,Best3SquatKg,Best3BenchKg,Best3DeadliftKg,TotalKg,Equipment,Event,Sex
Boys,51.71,1,Jan Ramirez,PSJA North,51.17,151.95,95.25,124.74,371.95,Single-ply,SBD,M
Boys,51.71,2,Hissac Guerrero,Rio Hondo,50.44,129.27,83.91,133.81,347,Single-ply,SBD,M
Boys,51.71,3,Chris Ortiz,Brownsville Porter,51.62,111.13,65.77,136.08,312.98,Single-ply,SBD,M
Boys,51.71,4,Gabriel Cisneros,Brownsville Jubilee,50.89,99.79,79.38,127.01,306.17,Single-ply,SBD,M
Boys,55.79,1,Bryan Loera,Brownsville Pace,54.79,174.63,108.86,183.7,467.2,Single-ply,SBD,M
Boys,55.79,2,Joe Barberena,PSJA North,55.7,172.37,104.33,156.49,433.18,Single-ply,SBD,M
Boys,55.79,3,Israel Ramos,Brownsville Porter,55.79,138.35,65.77,149.69,353.8,Single-ply,SBD,M
Boys,55.79,4,Gabriel Chavez,Lyford,53.8,133.81,56.7,136.08,326.59,Single-ply,SBD,M
Boys,59.87,1,Marcus Capetillo,Raymondville,59.83,224.53,111.13,199.58,535.24,Single-ply,SBD,M
Boys,59.87,2,Jose Salinas,Brownsville Pace,59.69,204.12,106.59,215.46,526.17,Single-ply,SBD,M
Boys,59.87,3,Albert Banuelos,Los Fresnos,59.24,172.37,111.13,174.63,458.13,Single-ply,SBD,M
Boys,59.87,4,Eric Escobedo,Brownsville Hanna,59.65,165.56,92.99,183.7,442.25,Single-ply,SBD,M
Boys,59.87,5,Fabin Feria,Los Fresnos,58.33,165.56,77.11,161.03,403.7,Single-ply,SBD,M
Boys,59.87,6,Alejandro Lerma,Brownsville Jubilee,59.51,124.74,81.65,136.08,342.46,Single-ply,SBD,M
Boys,59.87,7,Jose Galvan,Brownsville Jubilee,59.06,95.25,58.97,131.54,285.76,Single-ply,SBD,M
Boys,59.87,DQ,Elijah Zamora,Lyford,57.88,133.81,,,,Single-ply,SBD,M
Boys,59.87,DQ,Angel Ramirez,Brownsville Lopez,59.42,,,,,Single-ply,SBD,M
Boys,59.87,DQ,Maxx Pardon,Brownsville Pace,58.51,,,,,Single-ply,SBD,M
Boys,67.13,1,Corbin Garza,Los Fresnos,65.68,204.12,117.93,222.26,544.31,Single-ply,SBD,M
Boys,67.13,2,Isaac Rodriguez,Rio Hondo,67.04,213.19,133.81,192.78,539.77,Single-ply,SBD,M
Boys,67.13,3,Jackson Littles,PSJA North,66.32,183.7,106.59,192.78,483.08,Single-ply,SBD,M
Boys,67.13,4,Daniel Wolfe,Brownsville St. Joseph Academy,67.13,181.44,99.79,201.85,483.08,Single-ply,SBD,M
Boys,67.13,5,Frank Hernandez,Rio Hondo,64.86,181.44,117.93,181.44,480.81,Single-ply,SBD,M
Boys,67.13,6,Alex Rivera #1,Brownsville Lopez,67.13,174.63,102.06,201.85,478.54,Single-ply,SBD,M
Boys,67.13,7,Zeke Rocha,Rio Hondo,66.5,181.44,117.93,161.03,460.4,Single-ply,SBD,M
Boys,67.13,8,Tyler McClaugrety,Lyford,62.6,197.31,88.45,167.83,453.59,Single-ply,SBD,M
Boys,67.13,9,Gabriel Gomez #2,San Benito,67.13,188.24,92.99,163.29,444.52,Single-ply,SBD,M
Boys,67.13,10,Aj Sayas,Raymondville,65.59,183.7,92.99,165.56,442.25,Single-ply,SBD,M
Boys,67.13,11,Alexis Martinez #3,Brownsville Lopez,63.87,161.03,79.38,181.44,421.84,Single-ply,SBD,M
Boys,67.13,12,Nelson Garcia,Brownsville Pace,64.77,167.83,95.25,158.76,421.84,Single-ply,SBD,M
Boys,67.13,13,Jp Olivarez,Harlingen,65.68,154.22,97.52,154.22,405.97,Single-ply,SBD,M
Boys,67.13,14,Dante de la Garza,Port Isabel,64.95,145.15,88.45,161.03,394.63,Single-ply,SBD,M
Boys,67.13,15,Valente Rosas,Lyford,61.05,136.08,77.11,131.54,344.73,Single-ply,SBD,M
Boys,67.13,16,Samuel Villareal,Port Isabel,66.22,111.13,61.23,161.03,333.39,Single-ply,SBD,M
Boys,67.13,DQ,Randall de Leon,Lyford,62.6,,,,,Single-ply,SBD,M
Boys,67.13,DQ,Michael Gore,Brownsville Jubilee,66.5,115.67,56.7,,,Single-ply,SBD,M
Boys,74.84,1,Anthony Elvir,Los Fresnos,74.75,224.53,138.35,226.8,589.67,Single-ply,SBD,M
Boys,74.84,2,Jonathan Godinez,Brownsville Lopez,73.21,206.38,102.06,188.24,496.68,Single-ply,SBD,M
Boys,74.84,3,Joel Hernandez,Brownsville Pace,74.57,190.51,97.52,190.51,478.54,Single-ply,SBD,M
Boys,74.84,4,Catorino Tijerina,Raymondville,71.85,172.37,111.13,179.17,462.66,Single-ply,SBD,M
Boys,74.84,5,Lupe Pecina,Santa Rosa,69.85,154.22,95.25,154.22,403.7,Single-ply,SBD,M
Boys,74.84,6,Daniel Villareal,Port Isabel,70.49,124.74,88.45,149.69,362.87,Single-ply,SBD,M
Boys,74.84,7,Ryan Mesa,Raymondville,69.94,136.08,63.5,154.22,353.8,Single-ply,SBD,M
Boys,74.84,8,Jorge Aban,Port Isabel,73.39,136.08,74.84,133.81,344.73,Single-ply,SBD,M
Boys,74.84,9,Brave Munoz,Santa Rosa,74.84,136.08,65.77,142.88,344.73,Single-ply,SBD,M
Boys,74.84,DQ,Sklyer Alaniz,Santa Rosa,69.58,,,,,Single-ply,SBD,M
Boys,74.84,DQ,Christan Garza,Rio Hondo,72.85,176.9,,,,Single-ply,SBD,M
Boys,74.84,DQ,Venacio Flores,Harlingen,74.12,172.37,113.4,,,Single-ply,SBD,M
Boys,82.1,1,Alter Arenas,PSJA North,80.83,254.01,136.08,231.33,621.42,Single-ply,SBD,M
Boys,82.1,2,Guadalupe Lopez,Brownsville Veterans Memorial,81.01,229.06,129.27,226.8,585.13,Single-ply,SBD,M
Boys,82.1,3,Daniel García,San Benito,80.1,217.72,147.42,201.85,566.99,Single-ply,SBD,M
Boys,82.1,4,Pablo Garcia,Brownsville Lopez,81.92,233.6,129.27,192.78,555.65,Single-ply,SBD,M
Boys,82.1,5,Jose Castellan,Brownsville Hanna,79.61,215.46,142.88,195.04,553.38,Single-ply,SBD,M
Boys,82.1,6,Jonathan Mendoza,Port Isabel,81.28,222.26,124.74,201.85,548.85,Single-ply,SBD,M
Boys,82.1,7,Corban Hendricks,Harlingen,81.47,197.31,136.08,208.65,542.04,Single-ply,SBD,M
Boys,82.1,8,Christopher Espinoza,Brownsville Pace,77.75,210.92,117.93,197.31,526.17,Single-ply,SBD,M
Boys,82.1,9,Sebastian Zapata,Brownsville Veterans Memorial,78.38,183.7,102.06,204.12,489.88,Single-ply,SBD,M
Boys,82.1,10,Zach Williams,Brownsville Hanna,80.42,183.7,90.72,192.78,467.2,Single-ply,SBD,M
Boys,82.1,11,Rayden Berry,Harlingen,75.75,165.56,102.06,192.78,460.4,Single-ply,SBD,M
Boys,82.1,12,Shama Morato,Brownsville Porter,80.29,136.08,111.13,165.56,412.77,Single-ply,SBD,M
Boys,82.1,13,Caleb Garza,Santa Rosa,79.38,151.95,86.18,154.22,392.36,Single-ply,SBD,M
Boys,82.1,14,Abel Longoria,San Benito,79.65,142.88,70.31,138.35,351.53,Single-ply,SBD,M
Boys,82.1,15,Chris Floriano,Brownsville Porter,81.28,133.81,83.91,122.47,340.19,Single-ply,SBD,M
Boys,82.1,16,Pedro Martinez,San Benito,75.93,124.74,61.23,147.42,333.39,Single-ply,SBD,M
Boys,82.1,17,Ramiro Rodriguez,San Benito,81.01,90.72,61.23,142.88,294.84,Single-ply,SBD,M
Boys,82.1,DQ,Jj Mendoza,Santa Rosa,75.48,,,,,Single-ply,SBD,M
Boys,82.1,DQ,Pablo Iracheta,Brownsville Pace,80.38,,,,,Single-ply,SBD,M
Boys,82.1,DQ,Pierce Guajardo,San Benito,77.11,142.88,,,,Single-ply,SBD,M
Boys,82.1,DQ,Alonso Requena,Los Fresnos,81.56,217.72,142.88,,,Single-ply,SBD,M
Boys,82.1,DQ,Gilbert Sanchez,Brownsville Veterans Memorial,81.65,235.87,,,,Single-ply,SBD,M
Boys,82.1,DQ,Robert Hernandez,Los Fresnos,81.1,199.58,,,,Single-ply,SBD,M
Boys,82.1,DQ,Juan Torres,Raymondville,77.66,,,,,Single-ply,SBD,M
Boys,89.81,1,Robert Garza,Los Fresnos,88.27,251.74,142.88,247.21,641.83,Single-ply,SBD,M
Boys,89.81,2,Matthew Ortiz,Los Fresnos,89.45,265.35,142.88,229.06,637.3,Single-ply,SBD,M
Boys,89.81,3,Carlos Arellano,Brownsville Lopez,89.45,244.94,117.93,224.53,587.4,Single-ply,SBD,M
Boys,89.81,4,Axel Chagoya,Brownsville Hanna,85.77,201.85,124.74,210.92,537.51,Single-ply,SBD,M
Boys,89.81,5,Anthony Finona,Port Isabel,86.18,197.31,97.52,199.58,494.42,Single-ply,SBD,M
Boys,89.81,6,Leo Martinez,Harlingen,82.46,170.1,113.4,201.85,485.34,Single-ply,SBD,M
Boys,89.81,7,Gaberial Martinez,Harlingen,88.72,197.31,124.74,158.76,480.81,Single-ply,SBD,M
Boys,89.81,8,Marin Vargas,Brownsville Porter,86.64,188.24,122.47,145.15,455.86,Single-ply,SBD,M
Boys,89.81,9,Miguel Martinez,Port Isabel,83.19,170.1,90.72,174.63,435.45,Single-ply,SBD,M
Boys,89.81,10,Jesus Hernandez #5,Brownsville Rivera,88.09,158.76,102.06,149.69,410.5,Single-ply,SBD,M
Boys,89.81,DQ,Rafael Ramos,San Benito,87.36,210.92,,,,Single-ply,SBD,M
Boys,89.81,DQ,Jorge Terrazas,Santa Rosa,87.68,185.97,88.45,,,Single-ply,SBD,M
Boys,99.79,1,Jose Raya,Brownsville Hanna,97.84,276.69,142.88,238.14,657.71,Single-ply,SBD,M
Boys,99.79,2,Anthony Torres,Raymondville,97.89,233.6,138.35,265.35,637.3,Single-ply,SBD,M
Boys,99.79,3,Emmanuel Cepeda,Lyford,97.34,249.48,142.88,215.46,607.81,Single-ply,SBD,M
Boys,99.79,4,Anthony Martinez,Rio Hondo,98.97,235.87,163.29,208.65,607.81,Single-ply,SBD,M
Boys,99.79,5,Rodrigo Miner,Brownsville St. Joseph Academy,96.34,235.87,142.88,213.19,591.94,Single-ply,SBD,M
Boys,99.79,6,Calvin Hinojosa,Brownsville Hanna,99.65,249.48,138.35,204.12,591.94,Single-ply,SBD,M
Boys,99.79,7,James Rodriguez,Los Fresnos,99.52,222.26,131.54,219.99,573.79,Single-ply,SBD,M
Boys,99.79,8,Richard Perales,Harlingen,93.8,190.51,127.01,213.19,530.7,Single-ply,SBD,M
Boys,99.79,9,Issac Martinez,Harlingen,94.08,181.44,127.01,210.92,519.36,Single-ply,SBD,M
Boys,99.79,10,Noe Gonzalez,San Benito,96.34,190.51,111.13,204.12,505.76,Single-ply,SBD,M
Boys,99.79,11,Stephan Barrios,Brownsville Veterans Memorial,91.81,183.7,106.59,183.7,474,Single-ply,SBD,M
Boys,99.79,12,Gonzalo Zedillo,Brownsville Porter,95.16,154.22,108.86,185.97,449.06,Single-ply,SBD,M
Boys,99.79,13,Guadalupe Salinas,Brownsville Rivera,98.52,161.03,97.52,174.63,433.18,Single-ply,SBD,M
Boys,99.79,14,Adan Avalos,Port Isabel,98.97,158.76,90.72,179.17,428.64,Single-ply,SBD,M
Boys,99.79,15,Frank Guerrero,Brownsville Pace,95.25,158.76,102.06,163.29,424.11,Single-ply,SBD,M
Boys,99.79,16,Christopher Cruz,Brownsville Porter,95.62,133.81,83.91,145.15,362.87,Single-ply,SBD,M
Boys,99.79,17,Federico Rendon,Brownsville St. Joseph Academy,90.72,142.88,61.23,142.88,347,Single-ply,SBD,M
Boys,99.79,18,Herny Rocha,Lyford,92.53,65.77,70.31,147.42,283.5,Single-ply,SBD,M
Boys,99.79,DQ,Dominik Tamez,Raymondville,91.08,,,,,Single-ply,SBD,M
Boys,99.79,DQ,Jeff Burton,Brownsville Pace,91.17,204.12,,,,Single-ply,SBD,M
Boys,109.77,1,Jonathan De Los Reyes,Brownsville Hanna,109.68,278.96,147.42,244.94,671.32,Single-ply,SBD,M
Boys,109.77,2,Neyfis Castellanos,Port Isabel,103.96,301.64,151.95,215.46,669.05,Single-ply,SBD,M
Boys,109.77,3,Jose Solis,Brownsville Veterans Memorial,100.83,265.35,174.63,215.46,655.44,Single-ply,SBD,M
Boys,109.77,4,Justin Alaya,Brownsville Veterans Memorial,103.87,249.48,145.15,249.48,644.1,Single-ply,SBD,M
Boys,109.77,5,Rudy Tijerina,Raymondville,102.19,265.35,142.88,233.6,641.83,Single-ply,SBD,M
Boys,109.77,6,Sergio Luna,Brownsville Hanna,109.32,272.16,147.42,206.38,625.96,Single-ply,SBD,M
Boys,109.77,7,Joel Lopez,San Benito,109.5,265.35,145.15,215.46,625.96,Single-ply,SBD,M
Boys,109.77,8,Manuel Garcia,Brownsville Porter,104.69,244.94,142.88,195.04,582.87,Single-ply,SBD,M
Boys,109.77,9,Robert Ruiz,Brownsville Hanna,104.87,226.8,120.2,215.46,562.45,Single-ply,SBD,M
Boys,109.77,10,Arturo Garcia,Brownsville Pace,103.96,231.33,142.88,174.63,548.85,Single-ply,SBD,M
Boys,109.77,11,Rogelio Garza,Rio Hondo,109.41,195.04,102.06,188.24,485.34,Single-ply,SBD,M
Boys,109.77,12,Jeronimo Garcia,Brownsville Jubilee,109.68,167.83,108.86,183.7,460.4,Single-ply,SBD,M
Boys,109.77,13,Hector Guerrero,Brownsville Rivera,103.87,151.95,95.25,185.97,433.18,Single-ply,SBD,M
Boys,109.77,DQ,Blake Fowkes,Brownsville St. Joseph Academy,101.88,,,,,Single-ply,SBD,M
Boys,109.77,DQ,Tomas Garcia,Rio Hondo,101.33,,,,,Single-ply,SBD,M
Boys,124.74,1,Lorenzo Villarreal,Los Fresnos,120.66,303.91,208.65,272.16,784.71,Single-ply,SBD,M
Boys,124.74,2,Julio Hernandez,Brownsville Pace,124.01,306.17,181.44,265.35,752.96,Single-ply,SBD,M
Boys,124.74,3,Gabriel Caram,Brownsville St. Joseph Academy,122.74,272.16,170.1,235.87,678.12,Single-ply,SBD,M
Boys,124.74,4,Derek Tobar,Brownsville Veterans Memorial,124.74,285.76,167.83,215.46,669.05,Single-ply,SBD,M
Boys,124.74,5,Jose Garcia,Brownsville Lopez,116.21,285.76,154.22,215.46,655.44,Single-ply,SBD,M
Boys,124.74,6,Marco Cantu,San Benito,113.67,249.48,138.35,215.46,603.28,Single-ply,SBD,M
Boys,124.74,7,Matthew Lopez,Rio Hondo,115.21,254.01,142.88,204.12,601.01,Single-ply,SBD,M
Boys,124.74,8,Julio Mendoza,Port Isabel,113.4,190.51,97.52,154.22,442.25,Single-ply,SBD,M
Boys,124.74,9,Karlo Jimenez,Brownsville Jubilee,122.2,142.88,90.72,165.56,399.16,Single-ply,SBD,M
Boys,124.74,DQ,Noe Zambrano,Raymondville,121.65,274.42,,,,Single-ply,SBD,M
Boys,124.74,DQ,Josue Ramirez,Brownsville Rivera,120.93,,,,,Single-ply,SBD,M
Boys,124.74+,1,Justin Garza,Brownsville Rivera,135.71,356.07,176.9,285.76,818.73,Single-ply,SBD,M
Boys,124.74+,2,Rolando Zuniga,Rio Hondo,151.5,195.04,181.44,217.72,594.21,Single-ply,SBD,M
Boys,124.74+,3,Fern Escamilla,Harlingen,127.1,240.4,136.08,190.51,566.99,Single-ply,SBD,M
Boys,124.74+,4,Fernando Gonzalez,San Benito,150.59,226.8,129.27,147.42,503.49,Single-ply,SBD,M
Boys,124.74+,5,German Woo,Brownsville Hanna,132.18,170.1,102.06,183.7,455.86,Single-ply,SBD,M
Boys,124.74+,DQ,Chris Rojas,Santa Rosa,143.79,217.72,,,,Single-ply,SBD,M
Boys,124.74+,DQ,Joel Iracheta,PSJA North,137.26,308.44,181.44,,,Single-ply,SBD,M
Boys,124.74+,DQ,Frank Saucedo,PSJA North,141.7,,,,,Single-ply,SBD,M
