Division,WeightClassKg,Place,Name,Team,BodyweightKg,Best3SquatKg,Best3BenchKg,Best3DeadliftKg,TotalKg,Equipment,Event,Sex
Boys,51.71,1,Chasmon Davis,Everman,50.44,149.69,77.11,170.1,396.89,Single-ply,SBD,M
Boys,51.71,2,Nikko Fraire,Gainesville,51.62,129.27,88.45,158.76,376.48,Single-ply,SBD,M
Boys,51.71,3,Destin Warr,Callisburg,50.89,90.72,58.97,124.74,274.42,Single-ply,SBD,M
Boys,51.71,4,Kenaj Washington,Kennedale,47.72,92.99,58.97,111.13,263.08,Single-ply,SBD,M
Boys,51.71,5,Raylen Allen,Everman,45.36,68.04,34.02,83.91,185.97,Single-ply,SBD,M
Boys,51.71,6,Lucas Moore,Celina,51.62,74.84,34.02,65.77,174.63,Single-ply,SBD,M
Boys,51.71,DQ,Justin Cambell,Leonard,51.71,102.06,,,,Single-ply,SBD,M
Boys,55.79,1,Ever Barron,Everman,55.79,149.69,97.52,176.9,424.11,Single-ply,SBD,M
Boys,55.79,2,Angel Rico,Kennedale,55.61,156.49,81.65,147.42,385.55,Single-ply,SBD,M
Boys,55.79,3,Riley Fish,Pottsboro,54.52,117.93,83.91,127.01,328.85,Single-ply,SBD,M
Boys,55.79,4,Cade Dudley,Celina,54.98,106.59,83.91,117.93,308.44,Single-ply,SBD,M
Boys,55.79,5,Conner Jacobs,Whitesboro,54.88,113.4,61.23,124.74,299.37,Single-ply,SBD,M
Boys,55.79,6,Xavier Bollin,Leonard,55.16,106.59,74.84,113.4,294.84,Single-ply,SBD,M
Boys,55.79,7,Caleb Beal,Collinsville,52.98,104.33,54.43,117.93,276.69,Single-ply,SBD,M
Boys,55.79,8,Daniel Ramirez,Sherman,53.98,74.84,65.77,122.47,263.08,Single-ply,SBD,M
Boys,59.87,1,Joe Cullum,Kennedale,59.78,151.95,115.67,147.42,415.04,Single-ply,SBD,M
Boys,59.87,2,Edwin Rodriguez,Pilot Point,58.42,147.42,81.65,170.1,399.16,Single-ply,SBD,M
Boys,59.87,3,Josh Barlagna,Leonard,59.87,154.22,86.18,145.15,385.55,Single-ply,SBD,M
Boys,59.87,4,Asher Contreras,Whitesboro,58.33,138.35,83.91,154.22,376.48,Single-ply,SBD,M
Boys,59.87,5,Kason Huschke,Bells,59.15,136.08,92.99,142.88,371.95,Single-ply,SBD,M
Boys,59.87,6,Ignacio Salas,Whitesboro,56.97,117.93,90.72,149.69,358.34,Single-ply,SBD,M
Boys,59.87,7,Victor Campusano,Krum,58.24,131.54,72.57,133.81,337.93,Single-ply,SBD,M
Boys,59.87,8,James Duvall,Prosper,58.24,124.74,74.84,136.08,335.66,Single-ply,SBD,M
Boys,59.87,9,Anthony Henry,Gainesville,58.33,131.54,61.23,138.35,331.12,Single-ply,SBD,M
Boys,59.87,10,TJ Blankenship,Gainesville,58.6,120.2,56.7,145.15,322.05,Single-ply,SBD,M
Boys,59.87,11,Hunter Smith,Lucas Lovejoy,58.79,115.67,63.5,129.27,308.44,Single-ply,SBD,M
Boys,59.87,12,Ethan Earle,Kennedale,58.69,117.93,74.84,111.13,303.91,Single-ply,SBD,M
Boys,59.87,13,Patrick Burleson,Lindsay,56.43,117.93,61.23,113.4,292.57,Single-ply,SBD,M
Boys,59.87,14,Gharron Sheffield,Lucas Lovejoy,57.06,102.06,47.63,108.86,258.55,Single-ply,SBD,M
Boys,67.13,1,Mike Acevedo,Anna,66.13,199.58,131.54,197.31,528.44,Single-ply,SBD,M
Boys,67.13,2,Cameron Hynson,Kennedale,66.59,192.78,111.13,215.46,519.36,Single-ply,SBD,M
Boys,67.13,3,Micah Conner,Kennedale,67.04,199.58,97.52,192.78,489.88,Single-ply,SBD,M
Boys,67.13,4,Marlette Joyner,Kennedale,61.69,172.37,108.86,188.24,469.47,Single-ply,SBD,M
Boys,67.13,5,Edgar Aguirre,Everman,59.96,181.44,104.33,181.44,467.2,Single-ply,SBD,M
Boys,67.13,6,Cameron Washington,Sherman,66.04,181.44,88.45,183.7,453.59,Single-ply,SBD,M
Boys,67.13,7,Jackson Haines,Prosper,67.04,183.7,106.59,163.29,453.59,Single-ply,SBD,M
Boys,67.13,8,Ryan Collins #2,Lucas Lovejoy,65.77,165.56,102.06,165.56,433.18,Single-ply,SBD,M
Boys,67.13,9,Jaymz Hemenway,Callisburg,65.14,170.1,97.52,161.03,428.64,Single-ply,SBD,M
Boys,67.13,10,Allen Nguyen,Kennedale,66.86,158.76,102.06,165.56,426.38,Single-ply,SBD,M
Boys,67.13,11,Luke Havens,Denison,66.32,161.03,90.72,165.56,417.3,Single-ply,SBD,M
Boys,67.13,12,Greg Turner,Leonard,64.59,161.03,77.11,154.22,392.36,Single-ply,SBD,M
Boys,67.13,13,Manuel Labrada,Whitesboro,62.41,145.15,90.72,142.88,378.75,Single-ply,SBD,M
Boys,67.13,14,Taylor Kern,Krum,66.86,131.54,97.52,142.88,371.95,Single-ply,SBD,M
Boys,67.13,15,Justus Simpkins,Krum,67.13,131.54,79.38,142.88,353.8,Single-ply,SBD,M
Boys,67.13,16,Army Elison,Celina,66.41,136.08,83.91,124.74,344.73,Single-ply,SBD,M
Boys,67.13,17,Shelby Price,Callisburg,67.13,124.74,77.11,136.08,337.93,Single-ply,SBD,M
Boys,67.13,DQ,Issac Stewart,Celina,64.68,145.15,,,,Single-ply,SBD,M
Boys,67.13,DQ,Collins Muriithi,Sherman,66.77,115.67,,,,Single-ply,SBD,M
Boys,74.84,1,Antony Nixon,Everman,73.48,206.38,113.4,238.14,557.92,Single-ply,SBD,M
Boys,74.84,2,Josue Hernandez,Anna,73.39,197.31,124.74,188.24,510.29,Single-ply,SBD,M
Boys,74.84,3,Bryce Petty,Valley View,73.66,176.9,122.47,199.58,498.95,Single-ply,SBD,M
Boys,74.84,4,Lee Hubbard,Gainesville,74.48,190.51,131.54,176.9,498.95,Single-ply,SBD,M
Boys,74.84,5,Cody Hunter,Sherman,72.21,176.9,117.93,195.04,489.88,Single-ply,SBD,M
Boys,74.84,6,Victor Martinez,Pilot Point,74.03,183.7,102.06,176.9,462.66,Single-ply,SBD,M
Boys,74.84,7,Enrique Colmenero,Pilot Point,73.03,174.63,83.91,181.44,439.98,Single-ply,SBD,M
Boys,74.84,8,Keitan Eitelman,Pottsboro,68.86,181.44,90.72,163.29,435.45,Single-ply,SBD,M
Boys,74.84,9,Jackson Taylor,Celina,70.22,161.03,83.91,183.7,428.64,Single-ply,SBD,M
Boys,74.84,10,Chief Collins,Lucas Lovejoy,74.39,156.49,88.45,158.76,403.7,Single-ply,SBD,M
Boys,74.84,11,Dalton Doyle,Leonard,73.75,145.15,95.25,154.22,394.63,Single-ply,SBD,M
Boys,74.84,12,Jacob Miller,Krum,74.71,131.54,88.45,174.63,394.63,Single-ply,SBD,M
Boys,74.84,13,Andrew Brannon,Kennedale,68.04,127.01,79.38,158.76,365.14,Single-ply,SBD,M
Boys,74.84,14,Kieth Qualls,Lucas Lovejoy,74.21,138.35,68.04,142.88,349.27,Single-ply,SBD,M
Boys,74.84,15,Gabe Gibson,Bells,74.39,115.67,65.77,136.08,317.51,Single-ply,SBD,M
Boys,82.1,1,William Goines,Gainesville,80.01,244.94,142.88,215.46,603.28,Single-ply,SBD,M
Boys,82.1,2,Trevor Coglon,Bells,80.83,192.78,133.81,210.92,537.51,Single-ply,SBD,M
Boys,82.1,3,Nnis Mendoza,Pilot Point,81.19,204.12,138.35,174.63,517.1,Single-ply,SBD,M
Boys,82.1,4,Dravyn Lawson,Pilot Point,82.01,172.37,111.13,224.53,508.02,Single-ply,SBD,M
Boys,82.1,5,Parker Holman,Celina,75.57,181.44,120.2,192.78,494.42,Single-ply,SBD,M
Boys,82.1,6,Micah Justice,Sherman,75.93,179.17,111.13,204.12,494.42,Single-ply,SBD,M
Boys,82.1,7,Dwayne Wilson,Gainesville,77.47,210.92,92.99,190.51,494.42,Single-ply,SBD,M
Boys,82.1,8,Aaron Ambriz,Everman,79.29,183.7,111.13,197.31,492.15,Single-ply,SBD,M
Boys,82.1,9,Abjose Robles,Everman,81.19,192.78,92.99,206.38,492.15,Single-ply,SBD,M
Boys,82.1,10,Mason Ford,Gainesville,79.38,197.31,102.06,190.51,489.88,Single-ply,SBD,M
Boys,82.1,11,Robert Singleton,Gainesville,76.75,172.37,97.52,204.12,474,Single-ply,SBD,M
Boys,82.1,12,Garrett Kemp,Whitesboro,81.92,165.56,115.67,188.24,469.47,Single-ply,SBD,M
Boys,82.1,13,DJ Brown,Leonard,79.56,167.83,102.06,185.97,455.86,Single-ply,SBD,M
Boys,82.1,14,Mason Dowling,Lucas Lovejoy,81.92,167.83,90.72,185.97,444.52,Single-ply,SBD,M
Boys,82.1,15,John Wheeler,Leonard,79.47,147.42,106.59,170.1,424.11,Single-ply,SBD,M
Boys,82.1,16,Nate Harris,Leonard,79.56,149.69,92.99,181.44,424.11,Single-ply,SBD,M
Boys,82.1,17,Felix Perez,Gainesville,78.47,163.29,74.84,167.83,405.97,Single-ply,SBD,M
Boys,82.1,18,Travon Gambles,Everman,78.47,142.88,83.91,158.76,385.55,Single-ply,SBD,M
Boys,82.1,19,Josh Hysmith,Denison,79.83,131.54,83.91,145.15,360.61,Single-ply,SBD,M
Boys,82.1,20,Jacob Weir,Callisburg,82.1,124.74,79.38,142.88,347,Single-ply,SBD,M
Boys,89.81,1,Graham Ledbetter,Whitesboro,87.91,219.99,131.54,247.21,598.74,Single-ply,SBD,M
Boys,89.81,2,Edgar Guzman,Everman,88.54,238.14,113.4,238.14,589.67,Single-ply,SBD,M
Boys,89.81,3,Spencer May,Anna,88.63,201.85,142.88,229.06,573.79,Single-ply,SBD,M
Boys,89.81,4,Clay Hilton,Kennedale,89.63,215.46,142.88,208.65,566.99,Single-ply,SBD,M
Boys,89.81,5,Markos Morales,Whitesboro,89.63,201.85,115.67,235.87,553.38,Single-ply,SBD,M
Boys,89.81,6,Rainier Corral,Valley View,89.18,210.92,120.2,219.99,551.11,Single-ply,SBD,M
Boys,89.81,7,Daniel Lackey,Krum,86.73,183.7,131.54,215.46,530.7,Single-ply,SBD,M
Boys,89.81,8,Chris Haberman,Krum,87.91,201.85,95.25,233.6,530.7,Single-ply,SBD,M
Boys,89.81,9,Seth Baucum,Callisburg,85.91,183.7,120.2,215.46,519.36,Single-ply,SBD,M
Boys,89.81,10,Christian Olowokere,Celina,87.27,188.24,127.01,192.78,508.02,Single-ply,SBD,M
Boys,89.81,11,Luis Flores,Kennedale,84.1,204.12,102.06,192.78,498.95,Single-ply,SBD,M
Boys,89.81,12,Aaziah Flores,Everman,86.27,181.44,111.13,206.38,498.95,Single-ply,SBD,M
Boys,89.81,13,Luis Hernandez,Collinsville,87.63,181.44,111.13,204.12,496.68,Single-ply,SBD,M
Boys,89.81,14,Michael Jones #10,Everman,88.9,170.1,120.2,170.1,460.4,Single-ply,SBD,M
Boys,89.81,15,Alex Reeder,Pilot Point,86.45,170.1,113.4,167.83,451.32,Single-ply,SBD,M
Boys,89.81,16,Martin Grijalva,Sherman,89.72,158.76,111.13,181.44,451.32,Single-ply,SBD,M
Boys,89.81,17,Dakota Butrill,Denison,83.01,163.29,95.25,188.24,446.79,Single-ply,SBD,M
Boys,89.81,18,Kale Perkins,Leonard,89.45,156.49,90.72,167.83,415.04,Single-ply,SBD,M
Boys,89.81,19,Alex Swartz,Krum,85.64,163.29,88.45,161.03,412.77,Single-ply,SBD,M
Boys,89.81,20,Gabe Rivera,Bells,86,142.88,92.99,176.9,412.77,Single-ply,SBD,M
Boys,89.81,21,William Worley,Krum,82.64,142.88,88.45,167.83,399.16,Single-ply,SBD,M
Boys,89.81,22,Brady Knabe,Collinsville,83.64,158.76,86.18,149.69,394.63,Single-ply,SBD,M
Boys,89.81,23,Billy Watson,Leonard,88.99,147.42,77.11,156.49,381.02,Single-ply,SBD,M
Boys,89.81,24,Josh Phillips,Bonham,89.54,147.42,95.25,136.08,378.75,Single-ply,SBD,M
Boys,89.81,25,Hoaky DeAnda,Callisburg,87.45,113.4,65.77,133.81,312.98,Single-ply,SBD,M
Boys,89.81,DQ,Tyler Howe,Callisburg,84.73,147.42,,,,Single-ply,SBD,M
Boys,89.81,DQ,Bryan Camunez,Krum,85.64,,,,,Single-ply,SBD,M
Boys,89.81,DQ,Ethan Ellis,Denison,89.81,208.65,,,,Single-ply,SBD,M
Boys,99.79,1,Malyk Newsome,Everman,98.88,272.16,142.88,260.82,675.85,Single-ply,SBD,M
Boys,99.79,2,Yovanni Juarez,Gainesville,92.8,276.69,163.29,208.65,648.64,Single-ply,SBD,M
Boys,99.79,3,Devin Miller,Gainesville,95.35,231.33,185.97,204.12,621.42,Single-ply,SBD,M
Boys,99.79,4,Erik Gonzalez,Valley View,99.79,244.94,149.69,210.92,605.55,Single-ply,SBD,M
Boys,99.79,5,Brandon Kiernan,Kennedale,89.9,213.19,142.88,201.85,557.92,Single-ply,SBD,M
Boys,99.79,6,Brendon Kirk,Callisburg,97.52,217.72,124.74,210.92,553.38,Single-ply,SBD,M
Boys,99.79,7,David Fielder,Kennedale,99.25,197.31,106.59,183.7,487.61,Single-ply,SBD,M
Boys,99.79,8,Chase Bunnel,Celina,91.9,181.44,106.59,183.7,471.74,Single-ply,SBD,M
Boys,99.79,9,Mason Doyle,Denison,99.7,172.37,99.79,195.04,467.2,Single-ply,SBD,M
Boys,99.79,10,Ben Branam,Bells,94.71,172.37,111.13,181.44,464.93,Single-ply,SBD,M
Boys,99.79,11,Jacob Kennedy,Bonham,99.61,174.63,95.25,192.78,462.66,Single-ply,SBD,M
Boys,99.79,12,Brandon Willeford,Prosper,98.16,170.1,108.86,165.56,444.52,Single-ply,SBD,M
Boys,99.79,13,Jackson Thetford,Prosper,93.71,163.29,102.06,170.1,435.45,Single-ply,SBD,M
Boys,99.79,14,Brandon Fangman,Pilot Point,97.43,165.56,124.74,142.88,433.18,Single-ply,SBD,M
Boys,99.79,15,Worth Lacey,Bonham,96.8,151.95,95.25,151.95,399.16,Single-ply,SBD,M
Boys,99.79,DQ,Issac Copley,Krum,96.98,,,,,Single-ply,SBD,M
Boys,99.79,DQ,Christian Renteria,Callisburg,99.79,,,,,Single-ply,SBD,M
Boys,99.79,DQ,Jose Garcia,Everman,97.61,,,,,Single-ply,SBD,M
Boys,109.77,1,Cameron Hanna,Kennedale,101.6,276.69,131.54,247.21,655.44,Single-ply,SBD,M
Boys,109.77,2,Drew Williams,Denison,108.95,265.35,161.03,217.72,644.1,Single-ply,SBD,M
Boys,109.77,3,Izaiah Olalde,Everman,108.41,249.48,151.95,215.46,616.89,Single-ply,SBD,M
Boys,109.77,4,Eddie Veal,Everman,102.87,226.8,142.88,226.8,596.47,Single-ply,SBD,M
Boys,109.77,5,Junior Seay,Kennedale,107.86,233.6,151.95,192.78,578.33,Single-ply,SBD,M
Boys,109.77,6,Jesse Coffey #2,Gainesville,108.23,206.38,154.22,190.51,551.11,Single-ply,SBD,M
Boys,109.77,7,Micheal Reemts,Celina,104.33,206.38,106.59,195.04,508.02,Single-ply,SBD,M
Boys,109.77,8,Armando Chavez,Sherman,106.32,174.63,120.2,197.31,492.15,Single-ply,SBD,M
Boys,109.77,9,Taylor Miller #1,Everman,109.5,158.76,111.13,183.7,453.59,Single-ply,SBD,M
Boys,109.77,10,Ben Beggs,Pilot Point,108.68,156.49,86.18,183.7,426.38,Single-ply,SBD,M
Boys,109.77,11,Adrian Anderson,Everman,107.32,183.7,111.13,124.74,419.57,Single-ply,SBD,M
Boys,109.77,12,Braden Schnieder,Gainesville,108.59,174.63,92.99,151.95,419.57,Single-ply,SBD,M
Boys,109.77,13,Nash Gagliano,Prosper,106.59,165.56,102.06,145.15,412.77,Single-ply,SBD,M
Boys,109.77,14,Joel Byler,Pottsboro,107.68,127.01,77.11,140.61,344.73,Single-ply,SBD,M
Boys,109.77,15,Drelyn McKinight,Everman,102.51,124.74,83.91,124.74,333.39,Single-ply,SBD,M
Boys,109.77,DQ,Winston Onyaemechi,Prosper,104.14,,,,,Single-ply,SBD,M
Boys,109.77,DQ,Austen Patterson,Denison,105.05,,,,,Single-ply,SBD,M
Boys,109.77,DQ,Tin Le,Gainesville,106.05,208.65,,,,Single-ply,SBD,M
Boys,109.77,DQ,Hayden Hudson,Kennedale,100.88,174.63,136.08,,,Single-ply,SBD,M
Boys,124.74,1,Willie Tutt,Everman,122.74,317.51,147.42,272.16,737.09,Single-ply,SBD,M
Boys,124.74,2,Victor Garcia,Kennedale,123.29,276.69,163.29,226.8,666.78,Single-ply,SBD,M
Boys,124.74,3,Esteban Cervantes,Valley View,121.65,276.69,149.69,235.87,662.24,Single-ply,SBD,M
Boys,124.74,4,Jalan Henderson,Everman,123.38,226.8,145.15,240.4,612.35,Single-ply,SBD,M
Boys,124.74,5,Jose Conejo,Denison,114.58,249.48,149.69,208.65,607.81,Single-ply,SBD,M
Boys,124.74,6,Kyle Brooks,Denison,119.93,242.67,142.88,219.99,605.55,Single-ply,SBD,M
Boys,124.74,7,Bryce Lowrey,Leonard,122.56,213.19,158.76,192.78,564.72,Single-ply,SBD,M
Boys,124.74,8,Wes Brooks,Denison,118.39,215.46,127.01,204.12,546.58,Single-ply,SBD,M
Boys,124.74,9,Johan de la Rosa,Gainesville,118.84,199.58,124.74,190.51,514.83,Single-ply,SBD,M
Boys,124.74,10,Seth Martin,Everman,112.58,188.24,95.25,204.12,487.61,Single-ply,SBD,M
Boys,124.74,11,Gaige Castro,Gainesville,116.75,181.44,92.99,151.95,426.38,Single-ply,SBD,M
Boys,124.74,12,Luke Rogers #2,Lindsay,111.49,158.76,81.65,145.15,385.55,Single-ply,SBD,M
Boys,124.74,13,Kristifer Stitzer,Pilot Point,122.65,124.74,106.59,115.67,347,Single-ply,SBD,M
Boys,124.74+,1,Tekarius Walton,Sherman,141.79,244.94,158.76,244.94,648.64,Single-ply,SBD,M
Boys,124.74+,2,D'Marrya Searcy,Everman,144.42,242.67,138.35,226.8,607.81,Single-ply,SBD,M
Boys,124.74+,3,Tyler Smith #2,Sherman,140.61,231.33,122.47,244.94,598.74,Single-ply,SBD,M
Boys,124.74+,4,Jamal Marshall,Kennedale,140.16,238.14,151.95,204.12,594.21,Single-ply,SBD,M
Boys,124.74+,5,Chris Wilson,Bonham,163.75,215.46,156.49,222.26,594.21,Single-ply,SBD,M
Boys,124.74+,6,Addison Crockett,Valley View,126.1,226.8,142.88,219.99,589.67,Single-ply,SBD,M
Boys,124.74+,7,Aaron Prideaux,Prosper,142.61,238.14,149.69,185.97,573.79,Single-ply,SBD,M
Boys,124.74+,8,Chris Tobar,Sherman,132.18,229.06,140.61,199.58,569.26,Single-ply,SBD,M
Boys,124.74+,9,Damien Stuver,Prosper,125.37,219.99,149.69,183.7,553.38,Single-ply,SBD,M
Boys,124.74+,10,Tyler Beildeman,Lucas Lovejoy,131,208.65,133.81,206.38,548.85,Single-ply,SBD,M
Boys,124.74+,11,Jake Majors,Prosper,131.54,204.12,127.01,183.7,514.83,Single-ply,SBD,M
Boys,124.74+,12,Sam Porter,Bonham,129.64,181.44,127.01,183.7,492.15,Single-ply,SBD,M
Boys,124.74+,13,Colton Mitchell,Denison,125.01,190.51,102.06,192.78,485.34,Single-ply,SBD,M
Boys,124.74+,14,Drake Stephens #2,Bells,143.43,215.46,111.13,158.76,485.34,Single-ply,SBD,M
Boys,124.74+,15,Elijah McFarlan,Bonham,182.25,163.29,127.01,161.03,451.32,Single-ply,SBD,M
Boys,124.74+,16,James Mantell,Kennedale,167.28,176.9,106.59,165.56,449.06,Single-ply,SBD,M
Boys,124.74+,17,Dylan Willingston,Bells,160.84,156.49,90.72,151.95,399.16,Single-ply,SBD,M
