Division,WeightClassKg,Place,Name,Team,BodyweightKg,Best3SquatKg,Best3BenchKg,Best3DeadliftKg,TotalKg,Equipment,Event,Sex
Boys,51.71,1,Lane Smith,Ozona,48.63,115.67,68.04,120.2,303.91,Single-ply,SBD,M
Boys,51.71,2,Alfredo Castillo,Andrews,48.44,115.67,47.63,127.01,290.3,Single-ply,SBD,M
Boys,51.71,3,Mattox Evans,Big Spring,51.62,92.99,56.7,115.67,265.35,Single-ply,SBD,M
Boys,51.71,4,Jose Vasquez Cruz,Andrews,41.91,88.45,47.63,92.99,229.06,Single-ply,SBD,M
Boys,51.71,5,Jorge Delgado,Andrews,44.72,72.57,47.63,92.99,213.19,Single-ply,SBD,M
Boys,51.71,6,Kaleb Nance,Midland Greenwood,38.37,52.16,24.95,65.77,142.88,Single-ply,SBD,M
Boys,55.79,1,Cruz Martinez,Big Spring,55.7,136.08,74.84,136.08,347,Single-ply,SBD,M
Boys,55.79,2,Teagan Marlow,Midland,54.07,92.99,43.09,92.99,229.06,Single-ply,SBD,M
Boys,59.87,1,Joshua Lopez,Big Spring,58.97,138.35,83.91,163.29,385.55,Single-ply,SBD,M
Boys,59.87,2,Lucas Esparza,Andrews,59.69,138.35,83.91,142.88,365.14,Single-ply,SBD,M
Boys,59.87,3,Jeremiah Collins,Big Spring,59.74,145.15,61.23,136.08,342.46,Single-ply,SBD,M
Boys,59.87,4,Radek Spatz,Miles,56.34,129.27,68.04,142.88,340.19,Single-ply,SBD,M
Boys,59.87,5,Eloy Trevino,Eldorado,56.06,90.72,61.23,131.54,283.5,Single-ply,SBD,M
Boys,59.87,6,Kenny Richardson,Big Spring,59.6,102.06,61.23,113.4,276.69,Single-ply,SBD,M
Boys,59.87,7,Mason Hudgins,Coahoma,57.7,102.06,61.23,104.33,267.62,Single-ply,SBD,M
Boys,59.87,8,Cayden Ruiz,Midland Greenwood,57.79,92.99,70.31,102.06,265.35,Single-ply,SBD,M
Boys,59.87,9,Jadon Barrera,Odessa,56.15,,,61.23,61.23,Single-ply,D,M
Boys,67.13,1,Patrick Hernandez,Midland Greenwood,66.32,183.7,113.4,185.97,483.08,Single-ply,SBD,M
Boys,67.13,2,Jose Dominguez,Ozona,66.77,174.63,90.72,181.44,446.79,Single-ply,SBD,M
Boys,67.13,3,Benito Hernandez,Odessa,66.95,151.95,92.99,183.7,428.64,Single-ply,SBD,M
Boys,67.13,4,Zephania Nelson,Big Spring,65.95,149.69,106.59,151.95,408.23,Single-ply,SBD,M
Boys,67.13,5,Luiz Zubiate,Seminole,64.41,156.49,70.31,158.76,385.55,Single-ply,SBD,M
Boys,67.13,6,Adriel Nabarrette,Odessa,66.13,145.15,90.72,145.15,381.02,Single-ply,SBD,M
Boys,67.13,7,Gabriel Zubiate,Seminole,64.86,147.42,70.31,156.49,374.21,Single-ply,SBD,M
Boys,67.13,8,Ryan Austin,Midland Greenwood,66.32,136.08,83.91,142.88,362.87,Single-ply,SBD,M
Boys,67.13,9,Reese Faull,Eldorado,67.04,142.88,72.57,145.15,360.61,Single-ply,SBD,M
Boys,67.13,10,Junie Gonzales,Midland Greenwood,60.51,136.08,74.84,142.88,353.8,Single-ply,SBD,M
Boys,67.13,11,Justin Yeager,Ozona,63.41,127.01,77.11,131.54,335.66,Single-ply,SBD,M
Boys,67.13,12,Josh Ruiz,Coahoma,64.86,124.74,83.91,113.4,322.05,Single-ply,SBD,M
Boys,67.13,13,Brady Austin,Midland Greenwood,64.59,95.25,72.57,124.74,292.57,Single-ply,SBD,M
Boys,67.13,14,Damian Rains,Coahoma,66.13,113.4,58.97,104.33,276.69,Single-ply,SBD,M
Boys,67.13,15,Sonny Ledesma,Big Spring,63.05,74.84,43.09,95.25,213.19,Single-ply,SBD,M
Boys,67.13,16,Malakah Kreissl,Big Spring,62.14,,47.63,79.38,127.01,Single-ply,BD,M
Boys,74.84,1,Raymond Flores,Andrews,69.04,183.7,111.13,176.9,471.74,Single-ply,SBD,M
Boys,74.84,2,Devin Doerksen,Seminole,71.67,165.56,99.79,190.51,455.86,Single-ply,SBD,M
Boys,74.84,3,Marcus Perez,Ozona,68.95,145.15,90.72,170.1,405.97,Single-ply,SBD,M
Boys,74.84,4,Javon Mathews,Midland,69.94,183.7,,138.35,322.05,Single-ply,SD,M
Boys,74.84,5,Thomas Wells,Midland,70.67,133.81,61.23,127.01,322.05,Single-ply,SBD,M
Boys,74.84,6,Ethan Biddison,Coahoma,74.12,120.2,92.99,108.86,322.05,Single-ply,SBD,M
Boys,74.84,7,Isaiah Johnson,Big Spring,74.39,124.74,68.04,127.01,319.78,Single-ply,SBD,M
Boys,74.84,8,Patrick Gutierrez,Coahoma,73.03,120.2,74.84,115.67,310.71,Single-ply,SBD,M
Boys,74.84,9,Christian Cook,Midland Greenwood,67.68,113.4,65.77,115.67,294.84,Single-ply,SBD,M
Boys,74.84,10,Logan Gressett,Andrews,74.84,138.35,,136.08,274.42,Single-ply,SD,M
Boys,74.84,11,Ramiro Lopez,Andrews,68.95,99.79,68.04,97.52,265.35,Single-ply,SBD,M
Boys,74.84,12,Elias Sanchez,Miles,74.75,102.06,47.63,115.67,265.35,Single-ply,SBD,M
Boys,74.84,13,Zachery Kidd,Midland Greenwood,70.76,115.67,74.84,,190.51,Single-ply,SB,M
Boys,74.84,DQ,Jayden Golleher,Forsan,70.76,,,,,Single-ply,SBD,M
Boys,82.1,1,Andrew Herpeche,Miles,80.74,188.24,117.93,195.04,501.22,Single-ply,SBD,M
Boys,82.1,2,Devin Mora,Andrews,80.65,217.72,117.93,161.03,496.68,Single-ply,SBD,M
Boys,82.1,3,Ethan Cortez,Big Spring,78.2,188.24,102.06,183.7,474,Single-ply,SBD,M
Boys,82.1,4,Tyler Paris,Odessa,79.65,129.27,106.59,183.7,419.57,Single-ply,SBD,M
Boys,82.1,5,Fernando Zapata,Midland Greenwood,78.65,151.95,97.52,151.95,401.43,Single-ply,SBD,M
Boys,82.1,6,Carlos Cantu,Ozona,75.11,165.56,79.38,145.15,390.09,Single-ply,SBD,M
Boys,82.1,7,Artem Brendle,Midland Greenwood,76.29,127.01,88.45,113.4,328.85,Single-ply,SBD,M
Boys,82.1,8,Jarod Humphries,Midland Greenwood,76.2,111.13,70.31,104.33,285.76,Single-ply,SBD,M
Boys,82.1,9,Jaime Del Bosque,Midland,80.56,147.42,,136.08,283.5,Single-ply,SD,M
Boys,82.1,10,Dylan Boone,Midland Greenwood,75.84,102.06,61.23,106.59,269.89,Single-ply,SBD,M
Boys,82.1,11,Mathew Cherry,Midland,79.02,133.81,,133.81,267.62,Single-ply,SD,M
Boys,89.81,1,Ethan Coleman,Midland Greenwood,85.64,249.48,158.76,235.87,644.1,Single-ply,SBD,M
Boys,89.81,2,Esau Flores,Andrews,86.18,195.04,145.15,213.19,553.38,Single-ply,SBD,M
Boys,89.81,3,Keegan Dobbs,Coahoma,88.36,222.26,120.2,197.31,539.77,Single-ply,SBD,M
Boys,89.81,4,J Tom Garcia,Andrews,88.99,226.8,120.2,192.78,539.77,Single-ply,SBD,M
Boys,89.81,5,Justin Gonzales,Andrews,88.18,208.65,142.88,176.9,528.44,Single-ply,SBD,M
Boys,89.81,6,Josue Flores,Andrews,83.82,208.65,108.86,199.58,517.1,Single-ply,SBD,M
Boys,89.81,7,Aaron Olivas,Andrews,88.54,208.65,113.4,176.9,498.95,Single-ply,SBD,M
Boys,89.81,8,Cesar Garcia,Eldorado,88.9,147.42,97.52,185.97,430.91,Single-ply,SBD,M
Boys,89.81,9,Coleton Williams,Miles,86.27,142.88,106.59,158.76,408.23,Single-ply,SBD,M
Boys,89.81,10,Juan Carreon,Odessa,88.09,129.27,83.91,,213.19,Single-ply,SB,M
Boys,89.81,DQ,Rogelio Cervantes,Big Spring,88.9,,,,,Single-ply,SBD,M
Boys,89.81,DQ,Marcos Garcia,Odessa,84.1,138.35,,,,Single-ply,SBD,M
Boys,89.81,DQ,Christian Gutierrez,Miles,88.36,151.95,104.33,,,Single-ply,SBD,M
Boys,89.81,DQ,Freddy Cobos,Midland,84.73,133.81,,,,Single-ply,SBD,M
Boys,99.79,1,Ian Alvidrez,Seminole,96.62,272.16,163.29,265.35,700.8,Single-ply,SBD,M
Boys,99.79,2,Octavio Frausto,Andrews,98.97,229.06,142.88,215.46,587.4,Single-ply,SBD,M
Boys,99.79,3,Petronillo Bustamante,Andrews,98.97,192.78,97.52,156.49,446.79,Single-ply,SBD,M
Boys,99.79,4,Aleyas Bland,Big Spring,98.52,156.49,104.33,172.37,433.18,Single-ply,SBD,M
Boys,99.79,5,Isaiah Rodriguez,Big Spring,98.34,226.8,104.33,195.04,526.17,Single-ply,SBD,M
Boys,99.79,5,Chris Llanas,Miles,90.36,174.63,102.06,124.74,401.43,Single-ply,SBD,M
Boys,99.79,6,Tanner Killbrew,Midland,98.43,147.42,70.31,133.81,351.53,Single-ply,SBD,M
Boys,99.79,DQ,Romelio Mosqueda,Big Spring,92.44,,,,,Single-ply,SBD,M
Boys,109.77,1,Christian Bell,Midland Greenwood,103.69,226.8,140.61,208.65,576.06,Single-ply,SBD,M
Boys,109.77,2,Joel Estrella,Andrews,107.23,226.8,133.81,215.46,576.06,Single-ply,SBD,M
Boys,109.77,3,Connor McDonald,Midland Greenwood,103.96,229.06,131.54,197.31,557.92,Single-ply,SBD,M
Boys,109.77,4,Kyle Lewis,Ozona,101.97,197.31,133.81,192.78,523.9,Single-ply,SBD,M
Boys,109.77,5,Javier Cabello,Odessa,106.68,204.12,113.4,199.58,517.1,Single-ply,SBD,M
Boys,109.77,6,Andrew Roberts,Big Spring,109.68,185.97,136.08,181.44,503.49,Single-ply,SBD,M
Boys,109.77,7,Nathaniel Whitmore,Forsan,104.24,190.51,122.47,188.24,501.22,Single-ply,SBD,M
Boys,109.77,8,Caleb Alexander,Seminole,107.86,179.17,88.45,163.29,430.91,Single-ply,SBD,M
Boys,109.77,9,Grayson Glidewell,Coahoma,105.51,158.76,102.06,158.76,419.57,Single-ply,SBD,M
Boys,124.74,1,Albert Arispe,Eldorado,120.11,238.14,149.69,247.21,635.03,Single-ply,SBD,M
Boys,124.74,2,Kwinton Jennings,Seminole,122.92,233.6,111.13,231.33,576.06,Single-ply,SBD,M
Boys,124.74,3,Spencer Blue,Midland,118.93,208.65,127.01,204.12,539.77,Single-ply,SBD,M
Boys,124.74,4,Gabriel Marin,Andrews,115.12,204.12,124.74,199.58,528.44,Single-ply,SBD,M
Boys,124.74,6,Keano Perez,Ozona,124.28,206.38,99.79,192.78,498.95,Single-ply,SBD,M
Boys,124.74,7,Aries Gilbert,Forsan,112.76,185.97,115.67,185.97,487.61,Single-ply,SBD,M
Boys,124.74,8,Daniel Roberts,Big Spring,115.67,158.76,113.4,167.83,439.98,Single-ply,SBD,M
Boys,124.74,9,Cameron Allen,Forsan,110.77,170.1,90.72,170.1,430.91,Single-ply,SBD,M
Boys,124.74,10,Matt Jacobo,Midland Greenwood,118.39,185.97,97.52,147.42,430.91,Single-ply,SBD,M
Boys,124.74,11,Jake Patterson,Forsan,123.74,147.42,90.72,163.29,401.43,Single-ply,SBD,M
Boys,124.74,12,Isa Vasquez #1,Eldorado,122.47,154.22,70.31,163.29,387.82,Single-ply,SBD,M
Boys,124.74,13,Justin Marsh,Coahoma,119.75,127.01,86.18,136.08,349.27,Single-ply,SBD,M
Boys,124.74+,1,Emiliano Hernandez,Eldorado,134.08,233.6,127.01,258.55,619.15,Single-ply,SBD,M
Boys,124.74+,2,Reece Azam,Andrews,131.36,240.4,151.95,192.78,585.13,Single-ply,SBD,M
Boys,124.74+,3,Norman Pallanes,Midland,144.97,226.8,124.74,208.65,560.19,Single-ply,SBD,M
Boys,124.74+,4,Alejandro Gonzales,Coahoma,167.83,229.06,142.88,172.37,544.31,Single-ply,SBD,M
Boys,124.74+,5,Zachary Roberts,Big Spring,175.54,201.85,120.2,185.97,508.02,Single-ply,SBD,M
Boys,124.74+,6,Devin Boisvert,Big Spring,136.08,158.76,72.57,149.69,381.02,Single-ply,SBD,M
Boys,,NS,Kevin Rodriguez,Big Spring,,,,,,Single-ply,SBD,M
Boys,,NS,Eric Reyes,Eldorado,,,,,,Single-ply,SBD,M
Boys,,NS,Armondo Mata,Ozona,,,,,,Single-ply,SBD,M
Boys,,NS,Garrett Hariman,Eldorado,,,,,,Single-ply,SBD,M
Boys,,NS,Elias Luna,Eldorado,,,,,,Single-ply,SBD,M
Boys,,NS,Adric Gonzales,Odessa,,,,,,Single-ply,SBD,M
Boys,,NS,Rylee Chapman,Miles,,,,,,Single-ply,SBD,M
Boys,,NS,Benny Dominguez,Odessa,,,,,,Single-ply,SBD,M
Boys,,NS,Dawson Hayes,Odessa,,,,,,Single-ply,SBD,M
Boys,,NS,Aiden Fuentes,Ozona,,,,,,Single-ply,SBD,M
Boys,,NS,Julian Dominguez,Ozona,,,,,,Single-ply,SBD,M
Boys,,NS,Marco Lozano,Ozona,,,,,,Single-ply,SBD,M
Boys,,NS,Jaden Fay,Ozona,,,,,,Single-ply,SBD,M
Boys,,NS,Daniel Vela-Wences,Coahoma,,,,,,Single-ply,SBD,M
Boys,,NS,Ky Kemper,Coahoma,,,,,,Single-ply,SBD,M
Boys,,NS,Lucas Torres,Midland,,,,,,Single-ply,SBD,M
Boys,,NS,Mack Plemons,Midland,,,,,,Single-ply,SBD,M
Boys,,NS,Joel Garcia,Miles,,,,,,Single-ply,SBD,M
Boys,,NS,Jack Blair,Midland Greenwood,,,,,,Single-ply,SBD,M
Boys,,NS,Cameron Burger,Midland Greenwood,,,,,,Single-ply,SBD,M
