Division,WeightClassKg,Place,Name,Team,BodyweightKg,Best3SquatKg,Best3BenchKg,Best3DeadliftKg,TotalKg,Equipment,Event,Sex
Boys,51.71,1,Richard Ballew,Clute Brazoswood,49.17,90.72,65.77,92.99,249.48,Single-ply,SBD,M
Boys,55.79,1,Adarius Jones,Manvel,53.66,136.08,90.72,163.29,390.09,Single-ply,SBD,M
Boys,55.79,2,Armando Cabriales,Clute Brazoswood,54.7,129.27,79.38,149.69,358.34,Single-ply,SBD,M
Boys,55.79,3,Riley Johnson,West Columbia,53.98,63.5,45.36,102.06,210.92,Single-ply,SBD,M
Boys,59.87,1,Kenneth Trinidad,Manvel,56.61,145.15,83.91,161.03,390.09,Single-ply,SBD,M
Boys,59.87,2,Marco Sanchez,Hitchcock,56.25,151.95,70.31,158.76,381.02,Single-ply,SBD,M
Boys,59.87,3,Jaden Buchanan #2,Sweeny,58.42,117.93,65.77,145.15,328.85,Single-ply,SBD,M
Boys,59.87,NS,Michael Flores,Alvin Shadow Creek,,,,,,Single-ply,SBD,M
Boys,67.13,1,Clay Frick,Sweeny,64.14,147.42,79.38,163.29,390.09,Single-ply,SBD,M
Boys,67.13,2,Sterling Smith,Manvel,64.23,124.74,88.45,176.9,390.09,Single-ply,SBD,M
Boys,67.13,3,Devin West,Clute Brazoswood,65.77,147.42,79.38,161.03,387.82,Single-ply,SBD,M
Boys,67.13,4,Jacob Rainer,Alvin Shadow Creek,65.14,129.27,86.18,158.76,374.21,Single-ply,SBD,M
Boys,67.13,5,Brenden Nino,Alvin Shadow Creek,66.5,133.81,88.45,151.95,374.21,Single-ply,SBD,M
Boys,67.13,6,Chris Miller,West Columbia,66.5,124.74,79.38,158.76,362.87,Single-ply,SBD,M
Boys,67.13,7,Alex McGuire,Sweeny,64.59,127.01,72.57,129.27,328.85,Single-ply,SBD,M
Boys,67.13,8,Richard Salazar,West Columbia,60.51,115.67,74.84,129.27,319.78,Single-ply,SBD,M
Boys,67.13,9,Chris Oller,West Columbia,60.92,113.4,74.84,129.27,317.51,Single-ply,SBD,M
Boys,67.13,10,Nathaniel Neely,Clute Brazoswood,64.68,117.93,77.11,120.2,315.25,Single-ply,SBD,M
Boys,67.13,11,Wyatt Lamberth,Manvel,66.86,102.06,65.77,108.86,276.69,Single-ply,SBD,M
Boys,67.13,12,Korion McNeal,Hitchcock,66.68,83.91,68.04,113.4,265.35,Single-ply,SBD,M
Boys,67.13,NS,James Palma,Alvin Shadow Creek,,,,,,Single-ply,SBD,M
Boys,74.84,1,Randy Williams,Hitchcock,74.84,185.97,108.86,206.38,501.22,Single-ply,SBD,M
Boys,74.84,2,Mason Seay,Clute Brazoswood,72.94,183.7,99.79,204.12,487.61,Single-ply,SBD,M
Boys,74.84,3,Dakota Mann,West Columbia,68.04,151.95,102.06,172.37,426.38,Single-ply,SBD,M
Boys,74.84,4,Dustin Sanders,Clute Brazoswood,74.39,151.95,81.65,183.7,417.3,Single-ply,SBD,M
Boys,74.84,5,Josh Castilleja,Hitchcock,69.85,163.29,120.2,127.01,410.5,Single-ply,SBD,M
Boys,74.84,6,Davin Vasquez,Clute Brazoswood,73.3,142.88,86.18,181.44,410.5,Single-ply,SBD,M
Boys,74.84,7,Stephen Morales,Hitchcock,70.31,163.29,92.99,147.42,403.7,Single-ply,SBD,M
Boys,74.84,8,Daniel Cantu,Clute Brazoswood,69.67,136.08,88.45,165.56,390.09,Single-ply,SBD,M
Boys,74.84,9,Luis Garcia,West Columbia,71.58,127.01,95.25,161.03,383.29,Single-ply,SBD,M
Boys,74.84,10,Deonza McCardell,Hitchcock,73.03,124.74,97.52,147.42,369.68,Single-ply,SBD,M
Boys,74.84,11,Bailey Stroud,West Columbia,71.67,138.35,83.91,131.54,353.8,Single-ply,SBD,M
Boys,74.84,12,John Paul Lowe,Hitchcock,70.76,113.4,92.99,115.67,322.05,Single-ply,SBD,M
Boys,74.84,NS,Blake Benavides,Sweeny,,,,,,Single-ply,SBD,M
Boys,74.84,NS,David Soto,Alvin Shadow Creek,,,,,,Single-ply,SBD,M
Boys,82.1,1,Ladarius Owens,Manvel,77.75,174.63,97.52,242.67,514.83,Single-ply,SBD,M
Boys,82.1,2,Jason Martinez,Alvin Shadow Creek,77.38,170.1,142.88,197.31,510.29,Single-ply,SBD,M
Boys,82.1,3,Nick Wilkerson,Sweeny,79.38,142.88,102.06,158.76,403.7,Single-ply,SBD,M
Boys,82.1,4,Shemar Bryant,Sweeny,78.47,138.35,90.72,165.56,394.63,Single-ply,SBD,M
Boys,82.1,5,Ricardo Medina,Manvel,78.93,115.67,70.31,142.88,328.85,Single-ply,SBD,M
Boys,82.1,6,Isaac Vargas,Manvel,75.93,56.7,45.36,90.72,192.78,Single-ply,SBD,M
Boys,82.1,NS,Lane Caballero,Clute Brazoswood,,,,,,Single-ply,SBD,M
Boys,89.81,1,Brady Byrd,Sweeny,88,219.99,122.47,233.6,576.06,Single-ply,SBD,M
Boys,89.81,2,Joey Avalos,Manvel,89.45,192.78,142.88,219.99,555.65,Single-ply,SBD,M
Boys,89.81,3,Jj Gutierrez,Hitchcock,85.73,183.7,124.74,204.12,512.56,Single-ply,SBD,M
Boys,89.81,4,Osman Tabora,Alvin Shadow Creek,87.63,142.88,92.99,192.78,428.64,Single-ply,SBD,M
Boys,89.81,5,Josh Ellis #3,Sweeny,87.45,156.49,104.33,165.56,426.38,Single-ply,SBD,M
Boys,89.81,6,Trevor Hughes,Manvel,83.1,131.54,92.99,154.22,378.75,Single-ply,SBD,M
Boys,89.81,7,Tyler Caluneo,Alvin Shadow Creek,82.92,122.47,79.38,138.35,340.19,Single-ply,SBD,M
Boys,89.81,NS,Robert Wooten,Stafford,,,,,,Single-ply,SBD,M
Boys,99.79,1,Jose Zaragoza,West Columbia,94.71,238.14,142.88,244.94,625.96,Single-ply,SBD,M
Boys,99.79,2,Marc Huber,Clute Brazoswood,98.16,206.38,115.67,210.92,532.97,Single-ply,SBD,M
Boys,99.79,3,Ken Savanna,Stafford,94.35,192.78,124.74,201.85,519.36,Single-ply,SBD,M
Boys,99.79,4,Terrance Boxie,Stafford,90.99,174.63,124.74,201.85,501.22,Single-ply,SBD,M
Boys,99.79,5,Brendon McDonald,Manvel,95.89,142.88,113.4,244.94,501.22,Single-ply,SBD,M
Boys,99.79,6,Reggie Freeman,Manvel,96.34,188.24,127.01,183.7,498.95,Single-ply,SBD,M
Boys,99.79,7,Luke Arias,West Columbia,98.07,199.58,97.52,192.78,489.88,Single-ply,SBD,M
Boys,99.79,8,Kody Gums,Stafford,91.53,183.7,102.06,192.78,478.54,Single-ply,SBD,M
Boys,99.79,9,James Cobb,Sweeny,96.16,179.17,83.91,204.12,467.2,Single-ply,SBD,M
Boys,99.79,10,Harry Urban,Clute Brazoswood,93.71,170.1,117.93,176.9,464.93,Single-ply,SBD,M
Boys,99.79,11,Brandon Welch,Clute Brazoswood,94.35,163.29,115.67,181.44,460.4,Single-ply,SBD,M
Boys,99.79,12,Braden Davis,West Columbia,98.97,163.29,124.74,167.83,455.86,Single-ply,SBD,M
Boys,99.79,13,Jj Winters,Sweeny,93.44,149.69,92.99,151.95,394.63,Single-ply,SBD,M
Boys,99.79,NS,Ethan George,Stafford,,,,,,Single-ply,SBD,M
Boys,99.79,NS,Alex Bryant,Alvin Shadow Creek,,,,,,Single-ply,SBD,M
Boys,99.79,DQ,Colton Weiss,Clute Brazoswood,95.07,,106.59,195.04,,Single-ply,SBD,M
Boys,109.77,1,John Ray,Alvin Shadow Creek,104.87,226.8,147.42,238.14,612.35,Single-ply,SBD,M
Boys,109.77,2,Armon Chowdury,Sweeny,102.51,197.31,120.2,165.56,483.08,Single-ply,SBD,M
Boys,109.77,3,Nathaniel Guajardo,Alvin Shadow Creek,106.14,136.08,74.84,158.76,369.68,Single-ply,SBD,M
Boys,109.77,NS,Corey Villen,Alvin Shadow Creek,,,,,,Single-ply,SBD,M
Boys,109.77,NS,Nic Nail,Sweeny,,,,,,Single-ply,SBD,M
Boys,124.74,1,Zach Natt,Stafford,113.58,183.7,113.4,206.38,503.49,Single-ply,SBD,M
Boys,124.74,2,Juan Hernández #14,Manvel,121.2,192.78,104.33,165.56,462.66,Single-ply,SBD,M
Boys,124.74,3,Gavin Smith #3,Hitchcock,114.76,183.7,90.72,149.69,424.11,Single-ply,SBD,M
Boys,124.74+,1,Michael Willer,Sweeny,137.44,319.78,156.49,272.16,748.43,Single-ply,SBD,M
Boys,124.74+,2,John Woods,Sweeny,159.66,263.08,170.1,226.8,659.98,Single-ply,SBD,M
Boys,124.74+,3,Luke Brooks,Clute Brazoswood,135.17,272.16,111.13,226.8,610.08,Single-ply,SBD,M
Boys,124.74+,4,Cameron Williams #4,Sweeny,141.97,210.92,142.88,251.74,605.55,Single-ply,SBD,M
Boys,124.74+,5,Troy Williamson,Clute Brazoswood,151.41,249.48,113.4,188.24,551.11,Single-ply,SBD,M
Boys,124.74+,6,Damarius Countee,Manvel,147.87,206.38,136.08,201.85,544.31,Single-ply,SBD,M
Boys,124.74+,7,Marcus Smith,Stafford,142.43,181.44,136.08,183.7,501.22,Single-ply,SBD,M
Boys,124.74+,8,Mikel Richey,Clute Brazoswood,130.18,185.97,127.01,181.44,494.42,Single-ply,SBD,M
Boys,124.74+,9,Romello Cross,Clute Brazoswood,127.91,181.44,120.2,183.7,485.34,Single-ply,SBD,M
Boys,,NS,Xavian Hampton,Hitchcock,,,,,,Single-ply,SBD,M
