Division,WeightClassKg,Place,Name,Team,BodyweightKg,Best3SquatKg,Best3BenchKg,Best3DeadliftKg,TotalKg,Equipment,Event,Sex
Girls,44.23,1,Madison Baugh,Canton,43.27,83.91,36.29,86.18,206.38,Single-ply,SBD,F
Girls,47.85,1,Alaina Lindsey,Winona,47.63,90.72,47.63,90.72,229.06,Single-ply,SBD,F
Girls,47.85,2,Aillissa West,Forney,46.72,72.57,22.68,86.18,181.44,Single-ply,SBD,F
Girls,51.94,1,Natalie Garcia,Forney,51.89,131.54,47.63,108.86,288.03,Single-ply,SBD,F
Girls,51.94,2,Ashley Riffe,Canton,51.35,86.18,45.36,102.06,233.6,Single-ply,SBD,F
Girls,51.94,3,Brooke Daniel,Nevada Community,50.8,86.18,49.9,95.25,231.33,Single-ply,SBD,F
Girls,51.94,4,Zoie Sterrett,Royse City,50.8,54.43,34.02,115.67,204.12,Single-ply,SBD,F
Girls,51.94,5,Makayla Goos,Waxahachie,49.53,77.11,36.29,83.91,197.31,Single-ply,SBD,F
Girls,51.94,6,Taya Sanders,Maypearl,51.35,70.31,34.02,74.84,179.17,Single-ply,SBD,F
Girls,51.94,7,Abby Carrizales,Maypearl,,54.43,,,54.43,Single-ply,S,F
Girls,51.94,DQ,Carley Mitchell,Weatherford,50.71,,,,,Single-ply,SBD,F
Girls,56.02,1,Carla Perez,Canton,53.25,97.52,45.36,102.06,244.94,Single-ply,SBD,F
Girls,56.02,2,Chantal Riley,Red Oak,55.97,90.72,38.56,97.52,226.8,Single-ply,SBD,F
Girls,56.02,3,Sarah Wells,Crandall,55.25,68.04,34.02,83.91,185.97,Single-ply,SBD,F
Girls,56.02,4,Madison Frankum-Gregory,Crandall,53.8,65.77,36.29,74.84,176.9,Single-ply,SBD,F
Girls,56.02,DQ,Brynna Mackling,Canton,54.52,74.84,,,,Single-ply,SBD,F
Girls,56.02,NS,Syndney Bunrham,Winona,,,,,,Single-ply,SBD,F
Girls,60.1,1,Emily Tapia,Nevada Community,60.06,127.01,52.16,136.08,315.25,Single-ply,SBD,F
Girls,60.1,2,Katy Williams,Forney,60.06,117.93,54.43,117.93,290.3,Single-ply,SBD,F
Girls,60.1,3,Jesyka Lee,Red Oak,60.06,111.13,56.7,122.47,290.3,Single-ply,SBD,F
Girls,60.1,4,Abbie Philips,Wills Point,56.61,92.99,54.43,117.93,265.35,Single-ply,SBD,F
Girls,60.1,5,Sarah O'Connor,Red Oak,59.96,111.13,43.09,111.13,265.35,Single-ply,SBD,F
Girls,60.1,6,Maren Bubeck,Argyle,56.25,90.72,45.36,115.67,251.74,Single-ply,SBD,F
Girls,60.1,7,Nancy Lara,Weatherford,59.96,92.99,49.9,102.06,244.94,Single-ply,SBD,F
Girls,60.1,8,Alicia Chavez,Terrell,56.79,104.33,47.63,90.72,242.67,Single-ply,SBD,F
Girls,60.1,9,Lori Bookman,Terrell,57.06,88.45,38.56,102.06,229.06,Single-ply,SBD,F
Girls,60.1,10,Ariel Garcia #1,Royse City,58.51,90.72,54.43,79.38,224.53,Single-ply,SBD,F
Girls,60.1,11,Evie Davis,Canton,59.87,79.38,34.02,92.99,206.38,Single-ply,SBD,F
Girls,60.1,12,Alyssa Murry,Melissa,59.06,72.57,34.02,72.57,179.17,Single-ply,SBD,F
Girls,60.1,13,Vianey Salazar,Crandall,59.42,70.31,31.75,70.31,172.37,Single-ply,SBD,F
Girls,60.1,14,Jacqueline Pina,Terrell,59.33,65.77,27.22,61.23,154.22,Single-ply,SBD,F
Girls,60.1,DQ,Savannah Johnson,Winona,60.06,127.01,56.7,,,Single-ply,SBD,F
Girls,60.1,DQ,Lexi Murry,Melissa,57.06,102.06,,,,Single-ply,SBD,F
Girls,60.1,DQ,Natalie Courtney,Melissa,57.7,95.25,,,,Single-ply,SBD,F
Girls,67.36,1,Britney Berlanga,Winona,64.05,142.88,74.84,140.61,358.34,Single-ply,SBD,F
Girls,67.36,2,Morgan Lowry,Forney,64.86,142.88,68.04,147.42,358.34,Single-ply,SBD,F
Girls,67.36,3,Bailey Crocker,Forney,67.13,138.35,61.23,138.35,337.93,Single-ply,SBD,F
Girls,67.36,4,Maiya Rodriguez,Kaufman,62.41,147.42,52.16,124.74,324.32,Single-ply,SBD,F
Girls,67.36,5,MaKayla McDade,Red Oak,66.32,120.2,61.23,138.35,319.78,Single-ply,SBD,F
Girls,67.36,6,Mikayla Massara,Waxahachie,62.87,111.13,61.23,138.35,310.71,Single-ply,SBD,F
Girls,67.36,7,Patricia Hernandez,Canton,63.05,117.93,52.16,120.2,290.3,Single-ply,SBD,F
Girls,67.36,8,Natalie McBride,Waxahachie,62.69,106.59,49.9,122.47,278.96,Single-ply,SBD,F
Girls,67.36,9,Avery Dickard,Red Oak,62.23,97.52,52.16,113.4,263.08,Single-ply,SBD,F
Girls,67.36,10,Courtney Kendrick,Red Oak,63.78,102.06,45.36,111.13,258.55,Single-ply,SBD,F
Girls,67.36,11,Kylee Crist,Canton,65.23,92.99,40.82,113.4,247.21,Single-ply,SBD,F
Girls,67.36,12,Sydney Ellis,Canton,63.78,83.91,38.56,97.52,219.99,Single-ply,SBD,F
Girls,67.36,13,Kelly Egan,Canton,62.23,77.11,45.36,95.25,217.72,Single-ply,SBD,F
Girls,67.36,14,Abbey Stinson,Royse City,63.14,81.65,43.09,92.99,217.72,Single-ply,SBD,F
Girls,67.36,15,Abbi Newton,Nevada Community,62.69,83.91,34.02,97.52,215.46,Single-ply,SBD,F
Girls,67.36,16,Pattie Sparks,Melissa,67.31,106.59,38.56,,145.15,Single-ply,SB,F
Girls,67.36,NS,Victoria Caderilla,Royse City,,,,,,Single-ply,SBD,F
Girls,67.36,NS,Olivia McMath,Wills Point,,,,,,Single-ply,SBD,F
Girls,67.36,NS,Brooklyn McCormick,Wills Point,,,,,,Single-ply,SBD,F
Girls,75.07,1,Megan Higbee,Rockwall-Heath,71.4,145.15,70.31,154.22,369.68,Single-ply,SBD,F
Girls,75.07,2,Cassidy Schubert,Forney,72.57,142.88,65.77,156.49,365.14,Single-ply,SBD,F
Girls,75.07,3,Sage Simmons,Waxahachie,73.57,147.42,56.7,136.08,340.19,Single-ply,SBD,F
Girls,75.07,4,Morgan Dunn,Weatherford,68.58,127.01,63.5,127.01,317.51,Single-ply,SBD,F
Girls,75.07,5,Julia Duke,Canton,68.58,129.27,54.43,131.54,315.25,Single-ply,SBD,F
Girls,75.07,6,Megan Gebauer,Canton,67.59,127.01,58.97,124.74,310.71,Single-ply,SBD,F
Girls,75.07,7,Aubrey Dillinger,Weatherford,67.68,111.13,68.04,117.93,297.1,Single-ply,SBD,F
Girls,75.07,8,Natalia Cox,Melissa,68.49,111.13,72.57,111.13,294.84,Single-ply,SBD,F
Girls,75.07,9,Morgan Medley,Canton,70.76,124.74,49.9,120.2,294.84,Single-ply,SBD,F
Girls,75.07,10,Megan Gerlach,Canton,72.39,127.01,43.09,122.47,292.57,Single-ply,SBD,F
Girls,75.07,11,Alli Aydelott,Red Oak,70.58,115.67,40.82,122.47,278.96,Single-ply,SBD,F
Girls,75.07,12,Hannah Valles,Royse City,73.21,113.4,45.36,92.99,251.74,Single-ply,SBD,F
Girls,75.07,13,Christina Magyar,Wills Point,67.4,79.38,34.02,83.91,197.31,Single-ply,SBD,F
Girls,75.07,14,Brice Lloyd,Canton,74.3,70.31,38.56,81.65,190.51,Single-ply,SBD,F
Girls,75.07,15,Victoria Walker,Nevada Community,73.48,115.67,,,115.67,Single-ply,S,F
Girls,75.07,DQ,Aisa Korinek,Crandall,68.95,,,,,Single-ply,SBD,F
Girls,75.07,DQ,Bailey Hubbard,Canton,73.84,,,,,Single-ply,SBD,F
Girls,75.07,NS,Illiana Hernandez,Crandall,,,,,,Single-ply,SBD,F
Girls,75.07,NS,Colbi Davis,Wills Point,,,,,,Single-ply,SBD,F
Girls,75.07,NS,Katie Wills,Wills Point,,,,,,Single-ply,SBD,F
Girls,82.33,1,Alexandra De La Cruz,Waxahachie,81.56,138.35,68.04,140.61,347,Single-ply,SBD,F
Girls,82.33,2,Destinee Griggs,Royse City,79.47,122.47,65.77,142.88,331.12,Single-ply,SBD,F
Girls,82.33,3,Stefani Norton,Nevada Community,78.2,136.08,65.77,124.74,326.59,Single-ply,SBD,F
Girls,82.33,4,Sydnee Hammett,Red Oak,75.21,124.74,47.63,120.2,292.57,Single-ply,SBD,F
Girls,82.33,5,Karina Revilla,Royse City,79.83,95.25,54.43,111.13,260.82,Single-ply,SBD,F
Girls,82.33,6,Lisa Vega,Terrell,76.48,106.59,34.02,111.13,251.74,Single-ply,SBD,F
Girls,82.33,7,Anna Gafford,Forney,81.19,99.79,38.56,106.59,244.94,Single-ply,SBD,F
Girls,82.33,8,Emily Greeson,Canton,82.28,92.99,36.29,111.13,240.4,Single-ply,SBD,F
Girls,82.33,9,Lauren Galindo,Weatherford,79.65,95.25,45.36,95.25,235.87,Single-ply,SBD,F
Girls,82.33,10,Kyla Shook,Canton,79.65,79.38,36.29,83.91,199.58,Single-ply,SBD,F
Girls,82.33,11,Michelle Andrade,Terrell,76.48,74.84,38.56,83.91,197.31,Single-ply,SBD,F
Girls,82.33,12,Jacy Cartmill,Royse City,79.92,40.82,36.29,61.23,138.35,Single-ply,SBD,F
Girls,82.33,DQ,Hailey Jacobs,Winona,80.47,,,,,Single-ply,SBD,F
Girls,90.04,1,Guadalupe Solorzano,Weatherford,85.82,136.08,65.77,142.88,344.73,Single-ply,SBD,F
Girls,90.04,2,Fre'Kelle Rouse,Waxahachie,89.99,124.74,61.23,142.88,328.85,Single-ply,SBD,F
Girls,90.04,3,Taylor Flaishans,Forney,86.91,131.54,61.23,129.27,322.05,Single-ply,SBD,F
Girls,90.04,4,Varinna Wright,Royse City,88.18,86.18,63.5,113.4,263.08,Single-ply,SBD,F
Girls,90.04,5,Faith Besherse,Canton,84.28,92.99,34.02,92.99,219.99,Single-ply,SBD,F
Girls,90.04,NS,Jennifer Alazo,Royse City,,86.18,,,,Single-ply,SBD,F
Girls,100.02,1,Natalia Mendoza,Crandall,99.61,136.08,61.23,124.74,322.05,Single-ply,SBD,F
Girls,100.02,2,Kellie Blake,Maypearl,99.7,136.08,68.04,108.86,312.98,Single-ply,SBD,F
Girls,100.02,3,Devan Andrews,Waxahachie,93.89,111.13,56.7,122.47,290.3,Single-ply,SBD,F
Girls,100.02,4,Dakota Benedict,Crandall,93.44,131.54,56.7,90.72,278.96,Single-ply,SBD,F
Girls,100.02,5,Silvia Viramontes,Melissa,90.54,117.93,38.56,92.99,249.48,Single-ply,SBD,F
Girls,100.02,6,Brianna Sykes,Sunnyvale,92.8,86.18,47.63,102.06,235.87,Single-ply,SBD,F
Girls,100.02,7,Sadie Hewitt,Forney,93.89,142.88,61.23,,204.12,Single-ply,SB,F
Girls,100.02,8,Kat Jones,Rockwall-Heath,92.62,142.88,,,142.88,Single-ply,S,F
Girls,100.02,9,Artis Taylor,Wills Point,97.07,68.04,49.9,,117.93,Single-ply,SB,F
Girls,117.71,1,Jocie Fuller,Canton,105.14,158.76,72.57,136.08,367.41,Single-ply,SBD,F
Girls,117.71,2,Alysia Daniel,Canton,111.4,140.61,54.43,122.47,317.51,Single-ply,SBD,F
Girls,117.71,3,Myra Lopez,Wills Point,105.32,113.4,34.02,136.08,283.5,Single-ply,SBD,F
Girls,117.71,4,Lindsey Weaver,Red Oak,114.4,106.59,52.16,111.13,269.89,Single-ply,SBD,F
Girls,117.71,NS,Priscilla Adejokun,Melissa,,,,,,Single-ply,SBD,F
Girls,117.71+,1,Kaitlynn Peterson,Rockwall-Heath,121.83,181.44,88.45,151.95,421.84,Single-ply,SBD,F
Girls,,NS,Ruby Gomez,Royse City,,,,,,Single-ply,SBD,F
