Division,WeightClassKg,Place,Name,Team,BodyweightKg,Best3SquatKg,Best3BenchKg,Best3DeadliftKg,TotalKg,Equipment,Event,Sex
Girls,44.23,1,Emily Prisk,Floydada,43.73,74.84,31.75,83.91,190.51,Single-ply,SBD,F
Girls,44.23,2,Arocely Saenz,Olton,44.23,61.23,36.29,86.18,183.7,Single-ply,SBD,F
Girls,44.23,3,Roxy Chavarria,Floydada,44,56.7,31.75,70.31,158.76,Single-ply,SBD,F
Girls,44.23,4,Jordan Ramirez #3,Levelland,40.46,61.23,27.22,65.77,154.22,Single-ply,SBD,F
Girls,44.23,5,Gali Pineda,Kermit,44.23,61.23,27.22,63.5,151.95,Single-ply,SBD,F
Girls,44.23,6,Elizabeth Lopez,Abernathy,42.46,52.16,27.22,70.31,149.69,Single-ply,SBD,F
Girls,44.23,7,Casandra Corpus,Levelland,43.45,65.77,31.75,52.16,149.69,Single-ply,SBD,F
Girls,44.23,DQ,Alex Bravo,Olton,43.18,52.16,,,,Single-ply,SBD,F
Girls,47.85,1,Vicky Minjarez,Seagraves,47.63,124.74,56.7,108.86,290.3,Single-ply,SBD,F
Girls,47.85,2,Gabby Rodriguez,Kermit,47.72,79.38,38.56,68.04,185.97,Single-ply,SBD,F
Girls,47.85,3,Krystin Gonzales,Muleshoe,46.95,58.97,40.82,65.77,165.56,Single-ply,SBD,F
Girls,47.85,4,Melissa Lucio,Plainview,47.81,77.11,22.68,61.23,161.03,Single-ply,SBD,F
Girls,47.85,5,Veronika Hernandez,Levelland,47.54,52.16,29.48,68.04,149.69,Single-ply,SBD,F
Girls,47.85,6,Anissa Porras,Plainview,47.85,45.36,24.95,52.16,122.47,Single-ply,SBD,F
Girls,51.94,1,Samantha Gonzalez,Lamesa,50.8,113.4,47.63,117.93,278.96,Single-ply,SBD,F
Girls,51.94,2,Alicia Rodriguez,Kermit,51.89,72.57,43.09,81.65,197.31,Single-ply,SBD,F
Girls,51.94,3,Diannalisa Davila,Kermit,51.8,74.84,36.29,83.91,195.04,Single-ply,SBD,F
Girls,51.94,4,Chelsie Gomez,Friona,51.8,70.31,31.75,83.91,185.97,Single-ply,SBD,F
Girls,51.94,6,Brittany Pilip,Levelland,48.53,70.31,29.48,77.11,176.9,Single-ply,SBD,F
Girls,51.94,7,Clarissa Porras,Kermit,51.62,56.7,34.02,79.38,170.1,Single-ply,SBD,F
Girls,51.94,8,Mikayla Perez,Plainview,49.35,68.04,24.95,74.84,167.83,Single-ply,SBD,F
Girls,56.02,1,Bianca Arellano,Friona,55.07,92.99,43.09,95.25,231.33,Single-ply,SBD,F
Girls,56.02,2,Chelsea Byrd,Floydada,54.25,77.11,43.09,102.06,222.26,Single-ply,SBD,F
Girls,56.02,3,Jessica Garcia,Lamesa,55.57,81.65,34.02,102.06,217.72,Single-ply,SBD,F
Girls,56.02,4,April Vargas,Levelland,55.61,79.38,34.02,95.25,208.65,Single-ply,SBD,F
Girls,56.02,5,Maci French,Levelland,53.07,68.04,38.56,83.91,190.51,Single-ply,SBD,F
Girls,56.02,6,Bianca Solis,Plainview,54.07,61.23,27.22,81.65,170.1,Single-ply,SBD,F
Girls,56.02,DQ,Melissa Arizpe,Floydada,53.89,74.84,,,,Single-ply,SBD,F
Girls,60.1,1,Kayla Flores,Seagraves,59.42,117.93,49.9,115.67,283.5,Single-ply,SBD,F
Girls,60.1,2,Kendra Reining,Panhandle,57.15,74.84,43.09,106.59,224.53,Single-ply,SBD,F
Girls,60.1,3,Carla Hernandez,Plainview,59.6,92.99,38.56,90.72,222.26,Single-ply,SBD,F
Girls,60.1,4,Bryana Alvarez,Levelland,57.24,83.91,45.36,90.72,219.99,Single-ply,SBD,F
Girls,60.1,6,Amanda Torrez,Levelland,60.1,68.04,43.09,83.91,195.04,Single-ply,SBD,F
Girls,60.1,7,Jocelyn Martinez,Dalhart,60.1,61.23,34.02,90.72,185.97,Single-ply,SBD,F
Girls,60.1,8,Sydney Ramos,Plains,56.79,61.23,38.56,83.91,183.7,Single-ply,SBD,F
Girls,60.1,11,Julissa Jaramillo,Friona,59.06,65.77,29.48,70.31,165.56,Single-ply,SBD,F
Girls,60.1,12,Haley Davis,Panhandle,59.51,47.63,29.48,83.91,161.03,Single-ply,SBD,F
Girls,67.36,1,Katelyn Gable,Muleshoe,60.51,104.33,40.82,117.93,263.08,Single-ply,SBD,F
Girls,67.36,2,Jacy White,Lamesa,64.05,102.06,43.09,117.93,263.08,Single-ply,SBD,F
Girls,67.36,3,Bridget Lopez,Abernathy,66.22,102.06,52.16,97.52,251.74,Single-ply,SBD,F
Girls,67.36,4,Kayla Brown,Panhandle,66.5,90.72,40.82,113.4,244.94,Single-ply,SBD,F
Girls,67.36,5,Syrena Robles,Lamesa,63.41,86.18,43.09,102.06,231.33,Single-ply,SBD,F
Girls,67.36,6,Arcie Polanco,Kermit,64.14,79.38,43.09,90.72,213.19,Single-ply,SBD,F
Girls,67.36,7,Clarissa Alarcon,Kermit,66.5,86.18,40.82,83.91,210.92,Single-ply,SBD,F
Girls,67.36,8,Shyann Nevares,Plainview,64.23,83.91,40.82,74.84,199.58,Single-ply,SBD,F
Girls,67.36,9,Melody Vasquez,Kermit,65.14,77.11,34.02,79.38,190.51,Single-ply,SBD,F
Girls,67.36,DQ,Ashley Milton,Plains,61.96,61.23,29.48,,,Single-ply,SBD,F
Girls,75.07,1,Alexis Ayala #1,Lamesa,74.12,129.27,47.63,131.54,308.44,Single-ply,SBD,F
Girls,75.07,2,Krayah Langford,Levelland,69.94,127.01,54.43,122.47,303.91,Single-ply,SBD,F
Girls,75.07,4,Promise Tapia,Friona,72.67,97.52,45.36,102.06,244.94,Single-ply,SBD,F
Girls,75.07,5,Delilah Henry,Floydada,72.85,102.06,38.56,102.06,242.67,Single-ply,SBD,F
Girls,75.07,7,Sierra Adams,Levelland,71.49,68.04,34.02,92.99,195.04,Single-ply,SBD,F
Girls,75.07,8,Stephanie Hernandez,Plainview,68.95,58.97,47.63,77.11,183.7,Single-ply,SBD,F
Girls,75.07,DQ,Lilly Meza,Friona,73.66,,,,,Single-ply,SBD,F
Girls,82.33,1,Sarai Coronado,Olton,82.33,138.35,52.16,140.61,331.12,Single-ply,SBD,F
Girls,82.33,2,Kenzie Conley,Sudan,81.37,92.99,49.9,131.54,274.42,Single-ply,SBD,F
Girls,82.33,3,Paula Cuellar,Lockney,81.69,102.06,47.63,117.93,267.62,Single-ply,SBD,F
Girls,82.33,4,Whitney Ascensio,Lockney,77.38,70.31,43.09,99.79,213.19,Single-ply,SBD,F
Girls,82.33,5,Julia McDaniel,Seagraves,77.47,72.57,43.09,97.52,213.19,Single-ply,SBD,F
Girls,82.33,6,Reina Vargas,Levelland,76.02,70.31,34.02,97.52,201.85,Single-ply,SBD,F
Girls,82.33,7,Arlene Pallares,Kermit,81.74,79.38,38.56,79.38,197.31,Single-ply,SBD,F
Girls,82.33,DQ,Alexis Perez #1,Abernathy,78.7,104.33,,,,Single-ply,SBD,F
Girls,90.04,1,Denise Rivera,Abernathy,83.73,113.4,52.16,113.4,278.96,Single-ply,SBD,F
Girls,90.04,2,Thyme Martinez,Plainview,84.19,108.86,56.7,124.74,290.3,Single-ply,SBD,F
Girls,90.04,3,Heather Fierros,Lockney,87.32,86.18,56.7,108.86,251.74,Single-ply,SBD,F
Girls,100.02+,1,Megan Capers,Sudan,129.36,108.86,68.04,113.4,290.3,Single-ply,SBD,F
Girls,100.02+,2,Mercedes Hunt,Kermit,109.59,113.4,56.7,108.86,278.96,Single-ply,SBD,F
Girls,100.02+,3,Ashly Alvarado,Lockney,111.67,102.06,43.09,117.93,263.08,Single-ply,SBD,F
Girls,100.02+,DQ,Skye Johnson,Plainview,127.37,,,,,Single-ply,SBD,F
Girls,,NS,Nicole Taylor,Borger,,,,,,Single-ply,SBD,F
Girls,,NS,Makenzie Ramos,Floydada,,,,,,Single-ply,SBD,F
Girls,,NS,Josephine Samarron,Friona,,,,,,Single-ply,SBD,F
