Division,WeightClassKg,Place,Name,Team,BodyweightKg,Best3SquatKg,Best3BenchKg,Best3DeadliftKg,TotalKg,Equipment,Event,Sex,BirthDate
Boys,51.71,1,Jacob Guerrero,Yorktown,51.57,147.42,74.84,145.15,367.41,Single-ply,SBD,M,
Boys,51.71,2,Noah Jones #2,Edna,51.66,104.33,68.04,147.42,319.78,Single-ply,SBD,M,
Boys,51.71,3,Eli Saunders,Burton,49.44,117.93,65.77,133.81,317.51,Single-ply,SBD,M,
Boys,51.71,4,Cade Janecek,East Bernard,51.71,111.13,63.5,124.74,299.37,Single-ply,SBD,M,
Boys,51.71,5,Juan Perez,Sealy,50.62,104.33,61.23,124.74,290.3,Single-ply,SBD,M,
Boys,51.71,6,Matthew Garza,La Grange,50.08,124.74,52.16,108.86,285.76,Single-ply,SBD,M,
Boys,51.71,7,Hayden Sechelski,Anderson-Shiro,51.35,108.86,54.43,117.93,281.23,Single-ply,SBD,M,
Boys,51.71,8,Kyle Sanchez,Boling,46.13,113.4,52.16,108.86,274.42,Single-ply,SBD,M,
Boys,51.71,9,Bishop Whitt,Cuero,50.08,77.11,45.36,90.72,213.19,Single-ply,SBD,M,
Boys,55.79,1,Rudy Becerra,Boling,55.7,158.76,90.72,142.88,392.36,Single-ply,SBD,M,
Boys,55.79,2,Bryan Peralta,Yorktown,55.61,147.42,74.84,154.22,376.48,Single-ply,SBD,M,
Boys,55.79,3,Dalton Oppermann,Columbus,54.66,127.01,90.72,145.15,362.87,Single-ply,SBD,M,
Boys,55.79,4,Geovanni Villeda,Edna,55.79,124.74,61.23,133.81,319.78,Single-ply,SBD,M,
Boys,55.79,5,Waylon Schimcek,Weimar,54.84,122.47,61.23,129.27,312.98,Single-ply,SBD,M,
Boys,55.79,6,Dakota Ford,Weimar,55.79,97.52,61.23,122.47,281.23,Single-ply,SBD,M,
Boys,55.79,7,Kejun Wilson,Altair Rice,53.07,113.4,47.63,108.86,269.89,Single-ply,SBD,M,
Boys,55.79,8,Brandon Limas,Wharton,54.43,83.91,61.23,83.91,229.06,Single-ply,SBD,M,
Boys,55.79,9,Brandon Ford,Altair Rice,51.94,56.7,34.02,70.31,161.03,Single-ply,SBD,M,
Boys,55.79,DQ,Bryan Maldonado,Wallis Brazos,52.44,102.06,58.97,,,Single-ply,SBD,M,
Boys,59.87,1,Ryan Garcia,Cuero,57.83,199.58,111.13,192.78,503.49,Single-ply,SBD,M,
Boys,59.87,2,Dylan Thaxton,Sealy,58.88,161.03,90.72,174.63,426.38,Single-ply,SBD,M,
Boys,59.87,3,Dylan Crye,Hallettsville,58.51,151.95,83.91,163.29,399.16,Single-ply,SBD,M,
Boys,59.87,4,Drey Rosas,Weimar,59.19,140.61,72.57,165.56,378.75,Single-ply,SBD,M,
Boys,59.87,5,Weslee Novosod,Sealy,58.01,147.42,70.31,145.15,362.87,Single-ply,SBD,M,
Boys,59.87,6,Daniel Hughston,Cuero,58.01,145.15,68.04,131.54,344.73,Single-ply,SBD,M,
Boys,59.87,7,Alerique Medrano,Boling,56.61,131.54,70.31,138.35,340.19,Single-ply,SBD,M,
Boys,59.87,8,John Lopez,Edna,57.2,127.01,65.77,147.42,340.19,Single-ply,SBD,M,
Boys,59.87,9,Sam Peacock,Altair Rice,59.42,120.2,65.77,133.81,319.78,Single-ply,SBD,M,
Boys,59.87,10,Charles Boetcher,East Bernard,57.47,117.93,70.31,122.47,310.71,Single-ply,SBD,M,
Boys,59.87,11,Felipe Olmos,Flatonia,59.6,113.4,72.57,102.06,288.03,Single-ply,SBD,M,
Boys,67.13,1,Kevin Manning,Boling,61.33,240.4,133.81,208.65,582.87,Single-ply,SBD,M,
Boys,67.13,2,Alex Flores,Anderson-Shiro,66.32,183.7,124.74,213.19,521.63,Single-ply,SBD,M,
Boys,67.13,3,Miles DeLeon,Wharton,65.41,151.95,111.13,176.9,439.98,Single-ply,SBD,M,
Boys,67.13,4,Harris Green-Moran,Flatonia,63.19,185.97,83.91,163.29,433.18,Single-ply,SBD,M,
Boys,67.13,5,Brandon Maldonado,Wallis Brazos,67.13,151.95,102.06,179.17,433.18,Single-ply,SBD,M,
Boys,67.13,6,Trent Mendez,Schulenburg,66.95,163.29,92.99,165.56,421.84,Single-ply,SBD,M,
Boys,67.13,7,Rider Reid,La Grange,63.78,158.76,90.72,167.83,417.3,Single-ply,SBD,M,
Boys,67.13,8,Lucas DeBord,Cuero,66.32,170.1,88.45,154.22,412.77,Single-ply,SBD,M,
Boys,67.13,9,Andrew Dirba,East Bernard,62.64,154.22,77.11,167.83,399.16,Single-ply,SBD,M,
Boys,67.13,10,Logan Stratiou,Boling,64.77,156.49,86.18,145.15,387.82,Single-ply,SBD,M,
Boys,67.13,11,Brody Reinecke,East Bernard,64.95,145.15,83.91,158.76,387.82,Single-ply,SBD,M,
Boys,67.13,12,John Sample,Edna,64.05,136.08,79.38,145.15,360.61,Single-ply,SBD,M,
Boys,67.13,13,Gene Montgomery,Altair Rice,64.09,129.27,79.38,138.35,347,Single-ply,SBD,M,
Boys,67.13,14,Tucker Backhus,Anderson-Shiro,62.46,138.35,65.77,136.08,340.19,Single-ply,SBD,M,
Boys,67.13,15,Stephen Migura,Cuero,65.18,120.2,86.18,127.01,333.39,Single-ply,SBD,M,
Boys,67.13,16,Austin Stech,Weimar,67.13,117.93,68.04,142.88,328.85,Single-ply,SBD,M,
Boys,67.13,17,Jackson Owens,La Grange,63.41,122.47,65.77,127.01,315.25,Single-ply,SBD,M,
Boys,67.13,18,Ross Hough,Boling,63.73,111.13,70.31,129.27,310.71,Single-ply,SBD,M,
Boys,67.13,19,Rafael Herrera,Altair Rice,63.5,104.33,61.23,127.01,292.57,Single-ply,SBD,M,
Boys,67.13,DQ,Adam Woodard,Altair Rice,62.6,,,,,Single-ply,SBD,M,
Boys,67.13,DQ,Carlos Olmedo,Boling,64.82,,,,,Single-ply,SBD,M,
Boys,74.84,1,Erick Guitierrez,Altair Rice,69.9,195.04,106.59,188.24,489.88,Single-ply,SBD,M,
Boys,74.84,2,Joey Townsend,Wallis Brazos,71.94,185.97,104.33,190.51,480.81,Single-ply,SBD,M,
Boys,74.84,3,Niklas Schatz,East Bernard,70.9,190.51,99.79,183.7,474,Single-ply,SBD,M,
Boys,74.84,4,Hunter Kohleffel,Columbus,74.84,181.44,95.25,167.83,444.52,Single-ply,SBD,M,
Boys,74.84,5,Orlando Adame,Schulenburg,73.16,170.1,77.11,183.7,430.91,Single-ply,SBD,M,
Boys,74.84,6,Corey Riley,Sealy,73.35,156.49,102.06,170.1,428.64,Single-ply,SBD,M,
Boys,74.84,7,Leo Casique,Sealy,72.26,138.35,113.4,163.29,415.04,Single-ply,SBD,M,
Boys,74.84,8,Jonothan Monterroza,Sealy,74.48,165.56,92.99,154.22,412.77,Single-ply,SBD,M,
Boys,74.84,9,Ricardo Olivares,Flatonia,72.85,156.49,90.72,158.76,405.97,Single-ply,SBD,M,
Boys,74.84,10,Javen Mendiola,Cuero,71.12,158.76,102.06,142.88,403.7,Single-ply,SBD,M,
Boys,74.84,11,Camron Alamilla,Hallettsville,74.48,161.03,90.72,149.69,401.43,Single-ply,SBD,M,
Boys,74.84,12,Aiden Gonzales,Flatonia,68.45,149.69,83.91,165.56,399.16,Single-ply,SBD,M,
Boys,74.84,13,Brandon James,Altair Rice,70.31,145.15,79.38,172.37,396.89,Single-ply,SBD,M,
Boys,74.84,14,Joel Castandeda,Navasota,70.76,158.76,77.11,156.49,392.36,Single-ply,SBD,M,
Boys,74.84,15,Kolby Rivera,East Bernard,69.76,142.88,86.18,158.76,387.82,Single-ply,SBD,M,
Boys,74.84,16,Dylan Dennis,Weimar,72.76,129.27,79.38,174.63,383.29,Single-ply,SBD,M,
Boys,74.84,17,Corey Lewis,Columbus,69.4,147.42,77.11,154.22,378.75,Single-ply,SBD,M,
Boys,74.84,18,Tre Stovall,Altair Rice,70.85,149.69,70.31,145.15,365.14,Single-ply,SBD,M,
Boys,74.84,19,Johnangelo Harvey,Wallis Brazos,73.26,120.2,70.31,161.03,351.53,Single-ply,SBD,M,
Boys,74.84,20,Deondre Cotton,Altair Rice,69.9,136.08,65.77,145.15,347,Single-ply,SBD,M,
Boys,74.84,21,Aden Falks,Wharton,69.4,111.13,72.57,120.2,303.91,Single-ply,SBD,M,
Boys,74.84,22,Christopher Tejeda,Navasota,72.53,95.25,63.5,136.08,294.84,Single-ply,SBD,M,
Boys,74.84,23,Nicolas Castaneda,Navasota,69.22,92.99,63.5,136.08,292.57,Single-ply,SBD,M,
Boys,74.84,24,Vincent Aguilar,Wallis Brazos,72.26,102.06,61.23,124.74,288.03,Single-ply,SBD,M,
Boys,74.84,25,Jimmy Spencer,Wallis Brazos,73.48,83.91,58.97,115.67,258.55,Single-ply,SBD,M,
Boys,74.84,DQ,Joshua Gomez,Wharton,68.17,,65.77,113.4,,Single-ply,SBD,M,
Boys,82.1,1,DJ Taylor,La Grange,80.83,204.12,108.86,201.85,514.83,Single-ply,SBD,M,
Boys,82.1,2,Blake Jedlicka,East Bernard,78.83,197.31,102.06,204.12,503.49,Single-ply,SBD,M,
Boys,82.1,3,Jackson Osborne,Sealy,78.11,188.24,108.86,172.37,469.47,Single-ply,SBD,M,
Boys,82.1,4,Landon Stem,Anderson-Shiro,82.01,174.63,127.01,158.76,460.4,Single-ply,SBD,M,
Boys,82.1,5,Brayden Duarte,Schulenburg,75.84,183.7,102.06,163.29,449.06,Single-ply,SBD,M,
Boys,82.1,6,Jamarion Frear,Navasota,78.47,163.29,83.91,181.44,428.64,Single-ply,SBD,M,
Boys,82.1,7,Jaylen Myles,Navasota,76.61,181.44,88.45,151.95,421.84,Single-ply,SBD,M,
Boys,82.1,8,Jesse Arrington,Boling,79.7,165.56,99.79,151.95,417.3,Single-ply,SBD,M,
Boys,82.1,9,Will Hooper,Schulenburg,80.01,161.03,88.45,156.49,405.97,Single-ply,SBD,M,
Boys,82.1,10,Michael Flores,Altair Rice,80.06,138.35,83.91,183.7,405.97,Single-ply,SBD,M,
Boys,82.1,11,Luis Reyes,Altair Rice,79.2,158.76,97.52,136.08,392.36,Single-ply,SBD,M,
Boys,82.1,12,Clayton Macha,Wallis Brazos,79.11,147.42,83.91,158.76,390.09,Single-ply,SBD,M,
Boys,82.1,13,Dylan Baird,East Bernard,81.1,142.88,90.72,142.88,376.48,Single-ply,SBD,M,
Boys,82.1,14,Landon Little,La Grange,81.69,138.35,81.65,149.69,369.68,Single-ply,SBD,M,
Boys,82.1,15,Braelin Whitley,Navasota,81.24,136.08,74.84,151.95,362.87,Single-ply,SBD,M,
Boys,82.1,16,Damontae Levi,Altair Rice,77.79,111.13,65.77,161.03,337.93,Single-ply,SBD,M,
Boys,82.1,17,Jonoah Fonseca,Wallis Brazos,79.56,115.67,65.77,151.95,333.39,Single-ply,SBD,M,
Boys,82.1,18,Brennon Freeman,Yorktown,80.69,122.47,74.84,127.01,324.32,Single-ply,SBD,M,
Boys,82.1,19,Garrett Harris,La Grange,77.93,111.13,65.77,131.54,308.44,Single-ply,SBD,M,
Boys,82.1,20,Cooper Brown,Columbus,79.02,111.13,74.84,106.59,292.57,Single-ply,SBD,M,
Boys,82.1,21,Brian Freeman,Yorktown,75.16,90.72,43.09,102.06,235.87,Single-ply,SBD,M,
Boys,82.1,DQ,Bryan Lopez,Wharton,76.34,,,,,Single-ply,SBD,M,
Boys,82.1,DQ,Straton Pieprzyca,Altair Rice,81.65,,,,,Single-ply,SBD,M,
Boys,82.1,DQ,Jj Hurd,Altair Rice,79.65,138.35,70.31,,,Single-ply,SBD,M,
Boys,89.81,1,Alex Marek,Bellville,88.04,226.8,129.27,226.8,582.87,Single-ply,SBD,M,
Boys,89.81,2,Wayne Rinn,Bellville,83.46,238.14,129.27,204.12,571.53,Single-ply,SBD,M,
Boys,89.81,3,J Galvan,East Bernard,85.09,204.12,124.74,192.78,521.63,Single-ply,SBD,M,
Boys,89.81,4,Landon Rodriguez,Altair Rice,83.46,210.92,113.4,195.04,519.36,Single-ply,SBD,M,
Boys,89.81,5,Fernando Cortez,Edna,84.28,204.12,104.33,197.31,505.76,Single-ply,SBD,M,
Boys,89.81,6,Justin High,Bellville,88.27,199.58,142.88,158.76,501.22,Single-ply,SBD,M,
Boys,89.81,7,Luis Ceballos,Altair Rice,86.55,183.7,88.45,181.44,453.59,Single-ply,SBD,M,
Boys,89.81,8,Victor Torres,Navasota,87.5,172.37,86.18,195.04,453.59,Single-ply,SBD,M,
Boys,89.81,9,Stefan Plotini,Edna,88.36,183.7,97.52,172.37,453.59,Single-ply,SBD,M,
Boys,89.81,10,Reese Neisner,Columbus,89.77,158.76,88.45,170.1,417.3,Single-ply,SBD,M,
Boys,89.81,11,Dalton Bohannon,Edna,82.96,149.69,86.18,163.29,399.16,Single-ply,SBD,M,
Boys,89.81,12,Dillon Arteaga,Wallis Brazos,83.46,136.08,90.72,158.76,385.55,Single-ply,SBD,M,
Boys,89.81,13,Jose Arriaga,Sealy,87,138.35,83.91,158.76,381.02,Single-ply,SBD,M,
Boys,89.81,14,Juan Herrera,Altair Rice,88.9,124.74,77.11,136.08,337.93,Single-ply,SBD,M,
Boys,89.81,15,Aaron Gomez,Wharton,86.64,120.2,79.38,131.54,331.12,Single-ply,SBD,M,
Boys,89.81,16,Gabriel Montalvo,Wharton,86.18,138.35,70.31,102.06,310.71,Single-ply,SBD,M,
Boys,89.81,17,Josh Martin,Flatonia,83.87,113.4,81.65,111.13,306.17,Single-ply,SBD,M,
Boys,89.81,18,James Habrit,Wallis Brazos,85.46,104.33,68.04,124.74,297.1,Single-ply,SBD,M,
Boys,89.81,19,Marco Romero,Wallis Brazos,83.78,102.06,61.23,129.27,292.57,Single-ply,SBD,M,
Boys,89.81,20,Trezdun Ruiz,Navasota,83.55,106.59,58.97,115.67,281.23,Single-ply,SBD,M,
Boys,89.81,21,Noah Gregory,Wallis Brazos,83.1,97.52,70.31,102.06,269.89,Single-ply,SBD,M,
Boys,89.81,22,Carlos Muñoz,Navasota,84.64,102.06,49.9,92.99,244.94,Single-ply,SBD,M,
Boys,89.81,23,Nathan Frazer,Hallettsville,83.37,77.11,54.43,102.06,233.6,Single-ply,SBD,M,
Boys,89.81,DQ,James Cotton,Altair Rice,87.32,181.44,,,,Single-ply,SBD,M,
Boys,89.81,DQ,Cobi Wright,Anderson-Shiro,87.82,,,,,Single-ply,SBD,M,
Boys,99.79,1,Chad Roebuck,Anderson-Shiro,95.66,256.28,165.56,206.38,628.23,Single-ply,SBD,M,
Boys,99.79,2,Vincente Cabrera,Weimar,94.35,226.8,151.95,226.8,605.55,Single-ply,SBD,M,
Boys,99.79,3,Dalton Bills,Bellville,95.03,238.14,142.88,204.12,585.13,Single-ply,SBD,M,
Boys,99.79,4,Caleb Smith,Cuero,99.7,238.14,142.88,199.58,580.6,Single-ply,SBD,M,
Boys,99.79,5,Everado Esquivel,Altair Rice,97.7,201.85,131.54,215.46,548.85,Single-ply,SBD,M,
Boys,99.79,6,Marco Mendoza,Navasota,93.58,201.85,99.79,197.31,498.95,Single-ply,SBD,M,
Boys,99.79,7,Hayden Pearson,Wallis Brazos,98.79,192.78,117.93,188.24,498.95,Single-ply,SBD,M,
Boys,99.79,8,Eric Burns,Sealy,95.3,190.51,113.4,192.78,496.68,Single-ply,SBD,M,
Boys,99.79,9,Devin Leister,Yorktown,98.34,215.46,95.25,181.44,492.15,Single-ply,SBD,M,
Boys,99.79,10,Dreydan Ashford,Edna,90.54,185.97,104.33,188.24,478.54,Single-ply,SBD,M,
Boys,99.79,11,Kyle Weghorst,Cuero,96.34,183.7,113.4,163.29,460.4,Single-ply,SBD,M,
Boys,99.79,12,Aziel Gonzalez,Altair Rice,97.11,190.51,102.06,165.56,458.13,Single-ply,SBD,M,
Boys,99.79,13,Alexander Santos,Navasota,92.44,185.97,83.91,183.7,453.59,Single-ply,SBD,M,
Boys,99.79,14,Cole Powell,Bellville,90.22,165.56,115.67,158.76,439.98,Single-ply,SBD,M,
Boys,99.79,15,Juan Ferretiz,Weimar,90.72,154.22,79.38,183.7,417.3,Single-ply,SBD,M,
Boys,99.79,16,Oscar Ramirez,Columbus,93.85,163.29,90.72,163.29,417.3,Single-ply,SBD,M,
Boys,99.79,17,Trevor Beyer,Schulenburg,91.26,149.69,90.72,172.37,412.77,Single-ply,SBD,M,
Boys,99.79,18,Jordan Garcia #1,Columbus,97.3,158.76,95.25,158.76,412.77,Single-ply,SBD,M,
Boys,99.79,19,Nick Pavlicek,Columbus,92.03,158.76,81.65,149.69,390.09,Single-ply,SBD,M,
Boys,99.79,20,Hayden Schulz,Schulenburg,95.35,147.42,90.72,149.69,387.82,Single-ply,SBD,M,
Boys,99.79,21,Javier Lopez,La Grange,91.63,145.15,92.99,145.15,383.29,Single-ply,SBD,M,
Boys,99.79,22,Favian Gutierrez,La Grange,98.88,142.88,70.31,140.61,353.8,Single-ply,SBD,M,
Boys,99.79,23,Tristain Olson,Navasota,95.21,120.2,74.84,142.88,337.93,Single-ply,SBD,M,
Boys,99.79,24,Connor Ruppert,Yorktown,98.38,113.4,72.57,142.88,328.85,Single-ply,SBD,M,
Boys,99.79,25,Shelton Rayford,Navasota,91.35,102.06,61.23,133.81,297.1,Single-ply,SBD,M,
Boys,99.79,26,Ramon Alvarado,Navasota,98.93,111.13,61.23,111.13,283.5,Single-ply,SBD,M,
Boys,99.79,DQ,Sean Sims,Altair Rice,93.53,,,,,Single-ply,SBD,M,
Boys,109.77,1,Mark Glover,East Bernard,104.78,215.46,113.4,226.8,555.65,Single-ply,SBD,M,
Boys,109.77,2,Jerry Richards,Boling,106.19,208.65,115.67,197.31,521.63,Single-ply,SBD,M,
Boys,109.77,3,Ethan Pompa,Yorktown,105.73,215.46,102.06,192.78,510.29,Single-ply,SBD,M,
Boys,109.77,4,Zane Moriarty,Anderson-Shiro,106.32,183.7,108.86,208.65,501.22,Single-ply,SBD,M,
Boys,109.77,5,Eric Garza,Edna,100.79,183.7,136.08,172.37,492.15,Single-ply,SBD,M,
Boys,109.77,6,Patrick Washington,Sealy,101.88,192.78,113.4,183.7,489.88,Single-ply,SBD,M,
Boys,109.77,7,Kion Hurd,Columbus,103.24,208.65,97.52,183.7,489.88,Single-ply,SBD,M,
Boys,109.77,8,Yahir Alvarez,Sealy,103.33,176.9,115.67,188.24,480.81,Single-ply,SBD,M,
Boys,109.77,9,Eduardo Perez,Navasota,107.5,185.97,102.06,183.7,471.74,Single-ply,SBD,M,
Boys,109.77,10,Hunter Mangum,Weimar,103.87,183.7,102.06,183.7,469.47,Single-ply,SBD,M,
Boys,109.77,11,Kobe Alvarez,Yorktown,101.92,165.56,83.91,181.44,430.91,Single-ply,SBD,M,
Boys,109.77,12,Hayden Splawn,La Grange,106.55,138.35,88.45,167.83,394.63,Single-ply,SBD,M,
Boys,109.77,13,Augustin Muniz,Wharton,106.59,142.88,102.06,147.42,392.36,Single-ply,SBD,M,
Boys,109.77,14,Josua Davis,Navasota,106.64,142.88,79.38,140.61,362.87,Single-ply,SBD,M,
Boys,124.74,1,Trent Reyes,Boling,110.68,254.01,136.08,213.19,603.28,Single-ply,SBD,M,
Boys,124.74,2,Raul Tavares,East Bernard,120.16,235.87,131.54,176.9,544.31,Single-ply,SBD,M,
Boys,124.74,3,Omarion Marks,Wharton,115.26,192.78,127.01,204.12,523.9,Single-ply,SBD,M,
Boys,124.74,4,Camren Klawinsky,Anderson-Shiro,112.54,208.65,122.47,190.51,521.63,Single-ply,SBD,M,
Boys,124.74,5,Casen Ivy,East Bernard,115.76,188.24,108.86,201.85,498.95,Single-ply,SBD,M,
Boys,124.74,6,Andre Brady,Edna,116.39,183.7,104.33,183.7,471.74,Single-ply,SBD,M,
Boys,124.74,7,Jose Lopez,Navasota,120.34,188.24,92.99,179.17,460.4,Single-ply,SBD,M,
Boys,124.74,8,Tyler Martin,Anderson-Shiro,122.24,197.31,92.99,156.49,446.79,Single-ply,SBD,M,
Boys,124.74,9,Tay'Shaun Toliver,Columbus,121.38,181.44,102.06,145.15,428.64,Single-ply,SBD,M,
Boys,124.74,10,Isaiah Adams,Schulenburg,122.88,163.29,92.99,145.15,401.43,Single-ply,SBD,M,
Boys,124.74,11,Carlos Anaya,La Grange,124.47,133.81,79.38,158.76,371.95,Single-ply,SBD,M,
Boys,124.74,DQ,Brandon Lara,Schulenburg,121.43,217.72,,,,Single-ply,SBD,M,
Boys,124.74,DQ,Braden Adair,Anderson-Shiro,122.06,147.42,,,,Single-ply,SBD,M,
Boys,124.74+,1,JR Schauer,East Bernard,134.9,240.4,167.83,226.8,635.03,Single-ply,SBD,M,
Boys,124.74+,2,Shyheim Jones,Anderson-Shiro,128.82,274.42,133.81,197.31,605.55,Single-ply,SBD,M,
Boys,124.74+,3,Dylan Ramirez,Altair Rice,136.67,249.48,138.35,208.65,596.47,Single-ply,SBD,M,
Boys,124.74+,4,Cody Robert,Hallettsville,142.38,235.87,149.69,204.12,589.67,Single-ply,SBD,M,
Boys,124.74+,5,Jonas Deleon,Cuero,149.87,226.8,154.22,174.63,555.65,Single-ply,SBD,M,
Boys,124.74+,6,Tre Scott,La Grange,135.44,213.19,124.74,213.19,551.11,Single-ply,SBD,M,
Boys,124.74+,7,Colby Guzman,Schulenburg,134.17,226.8,127.01,190.51,544.31,Single-ply,SBD,M,
Boys,124.74+,8,Antonio Marquez,Altair Rice,131.54,210.92,127.01,192.78,530.7,Single-ply,SBD,M,
Boys,124.74+,9,Francisco Garcia,Boling,133.99,206.38,108.86,195.04,510.29,Single-ply,SBD,M,
Boys,124.74+,10,Taken Alvardo,Flatonia,144.83,226.8,115.67,167.83,510.29,Single-ply,SBD,M,
Boys,124.74+,11,Chase Parr,Wallis Brazos,128.64,204.12,120.2,179.17,503.49,Single-ply,SBD,M,
Boys,124.74+,12,Orlando Arellano,Navasota,138.39,201.85,127.01,170.1,498.95,Single-ply,SBD,M,
Boys,124.74+,13,Javier Martinez,Schulenburg,152.54,192.78,102.06,176.9,471.74,Single-ply,SBD,M,
Boys,124.74+,14,Jy'Eric Houston,Navasota,141.07,192.78,102.06,170.1,464.93,Single-ply,SBD,M,
Boys,124.74+,15,Michael Noblitt,Wallis Brazos,135.49,113.4,79.38,124.74,317.51,Single-ply,SBD,M,
Boys,124.74+,DQ,Taj Fields,Altair Rice,154.22,,,,,Single-ply,SBD,M,
Boys,,NS,Landon Sluka,Hallettsville,,,,,,Single-ply,SBD,M,
Boys,,NS,Michael Konecny,Hallettsville,,,,,,Single-ply,SBD,M,
Boys,,NS,Josh Ramirez,Flatonia,,,,,,Single-ply,SBD,M,
Boys,,NS,Derrick Robinson,Navasota,,,,,,Single-ply,SBD,M,
Boys,,NS,Pablo Almeda,Edna,,,,,,Single-ply,SBD,M,
Boys,,NS,Peyton Gonzales,Edna,,,,,,Single-ply,SBD,M,
Boys,,NS,Jackson Roensch,Columbus,,,,,,Single-ply,SBD,M,
Boys,,NS,Morgan Meador,Wallis Brazos,,,,,,Single-ply,SBD,M,
Boys,,NS,Hugo Rodriguez,Wallis Brazos,,,,,,Single-ply,SBD,M,
Boys,,NS,Kody Ressler,Wallis Brazos,,,,,,Single-ply,SBD,M,
Boys,,NS,Angel Garcia #4,Wallis Brazos,,,,,,Single-ply,SBD,M,
Boys,,NS,Alejandro Jimenez,Schulenburg,,,,,,Single-ply,SBD,M,
Boys,,NS,Douglas Franklin,Navasota,,,,,,Single-ply,SBD,M,
Boys,,NS,Jayden Shepard,Navasota,,,,,,Single-ply,SBD,M,
Boys,,NS,Martin Guerrero,Yorktown,,,,,,Single-ply,SBD,M,
Boys,,NS,Joshua Sanger,Yorktown,,,,,,Single-ply,SBD,M,
Boys,,NS,Kalen Malandrakis,Cuero,,,,,,Single-ply,SBD,M,
Boys,,NS,Thomas Meador,Cuero,,,,,,Single-ply,SBD,M,
