Division,WeightClassKg,Place,Name,Team,BodyweightKg,Best3SquatKg,Best3BenchKg,Best3DeadliftKg,TotalKg,Equipment,Event,Sex
Boys,51.71,1,Juan Dominguez,PSJA North,49.85,104.33,61.23,104.33,269.89,Single-ply,SBD,M
Boys,51.71,2,Damian Palomo,Weslaco,50.26,102.06,45.36,111.13,258.55,Single-ply,SBD,M
Boys,51.71,3,Joseph Acosta,PSJA,43.27,68.04,40.82,83.91,192.78,Single-ply,SBD,M
Boys,55.79,DQ,Julian Ortega,Rio Hondo,51.85,,,,,Single-ply,SBD,M
Boys,59.87,1,Carlos Jaimez,PSJA,56.02,122.47,77.11,165.56,365.14,Single-ply,SBD,M
Boys,55.79,2,Kevin Sierra,PSJA Southwest,55.2,127.01,83.91,149.69,360.61,Single-ply,SBD,M
Boys,59.87,3,Mauro Vargas,La Joya Juarez-Lincoln,56.02,124.74,90.72,145.15,360.61,Single-ply,SBD,M
Boys,55.79,4,Jonathan Bains,PSJA Memorial,53.89,120.2,52.16,102.06,274.42,Single-ply,SBD,M
Boys,55.79,DQ,Ralph Zapata,Rio Hondo,55.52,,,,,Single-ply,SBD,M
Boys,67.13,1,Jesus Garcia #1,Mission,60.1,204.12,102.06,172.37,478.54,Single-ply,SBD,M
Boys,67.13,2,Eric Gaona,PSJA Memorial,60.1,179.17,88.45,179.17,446.79,Single-ply,SBD,M
Boys,67.13,3,Allan Cruz,Mission Veterans Memorial,60.1,154.22,95.25,154.22,403.7,Single-ply,SBD,M
Boys,59.87,4,Juan Melchor,La Joya Palmview,59.65,145.15,86.18,170.1,401.43,Single-ply,SBD,M
Boys,59.87,5,Marcus Lopez,La Joya Palmview,59.51,133.81,99.79,151.95,385.55,Single-ply,SBD,M
Boys,59.87,6,Vince Hernandez,Pharr Valley View,59.06,136.08,81.65,158.76,376.48,Single-ply,SBD,M
Boys,59.87,7,Jordan Magallanes,Weslaco,58.15,124.74,77.11,151.95,353.8,Single-ply,SBD,M
Boys,59.87,8,Gabriel Rios,La Joya,59.42,142.88,74.84,127.01,344.73,Single-ply,SBD,M
Boys,67.13,9,Michael Hernandez,Pharr Valley View,60.1,122.47,72.57,140.61,335.66,Single-ply,SBD,M
Boys,67.13,1,Alan Alfaro,Rio Hondo,65.86,183.7,115.67,208.65,508.02,Single-ply,SBD,M
Boys,67.13,2,Heliseo Guerrero,Rio Hondo,64.73,170.1,117.93,188.24,476.27,Single-ply,SBD,M
Boys,74.84,3,Joe Rordriguez,PSJA Southwest,67.36,183.7,97.52,183.7,464.93,Single-ply,SBD,M
Boys,67.13,4,Marco Chavez,PSJA Memorial,65.86,183.7,97.52,181.44,462.66,Single-ply,SBD,M
Boys,67.13,5,Jesse Rodriguez,PSJA Memorial,65.36,183.7,106.59,165.56,455.86,Single-ply,SBD,M
Boys,74.84,6,Edson Carvajal,La Joya Juarez-Lincoln,67.36,147.42,106.59,170.1,424.11,Single-ply,SBD,M
Boys,67.13,7,Issac Izaguirre,Mercedes,66.68,154.22,99.79,154.22,408.23,Single-ply,SBD,M
Boys,67.13,8,Brandon Ramos,La Joya,65.77,163.29,77.11,136.08,376.48,Single-ply,SBD,M
Boys,67.13,9,Scott Barbosa,PSJA Southwest,64.36,127.01,81.65,136.08,344.73,Single-ply,SBD,M
Boys,67.13,10,Jacob Barrera,PSJA,66.18,122.47,79.38,138.35,340.19,Single-ply,SBD,M
Boys,67.13,11,Eduardo Gonzalez,La Joya Juarez-Lincoln,65.32,115.67,77.11,122.47,315.25,Single-ply,SBD,M
Boys,67.13,12,Reymundo Blanco,PSJA,62.14,102.06,68.04,136.08,306.17,Single-ply,SBD,M
Boys,67.13,13,Jacob Flores III,Rio Grande City,63.32,92.99,56.7,104.33,254.01,Single-ply,SBD,M
Boys,67.13,DQ,Jorge Cantu,PSJA Southwest,64.95,181.44,122.47,,,Single-ply,SBD,M
Boys,67.13,DQ,Julian Flores,Rio Hondo,65.09,170.1,117.93,,,Single-ply,SBD,M
Boys,74.84,1,Jerry Reyna,La Joya Juarez-Lincoln,74.84,197.31,120.2,206.38,523.9,Single-ply,SBD,M
Boys,74.84,2,Mario Silva,PSJA Memorial,74.84,195.04,115.67,195.04,505.76,Single-ply,SBD,M
Boys,74.84,3,Adonis Juarez,Mission,71.44,192.78,111.13,192.78,496.68,Single-ply,SBD,M
Boys,74.84,4,Joseph Segovia,Mission,73.57,176.9,117.93,170.1,464.93,Single-ply,SBD,M
Boys,74.84,5,Israel Estrada,PSJA North,73.66,170.1,106.59,158.76,435.45,Single-ply,SBD,M
Boys,82.1,6,Andrew Leija,PSJA North,74.98,154.22,97.52,158.76,410.5,Single-ply,SBD,M
Boys,74.84,7,Sérgio Silva,La Joya Palmview,73.39,142.88,102.06,163.29,408.23,Single-ply,SBD,M
Boys,82.1,8,Jacob Gracia,Weslaco,75.07,158.76,74.84,104.33,337.93,Single-ply,SBD,M
Boys,74.84,DQ,Gilbert Rodriguez,PSJA North,68.9,,,,,Single-ply,SBD,M
Boys,74.84,DQ,Ivan Rodriguez,Pharr Valley View,74.53,,,,,Single-ply,SBD,M
Boys,82.1,1,Ray Villarreal,Mission Veterans Memorial,81.56,197.31,113.4,217.72,528.44,Single-ply,SBD,M
Boys,82.1,2,Tony Villarreal,PSJA North,80.24,208.65,113.4,197.31,519.36,Single-ply,SBD,M
Boys,82.1,3,Robert Hernandez,La Joya Juarez-Lincoln,79.15,188.24,122.47,204.12,514.83,Single-ply,SBD,M
Boys,82.1,4,Jose Bernal,La Joya Palmview,79.42,188.24,113.4,199.58,501.22,Single-ply,SBD,M
Boys,82.1,5,Christian Segovia,Mission,80.33,188.24,113.4,197.31,498.95,Single-ply,SBD,M
Boys,82.1,6,Omar Lozano,PSJA Memorial,79.65,185.97,113.4,192.78,492.15,Single-ply,SBD,M
Boys,82.1,7,Jacob Hernandez,PSJA Memorial,77.02,179.17,122.47,176.9,478.54,Single-ply,SBD,M
Boys,82.1,8,Hugo Cabrera,Mission Veterans Memorial,79.51,167.83,108.86,192.78,469.47,Single-ply,SBD,M
Boys,82.1,9,Joseph Rios,Mission,78.93,176.9,108.86,170.1,455.86,Single-ply,SBD,M
Boys,82.1,10,Erik Marroquin,La Joya,81.65,176.9,97.52,176.9,451.32,Single-ply,SBD,M
Boys,82.1,11,Marco Mendiola,Mission Veterans Memorial,77.93,154.22,111.13,172.37,437.72,Single-ply,SBD,M
Boys,89.81,12,Jordan Nichols,Weslaco,82.28,147.42,92.99,149.69,390.09,Single-ply,SBD,M
Boys,82.1,13,Jorge Villalobos,Mercedes,76.66,147.42,83.91,149.69,381.02,Single-ply,SBD,M
Boys,82.1,14,Carlos Alvarez,Mercedes,77.52,136.08,108.86,117.93,362.87,Single-ply,SBD,M
Boys,82.1,15,Esteban Cervantes,Rio Grande City,77.11,136.08,79.38,145.15,360.61,Single-ply,SBD,M
Boys,82.1,16,Quinten Martinez,Rio Grande City,78.93,113.4,61.23,140.61,315.25,Single-ply,SBD,M
Boys,82.1,DQ,James Lopez,Rio Grande City,76.48,113.4,,,,Single-ply,SBD,M
Boys,82.1,DQ,Daniel Flores,Rio Hondo,80.69,192.78,113.4,,,Single-ply,SBD,M
Boys,82.1,DQ,Mario Cortinas,Mission,82.01,113.4,81.65,,,Single-ply,SBD,M
Boys,89.81,1,Isaiah Heredia,Rio Hondo,87.82,195.04,140.61,226.8,562.45,Single-ply,SBD,M
Boys,89.81,2,Stephen Dorado,Rio Hondo,88.54,204.12,151.95,199.58,555.65,Single-ply,SBD,M
Boys,89.81,3,Jonathan Soto,PSJA Southwest,89.49,226.8,124.74,197.31,548.85,Single-ply,SBD,M
Boys,89.81,4,Justin Candelaria,PSJA,89.36,197.31,133.81,199.58,530.7,Single-ply,SBD,M
Boys,89.81,5,Greg Diaz,Rio Grande City,84.55,208.65,111.13,208.65,528.44,Single-ply,SBD,M
Boys,89.81,6,Ricky Rodriguez,Mission Veterans Memorial,89.58,208.65,113.4,204.12,526.17,Single-ply,SBD,M
Boys,89.81,7,Manny Garza,PSJA Southwest,85.46,219.99,113.4,188.24,521.63,Single-ply,SBD,M
Boys,89.81,8,Tony Cerda,La Joya,89.36,197.31,122.47,199.58,519.36,Single-ply,SBD,M
Boys,89.81,9,Jose Melendez,Pharr Valley View,87.63,188.24,102.06,195.04,485.34,Single-ply,SBD,M
Boys,89.81,10,Julio Garcia,La Joya Juarez-Lincoln,86.64,183.7,104.33,192.78,480.81,Single-ply,SBD,M
Boys,89.81,11,Fernando Hernandez,La Joya Juarez-Lincoln,89.04,185.97,108.86,176.9,471.74,Single-ply,SBD,M
Boys,89.81,12,Edward Salinas,Weslaco,82.6,183.7,102.06,183.7,469.47,Single-ply,SBD,M
Boys,89.81,13,Thor Hernandez,PSJA North,84.64,185.97,106.59,167.83,460.4,Single-ply,SBD,M
Boys,99.79,14,Jorge Moreno,La Joya Palmview,89.95,165.56,102.06,188.24,455.86,Single-ply,SBD,M
Boys,89.81,15,Zeke Trevino,PSJA Memorial,85.32,183.7,92.99,176.9,453.59,Single-ply,SBD,M
Boys,89.81,16,Lazaro Rodriguez,PSJA Memorial,86.36,174.63,88.45,165.56,428.64,Single-ply,SBD,M
Boys,89.81,17,Steven Martinez,Weslaco,86.09,154.22,74.84,183.7,412.77,Single-ply,SBD,M
Boys,89.81,18,Jesus Barrientes,Mercedes,83.82,149.69,97.52,145.15,392.36,Single-ply,SBD,M
Boys,89.81,19,Luis Rubio,Mission,85.82,142.88,86.18,149.69,378.75,Single-ply,SBD,M
Boys,89.81,20,Lino Rios,Rio Grande City,84.55,113.4,92.99,151.95,358.34,Single-ply,SBD,M
Boys,89.81,21,Jesus Guajardo,La Joya,83.32,133.81,83.91,131.54,349.27,Single-ply,SBD,M
Boys,89.81,DQ,Adrian Noriega,Mercedes,83.14,,,,,Single-ply,SBD,M
Boys,99.79,1,Faustino Saldana,PSJA Southwest,97.89,276.69,154.22,217.72,648.64,Single-ply,SBD,M
Boys,99.79,2,Noe Alonzo,PSJA Memorial,98.84,238.14,138.35,206.38,582.87,Single-ply,SBD,M
Boys,99.79,3,Leroy Rodriguez,La Joya Palmview,92.9,233.6,129.27,192.78,555.65,Single-ply,SBD,M
Boys,99.79,4,Samuel Rodriguez,La Joya,99.79,197.31,140.61,183.7,521.63,Single-ply,SBD,M
Boys,99.79,5,Jessy Valdez,PSJA,91.13,199.58,115.67,181.44,496.68,Single-ply,SBD,M
Boys,99.79,6,Fred Franco,Mission Veterans Memorial,99.65,176.9,115.67,197.31,489.88,Single-ply,SBD,M
Boys,99.79,7,Danny Munguia,Mission Veterans Memorial,92.44,172.37,127.01,181.44,480.81,Single-ply,SBD,M
Boys,99.79,8,Rey Rodriguez,Pharr Valley View,95.93,195.04,99.79,183.7,478.54,Single-ply,SBD,M
Boys,99.79,9,Vicente Palacios,PSJA North,98.25,179.17,108.86,158.76,446.79,Single-ply,SBD,M
Boys,109.77,10,Sonny Jaramillo,Weslaco,100.02,154.22,90.72,188.24,433.18,Single-ply,SBD,M
Boys,99.79,11,Juan Resendez,La Joya,92.99,138.35,111.13,156.49,405.97,Single-ply,SBD,M
Boys,99.79,12,Michael Gutierrez,Mercedes,93.21,149.69,83.91,147.42,381.02,Single-ply,SBD,M
Boys,99.79,13,Jaime Vera,Rio Grande City,96.57,117.93,77.11,142.88,337.93,Single-ply,SBD,M
Boys,109.77,1,Kevin Trevino,PSJA North,106.59,256.28,154.22,233.6,644.1,Single-ply,SBD,M
Boys,109.77,2,Augustus Hernandez,PSJA North,109.77,229.06,133.81,238.14,601.01,Single-ply,SBD,M
Boys,109.77,3,Andres A Martinez,PSJA,108.95,231.33,138.35,206.38,576.06,Single-ply,SBD,M
Boys,109.77,4,Joey Salas,PSJA,102.47,208.65,158.76,204.12,571.53,Single-ply,SBD,M
Boys,109.77,5,Caleb Robertson,Rio Hondo,107.64,242.67,117.93,199.58,560.19,Single-ply,SBD,M
Boys,109.77,6,Adrian Flores,Mission Veterans Memorial,103.15,188.24,129.27,231.33,548.85,Single-ply,SBD,M
Boys,109.77,7,Jose Constatino,Mercedes,100.61,210.92,120.2,185.97,517.1,Single-ply,SBD,M
Boys,109.77,8,Fernando Gonzalez,La Joya Palmview,106.46,204.12,113.4,192.78,510.29,Single-ply,SBD,M
Boys,109.77,9,Mike Rodriguez,La Joya Palmview,104.1,192.78,108.86,192.78,494.42,Single-ply,SBD,M
Boys,109.77,10,John Vasquez,PSJA Southwest,105.32,190.51,111.13,167.83,469.47,Single-ply,SBD,M
Boys,109.77,11,Jacob Rodriguez,Weslaco,103.33,174.63,111.13,156.49,442.25,Single-ply,SBD,M
Boys,109.77,12,Orlando Escobar,Mission,101.38,158.76,106.59,165.56,430.91,Single-ply,SBD,M
Boys,109.77,13,Jesus Bonilla,Mission,107.86,179.17,102.06,149.69,430.91,Single-ply,SBD,M
Boys,109.77,14,Kevin de la Garza,Mission Veterans Memorial,101.2,154.22,102.06,170.1,426.38,Single-ply,SBD,M
Boys,109.77,15,Jose Guerrero,Rio Grande City,107.05,124.74,95.25,142.88,362.87,Single-ply,SBD,M
Boys,109.77,DQ,Orlando Nieto,PSJA Memorial,109.45,242.67,,,,Single-ply,SBD,M
Boys,109.77,DQ,Jose de Leon,Mission,105.14,,,,,Single-ply,SBD,M
Boys,109.77,DQ,Eddie Favata,PSJA North,104.96,206.38,142.88,,,Single-ply,SBD,M
Boys,124.74,1,Roger Benavidez,Rio Grande City,116.89,229.06,138.35,208.65,576.06,Single-ply,SBD,M
Boys,124.74,2,Caleb Adkins,Mission Veterans Memorial,112.67,199.58,115.67,208.65,523.9,Single-ply,SBD,M
Boys,124.74,3,Albert Garcia,Mission Veterans Memorial,115.94,185.97,131.54,181.44,498.95,Single-ply,SBD,M
Boys,124.74,4,Josh Zavala,Weslaco,122.61,192.78,115.67,174.63,483.08,Single-ply,SBD,M
Boys,124.74,5,Jose Ortiz,La Joya Juarez-Lincoln,116.21,185.97,106.59,188.24,480.81,Single-ply,SBD,M
Boys,124.74,6,Peter Sandoval,Weslaco,120.52,165.56,90.72,165.56,421.84,Single-ply,SBD,M
Boys,124.74,7,Hilton Burleson,La Joya Palmview,112.85,138.35,92.99,142.88,374.21,Single-ply,SBD,M
Boys,124.74,DQ,Andres Hernandez,La Joya Palmview,116.03,,,,,Single-ply,SBD,M
Boys,124.74+,1,John Reyes,Rio Hondo,144.47,283.5,170.1,240.4,694,Single-ply,SBD,M
Boys,124.74+,2,Rick Hinojosa,Mercedes,133.76,265.35,192.78,226.8,684.92,Single-ply,SBD,M
Boys,124.74+,3,Rolando Suarez,PSJA,149.55,244.94,156.49,204.12,605.55,Single-ply,SBD,M
Boys,124.74+,4,Manuel Mata,PSJA North,126.96,226.8,145.15,219.99,591.94,Single-ply,SBD,M
Boys,124.74+,5,Raul de la Cruz,Mission,129.27,254.01,113.4,208.65,576.06,Single-ply,SBD,M
Boys,124.74+,6,Carlos Alvarez,La Joya Palmview,148.42,192.78,136.08,231.33,560.19,Single-ply,SBD,M
Boys,124.74+,7,Mando Ruvio,Rio Hondo,129.14,219.99,120.2,204.12,544.31,Single-ply,SBD,M
Boys,124.74+,8,Jaime Morin,Rio Grande City,131.18,167.83,104.33,149.69,421.84,Single-ply,SBD,M
Boys,124.74+,DQ,Ricky Coy,Weslaco,168.83,165.56,,,,Single-ply,SBD,M
