Division,WeightClassKg,Place,Name,Team,BodyweightKg,Best3SquatKg,Best3BenchKg,Best3DeadliftKg,TotalKg,Equipment,Event,Sex
Boys,55.79,1,Daniel Porras,Orange Grove,51.89,140.61,70.31,156.49,367.41,Single-ply,SBD,M
Boys,51.71,2,Bobby Bourlon,Banquete,51.35,124.74,79.38,115.67,319.78,Single-ply,SBD,M
Boys,51.71,3,Pete Olivarez,Orange Grove,48.26,122.47,56.7,113.4,292.57,Single-ply,SBD,M
Boys,51.71,4,Patrick Ayala,Banquete,50.98,90.72,58.97,127.01,276.69,Single-ply,SBD,M
Boys,59.87,1,John Starks,Banquete,55.97,142.88,99.79,170.1,412.77,Single-ply,SBD,M
Boys,55.79,2,Mauro Garcia,Port Lavaca Calhoun,55.07,140.61,77.11,154.22,371.95,Single-ply,SBD,M
Boys,55.79,3,Edward Davidson,Alice,55.43,136.08,74.84,151.95,362.87,Single-ply,SBD,M
Boys,55.79,4,Rj Hinojosa,Banquete,55.61,149.69,86.18,127.01,362.87,Single-ply,SBD,M
Boys,55.79,5,Jared Medina,Banquete,54.88,124.74,68.04,142.88,335.66,Single-ply,SBD,M
Boys,55.79,6,Robert Ramos,Corpus Christi Tuloso-Midway,52.53,120.2,58.97,136.08,315.25,Single-ply,SBD,M
Boys,55.79,DQ,David Van #2,Gregory-Portland,55.25,111.13,,,,Single-ply,SBD,M
Boys,59.87,1,Donovan Wilson,Aransas Pass,57.97,172.37,83.91,163.29,419.57,Single-ply,SBD,M
Boys,59.87,2,Andre Wilson,Kingsville King,58.15,129.27,63.5,136.08,328.85,Single-ply,SBD,M
Boys,59.87,3,Tomas Guzman,Taft,57.88,122.47,68.04,129.27,319.78,Single-ply,SBD,M
Boys,59.87,4,Garrett Canchola,Orange Grove,59.15,117.93,58.97,127.01,303.91,Single-ply,SBD,M
Boys,67.13,1,Rico Rodriguez,San Diego,61.69,226.8,142.88,238.14,607.81,Single-ply,SBD,M
Boys,67.13,2,Travis Charles,Bishop,66.59,240.4,120.2,226.8,587.4,Single-ply,SBD,M
Boys,67.13,3,Jordy Silguero,Hebbronville,66.04,181.44,124.74,190.51,496.68,Single-ply,SBD,M
Boys,67.13,4,Jeremiah Keever,Bishop,66.68,183.7,92.99,195.04,471.74,Single-ply,SBD,M
Boys,67.13,5,Daniel Rivera,Orange Grove,65.95,167.83,99.79,183.7,451.32,Single-ply,SBD,M
Boys,67.13,6,Miguel Salazar,Corpus Christi Tuloso-Midway,65.14,185.97,92.99,165.56,444.52,Single-ply,SBD,M
Boys,67.13,7,Elijah Valasquez,Port Lavaca Calhoun,62.87,163.29,106.59,163.29,433.18,Single-ply,SBD,M
Boys,67.13,8,Aaron Serrato,Freer,66.77,142.88,92.99,185.97,421.84,Single-ply,SBD,M
Boys,74.84,9,Albert Salinas,Bishop,67.31,149.69,90.72,163.29,403.7,Single-ply,SBD,M
Boys,67.13,10,Christian Salazar,Corpus Christi Tuloso-Midway,61.23,145.15,88.45,154.22,387.82,Single-ply,SBD,M
Boys,67.13,11,Samuel Navarro,Beeville Jones,60.6,151.95,79.38,154.22,385.55,Single-ply,SBD,M
Boys,67.13,12,Everaneo Guerrero,Hebbronville,65.86,147.42,70.31,161.03,378.75,Single-ply,SBD,M
Boys,67.13,13,Jordan Cole,Aransas Pass,63.23,138.35,90.72,140.61,369.68,Single-ply,SBD,M
Boys,67.13,14,Cameron McIver,George West,65.23,106.59,83.91,131.54,322.05,Single-ply,SBD,M
Boys,67.13,15,John Ruth,Gregory-Portland,63.87,120.2,61.23,129.27,310.71,Single-ply,SBD,M
Boys,67.13,DQ,Joe Garcia,Odem,66.95,158.76,,,,Single-ply,SBD,M
Boys,67.13,DQ,Jimmy Gonzales,Port Lavaca Calhoun,64.5,151.95,,,,Single-ply,SBD,M
Boys,67.13,DQ,Vicente Aguilar,Robstown,62.78,,,,,Single-ply,SBD,M
Boys,67.13,DQ,Josh Cruz,Bishop,63.41,,,,,Single-ply,SBD,M
Boys,74.84,1,Stevin Leal,Corpus Christi Tuloso-Midway,74.84,240.4,124.74,229.06,594.21,Single-ply,SBD,M
Boys,74.84,2,Kevin Guerrero,Hebbronville,72.3,208.65,124.74,213.19,546.58,Single-ply,SBD,M
Boys,74.84,3,Tristan Peletire,Beeville Jones,73.57,190.51,120.2,190.51,501.22,Single-ply,SBD,M
Boys,74.84,4,Carlos Charles,Bishop,72.67,183.7,111.13,183.7,478.54,Single-ply,SBD,M
Boys,74.84,5,Jose Gonzalez #15,Alice,74.12,176.9,86.18,197.31,460.4,Single-ply,SBD,M
Boys,74.84,6,Michael P Garcia,Alice,71.21,165.56,88.45,190.51,444.52,Single-ply,SBD,M
Boys,74.84,7,Jake McDavid,Aransas Pass,72.03,158.76,102.06,183.7,444.52,Single-ply,SBD,M
Boys,74.84,8,Andy Gonzales,Taft,69.04,149.69,115.67,174.63,439.98,Single-ply,SBD,M
Boys,74.84,9,John Trevino,Hebbronville,71.76,140.61,97.52,192.78,430.91,Single-ply,SBD,M
Boys,74.84,10,Bobby Benavides,Robstown,69.94,145.15,113.4,163.29,421.84,Single-ply,SBD,M
Boys,74.84,11,Chance Hale,Aransas Pass,73.3,142.88,102.06,170.1,415.04,Single-ply,SBD,M
Boys,74.84,12,Ryan Rosas,Corpus Christi Tuloso-Midway,69.4,142.88,97.52,158.76,399.16,Single-ply,SBD,M
Boys,74.84,13,Roland Ybarra,Robstown,74.3,140.61,90.72,165.56,396.89,Single-ply,SBD,M
Boys,74.84,14,Ricky de la Paz,San Diego,73.62,142.88,92.99,158.76,394.63,Single-ply,SBD,M
Boys,74.84,15,Tyler Pavlas,Orange Grove,72.85,129.27,90.72,136.08,356.07,Single-ply,SBD,M
Boys,74.84,16,Mike Munoz,Bishop,73.57,111.13,77.11,151.95,340.19,Single-ply,SBD,M
Boys,74.84,17,Johnathan Garza,Kingsville King,70.49,124.74,65.77,147.42,337.93,Single-ply,SBD,M
Boys,74.84,18,Donald Rye,Kingsville King,74.39,111.13,83.91,127.01,322.05,Single-ply,SBD,M
Boys,74.84,19,Kohen Scott,Gregory-Portland,73.84,129.27,72.57,117.93,319.78,Single-ply,SBD,M
Boys,74.84,20,Daniel Green,Gregory-Portland,68.4,113.4,74.84,127.01,315.25,Single-ply,SBD,M
Boys,82.1,21,Dalton Patrick,Taft,74.93,120.2,68.04,106.59,294.84,Single-ply,SBD,M
Boys,74.84,DQ,Lupe Arredondo,Freer,72.76,136.08,,,,Single-ply,SBD,M
Boys,74.84,DQ,Justin Sobzcak,Corpus Christi Tuloso-Midway,70.22,147.42,,,,Single-ply,SBD,M
Boys,74.84,DQ,Dillion Torres,Beeville Jones,72.57,174.63,,,,Single-ply,SBD,M
Boys,74.84,DQ,Richard Rodriguez,Ben Bolt-Palito Blanco,70.31,147.42,,,,Single-ply,SBD,M
Boys,74.84,DQ,Jacob Acevedo,Odem,69.49,156.49,,,,Single-ply,SBD,M
Boys,82.1,DQ,Zack Candela,Odem,74.93,,,,,Single-ply,SBD,M
Boys,82.1,1,Andy Mohl,Corpus Christi Tuloso-Midway,81.19,244.94,158.76,226.8,630.49,Single-ply,SBD,M
Boys,82.1,2,Ryan de la Cruz,San Diego,81.65,267.62,102.06,240.4,610.08,Single-ply,SBD,M
Boys,89.81,3,Ben Burkett,Bishop,82.28,183.7,111.13,188.24,483.08,Single-ply,SBD,M
Boys,82.1,4,Lorenzo Landin,Gregory-Portland,77.02,181.44,104.33,190.51,476.27,Single-ply,SBD,M
Boys,82.1,5,Drew Ortiz,Port Lavaca Calhoun,79.47,176.9,102.06,183.7,462.66,Single-ply,SBD,M
Boys,82.1,6,Aj Benavides,Alice,77.84,170.1,113.4,172.37,455.86,Single-ply,SBD,M
Boys,82.1,7,Victor Ta,Port Lavaca Calhoun,75.21,185.97,88.45,167.83,442.25,Single-ply,SBD,M
Boys,82.1,8,Aaron Villarreal,Kingsville King,79.2,156.49,92.99,174.63,424.11,Single-ply,SBD,M
Boys,82.1,9,Stevie Jackson,Aransas Pass,75.75,158.76,113.4,145.15,417.3,Single-ply,SBD,M
Boys,82.1,10,Aaron Charles,Beeville Jones,80.29,140.61,88.45,129.27,358.34,Single-ply,SBD,M
Boys,89.81,DQ,Diego Leal,Banquete,82.28,156.49,,,,Single-ply,SBD,M
Boys,82.1,DQ,Ian Spencer,Gregory-Portland,76.75,124.74,,,,Single-ply,SBD,M
Boys,82.1,DQ,Jeremy Alaniz,Freer,78.2,133.81,,,,Single-ply,SBD,M
Boys,82.1,DQ,Joe Hernandez,Alice,81.65,,,,,Single-ply,SBD,M
Boys,89.81,1,Brandon Griffith,Port Lavaca Calhoun,89.09,263.08,172.37,249.48,684.92,Single-ply,SBD,M
Boys,89.81,2,Matt Garcia,Ben Bolt-Palito Blanco,88.72,222.26,161.03,256.28,639.57,Single-ply,SBD,M
Boys,89.81,3,Alfonso Montalvo,Riviera Kaufer,86.91,272.16,138.35,226.8,637.3,Single-ply,SBD,M
Boys,89.81,4,Kameron Handy,Corpus Christi Tuloso-Midway,85.09,247.21,145.15,226.8,619.15,Single-ply,SBD,M
Boys,89.81,5,Javiel Rojas,Kingsville King,86.73,238.14,127.01,240.4,605.55,Single-ply,SBD,M
Boys,89.81,6,Reno Perez,San Diego,88.13,240.4,122.47,226.8,589.67,Single-ply,SBD,M
Boys,89.81,7,Nathan Morin,George West,88.45,231.33,120.2,183.7,535.24,Single-ply,SBD,M
Boys,89.81,8,Jacob Flores,Beeville Jones,84.64,208.65,111.13,190.51,510.29,Single-ply,SBD,M
Boys,89.81,9,Rene Saenz,Hebbronville,83.46,197.31,111.13,161.03,469.47,Single-ply,SBD,M
Boys,89.81,10,Kevin Pena,Robstown,83.01,161.03,113.4,181.44,455.86,Single-ply,SBD,M
Boys,89.81,11,Daniel Barrera,Hebbronville,88.09,161.03,108.86,185.97,455.86,Single-ply,SBD,M
Boys,89.81,12,Gabrieal Caseraez,Port Lavaca Calhoun,84.37,181.44,97.52,172.37,451.32,Single-ply,SBD,M
Boys,89.81,13,Jd Benavides,Odem,85.55,201.85,92.99,156.49,451.32,Single-ply,SBD,M
Boys,89.81,14,Jason Garcia,Robstown,83.01,129.27,88.45,154.22,371.95,Single-ply,SBD,M
Boys,89.81,15,Frank Rossi,Hebbronville,89.09,151.95,70.31,149.69,371.95,Single-ply,SBD,M
Boys,89.81,DQ,Manny Jeminez,Kingsville King,86.91,163.29,,,,Single-ply,SBD,M
Boys,89.81,DQ,Gilbert Jasso,Robstown,82.74,,,,,Single-ply,SBD,M
Boys,89.81,DQ,Tony Ledesma,Riviera Kaufer,86.45,,,,,Single-ply,SBD,M
Boys,89.81,DQ,Leo Adams,Alice,89.72,190.51,,,,Single-ply,SBD,M
Boys,89.81,DQ,Jesus Carrasco,Alice,87,,,,,Single-ply,SBD,M
Boys,89.81,DQ,Fernando Flores,Corpus Christi Tuloso-Midway,84.73,,,,,Single-ply,SBD,M
Boys,99.79,1,Heriberto Canales,Hebbronville,99.7,222.26,120.2,210.92,553.38,Single-ply,SBD,M
Boys,99.79,2,Luis Guerra,Bishop,95.53,233.6,92.99,217.72,544.31,Single-ply,SBD,M
Boys,99.79,3,Britt Reynolds,Riviera Kaufer,93.62,183.7,136.08,213.19,532.97,Single-ply,SBD,M
Boys,99.79,4,Brendan Breland,Banquete,95.25,181.44,115.67,192.78,489.88,Single-ply,SBD,M
Boys,99.79,5,Justin Salinas,Kingsville King,97.52,199.58,122.47,165.56,487.61,Single-ply,SBD,M
Boys,99.79,6,Esteban Arredondo,Hebbronville,91.26,163.29,108.86,208.65,480.81,Single-ply,SBD,M
Boys,99.79,7,John Rivera,Alice,94.17,183.7,113.4,174.63,471.74,Single-ply,SBD,M
Boys,99.79,8,Jacob Longoria,Riviera Kaufer,92.9,158.76,108.86,192.78,460.4,Single-ply,SBD,M
Boys,99.79,9,Jody Stratmann,Port Lavaca Calhoun,99.52,181.44,111.13,149.69,442.25,Single-ply,SBD,M
Boys,99.79,10,Dabi Reyna,Robstown,94.62,129.27,83.91,188.24,401.43,Single-ply,SBD,M
Boys,99.79,11,Tristan Schmidt,Gregory-Portland,98.79,138.35,99.79,151.95,390.09,Single-ply,SBD,M
Boys,99.79,12,Thomas Campos,Gregory-Portland,94.98,145.15,86.18,142.88,374.21,Single-ply,SBD,M
Boys,99.79,13,Charles West,Gregory-Portland,98.34,145.15,74.84,149.69,369.68,Single-ply,SBD,M
Boys,99.79,14,Jose Ramos,Gregory-Portland,96.25,140.61,70.31,113.4,324.32,Single-ply,SBD,M
Boys,99.79,15,Aaron Gutierrez,Kingsville King,96.8,102.06,65.77,120.2,288.03,Single-ply,SBD,M
Boys,99.79,16,Nathaniel Segovia,Beeville Jones,94.08,117.93,58.97,83.91,260.82,Single-ply,SBD,M
Boys,99.79,DQ,Aric Gamez,Beeville Jones,92.99,,,,,Single-ply,SBD,M
Boys,99.79,DQ,Alon Leal,Freer,99.61,102.06,,,,Single-ply,SBD,M
Boys,109.77,DQ,Jonathan Chavanna,Port Lavaca Calhoun,99.97,244.94,140.61,,,Single-ply,SBD,M
Boys,99.79,DQ,David Garcia,Riviera Kaufer,97.89,,,,,Single-ply,SBD,M
Boys,109.77,1,Michael Rodriguez #4,Kingsville King,106.05,249.48,183.7,215.46,648.64,Single-ply,SBD,M
Boys,109.77,2,Alex Garcia #6,San Diego,108.05,249.48,136.08,204.12,589.67,Single-ply,SBD,M
Boys,109.77,3,Bryan Chesser,George West,107.68,226.8,136.08,195.04,557.92,Single-ply,SBD,M
Boys,109.77,4,Rolando Garza,Hebbronville,108.05,199.58,122.47,215.46,537.51,Single-ply,SBD,M
Boys,109.77,5,Ruben Ramirez,Aransas Pass,105.32,192.78,142.88,183.7,519.36,Single-ply,SBD,M
Boys,109.77,6,Tony Barrera,Corpus Christi Tuloso-Midway,104.51,204.12,113.4,195.04,512.56,Single-ply,SBD,M
Boys,109.77,7,Luis Monsevais,Orange Grove,104.6,188.24,102.06,195.04,485.34,Single-ply,SBD,M
Boys,109.77,8,Marcus Hinojosa,Bishop,108.05,181.44,106.59,167.83,455.86,Single-ply,SBD,M
Boys,109.77,DQ,Joe Saldana,Taft,107.86,,,,,Single-ply,SBD,M
Boys,109.77,DQ,Emmanuel Sanchez,Taft,102.33,147.42,97.52,,,Single-ply,SBD,M
Boys,124.74,1,Ram Montalvo,Orange Grove,118.3,308.44,165.56,208.65,682.66,Single-ply,SBD,M
Boys,124.74,2,Richie Salinas,Kingsville King,123.01,219.99,195.04,183.7,598.74,Single-ply,SBD,M
Boys,124.74,3,Cameron Ellerbee,Beeville Jones,123.01,199.58,136.08,226.8,562.45,Single-ply,SBD,M
Boys,124.74,4,Warren Oaks,Alice,114.4,213.19,127.01,217.72,557.92,Single-ply,SBD,M
Boys,124.74,5,Joe Castillo,Taft,112.4,188.24,124.74,185.97,498.95,Single-ply,SBD,M
Boys,124.74,6,Aaron Aguilar,Bishop,111.58,124.74,124.74,192.78,442.25,Single-ply,SBD,M
Boys,124.74,7,Thomas Zaragosa,Bishop,122.92,127.01,92.99,165.56,385.55,Single-ply,SBD,M
Boys,124.74,DQ,Harley Vickers,Alice,111.49,267.62,,,,Single-ply,SBD,M
Boys,124.74,DQ,Kevin Leal,Freer,112.04,,,,,Single-ply,SBD,M
Boys,124.74,DQ,Kris Gebert,Orange Grove,120.93,215.46,111.13,,,Single-ply,SBD,M
Boys,124.74,DQ,Jacob Aguayo,Taft,111.95,,,,,Single-ply,SBD,M
Boys,124.74,DQ,Anderson Daniels,George West,114.21,260.82,154.22,208.65,,Single-ply,SBD,M
Boys,124.74+,1,Adam Aleman,Beeville Jones,156.04,294.84,147.42,238.14,680.39,Single-ply,SBD,M
Boys,124.74+,2,Thalen Villarreal,Port Lavaca Calhoun,157.12,215.46,151.95,226.8,594.21,Single-ply,SBD,M
Boys,124.74+,3,Tudy Pena,Robstown,156.76,201.85,120.2,179.17,501.22,Single-ply,SBD,M
Boys,124.74+,4,Luis Lopez #1,Kingsville King,136.08,192.78,92.99,192.78,478.54,Single-ply,SBD,M
Boys,124.74+,5,Victor Lopez,Aransas Pass,135.81,181.44,115.67,158.76,455.86,Single-ply,SBD,M
Boys,124.74+,6,David Salazar,Freer,126.01,142.88,102.06,181.44,426.38,Single-ply,SBD,M
Boys,124.74+,7,Lance McDonald,Robstown,141.97,149.69,90.72,149.69,390.09,Single-ply,SBD,M
Boys,124.74+,DQ,Bear Garza,Robstown,142.07,208.65,129.27,,,Single-ply,SBD,M
Boys,124.74+,DQ,Joey Castro,Odem,147.69,219.99,127.01,,,Single-ply,SBD,M
Boys,124.74+,DQ,Antonio Galvan,Aransas Pass,142.43,278.96,,,,Single-ply,SBD,M
Boys,124.74+,DQ,Miguel Aparicio,Taft,125.55,,,,,Single-ply,SBD,M
