Division,WeightClassKg,Place,Name,Team,BodyweightKg,Best3SquatKg,Best3BenchKg,Best3DeadliftKg,TotalKg,Equipment,Event,Sex
Boys,55.79,1,Chris Vivero,Bryan,51.85,122.47,65.77,145.15,333.39,Single-ply,SBD,M
Boys,51.71,2,Grayson Danner,Conroe The Woodlands,51.17,95.25,58.97,117.93,272.16,Single-ply,SBD,M
Boys,51.71,3,Cody Tunning,Montgomery,51.71,97.52,65.77,106.59,269.89,Single-ply,SBD,M
Boys,51.71,4,Ryan Kerr,Conroe Woodlands College Park,51.62,88.45,52.16,99.79,240.4,Single-ply,SBD,M
Boys,55.79,5,Dylan Jenkins,Conroe The Woodlands,51.85,81.65,49.9,106.59,238.14,Single-ply,SBD,M
Boys,51.71,6,Ricardo Villafana,Splendora,49.53,77.11,58.97,99.79,235.87,Single-ply,SBD,M
Boys,51.71,7,Noah Courvelle,Shepherd,40.73,70.31,34.02,83.91,188.24,Single-ply,SBD,M
Boys,59.87,1,Trent Taylor,Shepherd,56.02,124.74,65.77,136.08,326.59,Single-ply,SBD,M
Boys,59.87,2,Javier Vela,Shepherd,56.02,90.72,68.04,136.08,294.84,Single-ply,SBD,M
Boys,55.79,3,Pyno Poul,Shepherd,55.16,102.06,68.04,113.4,283.5,Single-ply,SBD,M
Boys,55.79,4,Brandon Stockerl,Conroe The Woodlands,54.39,97.52,61.23,117.93,276.69,Single-ply,SBD,M
Boys,59.87,1,Jacob Cadieux,Waller,57.61,136.08,74.84,156.49,367.41,Single-ply,SBD,M
Boys,59.87,2,Lucas Erickson,Splendora,59.74,131.54,88.45,147.42,367.41,Single-ply,SBD,M
Boys,59.87,3,Harley Hnatek,Splendora,58.06,122.47,83.91,156.49,362.87,Single-ply,SBD,M
Boys,59.87,4,Daniel Segura,Magnolia,58.33,127.01,77.11,154.22,358.34,Single-ply,SBD,M
Boys,67.13,5,Christian Tejada,Conroe,60.1,136.08,74.84,140.61,351.53,Single-ply,SBD,M
Boys,59.87,6,Kody Quibideaux,Shepherd,56.43,104.33,56.7,117.93,278.96,Single-ply,SBD,M
Boys,59.87,DQ,David Cadieux,Waller,56.15,,,,,Single-ply,SBD,M
Boys,67.13,1,Steven McCartha,Montgomery,66.72,192.78,129.27,181.44,503.49,Single-ply,SBD,M
Boys,74.84,DQ,Carlos Lucio,Bryan,67.36,,,,,Single-ply,SBD,M
Boys,67.13,3,Nate Jones,Shepherd,63.09,181.44,99.79,188.24,469.47,Single-ply,SBD,M
Boys,67.13,4,Sterling Scott,Conroe The Woodlands,64.46,158.76,81.65,197.31,437.72,Single-ply,SBD,M
Boys,67.13,5,Chris Eason,Splendora,67.04,142.88,104.33,181.44,428.64,Single-ply,SBD,M
Boys,67.13,6,Garrett Shantz,Montgomery,62.19,147.42,95.25,170.1,412.77,Single-ply,SBD,M
Boys,67.13,7,John-Bradley Greene,Conroe Woodlands College Park,66.32,161.03,83.91,167.83,412.77,Single-ply,SBD,M
Boys,67.13,8,Dylan Heaton,Montgomery,62.51,142.88,102.06,158.76,403.7,Single-ply,SBD,M
Boys,67.13,9,Jacob Thompson,Waller,64.14,151.95,77.11,172.37,401.43,Single-ply,SBD,M
Boys,67.13,10,Stone Rosales,Conroe,64.68,149.69,81.65,167.83,399.16,Single-ply,SBD,M
Boys,74.84,11,Omar Borjas,Waller,67.27,129.27,90.72,158.76,378.75,Single-ply,SBD,M
Boys,67.13,12,Caleb Hall,Montgomery,63.28,120.2,79.38,136.08,335.66,Single-ply,SBD,M
Boys,67.13,13,Zach Hawkins,Conroe The Woodlands,63.28,106.59,81.65,133.81,322.05,Single-ply,SBD,M
Boys,67.13,14,Max Martinez,Conroe The Woodlands,62.23,102.06,61.23,124.74,288.03,Single-ply,SBD,M
Boys,74.84,1,Colton Frisby,Waller,74.84,204.12,106.59,208.65,519.36,Single-ply,SBD,M
Boys,74.84,2,Josh Courvelle,Shepherd,68.31,165.56,111.13,185.97,462.66,Single-ply,SBD,M
Boys,74.84,3,Brayson Boyde,Magnolia,74.62,181.44,111.13,170.1,462.66,Single-ply,SBD,M
Boys,74.84,4,Travis Caudill,Magnolia,74.62,174.63,88.45,185.97,449.06,Single-ply,SBD,M
Boys,74.84,5,Jonathan Hayes,Conroe Woodlands College Park,73.48,165.56,97.52,183.7,446.79,Single-ply,SBD,M
Boys,74.84,6,Jake Vanhowten,Magnolia,74.43,156.49,127.01,163.29,446.79,Single-ply,SBD,M
Boys,74.84,7,Colton Wetuski,Montgomery,73.12,167.83,90.72,172.37,430.91,Single-ply,SBD,M
Boys,74.84,8,Ryan Washburn,Conroe,69.44,158.76,97.52,172.37,428.64,Single-ply,SBD,M
Boys,74.84,9,Tristan Horton,Conroe The Woodlands,74.43,129.27,95.25,158.76,383.29,Single-ply,SBD,M
Boys,74.84,10,Tony Tapia,Conroe Woodlands College Park,74.8,136.08,90.72,145.15,371.95,Single-ply,SBD,M
Boys,74.84,11,Edward Yao,Conroe The Woodlands,68.9,122.47,77.11,136.08,335.66,Single-ply,SBD,M
Boys,74.84,12,Dustin Baranowski,Conroe The Woodlands,71.44,111.13,77.11,138.35,326.59,Single-ply,SBD,M
Boys,74.84,13,Jarrett Coleman,Montgomery,71.99,90.72,74.84,117.93,283.5,Single-ply,SBD,M
Boys,74.84,DQ,Tre Fuslier,Bryan,73.66,124.74,,149.69,,Single-ply,SBD,M
Boys,82.1,1,Arthur Maxwell,Shepherd,79.33,235.87,131.54,222.26,589.67,Single-ply,SBD,M
Boys,82.1,2,Carson Neal,Montgomery,79.83,192.78,122.47,188.24,503.49,Single-ply,SBD,M
Boys,82.1,3,Aj Box,Shepherd,76.75,183.7,133.81,183.7,501.22,Single-ply,SBD,M
Boys,82.1,4,Anthony Lamb,Splendora,81.42,190.51,99.79,190.51,480.81,Single-ply,SBD,M
Boys,82.1,5,Cody Mullens,Montgomery,77.84,170.1,120.2,176.9,467.2,Single-ply,SBD,M
Boys,82.1,6,Isaiah Vazquez,Bryan,81.37,176.9,111.13,167.83,455.86,Single-ply,SBD,M
Boys,82.1,7,Maison Jacobs,Splendora,81.83,174.63,83.91,149.69,408.23,Single-ply,SBD,M
Boys,82.1,8,Austin DeGola,Magnolia,81.83,138.35,102.06,163.29,403.7,Single-ply,SBD,M
Boys,82.1,9,Keithan Johnson,Shepherd,79.38,145.15,90.72,145.15,381.02,Single-ply,SBD,M
Boys,82.1,10,Carter Nenninger,Montgomery,75.89,136.08,83.91,142.88,362.87,Single-ply,SBD,M
Boys,82.1,11,Josh Kiser,Conroe The Woodlands,76.2,129.27,79.38,154.22,362.87,Single-ply,SBD,M
Boys,82.1,12,Noah Fletcher,Conroe Woodlands College Park,79.15,133.81,90.72,138.35,362.87,Single-ply,SBD,M
Boys,82.1,13,Jacob Wallace #2,Conroe The Woodlands,81.28,129.27,83.91,149.69,362.87,Single-ply,SBD,M
Boys,89.81,1,Jason Paul,Conroe Woodlands College Park,89.68,238.14,142.88,197.31,578.33,Single-ply,SBD,M
Boys,99.79,2,Tyler Ray,Magnolia West,90.04,213.19,142.88,204.12,560.19,Single-ply,SBD,M
Boys,89.81,3,Sam Garza,Montgomery,85.41,215.46,142.88,192.78,551.11,Single-ply,SBD,M
Boys,89.81,4,Kyle Ray,Splendora,82.92,188.24,113.4,181.44,483.08,Single-ply,SBD,M
Boys,89.81,5,Derrick Wagoner,Conroe,89.49,170.1,92.99,174.63,437.72,Single-ply,SBD,M
Boys,89.81,6,Mason Storrs,Magnolia West,86.91,163.29,90.72,170.1,424.11,Single-ply,SBD,M
Boys,89.81,7,Morgan Neptune-Benton,Montgomery,86.95,136.08,111.13,151.95,399.16,Single-ply,SBD,M
Boys,89.81,8,Rene Troche-Baez,Conroe The Woodlands,88.13,145.15,81.65,158.76,385.55,Single-ply,SBD,M
Boys,89.81,9,Kevin Stephens,Shepherd,89.31,127.01,83.91,172.37,383.29,Single-ply,SBD,M
Boys,89.81,10,Dustin Wolf,Conroe The Woodlands,89.49,124.74,92.99,145.15,362.87,Single-ply,SBD,M
Boys,89.81,11,Chris Jensen,Conroe The Woodlands,86.55,129.27,74.84,133.81,337.93,Single-ply,SBD,M
Boys,89.81,DQ,Eric Blanco,Splendora,89.58,195.04,117.93,,,Single-ply,SBD,M
Boys,99.79,1,Cory Goosby,Bryan,97.02,235.87,138.35,238.14,612.35,Single-ply,SBD,M
Boys,99.79,2,Chad Murski,Conroe Woodlands College Park,98.84,233.6,142.88,233.6,610.08,Single-ply,SBD,M
Boys,99.79,3,Jamon Anderson,Montgomery,92.94,204.12,127.01,222.26,553.38,Single-ply,SBD,M
Boys,99.79,4,Spencer Nigh,Magnolia,99.16,183.7,136.08,185.97,505.76,Single-ply,SBD,M
Boys,99.79,5,Matt Miller,Bryan,98.43,176.9,122.47,195.04,494.42,Single-ply,SBD,M
Boys,109.77,6,Justin Trow,Montgomery,100.02,188.24,106.59,192.78,487.61,Single-ply,SBD,M
Boys,99.79,7,Travis Hyatt,Waller,93.85,190.51,92.99,195.04,478.54,Single-ply,SBD,M
Boys,99.79,8,Jake Cole,Montgomery,91.76,192.78,106.59,174.63,474,Single-ply,SBD,M
Boys,99.79,9,Wyatt Chalmers,Montgomery,98.88,167.83,113.4,181.44,462.66,Single-ply,SBD,M
Boys,99.79,10,Cody Brown #6,Conroe,94.98,183.7,92.99,179.17,455.86,Single-ply,SBD,M
Boys,99.79,11,Chris York,Waller,96.71,170.1,95.25,183.7,449.06,Single-ply,SBD,M
Boys,99.79,12,Aaron Hopper,Conroe The Woodlands,99.7,167.83,92.99,183.7,444.52,Single-ply,SBD,M
Boys,99.79,13,Shaine Elkins,Conroe,92.31,174.63,120.2,136.08,430.91,Single-ply,SBD,M
Boys,99.79,14,Wyatt Glazier,Montgomery,99.11,158.76,90.72,158.76,408.23,Single-ply,SBD,M
Boys,99.79,DQ,Philip Holden,Shepherd,93.58,174.63,,,,Single-ply,SBD,M
Boys,124.74,1,Dustin Castleberry,Montgomery,110,226.8,133.81,215.46,576.06,Single-ply,SBD,M
Boys,124.74,2,Jose Guevara,Magnolia West,109.81,219.99,120.2,217.72,557.92,Single-ply,SBD,M
Boys,109.77,3,Sam Grubbs #2,Conroe Woodlands College Park,108.18,208.65,113.4,199.58,521.63,Single-ply,SBD,M
Boys,109.77,4,Artie Reyes,Bryan,108.09,183.7,113.4,183.7,480.81,Single-ply,SBD,M
Boys,109.77,5,Joshua Miller,Montgomery,107.73,170.1,111.13,188.24,469.47,Single-ply,SBD,M
Boys,109.77,6,Justin Robertson,Waller,105.46,181.44,86.18,195.04,462.66,Single-ply,SBD,M
Boys,109.77,7,Jake Hollech,Magnolia West,107.27,163.29,122.47,158.76,444.52,Single-ply,SBD,M
Boys,109.77,8,Brandon Edwards,Magnolia,107.95,170.1,106.59,154.22,430.91,Single-ply,SBD,M
Boys,109.77,9,Gabriel Requeno,Montgomery,100.47,158.76,88.45,149.69,396.89,Single-ply,SBD,M
Boys,109.77,10,Cole Kennedy,Conroe The Woodlands,103.24,138.35,104.33,117.93,360.61,Single-ply,SBD,M
Boys,109.77,11,Chris Martin,Splendora,103.6,106.59,68.04,65.77,240.4,Single-ply,SBD,M
Boys,124.74,DQ,Michael Cadena,Bryan,124.24,,,,,Single-ply,SBD,M
Boys,124.74,2,Will Demmings,Conroe,114.8,249.48,133.81,213.19,596.47,Single-ply,SBD,M
Boys,124.74,3,Blake Teasdale,Montgomery,118.93,226.8,158.76,204.12,589.67,Single-ply,SBD,M
Boys,124.74,4,Cody Skrivanek,Magnolia West,115.12,229.06,140.61,217.72,587.4,Single-ply,SBD,M
Boys,124.74,5,Erik Medina,Conroe Woodlands College Park,113.53,226.8,127.01,226.8,580.6,Single-ply,SBD,M
Boys,124.74,6,Andrew Rush,Waller,124.51,240.4,113.4,215.46,569.26,Single-ply,SBD,M
Boys,124.74,7,Luis Cruz,Shepherd,111.13,222.26,117.93,215.46,555.65,Single-ply,SBD,M
Boys,124.74,8,Grant Bonnette,Conroe The Woodlands,118.8,222.26,136.08,190.51,548.85,Single-ply,SBD,M
Boys,124.74,9,Tyler Rapp,Conroe The Woodlands,121.52,204.12,129.27,210.92,544.31,Single-ply,SBD,M
Boys,124.74,10,Seth Blendermann,Magnolia West,123.88,188.24,136.08,192.78,517.1,Single-ply,SBD,M
Boys,124.74,11,TJ Anderson,Conroe,118.12,183.7,102.06,183.7,469.47,Single-ply,SBD,M
Boys,124.74,12,Cashman Smith,Montgomery,116.71,158.76,90.72,149.69,399.16,Single-ply,SBD,M
Boys,124.74,13,Taylor Hight,Montgomery,120.11,149.69,74.84,142.88,367.41,Single-ply,SBD,M
Boys,124.74,DQ,Chris Head,Bryan,111.36,113.4,,131.54,,Single-ply,SBD,M
Boys,124.74,DQ,Conner Ward,Bryan,118.52,,129.27,,,Single-ply,SBD,M
Boys,124.74,DQ,Jake Pullara,Montgomery,114.99,204.12,158.76,,,Single-ply,SBD,M
Boys,124.74+,1,Kevin Butts,Conroe The Woodlands,141.48,183.7,167.83,197.31,548.85,Single-ply,SBD,M
Boys,124.74+,2,Zach Carpenter,Conroe,136.03,199.58,131.54,206.38,537.51,Single-ply,SBD,M
Boys,124.74+,3,Edward Cook,Montgomery,129.18,183.7,124.74,181.44,489.88,Single-ply,SBD,M
Boys,124.74+,4,Michael DeJournett,Conroe Woodlands College Park,129.91,192.78,113.4,176.9,483.08,Single-ply,SBD,M
Boys,124.74+,5,Brandon Jones,Montgomery,144.06,195.04,102.06,158.76,455.86,Single-ply,SBD,M
