Division,WeightClassKg,Place,Name,Team,BodyweightKg,Best3SquatKg,Best3BenchKg,Best3DeadliftKg,TotalKg,Equipment,Event,Sex
Girls,44.23,1,Robin Eoff,Early,44.09,54.43,24.95,74.84,154.22,Single-ply,SBD,F
Girls,47.85,1,Teresa Ramirez,Gustine,45.18,92.99,43.09,113.4,249.48,Single-ply,SBD,F
Girls,47.85,2,Loralie Woodard,Cross Plains,45.99,90.72,45.36,97.52,233.6,Single-ply,SBD,F
Girls,47.85,3,Katie Robertson,Tolar,47.36,70.31,29.48,65.77,165.56,Single-ply,SBD,F
Girls,47.85,DQ,Tancy Hester,Tolar,47.08,68.04,,68.04,,Single-ply,SBD,F
Girls,51.94,1,Alexis Mauricio,Cross Plains,51.07,106.59,52.16,104.33,263.08,Single-ply,SBD,F
Girls,51.94,2,Savannah Johnson,San Saba,50.35,90.72,49.9,102.06,242.67,Single-ply,SBD,F
Girls,51.94,3,Jackilann Shepard,Cross Plains,49.26,95.25,45.36,99.79,240.4,Single-ply,SBD,F
Girls,51.94,4,Kersey Wyatt,Cross Plains,49.62,88.45,47.63,90.72,226.8,Single-ply,SBD,F
Girls,51.94,5,Makayla Robbins,Gustine,47.9,77.11,38.56,90.72,206.38,Single-ply,SBD,F
Girls,51.94,6,Diana Caballero,Dublin,51.35,58.97,38.56,90.72,188.24,Single-ply,SBD,F
Girls,51.94,7,Sandy Delgado,Glen Rose,51.62,74.84,31.75,81.65,188.24,Single-ply,SBD,F
Girls,51.94,8,Shyann Dixon-Wyatt,Stephenville,48.44,61.23,34.02,81.65,176.9,Single-ply,SBD,F
Girls,51.94,9,Rebekah Profit,Lingleville,47.99,74.84,36.29,63.5,174.63,Single-ply,SBD,F
Girls,51.94,10,Isabel Vega,San Saba,51.17,68.04,34.02,72.57,174.63,Single-ply,SBD,F
Girls,51.94,11,Madison Mobley,Lingleville,51.53,58.97,27.22,81.65,167.83,Single-ply,SBD,F
Girls,51.94,12,Alexis Norman,Glen Rose,49.35,61.23,29.48,74.84,165.56,Single-ply,SBD,F
Girls,51.94,DQ,Angela Guerrero,Comanche,50.62,79.38,,97.52,,Single-ply,SBD,F
Girls,51.94,DQ,Brittney Cloyd,Stephenville,51.89,,,,,Single-ply,SBD,F
Girls,56.02,1,Gabby Constancia,Early,53.8,104.33,61.23,104.33,269.89,Single-ply,SBD,F
Girls,56.02,2,Kasandra Ibarra,Comanche,55.25,102.06,52.16,111.13,265.35,Single-ply,SBD,F
Girls,56.02,3,Page Green,Glen Rose,55.97,95.25,45.36,115.67,256.28,Single-ply,SBD,F
Girls,56.02,4,Anayely Escobar,Dublin,54.88,102.06,45.36,106.59,254.01,Single-ply,SBD,F
Girls,56.02,5,Tori Eoff,Early,55.25,81.65,45.36,113.4,240.4,Single-ply,SBD,F
Girls,56.02,6,Shiloh Dodge,Cross Plains,55.61,95.25,40.82,90.72,226.8,Single-ply,SBD,F
Girls,56.02,7,Antonia Diaz,Glen Rose,52.71,88.45,38.56,97.52,224.53,Single-ply,SBD,F
Girls,56.02,8,Cara Ivy,Priddy,52.71,61.23,34.02,90.72,185.97,Single-ply,SBD,F
Girls,56.02,DQ,Gabrielle Hamilton,Early,54.88,106.59,,,,Single-ply,SBD,F
Girls,60.1,1,Hallie Brinson,Early,58.51,127.01,63.5,136.08,326.59,Single-ply,SBD,F
Girls,60.1,2,Rebekah Crockett,Cross Plains,58.97,127.01,52.16,136.08,315.25,Single-ply,SBD,F
Girls,60.1,3,Sealeigh Ramsey,Ranger,57.61,108.86,49.9,136.08,294.84,Single-ply,SBD,F
Girls,60.1,4,Amber James,Dublin,57.15,127.01,52.16,113.4,292.57,Single-ply,SBD,F
Girls,60.1,5,Jessica Narvais,Ranger,59.96,97.52,43.09,99.79,240.4,Single-ply,SBD,F
Girls,60.1,6,Erika Martinez,Ranger,59.87,90.72,45.36,99.79,235.87,Single-ply,SBD,F
Girls,60.1,7,Maritza Lopez,Comanche,59.51,86.18,45.36,97.52,229.06,Single-ply,SBD,F
Girls,60.1,8,Lineivia Garcia,Gustine,57.7,86.18,40.82,95.25,222.26,Single-ply,SBD,F
Girls,60.1,9,Kimberly Bills,Comanche,57.24,77.11,40.82,97.52,215.46,Single-ply,SBD,F
Girls,60.1,10,Sidney Beaver,Stephenville,56.88,79.38,38.56,86.18,204.12,Single-ply,SBD,F
Girls,60.1,11,Marissa Pena,Ballinger,57.42,63.5,34.02,97.52,195.04,Single-ply,SBD,F
Girls,60.1,12,Kailey Mata,Tolar,57.15,77.11,34.02,77.11,188.24,Single-ply,SBD,F
Girls,60.1,DQ,Bailey DeViney #1,Stephenville,58.88,,52.16,,,Single-ply,SBD,F
Girls,67.36,1,Hannah Cowan,Cross Plains,64.77,127.01,63.5,120.2,310.71,Single-ply,SBD,F
Girls,67.36,2,Teagan Fortune,Cross Plains,64.95,122.47,63.5,120.2,306.17,Single-ply,SBD,F
Girls,67.36,3,Jacey Sparks,Early,61.14,113.4,56.7,131.54,301.64,Single-ply,SBD,F
Girls,67.36,4,Jaime Merrill,Stephenville,63.23,104.33,56.7,95.25,256.28,Single-ply,SBD,F
Girls,67.36,5,Ariel Lewis,Early,63.41,102.06,40.82,111.13,254.01,Single-ply,SBD,F
Girls,67.36,6,Caley Sandobal,San Saba,65.32,90.72,45.36,115.67,251.74,Single-ply,SBD,F
Girls,67.36,7,Hannah Crockett,Cross Plains,60.87,102.06,40.82,102.06,244.94,Single-ply,SBD,F
Girls,67.36,8,Alexis Gutierrez #1,Priddy,63.14,79.38,34.02,111.13,224.53,Single-ply,SBD,F
Girls,67.36,9,Alexus Clifton,Glen Rose,63.87,72.57,43.09,108.86,224.53,Single-ply,SBD,F
Girls,67.36,10,Valerie Garcia,Dublin,63.5,79.38,40.82,92.99,213.19,Single-ply,SBD,F
Girls,67.36,11,Crystal Rios,Gustine,64.95,83.91,38.56,90.72,213.19,Single-ply,SBD,F
Girls,67.36,12,Isela Delgado,Glen Rose,64.59,88.45,36.29,86.18,210.92,Single-ply,SBD,F
Girls,67.36,13,Sidney Garcia,Glen Rose,63.14,86.18,40.82,77.11,204.12,Single-ply,SBD,F
Girls,67.36,14,Whitney Evridge,Tolar,65.86,81.65,40.82,77.11,199.58,Single-ply,SBD,F
Girls,67.36,DQ,Amber Cuellar,Stephenville,61.51,,,,,Single-ply,SBD,F
Girls,75.07,1,Vanessa Balderas,Comanche,69.4,102.06,43.09,124.74,269.89,Single-ply,SBD,F
Girls,75.07,2,Yessenia Rodriguez,Dublin,73.48,90.72,45.36,102.06,238.14,Single-ply,SBD,F
Girls,75.07,3,Kimberly Alvarez,Stephenville,70.49,81.65,36.29,83.91,201.85,Single-ply,SBD,F
Girls,75.07,DQ,Mary Gilliam,Tolar,72.94,95.25,,97.52,,Single-ply,SBD,F
Girls,75.07,DQ,Kristi Ward,Cross Plains,72.03,,,,,Single-ply,SBD,F
Girls,82.33,1,Monique Alvarado,Comanche,78.74,136.08,56.7,122.47,315.25,Single-ply,SBD,F
Girls,82.33,2,Kennedy Harms,Comanche,80.24,138.35,56.7,113.4,308.44,Single-ply,SBD,F
Girls,82.33,3,Ariana Ramos,Glen Rose,77.84,108.86,49.9,99.79,258.55,Single-ply,SBD,F
Girls,82.33,4,Jacy Bien,Cross Plains,76.11,104.33,49.9,97.52,251.74,Single-ply,SBD,F
Girls,82.33,5,Jessica Pacini,Stephenville,81.37,72.57,45.36,79.38,197.31,Single-ply,SBD,F
Girls,82.33,DQ,Shelby Graham,Ranger,81.56,45.36,,95.25,,Single-ply,SBD,F
Girls,90.04,1,Maka Sierra,Comanche,89.63,133.81,52.16,136.08,322.05,Single-ply,SBD,F
Girls,90.04,2,Kimberly Licea,Comanche,87.41,113.4,54.43,136.08,303.91,Single-ply,SBD,F
Girls,90.04,3,Tatum Stegint,Glen Rose,83.64,113.4,56.7,117.93,288.03,Single-ply,SBD,F
Girls,90.04,4,Mallory Gunter,Stephenville,86,97.52,54.43,97.52,249.48,Single-ply,SBD,F
Girls,90.04,DQ,Railee Anderson,Tolar,83.37,,49.9,106.59,,Single-ply,SBD,F
Girls,90.04,DQ,Ti'Janae Watson,Ranger,88.63,86.18,,81.65,,Single-ply,SBD,F
Girls,100.02,1,Rebecca Simpson,Ballinger,90.54,174.63,97.52,181.44,453.59,Single-ply,SBD,F
Girls,100.02,2,Kaitlyn Potter,Cross Plains,95.98,172.37,79.38,131.54,383.29,Single-ply,SBD,F
Girls,100.02,3,Amber Rush,Stephenville,92.53,161.03,81.65,133.81,376.48,Single-ply,SBD,F
Girls,100.02,4,Carmela Guevara,Tolar,92.62,133.81,58.97,138.35,331.12,Single-ply,SBD,F
Girls,100.02,5,Mariea Freeman,Ranger,91.35,124.74,61.23,113.4,299.37,Single-ply,SBD,F
Girls,100.02,6,Yvette Reyna,Ballinger,91.17,83.91,38.56,108.86,231.33,Single-ply,SBD,F
Girls,100.02,DQ,Celeste Oldham,Ballinger,90.26,,40.82,104.33,,Single-ply,SBD,F
Girls,100.02+,1,Kinsey Lane,Tolar,111.4,183.7,65.77,170.1,419.57,Single-ply,SBD,F
Girls,100.02+,2,Nadine Arredondo,Stephenville,110.95,161.03,72.57,147.42,381.02,Single-ply,SBD,F
Girls,100.02+,3,Alexus Duckett,Stephenville,101.42,158.76,70.31,142.88,371.95,Single-ply,SBD,F
Girls,100.02+,4,Marina Detloyas,Ballinger,123.83,47.63,24.95,63.5,136.08,Single-ply,SBD,F
Girls,100.02+,DQ,Katlin Parks,Coleman,104.14,,,,,Single-ply,SBD,F
Girls,,NS,Cheyenne Collin,Ballinger,,,,,,Single-ply,SBD,F
Girls,,NS,Cecily Aguirre,Dublin,,,,,,Single-ply,SBD,F
Girls,,NS,Martha Riojas,Dublin,,,,,,Single-ply,SBD,F
Girls,,NS,Makayla Guardado,San Saba,,,,,,Single-ply,SBD,F
Girls,,NS,Madison Lemaster,Ranger,,,,,,Single-ply,SBD,F
Girls,,NS,Jaci Bridges,Glen Rose,,,,,,Single-ply,SBD,F
Girls,,NS,Raillie Steele,Dublin,,,,,,Single-ply,SBD,F
Girls,,NS,Kalee Wright,Stephenville,,,,,,Single-ply,SBD,F
Girls,,NS,Peyton White #2,Tolar,,,,,,Single-ply,SBD,F
