Division,WeightClassKg,Place,Name,Team,BodyweightKg,Best3SquatKg,Best3BenchKg,Best3DeadliftKg,TotalKg,Equipment,Event,Sex
Boys,51.71,1,Damian Loza,Roscoe,50.08,136.08,70.31,142.88,349.27,Single-ply,SBD,M
Boys,51.71,2,Jesse Ramirez,San Angelo Lake View,50.41,136.08,70.31,142.88,349.27,Single-ply,SBD,M
Boys,51.71,3,Hunter Lowery,Coahoma,51.03,111.13,54.43,129.27,294.84,Single-ply,SBD,M
Boys,51.71,4,Dusty Salmon,Coahoma,50.89,113.4,47.63,117.93,278.96,Single-ply,SBD,M
Boys,51.71,5,Chris Deleon,Roscoe,51.26,102.06,49.9,113.4,265.35,Single-ply,SBD,M
Boys,51.71,6,Jared Gandy,Mertzon Irion County,42.64,90.72,49.9,99.79,240.4,Single-ply,SBD,M
Boys,51.71,7,Michael Ramirez,San Angelo Lake View,50.39,90.72,43.09,97.52,231.33,Single-ply,SBD,M
Boys,51.71,8,Taylor White,San Angelo Grape Creek,50.62,90.72,47.63,90.72,229.06,Single-ply,SBD,M
Boys,55.79,1,Jacob Villalpando,Sweetwater,55.79,147.42,83.91,154.22,385.55,Single-ply,SBD,M
Boys,55.79,2,Austin Martinez,Mertzon Irion County,54.88,145.15,77.11,133.81,356.07,Single-ply,SBD,M
Boys,55.79,3,Jordan Uriegas,San Angelo Lake View,55.52,129.27,68.04,149.69,347,Single-ply,SBD,M
Boys,55.79,4,Austin Carrasco,Roscoe,54.93,124.74,68.04,147.42,340.19,Single-ply,SBD,M
Boys,59.87,5,Emilio Morales,Roscoe,55.88,136.08,52.16,124.74,312.98,Single-ply,SBD,M
Boys,59.87,6,Ryan Hurst,San Angelo Grape Creek,55.84,108.86,52.16,129.27,290.3,Single-ply,SBD,M
Boys,55.79,7,Josh Martinez,Midland Greenwood,54.52,102.06,56.7,113.4,272.16,Single-ply,SBD,M
Boys,59.87,1,Ben Merworth,Big Spring,58.88,151.95,104.33,151.95,408.23,Single-ply,SBD,M
Boys,59.87,2,Zach Hernandez,Big Spring,57.42,154.22,79.38,149.69,383.29,Single-ply,SBD,M
Boys,59.87,3,Mj Castillo,Coahoma,58.06,131.54,65.77,181.44,378.75,Single-ply,SBD,M
Boys,59.87,4,Dalton Doss,Forsan,58.57,142.88,79.38,138.35,360.61,Single-ply,SBD,M
Boys,59.87,5,John Hernandez,San Angelo Lake View,59.48,124.74,74.84,156.49,356.07,Single-ply,SBD,M
Boys,59.87,6,Victor Muro,San Angelo Lake View,59.44,122.47,81.65,149.69,353.8,Single-ply,SBD,M
Boys,67.13,7,Chris Madrid,Colorado City Colorado,59.96,127.01,77.11,149.69,353.8,Single-ply,SBD,M
Boys,67.13,8,Michael Hernandez,Colorado City Colorado,59.94,129.27,77.11,140.61,347,Single-ply,SBD,M
Boys,59.87,9,Marcus Cervantes,Forsan,59.47,124.74,77.11,140.61,342.46,Single-ply,SBD,M
Boys,59.87,10,Julio Dominguez,San Angelo Lake View,59.43,111.13,68.04,158.76,337.93,Single-ply,SBD,M
Boys,59.87,11,Donald Baker,Sweetwater,59.51,131.54,77.11,129.27,337.93,Single-ply,SBD,M
Boys,59.87,12,Tyler Pacheco,San Angelo Lake View,56.72,131.54,68.04,136.08,335.66,Single-ply,SBD,M
Boys,59.87,13,Juan Ramirez,San Angelo Lake View,59.48,108.86,72.57,147.42,328.85,Single-ply,SBD,M
Boys,59.87,14,Tj White,Coahoma,59.24,127.01,61.23,136.08,324.32,Single-ply,SBD,M
Boys,59.87,15,Nick Nemir,Sweetwater,58.88,117.93,68.04,117.93,303.91,Single-ply,SBD,M
Boys,59.87,16,Luke Humble,Coahoma,59.78,104.33,63.5,124.74,292.57,Single-ply,SBD,M
Boys,59.87,17,Damien Cate,Coahoma,57.92,83.91,54.43,86.18,224.53,Single-ply,SBD,M
Boys,59.87,DQ,Nic Miramontes,Odessa,57.2,113.4,,,,Single-ply,SBD,M
Boys,67.13,DQ,David Dunn,Colorado City Colorado,59.92,,,,,Single-ply,SBD,M
Boys,67.13,1,Justin Coker,Coahoma,65.32,183.7,111.13,188.24,483.08,Single-ply,SBD,M
Boys,67.13,2,Alex Garcia #3,Odessa,65.82,190.51,92.99,181.44,464.93,Single-ply,SBD,M
Boys,67.13,3,John Esquivel,Ballinger,67.13,183.7,99.79,176.9,460.4,Single-ply,SBD,M
Boys,67.13,4,Brice Burgess,Midland Greenwood,65.95,158.76,108.86,190.51,458.13,Single-ply,SBD,M
Boys,67.13,5,Jake Hernandez,Big Spring,62.6,174.63,104.33,176.9,455.86,Single-ply,SBD,M
Boys,74.84,6,Aaron Goff,Forsan,67.36,170.1,86.18,192.78,449.06,Single-ply,SBD,M
Boys,74.84,7,JD Smith,San Angelo Lake View,67.18,181.44,61.23,204.12,446.79,Single-ply,SBD,M
Boys,67.13,8,Adrian Lopez,Sweetwater,66.13,147.42,104.33,163.29,415.04,Single-ply,SBD,M
Boys,67.13,9,Jonathan Robinson,San Angelo Lake View,65.83,151.95,88.45,163.29,403.7,Single-ply,SBD,M
Boys,67.13,10,Jose Rangel,Roscoe,65.37,158.76,92.99,149.69,401.43,Single-ply,SBD,M
Boys,67.13,11,Sean Boren,Coahoma,62.6,147.42,79.38,158.76,385.55,Single-ply,SBD,M
Boys,67.13,12,Martin Zambrano,Big Spring,65.05,140.61,90.72,142.88,374.21,Single-ply,SBD,M
Boys,74.84,13,Brendon Roman,Forsan,67.2,149.69,81.65,142.88,374.21,Single-ply,SBD,M
Boys,74.84,14,Cody Jones,Forsan,67.31,138.35,74.84,154.22,367.41,Single-ply,SBD,M
Boys,67.13,15,Valentin Gomez,Mertzon Irion County,64.64,127.01,70.31,149.69,347,Single-ply,SBD,M
Boys,67.13,16,Hunter Sykes,San Angelo Lake View,62.15,124.74,77.11,142.88,344.73,Single-ply,SBD,M
Boys,67.13,17,Devon Hoelscher,Ballinger,64.93,136.08,70.31,136.08,342.46,Single-ply,SBD,M
Boys,67.13,18,James Lester,San Angelo Lake View,65.33,117.93,70.31,154.22,342.46,Single-ply,SBD,M
Boys,67.13,19,Sam Partin,Midland Greenwood,63.09,122.47,79.38,131.54,333.39,Single-ply,SBD,M
Boys,74.84,20,Obed Barraza,Sweetwater,67.22,117.93,77.11,136.08,331.12,Single-ply,SBD,M
Boys,74.84,1,Miguel Rangel,Roscoe,73.09,249.48,145.15,217.72,612.35,Single-ply,SBD,M
Boys,74.84,2,Brandon Torres,San Angelo Grape Creek,72.57,206.38,108.86,210.92,526.17,Single-ply,SBD,M
Boys,82.1,3,Sam Nemir,Sweetwater,74.89,204.12,117.93,204.12,526.17,Single-ply,SBD,M
Boys,74.84,4,John Flores,Big Spring,69.44,172.37,102.06,174.63,449.06,Single-ply,SBD,M
Boys,74.84,5,Dustin Dove,San Angelo Grape Creek,68.13,167.83,97.52,176.9,442.25,Single-ply,SBD,M
Boys,74.84,6,Ryan Linebaugh,Sweetwater,70.81,163.29,97.52,181.44,442.25,Single-ply,SBD,M
Boys,74.84,7,Michael Mims,Forsan,72.57,158.76,88.45,181.44,428.64,Single-ply,SBD,M
Boys,74.84,8,Anthony Brewer,San Angelo Grape Creek,73.94,181.44,90.72,154.22,426.38,Single-ply,SBD,M
Boys,74.84,9,Jared Jauer,Midland Greenwood,72.62,163.29,90.72,163.29,417.3,Single-ply,SBD,M
Boys,82.1,10,Alex Garcia #1,Sweetwater,75.02,158.76,74.84,181.44,415.04,Single-ply,SBD,M
Boys,74.84,11,Adan Martinez,Odessa,74.45,170.1,83.91,158.76,412.77,Single-ply,SBD,M
Boys,74.84,12,Drew Doss,San Angelo Grape Creek,73.98,154.22,104.33,147.42,405.97,Single-ply,SBD,M
Boys,82.1,13,Gabriel Medellin,Sweetwater,74.87,129.27,90.72,158.76,378.75,Single-ply,SBD,M
Boys,74.84,14,Francisco Soto,San Angelo Lake View,69.45,120.2,90.72,161.03,371.95,Single-ply,SBD,M
Boys,82.1,15,Cheyenne Everett,Mertzon Irion County,75.02,142.88,61.23,158.76,362.87,Single-ply,SBD,M
Boys,74.84,16,Devon Freemell,Roscoe,72.76,138.35,74.84,136.08,349.27,Single-ply,SBD,M
Boys,74.84,17,Jt Aldridge,Midland Greenwood,68.04,129.27,74.84,136.08,340.19,Single-ply,SBD,M
Boys,74.84,18,Mark Henderson,Colorado City Colorado,69.4,127.01,74.84,136.08,337.93,Single-ply,SBD,M
Boys,74.84,19,Juan Beltran,Colorado City Colorado,74.43,142.88,74.84,117.93,335.66,Single-ply,SBD,M
Boys,74.84,20,Jesse Marinelarena,Odessa,70.81,124.74,68.04,138.35,331.12,Single-ply,SBD,M
Boys,74.84,21,Ricky Harcrow,Midland Greenwood,69.4,136.08,61.23,127.01,324.32,Single-ply,SBD,M
Boys,74.84,22,Skyler Coates,Coahoma,73.62,127.01,88.45,74.84,290.3,Single-ply,SBD,M
Boys,74.84,DQ,Joe David Vasquez,Mertzon Irion County,71.21,129.27,,,,Single-ply,SBD,M
Boys,89.81,1,Conrad Duran,San Angelo Lake View,82.13,183.7,124.74,197.31,505.76,Single-ply,SBD,M
Boys,82.1,2,Josh Reyes,Odessa,77.58,204.12,115.67,183.7,503.49,Single-ply,SBD,M
Boys,82.1,3,Anthony Garcia,Big Spring,78.11,190.51,127.01,167.83,485.34,Single-ply,SBD,M
Boys,82.1,4,Michael Felton,Big Spring,79.92,183.7,120.2,170.1,474,Single-ply,SBD,M
Boys,82.1,5,Max Zetzman,Sweetwater,80.34,149.69,115.67,181.44,446.79,Single-ply,SBD,M
Boys,82.1,6,Maurico Valdez,San Angelo Lake View,81.65,167.83,97.52,181.44,446.79,Single-ply,SBD,M
Boys,82.1,7,Lupe Abrego,Coahoma,78.06,154.22,90.72,185.97,430.91,Single-ply,SBD,M
Boys,82.1,8,Tyler Claunch,Midland Greenwood,80.01,151.95,102.06,170.1,424.11,Single-ply,SBD,M
Boys,82.1,9,Spencer Young,Sweetwater,79.88,145.15,95.25,181.44,421.84,Single-ply,SBD,M
Boys,82.1,10,Andrew Mata,San Angelo Lake View,75.39,147.42,77.11,174.63,399.16,Single-ply,SBD,M
Boys,82.1,11,Kyle Lambert,Sweetwater,80.56,140.61,92.99,156.49,390.09,Single-ply,SBD,M
Boys,82.1,12,Chris Beltran,Colorado City Colorado,79.2,131.54,79.38,167.83,378.75,Single-ply,SBD,M
Boys,82.1,13,David Darling,Roscoe,78.56,131.54,97.52,147.42,376.48,Single-ply,SBD,M
Boys,82.1,DQ,Eddie Garcia,Odessa,79.87,151.95,108.86,,,Single-ply,SBD,M
Boys,82.1,DQ,Will McKinney,Colorado City Colorado,80.83,140.61,,,,Single-ply,SBD,M
Boys,89.81,1,Aaron Allen #2,San Angelo Lake View,88.05,190.51,90.72,206.38,487.61,Single-ply,SBD,M
Boys,89.81,2,Mikel Shaffer,San Angelo Lake View,88.9,197.31,92.99,181.44,471.74,Single-ply,SBD,M
Boys,89.81,3,Curtis McCorkle,San Angelo Grape Creek,88,181.44,92.99,185.97,460.4,Single-ply,SBD,M
Boys,89.81,4,Cory Burns,Sweetwater,89.45,156.49,102.06,181.44,439.98,Single-ply,SBD,M
Boys,89.81,5,Chris Mims,Forsan,85.34,158.76,83.91,174.63,417.3,Single-ply,SBD,M
Boys,99.79,6,Anthony Rivera,Colorado City Colorado,89.86,142.88,90.72,176.9,410.5,Single-ply,SBD,M
Boys,89.81,7,Hunter Johnson,Sweetwater,84.82,140.61,92.99,163.29,396.89,Single-ply,SBD,M
Boys,89.81,8,Riley Woodruff,Ballinger,85,163.29,65.77,163.29,392.36,Single-ply,SBD,M
Boys,89.81,9,Raven Shaw,Midland Greenwood,83.52,140.61,90.72,154.22,385.55,Single-ply,SBD,M
Boys,89.81,10,Matt Parker,Midland Greenwood,85.91,140.61,83.91,142.88,367.41,Single-ply,SBD,M
Boys,99.79,1,Derrick Anderson,Big Spring,97.07,272.16,163.29,219.99,655.44,Single-ply,SBD,M
Boys,99.79,2,Ramiro Reyes,Colorado City Colorado,94.41,183.7,165.56,210.92,560.19,Single-ply,SBD,M
Boys,99.79,3,Marcus Agundis,San Angelo Lake View,97.13,210.92,113.4,226.8,551.11,Single-ply,SBD,M
Boys,99.79,4,Tanner Carney,San Angelo Grape Creek,98.93,176.9,113.4,199.58,489.88,Single-ply,SBD,M
Boys,99.79,5,Jesse Daniels,Ballinger,93.5,181.44,131.54,167.83,480.81,Single-ply,SBD,M
Boys,99.79,6,Johnathan Luera,Colorado City Colorado,96.8,188.24,106.59,167.83,462.66,Single-ply,SBD,M
Boys,99.79,7,Roddie Landenos,Midland Greenwood,90.45,181.44,111.13,163.29,455.86,Single-ply,SBD,M
Boys,99.79,8,Esteban Gallegos,Ballinger,93.35,172.37,113.4,147.42,433.18,Single-ply,SBD,M
Boys,99.79,9,Colton Acevedo,Big Spring,92.53,165.56,95.25,147.42,408.23,Single-ply,SBD,M
Boys,109.77,10,Patrick Rodriguez,Forsan,99.84,142.88,79.38,174.63,396.89,Single-ply,SBD,M
Boys,99.79,11,Austin Davidson,Mertzon Irion County,93.89,140.61,83.91,140.61,365.14,Single-ply,SBD,M
Boys,99.79,12,Eric Jacquez,Odessa,94.37,111.13,108.86,133.81,353.8,Single-ply,SBD,M
Boys,99.79,13,Brandon Vasquez,Ballinger,98.61,120.2,68.04,136.08,324.32,Single-ply,SBD,M
Boys,109.77,1,Dominick Nieto,Ballinger,105.6,240.4,145.15,258.55,644.1,Single-ply,SBD,M
Boys,109.77,2,Gerald Williams,San Angelo Grape Creek,109.04,263.08,133.81,247.21,644.1,Single-ply,SBD,M
Boys,109.77,3,Peter Sunderland,Midland Greenwood,108.68,244.94,138.35,217.72,601.01,Single-ply,SBD,M
Boys,109.77,4,Ricky Ciuba,Mertzon Irion County,108.18,213.19,129.27,222.26,564.72,Single-ply,SBD,M
Boys,109.77,5,Shawn Tawney,Odessa,106.6,226.8,142.88,181.44,551.11,Single-ply,SBD,M
Boys,109.77,6,Robert Roman,San Angelo Lake View,102.06,226.8,117.93,190.51,535.24,Single-ply,SBD,M
Boys,109.77,7,Daniel Montez,Sweetwater,105.78,199.58,133.81,201.85,535.24,Single-ply,SBD,M
Boys,109.77,8,Jacob Wylie,Big Spring,108.5,204.12,129.27,167.83,501.22,Single-ply,SBD,M
Boys,109.77,9,Shaq Walters,Midland Greenwood,103.78,192.78,102.06,204.12,498.95,Single-ply,SBD,M
Boys,109.77,10,Colt Snell,Midland Greenwood,106.32,181.44,124.74,181.44,487.61,Single-ply,SBD,M
Boys,109.77,11,Alzado Rodriquez,Ballinger,107.11,197.31,120.2,161.03,478.54,Single-ply,SBD,M
Boys,109.77,12,Jose Gallegos,Ballinger,100.74,172.37,115.67,181.44,469.47,Single-ply,SBD,M
Boys,109.77,13,Max Macik,Coahoma,108.09,176.9,90.72,176.9,444.52,Single-ply,SBD,M
Boys,109.77,14,Mario Franco,Odessa,103.45,149.69,111.13,156.49,417.3,Single-ply,SBD,M
Boys,124.74,1,Tanner Holt,San Angelo Grape Creek,118.43,254.01,156.49,249.48,659.98,Single-ply,SBD,M
Boys,124.74,2,Justin Yanez,Big Spring,113.04,240.4,149.69,206.38,596.47,Single-ply,SBD,M
Boys,124.74,3,Leonard Riggs,San Angelo Lake View,122.03,213.19,122.47,251.74,587.4,Single-ply,SBD,M
Boys,124.74,4,Matt Gonzales,Odessa,122.52,244.94,145.15,183.7,573.79,Single-ply,SBD,M
Boys,124.74,5,Pernell Parker,Big Spring,113.04,215.46,133.81,213.19,562.45,Single-ply,SBD,M
Boys,124.74,6,Devon Davis-Locke,Big Spring,124.33,208.65,151.95,188.24,548.85,Single-ply,SBD,M
Boys,124.74,7,Frankie Atkinson,Colorado City Colorado,119.66,226.8,108.86,192.78,528.44,Single-ply,SBD,M
Boys,124.74,8,Richard Keaton,Coahoma,111.13,213.19,81.65,170.1,464.93,Single-ply,SBD,M
Boys,124.74,9,Dustin Fontana,Coahoma,112.49,181.44,90.72,192.78,464.93,Single-ply,SBD,M
Boys,124.74,10,Chase Saunders,Roscoe,118.44,161.03,106.59,179.17,446.79,Single-ply,SBD,M
Boys,124.74,11,Michael Ngueyn,Midland Greenwood,113.44,149.69,90.72,158.76,399.16,Single-ply,SBD,M
Boys,124.74+,12,Chris Villa,Forsan,124.78,142.88,97.52,149.69,390.09,Single-ply,SBD,M
Boys,124.74,13,Lee Beggs,Midland Greenwood,115.26,151.95,95.25,131.54,378.75,Single-ply,SBD,M
Boys,124.74+,1,Jonathan Molina,Big Spring,157.03,285.76,176.9,217.72,680.39,Single-ply,SBD,M
Boys,124.74+,2,Sawyer Roberts,Big Spring,174.18,176.9,120.2,217.72,514.83,Single-ply,SBD,M
Boys,124.74+,3,Mike Villareal,Coahoma,155.26,188.24,81.65,158.76,428.64,Single-ply,SBD,M
Boys,124.74+,4,Aj Coronado,Colorado City Colorado,129.09,174.63,83.91,149.69,408.23,Single-ply,SBD,M
Boys,124.74+,5,Miguel Barrientes,Midland Greenwood,127.05,136.08,88.45,147.42,371.95,Single-ply,SBD,M
