Division,WeightClassKg,Place,Name,Team,BodyweightKg,Best3SquatKg,Best3BenchKg,Best3DeadliftKg,TotalKg,Equipment,Event,Sex
Boys,51.71,1,Bryan Loera,Brownsville Pace,51.66,154.22,92.99,158.76,405.97,Single-ply,SBD,M
Boys,51.71,2,Hisaac Guerrero,Rio Hondo,47.36,102.06,63.5,113.4,278.96,Single-ply,SBD,M
Boys,55.79,DQ,Oscar Gonzalez,Brownsville Pace,55.43,154.22,,,,Single-ply,SBD,M
Boys,59.87,1,Marcus Capetillo,Raymondville,59.15,208.65,108.86,206.38,523.9,Single-ply,SBD,M
Boys,59.87,2,Elijah Ramirez,Port Isabel,59.78,170.1,88.45,176.9,435.45,Single-ply,SBD,M
Boys,67.13,1,Felix Rizo,Brownsville Pace,67.13,272.16,136.08,229.06,637.3,Single-ply,SBD,M
Boys,67.13,2,Tyler Bush,Rio Hondo,65.32,204.12,138.35,204.12,546.58,Single-ply,SBD,M
Boys,67.13,3,Aj Sayas,Raymondville,60.69,129.27,79.38,161.03,369.68,Single-ply,SBD,M
Boys,67.13,DQ,Kris Guana,Rio Hondo,67.13,,,,,Single-ply,SBD,M
Boys,67.13,DQ,Jose Salinas,Brownsville Pace,67.13,,,,,Single-ply,SBD,M
Boys,67.13,DQ,Justin Munivez,Harlingen,64.86,,,,,Single-ply,SBD,M
Boys,74.84,1,Israel Lozano,Brownsville Rivera,74.43,213.19,90.72,201.85,505.76,Single-ply,SBD,M
Boys,74.84,2,Ramon Gonzalez,Brownsville Rivera,73.57,197.31,102.06,190.51,489.88,Single-ply,SBD,M
Boys,74.84,3,Catarino Tijerina,Raymondville,68.49,133.81,88.45,174.63,396.89,Single-ply,SBD,M
Boys,74.84,4,Luis Palacios,Brownsville Porter,71.4,147.42,97.52,151.95,396.89,Single-ply,SBD,M
Boys,74.84,5,Brendan Villarreal,Raymondville,71.85,124.74,88.45,151.95,365.14,Single-ply,SBD,M
Boys,74.84,DQ,Marcos San Miguel,Harlingen,73.48,,,,,Single-ply,SBD,M
Boys,74.84,DQ,Drae Baez,Harlingen,69.85,,,,,Single-ply,SBD,M
Boys,74.84,DQ,Jonathan Mendoza,Port Isabel,74.57,,,,,Single-ply,SBD,M
Boys,74.84,DQ,Josue Orozco,Port Isabel,71.4,188.24,,,,Single-ply,SBD,M
Boys,82.1,1,Dagan Wise,Port Isabel,81.01,242.67,138.35,235.87,616.89,Single-ply,SBD,M
Boys,82.1,2,Jose Huacuja,Brownsville St. Joseph Academy,80.15,219.99,129.27,233.6,582.87,Single-ply,SBD,M
Boys,82.1,3,Nelson Mejia,Port Isabel,79.92,224.53,124.74,183.7,532.97,Single-ply,SBD,M
Boys,82.1,4,Christopher Espinoza,Brownsville Pace,76.2,199.58,113.4,195.04,508.02,Single-ply,SBD,M
Boys,82.1,5,Eleazar Rivas,Brownsville Porter,77.84,183.7,113.4,154.22,451.32,Single-ply,SBD,M
Boys,82.1,6,Ryan Mesa,Raymondville,75.57,124.74,68.04,156.49,349.27,Single-ply,SBD,M
Boys,82.1,7,Luis Cavazos,Rio Hondo,80.92,133.81,63.5,142.88,340.19,Single-ply,SBD,M
Boys,82.1,DQ,Mathew Garza,Brownsville Rivera,80.65,,,,,Single-ply,SBD,M
Boys,89.81,1,Jonas Garza,Brownsville Pace,86.82,249.48,142.88,242.67,635.03,Single-ply,SBD,M
Boys,89.81,2,Pablo Iracheta,Brownsville Pace,83.91,229.06,145.15,217.72,591.94,Single-ply,SBD,M
Boys,89.81,3,Justin Garza,Brownsville Rivera,89.22,238.14,127.01,206.38,571.53,Single-ply,SBD,M
Boys,89.81,4,Rudy Tijerina,Raymondville,84.1,215.46,124.74,215.46,555.65,Single-ply,SBD,M
Boys,89.81,5,Erik Pizzaro,Rio Hondo,86.73,192.78,142.88,215.46,551.11,Single-ply,SBD,M
Boys,89.81,6,Mark Anaya,Brownsville St. Joseph Academy,86.91,208.65,140.61,163.29,512.56,Single-ply,SBD,M
Boys,89.81,7,Lucio Nava,Raymondville,85.37,183.7,111.13,188.24,483.08,Single-ply,SBD,M
Boys,89.81,8,Donavan Trevino,Brownsville Rivera,88.99,172.37,97.52,204.12,474,Single-ply,SBD,M
Boys,89.81,9,Richard Perales,Harlingen,86.64,156.49,99.79,140.61,396.89,Single-ply,SBD,M
Boys,89.81,10,Carlos Ortiz,Harlingen,84.55,142.88,83.91,154.22,381.02,Single-ply,SBD,M
Boys,89.81,DQ,Luis Mortera,Port Isabel,85.37,,,,,Single-ply,SBD,M
Boys,89.81,DQ,Rodrigo Miner,Brownsville St. Joseph Academy,89.18,,,,,Single-ply,SBD,M
Boys,99.79,1,Neyfis Castellanos,Port Isabel,98.34,272.16,149.69,174.63,596.47,Single-ply,SBD,M
Boys,99.79,2,Joseph Suarez,Brownsville Porter,94.44,197.31,129.27,201.85,528.44,Single-ply,SBD,M
Boys,99.79,3,Jonah Hernandez,Port Isabel,91.53,208.65,127.01,172.37,508.02,Single-ply,SBD,M
Boys,99.79,4,Ivan Silva,Brownsville Rivera,99.47,165.56,102.06,165.56,433.18,Single-ply,SBD,M
Boys,99.79,5,Thomas Garcia,Rio Hondo,92.99,124.74,92.99,149.69,367.41,Single-ply,SBD,M
Boys,99.79,6,Daeden Baez,Harlingen,90.36,129.27,83.91,142.88,356.07,Single-ply,SBD,M
Boys,99.79,DQ,Danial Valdez,Brownsville Porter,99.79,,,,,Single-ply,SBD,M
Boys,109.77,1,Ernesto Gamez,Brownsville Pace,108.77,208.65,149.69,192.78,551.11,Single-ply,SBD,M
Boys,109.77,2,Juan Payan,Brownsville Rivera,104.42,215.46,124.74,204.12,544.31,Single-ply,SBD,M
Boys,109.77,3,Eladio Flores,Harlingen,103.69,192.78,111.13,183.7,487.61,Single-ply,SBD,M
Boys,109.77,4,Blake Fowkes,Brownsville St. Joseph Academy,100.24,185.97,102.06,179.17,467.2,Single-ply,SBD,M
Boys,109.77,DQ,Jeffrey Burton,Brownsville Pace,107.14,,,,,Single-ply,SBD,M
Boys,109.77,DQ,Nathan Salazar,Harlingen,109.77,199.58,,,,Single-ply,SBD,M
Boys,124.74,1,Justin Garza,Brownsville Rivera,121.65,340.19,158.76,276.69,775.64,Single-ply,SBD,M
Boys,124.74,2,Santos Troncoso,Brownsville Rivera,120.2,226.8,145.15,190.51,562.45,Single-ply,SBD,M
Boys,124.74,3,Noah Cruz,Harlingen,112.22,206.38,111.13,226.8,544.31,Single-ply,SBD,M
Boys,124.74,4,Fernando Escamilla,Harlingen,118.02,142.88,102.06,147.42,392.36,Single-ply,SBD,M
Boys,124.74,DQ,Jerry Gonzalez,Harlingen,122.47,,,,,Single-ply,SBD,M
Boys,124.74,DQ,Adam Gonzalez,Brownsville Porter,124.74,,,,,Single-ply,SBD,M
Boys,124.74,DQ,Gio Bazaldua,Raymondville,113.49,,,,,Single-ply,SBD,M
Boys,124.74,DQ,Arturo Garcia,Brownsville Pace,112.94,,,,,Single-ply,SBD,M
Boys,124.74,DQ,Angel Pena,Brownsville Rivera,113.4,240.4,104.33,,,Single-ply,SBD,M
Boys,124.74,DQ,Gabriel Caram,Brownsville St. Joseph Academy,122.29,249.48,,,,Single-ply,SBD,M
Boys,124.74+,1,Julio Hernandez,Brownsville Pace,131.9,306.17,170.1,265.35,741.62,Single-ply,SBD,M
Boys,124.74+,2,Jorge Torres,Raymondville,131,301.64,161.03,224.53,687.19,Single-ply,SBD,M
Boys,124.74+,3,Diego Rivera,Brownsville Porter,135.53,244.94,145.15,190.51,580.6,Single-ply,SBD,M
Boys,124.74+,4,Jaden Brooks,Raymondville,161.3,206.38,115.67,210.92,532.97,Single-ply,SBD,M
Boys,124.74+,5,Leo Garza,Raymondville,181.44,204.12,142.88,172.37,519.36,Single-ply,SBD,M
Boys,124.74+,6,Jesus Garcia #8,Brownsville Rivera,138.35,190.51,124.74,183.7,498.95,Single-ply,SBD,M
Boys,124.74+,7,Anthony Cazares,Brownsville Rivera,153.31,183.7,95.25,204.12,483.08,Single-ply,SBD,M
Boys,,NS,Jacob Torres,Rio Hondo,,,,,,Single-ply,SBD,M
