Division,WeightClassKg,Place,Name,Team,BodyweightKg,Best3SquatKg,Best3BenchKg,Best3DeadliftKg,TotalKg,Equipment,Event,Sex
Girls,47.85,1,Gabby Gonzales,Jourdanton,45.81,99.79,34.02,88.45,222.26,Single-ply,SBD,F
Girls,47.85,2,Sarah Martin,Center Point,46.08,81.65,43.09,95.25,219.99,Single-ply,SBD,F
Girls,47.85,3,Alma Sanchez,Carrizo Springs,46.9,63.5,38.56,92.99,195.04,Single-ply,SBD,F
Girls,47.85,NS,Mari Espinoza,Center Point,,,,,,Single-ply,SBD,F
Girls,51.94,1,Jaz Lescuer,Center Point,51.89,108.86,58.97,129.27,297.1,Single-ply,SBD,F
Girls,51.94,2,Betzaidalis Rosado-Mojica,San Antonio Brooks Academy,50.98,111.13,63.5,120.2,294.84,Single-ply,SBD,F
Girls,51.94,3,Erika Peralta,Carrizo Springs,51.53,113.4,63.5,117.93,294.84,Single-ply,SBD,F
Girls,51.94,4,Taylor Barton,San Antonio Brooks Academy,51.71,90.72,56.7,113.4,260.82,Single-ply,SBD,F
Girls,51.94,5,Tifani Guzman,San Antonio Brooks Academy,50.89,77.11,49.9,99.79,226.8,Single-ply,SBD,F
Girls,51.94,6,Samantha Richardson,Center Point,49.99,79.38,45.36,95.25,219.99,Single-ply,SBD,F
Girls,51.94,7,Erica Hewtty,Devine,51.26,74.84,45.36,99.79,219.99,Single-ply,SBD,F
Girls,51.94,8,Desiree Blanchard,Center Point,51.35,77.11,40.82,92.99,210.92,Single-ply,SBD,F
Girls,51.94,NS,Noelia Reyes,Poteet,,,,,,Single-ply,SBD,F
Girls,56.02,1,Jodel Patino,San Antonio Brooks Academy,55.61,140.61,68.04,147.42,356.07,Single-ply,SBD,F
Girls,56.02,2,Sarah Guthrie,Center Point,54.52,117.93,43.09,106.59,267.62,Single-ply,SBD,F
Girls,56.02,3,Dominique Esquivel,Devine,54.98,95.25,49.9,102.06,247.21,Single-ply,SBD,F
Girls,56.02,4,Elena Guilllen,Center Point,55.97,92.99,36.29,108.86,238.14,Single-ply,SBD,F
Girls,56.02,NS,Shea Carnes,Center Point,,,,,,Single-ply,SBD,F
Girls,56.02,NS,Alexis Wiest,Somerset,,,,,,Single-ply,SBD,F
Girls,56.02,NS,Mariah Fields,Marion,,,,,,Single-ply,SBD,F
Girls,56.02,NS,Kaitlyn Krueger,Marion,,,,,,Single-ply,SBD,F
Girls,60.1,1,Jasmine Ruiz,San Antonio Brooks Academy,59.42,154.22,83.91,122.47,360.61,Single-ply,SBD,F
Girls,60.1,2,Shey Luckman,Jourdanton,59.6,117.93,61.23,124.74,303.91,Single-ply,SBD,F
Girls,60.1,3,Vanessa Hernandez,Devine,59.51,111.13,45.36,113.4,269.89,Single-ply,SBD,F
Girls,60.1,NS,Yasmine Munoz,Center Point,,,,,,Single-ply,SBD,F
Girls,67.36,1,Esperanza Delgado,Jourdanton,63.32,158.76,56.7,140.61,356.07,Single-ply,SBD,F
Girls,67.36,2,Jasmine Bocanegra,Jourdanton,63.87,136.08,61.23,129.27,326.59,Single-ply,SBD,F
Girls,67.36,3,Molly Fuller,Devine,66.77,117.93,65.77,120.2,303.91,Single-ply,SBD,F
Girls,67.36,4,Nallely Gutierrez,San Antonio Brooks Academy,63.32,99.79,56.7,117.93,274.42,Single-ply,SBD,F
Girls,67.36,5,Kiana Moctezuma,Carrizo Springs,65.23,99.79,47.63,120.2,267.62,Single-ply,SBD,F
Girls,67.36,6,Maria Martinez,Center Point,62.6,111.13,52.16,99.79,263.08,Single-ply,SBD,F
Girls,67.36,7,Danika Lopez,Poteet,65.77,88.45,38.56,97.52,224.53,Single-ply,SBD,F
Girls,67.36,8,Brianna Guerra,Poteet,62.96,72.57,38.56,86.18,197.31,Single-ply,SBD,F
Girls,67.36,9,Cierra Cervantez,Poteet,64.86,68.04,34.02,81.65,183.7,Single-ply,SBD,F
Girls,67.36,NS,Hailey Rinewalt,San Antonio Brooks Academy,,,,,,Single-ply,SBD,F
Girls,67.36,NS,Rakel Aguero,Jourdanton,,,,,,Single-ply,SBD,F
Girls,67.36,NS,Delilah Hernandez,Carrizo Springs,,,,,,Single-ply,SBD,F
Girls,75.07,1,Zena Esquivel,Carrizo Springs,73.48,172.37,86.18,170.1,428.64,Single-ply,SBD,F
Girls,75.07,2,Ashley Romero,Jourdanton,73.3,151.95,79.38,138.35,369.68,Single-ply,SBD,F
Girls,75.07,3,Yanitza Cavozos,Jourdanton,73.66,138.35,74.84,138.35,351.53,Single-ply,SBD,F
Girls,75.07,4,Kat Ramirez,Jourdanton,73.21,115.67,65.77,127.01,308.44,Single-ply,SBD,F
Girls,75.07,5,Amanda Rivera,Poteet,68.67,122.47,43.09,113.4,278.96,Single-ply,SBD,F
Girls,75.07,6,Elisa Rodriguez,Somerset,73.94,83.91,38.56,113.4,235.87,Single-ply,SBD,F
Girls,75.07,7,Gamez Andrea,Somerset,69.85,81.65,36.29,108.86,226.8,Single-ply,SBD,F
Girls,75.07,NS,Veronica Garcia,San Antonio Brooks Academy,,,,,,Single-ply,SBD,F
Girls,82.33,1,Shelby Carrillo,Devine,79.56,165.56,81.65,145.15,392.36,Single-ply,SBD,F
Girls,82.33,2,Megan Martinez,San Antonio Brooks Academy,76.11,172.37,70.31,133.81,376.48,Single-ply,SBD,F
Girls,82.33,3,Danielle Kent,Carrizo Springs,76.29,158.76,74.84,142.88,376.48,Single-ply,SBD,F
Girls,82.33,4,Holli Morgan,Devine,80.1,142.88,83.91,136.08,362.87,Single-ply,SBD,F
Girls,82.33,5,Piper Bush,Center Point,77.38,145.15,68.04,138.35,351.53,Single-ply,SBD,F
Girls,82.33,6,Nina Ramon,Devine,81.37,136.08,79.38,113.4,328.85,Single-ply,SBD,F
Girls,82.33,7,Tori Martin,Devine,76.66,138.35,61.23,111.13,310.71,Single-ply,SBD,F
Girls,82.33,NS,Robyn Young,Marion,,,,,,Single-ply,SBD,F
Girls,90.04,1,Melissa Reyes,Carrizo Springs,85.73,165.56,70.31,156.49,392.36,Single-ply,SBD,F
Girls,90.04,2,Maddie McCleary,Jourdanton,86.82,142.88,68.04,147.42,358.34,Single-ply,SBD,F
Girls,90.04,3,Leila Bradley,Center Point,86.27,133.81,68.04,129.27,331.12,Single-ply,SBD,F
Girls,90.04,4,Dominique Ortiz,Carrizo Springs,84.01,129.27,58.97,120.2,308.44,Single-ply,SBD,F
Girls,90.04,5,Haylynn Garza,Marion,85.09,92.99,56.7,120.2,269.89,Single-ply,SBD,F
Girls,90.04,6,Kaylee Richardson,Marion,86,95.25,49.9,115.67,260.82,Single-ply,SBD,F
Girls,100.02,1,Jazmyn Balboa,Somerset,97.52,147.42,43.09,140.61,331.12,Single-ply,SBD,F
Girls,100.02,2,Lily Trevino,Somerset,95.25,147.42,45.36,136.08,328.85,Single-ply,SBD,F
Girls,100.02,3,Samantha Heimer,San Antonio Brooks Academy,98.43,133.81,70.31,111.13,315.25,Single-ply,SBD,F
Girls,100.02,4,Irma Huizar,Poteet,90.54,102.06,52.16,104.33,258.55,Single-ply,SBD,F
Girls,100.02+,1,Karlee Lyon,Center Point,104.51,181.44,70.31,154.22,405.97,Single-ply,SBD,F
Junior Varsity,44.23,1,Katie Rodriguez,Carrizo Springs,43.82,65.77,27.22,83.91,176.9,Single-ply,SBD,F
Junior Varsity,44.23,2,Alexis Martinez #8,Somerset,43.54,68.04,31.75,65.77,165.56,Single-ply,SBD,F
Junior Varsity,47.85,DQ,Bailey Luckman,Jourdanton,44.63,74.84,,,,Single-ply,SBD,F
Junior Varsity,51.94,1,Karina Garay,Carrizo Springs,48.9,92.99,58.97,102.06,254.01,Single-ply,SBD,F
Junior Varsity,51.94,2,Brenda Cruz,Jourdanton,49.71,70.31,34.02,70.31,174.63,Single-ply,SBD,F
Junior Varsity,60.1,1,Ashley Robles,Devine,57.88,83.91,40.82,95.25,219.99,Single-ply,SBD,F
Junior Varsity,60.1,2,Kayla Rollins,Somerset,59.87,54.43,36.29,86.18,176.9,Single-ply,SBD,F
Junior Varsity,67.36,1,Aubrey Avila,Carrizo Springs,64.5,113.4,56.7,108.86,278.96,Single-ply,SBD,F
Junior Varsity,67.36,2,Lizzy Alejandro,Carrizo Springs,65.68,104.33,47.63,102.06,254.01,Single-ply,SBD,F
Junior Varsity,67.36,3,Abi Escalante,Jourdanton,67.22,92.99,43.09,99.79,235.87,Single-ply,SBD,F
Junior Varsity,67.36,4,Lexie Reyes,Carrizo Springs,62.05,72.57,52.16,97.52,222.26,Single-ply,SBD,F
Junior Varsity,75.07,1,Baylie Gaitan,Jourdanton,68.95,97.52,43.09,115.67,256.28,Single-ply,SBD,F
Junior Varsity,75.07,2,Rebecca Fowler,Devine,70.76,95.25,45.36,99.79,240.4,Single-ply,SBD,F
Junior Varsity,82.33,1,Sabrina Rackley,Devine,76.2,117.93,47.63,115.67,281.23,Single-ply,SBD,F
Junior Varsity,82.33,2,Serena Monreal,Devine,79.2,102.06,34.02,111.13,247.21,Single-ply,SBD,F
Junior Varsity,90.04,1,Esmeralda Hernandez,Jourdanton,83.37,102.06,49.9,111.13,263.08,Single-ply,SBD,F
Junior Varsity,90.04,2,Ilse Guerrero,Jourdanton,86.91,104.33,45.36,102.06,251.74,Single-ply,SBD,F
Freshmen,47.85,1,Zaniatha Lavya,Carrizo Springs,47.45,52.16,29.48,68.04,149.69,Single-ply,SBD,F
Freshmen,51.94,1,Alaina Rodriguez,Marion,51.71,58.97,31.75,72.57,163.29,Single-ply,SBD,F
Freshmen,60.1,1,Kelly Huerta,Carrizo Springs,57.15,79.38,38.56,95.25,213.19,Single-ply,SBD,F
Freshmen,75.07,1,Kristin Lira,Carrizo Springs,74.48,49.9,34.02,90.72,174.63,Single-ply,SBD,F
Freshmen,100.02,1,Natalie Ochoa,Marion,91.63,68.04,40.82,74.84,183.7,Single-ply,SBD,F
