Division,WeightClassKg,Place,Name,Team,BodyweightKg,Best3SquatKg,Best3BenchKg,Best3DeadliftKg,TotalKg,Equipment,Event,Sex,BirthDate
Boys,51.71,1,Diego Malm,Magnolia,51.71,129.27,72.57,138.35,340.19,Single-ply,SBD,M,
Boys,51.71,2,Daniel Shipula,Conroe Caney Creek,51.35,106.59,65.77,111.13,283.5,Single-ply,SBD,M,
Boys,51.71,3,Caden Eddleman,Magnolia,51.44,108.86,49.9,124.74,283.5,Single-ply,SBD,M,
Boys,51.71,4,Owen Sims,Magnolia,46.81,104.33,47.63,108.86,260.82,Single-ply,SBD,M,
Boys,51.71,5,Collin Burgess,Conroe Woodlands College Park,46.45,56.7,36.29,83.91,176.9,Single-ply,SBD,M,
Boys,51.71,DQ,Jax Mills,Magnolia West,51.71,,,,,Single-ply,SBD,M,
Boys,55.79,1,Deonald Butler,Magnolia,55.79,142.88,70.31,147.42,360.61,Single-ply,SBD,M,
Boys,55.79,2,Hank Hewgley,Conroe The Woodlands,55.79,129.27,83.91,127.01,340.19,Single-ply,SBD,M,
Boys,55.79,3,Darian Chambers,Magnolia,55.43,124.74,65.77,140.61,331.12,Single-ply,SBD,M,
Boys,55.79,4,Boone Beyer,Magnolia,55.79,131.54,74.84,124.74,331.12,Single-ply,SBD,M,
Boys,55.79,5,Troy Hubbard,Waller,52.62,102.06,56.7,108.86,267.62,Single-ply,SBD,M,
Boys,59.87,1,Cameron Yale,Magnolia,59.78,188.24,90.72,174.63,453.59,Single-ply,SBD,M,
Boys,59.87,2,Joseph Tellez,Magnolia,58.97,145.15,83.91,158.76,387.82,Single-ply,SBD,M,
Boys,59.87,3,Lance Thomas,Magnolia West,56.61,151.95,79.38,129.27,360.61,Single-ply,SBD,M,
Boys,67.13,1,Ian Keck,Magnolia West,64.95,195.04,111.13,185.97,492.15,Single-ply,SBD,M,
Boys,67.13,2,Jesus Loya,Magnolia,67.04,185.97,102.06,192.78,480.81,Single-ply,SBD,M,
Boys,67.13,3,Rodrigo Guerra,Conroe Oak Ridge,65.86,165.56,99.79,210.92,476.27,Single-ply,SBD,M,
Boys,67.13,4,Joseph Stokes,Montgomery Lake Creek,65.5,154.22,95.25,206.38,455.86,Single-ply,SBD,M,
Boys,67.13,5,Andrew Veres,Conroe Woodlands College Park,65.41,165.56,111.13,163.29,439.98,Single-ply,SBD,M,
Boys,67.13,6,Joseph Mezua,Conroe Caney Creek,63.68,142.88,120.2,163.29,426.38,Single-ply,SBD,M,
Boys,67.13,7,Cody Costello,Magnolia,63.68,161.03,111.13,149.69,421.84,Single-ply,SBD,M,
Boys,67.13,8,Cade Rochinski,Montgomery Lake Creek,66.22,149.69,88.45,151.95,390.09,Single-ply,SBD,M,
Boys,67.13,9,Keaton Gleason,Waller,65.59,142.88,81.65,149.69,374.21,Single-ply,SBD,M,
Boys,67.13,10,Bryan Bridges,Huntsville,65.32,133.81,77.11,140.61,351.53,Single-ply,SBD,M,
Boys,67.13,11,Gonzalo Diaz,Conroe Caney Creek,62.69,108.86,90.72,136.08,335.66,Single-ply,SBD,M,
Boys,67.13,12,Alex Conjelko,Conroe The Woodlands,66.59,117.93,61.23,113.4,292.57,Single-ply,SBD,M,
Boys,67.13,13,Aiden Preuss,Conroe The Woodlands,64.5,104.33,61.23,115.67,281.23,Single-ply,SBD,M,
Boys,67.13,DQ,Victor Chavez,Bryan,65.86,,,,,Single-ply,SBD,M,
Boys,74.84,1,Zach Mills,Conroe Woodlands College Park,74.84,229.06,131.54,251.74,612.35,Single-ply,SBD,M,
Boys,74.84,2,Christian Ream,Montgomery Lake Creek,72.21,204.12,113.4,224.53,542.04,Single-ply,SBD,M,
Boys,74.84,3,Michael Carter,Magnolia,74.75,204.12,115.67,188.24,508.02,Single-ply,SBD,M,
Boys,74.84,4,Weston Tuttle,Conroe The Woodlands,73.39,188.24,108.86,208.65,505.76,Single-ply,SBD,M,
Boys,74.84,5,Moises Soto,Magnolia,74.21,185.97,131.54,181.44,498.95,Single-ply,SBD,M,
Boys,74.84,6,Kai Aroca-Disdier,Magnolia West,73.66,183.7,102.06,204.12,489.88,Single-ply,SBD,M,
Boys,74.84,7,Carlos Rodriguez,Magnolia,74.75,190.51,99.79,181.44,471.74,Single-ply,SBD,M,
Boys,74.84,8,Sean Strakos,Magnolia,74.84,174.63,111.13,176.9,462.66,Single-ply,SBD,M,
Boys,74.84,9,Brian Ibanez,Waller,72.48,172.37,102.06,183.7,458.13,Single-ply,SBD,M,
Boys,74.84,10,Dylon DeAngelo,Conroe Woodlands College Park,71.58,163.29,106.59,172.37,442.25,Single-ply,SBD,M,
Boys,74.84,11,Evan Aznar,Magnolia,74.75,165.56,90.72,172.37,428.64,Single-ply,SBD,M,
Boys,74.84,12,Jarrett Ortega,Huntsville,72.39,149.69,104.33,165.56,419.57,Single-ply,SBD,M,
Boys,74.84,13,Anthony Bruins,Waller,74.84,156.49,92.99,170.1,419.57,Single-ply,SBD,M,
Boys,74.84,14,Keyvalen Johnson,Conroe Oak Ridge,69.13,149.69,99.79,165.56,415.04,Single-ply,SBD,M,
Boys,74.84,DQ,Erin Esquivel,Conroe Caney Creek,70.76,,,,,Single-ply,SBD,M,
Boys,74.84,DQ,Jacob Friedrich,Magnolia West,73.03,,,,,Single-ply,SBD,M,
Boys,82.1,1,Tristan Adair,Waller,79.83,240.4,149.69,244.94,635.03,Single-ply,SBD,M,
Boys,82.1,2,Preston Pugh,Montgomery Lake Creek,76.57,233.6,138.35,240.4,612.35,Single-ply,SBD,M,
Boys,82.1,3,Jace Halbaedier,Willis,81.19,226.8,124.74,222.26,573.79,Single-ply,SBD,M,
Boys,82.1,4,Ethan McEntire,Magnolia,79.38,210.92,127.01,195.04,532.97,Single-ply,SBD,M,
Boys,82.1,5,Sloane Vavra,Bryan,81.19,210.92,102.06,197.31,510.29,Single-ply,SBD,M,
Boys,82.1,6,Diego Trujillo,Conroe Oak Ridge,79.11,174.63,113.4,215.46,503.49,Single-ply,SBD,M,
Boys,82.1,7,Jaron Jonas,Conroe Oak Ridge,79.2,183.7,120.2,183.7,487.61,Single-ply,SBD,M,
Boys,82.1,8,Tyler Harsh,Magnolia West,81.56,183.7,108.86,183.7,476.27,Single-ply,SBD,M,
Boys,82.1,9,Almarion Johnson,Waller,77.02,165.56,92.99,190.51,449.06,Single-ply,SBD,M,
Boys,82.1,10,Charles Goedrich,Waller,79.65,167.83,95.25,176.9,439.98,Single-ply,SBD,M,
Boys,82.1,11,Ethan Minor,Huntsville,75.02,163.29,97.52,170.1,430.91,Single-ply,SBD,M,
Boys,82.1,12,Matthew Sabo,Magnolia,80.38,151.95,106.59,163.29,421.84,Single-ply,SBD,M,
Boys,82.1,13,Hayden Bayer,Bryan,77.66,133.81,92.99,158.76,385.55,Single-ply,SBD,M,
Boys,82.1,14,Wyatt Bogany,Willis,79.83,102.06,92.99,174.63,369.68,Single-ply,SBD,M,
Boys,82.1,15,Miguel Huerta,Waller,80.47,120.2,68.04,138.35,326.59,Single-ply,SBD,M,
Boys,82.1,16,Andrew Faulkner,Conroe The Woodlands,76.84,102.06,56.7,117.93,276.69,Single-ply,SBD,M,
Boys,82.1,DQ,Andrew Clevenger,Montgomery Lake Creek,80.65,145.15,,,,Single-ply,SBD,M,
Boys,89.81,1,Perry Irchirl,Conroe Woodlands College Park,84.46,260.82,154.22,278.96,694,Single-ply,SBD,M,
Boys,89.81,2,Luke McAffety,Magnolia West,84.28,281.23,149.69,231.33,662.24,Single-ply,SBD,M,
Boys,89.81,3,Joey Minassian,Magnolia West,87.91,258.55,133.81,244.94,637.3,Single-ply,SBD,M,
Boys,89.81,4,Spencer Brandon,Conroe Caney Creek,89.36,249.48,172.37,215.46,637.3,Single-ply,SBD,M,
Boys,89.81,5,Jonathan Garcia #3,Magnolia West,89.72,235.87,151.95,231.33,619.15,Single-ply,SBD,M,
Boys,89.81,6,Quaterian Riles,Huntsville,88.36,238.14,115.67,222.26,576.06,Single-ply,SBD,M,
Boys,89.81,7,Jack Basham,Montgomery Lake Creek,84.73,199.58,136.08,229.06,564.72,Single-ply,SBD,M,
Boys,89.81,8,Daniel Robles,Conroe Oak Ridge,89.36,215.46,106.59,240.4,562.45,Single-ply,SBD,M,
Boys,89.81,9,Nathan Leone,Conroe The Woodlands,86.09,222.26,115.67,208.65,546.58,Single-ply,SBD,M,
Boys,89.81,10,Matthew Long,Huntsville,87.09,142.88,92.99,170.1,405.97,Single-ply,SBD,M,
Boys,89.81,11,Landon Parsley,Willis,88,147.42,83.91,149.69,381.02,Single-ply,SBD,M,
Boys,89.81,12,Jayden Ross,Huntsville,82.46,136.08,90.72,147.42,374.21,Single-ply,SBD,M,
Boys,89.81,DQ,Kory Ford,Willis,89.36,,,,,Single-ply,SBD,M,
Boys,89.81,DQ,Eliel Sandoval,Magnolia,86.36,188.24,,,,Single-ply,SBD,M,
Boys,99.79,1,Colby Lord,Montgomery Lake Creek,98.43,263.08,183.7,240.4,687.19,Single-ply,SBD,M,
Boys,99.79,2,Nick McDaniels,Bryan,95.8,263.08,147.42,247.21,657.71,Single-ply,SBD,M,
Boys,99.79,3,Kc Ossai,Conroe Oak Ridge,98.7,238.14,131.54,247.21,616.89,Single-ply,SBD,M,
Boys,99.79,4,Jaylon Wyatt,Conroe Oak Ridge,96.07,213.19,145.15,222.26,580.6,Single-ply,SBD,M,
Boys,99.79,5,Charlie Stutts,Bryan,99.7,226.8,108.86,190.51,526.17,Single-ply,SBD,M,
Boys,99.79,6,Alex Martin #2,Conroe The Woodlands,94.62,183.7,133.81,190.51,508.02,Single-ply,SBD,M,
Boys,99.79,7,Greg Whippo,Magnolia,93.71,199.58,115.67,176.9,492.15,Single-ply,SBD,M,
Boys,99.79,8,Joshua Solt,Waller,95.89,174.63,113.4,190.51,478.54,Single-ply,SBD,M,
Boys,99.79,9,Austin Hulska,Magnolia,91.44,183.7,106.59,183.7,474,Single-ply,SBD,M,
Boys,99.79,10,Caleb Godfrey,Waller,91.08,158.76,117.93,170.1,446.79,Single-ply,SBD,M,
Boys,99.79,11,Ayden Griffin,Huntsville,92.26,163.29,99.79,172.37,435.45,Single-ply,SBD,M,
Boys,99.79,12,William Goodnight,Waller,90.45,158.76,111.13,163.29,433.18,Single-ply,SBD,M,
Boys,99.79,13,Paden Pacetti,Montgomery Lake Creek,96.62,161.03,97.52,163.29,421.84,Single-ply,SBD,M,
Boys,99.79,14,Ryan Hicks,Huntsville,95.53,149.69,83.91,163.29,396.89,Single-ply,SBD,M,
Boys,99.79,15,Noah Atkinson,Waller,99.79,133.81,97.52,156.49,387.82,Single-ply,SBD,M,
Boys,99.79,16,Anthony Chukwemeka,Conroe The Woodlands,95.07,90.72,97.52,136.08,324.32,Single-ply,SBD,M,
Boys,99.79,17,Kaden Hearn,Conroe The Woodlands,96.89,104.33,63.5,127.01,294.84,Single-ply,SBD,M,
Boys,99.79,DQ,Kasen McLean,Waller,94.44,147.42,,,,Single-ply,SBD,M,
Boys,99.79,DQ,Myles Terry,Conroe Oak Ridge,91.35,,,,,Single-ply,SBD,M,
Boys,99.79,DQ,Kyler Ramsey,Conroe Oak Ridge,95.35,208.65,102.06,,,Single-ply,SBD,M,
Boys,109.77,1,James Goodman,Montgomery Lake Creek,109.23,263.08,176.9,247.21,687.19,Single-ply,SBD,M,
Boys,109.77,2,Carlos Ortiz,Magnolia,109.68,267.62,136.08,238.14,641.83,Single-ply,SBD,M,
Boys,109.77,3,Tyler Duty,Magnolia West,105.6,260.82,149.69,226.8,637.3,Single-ply,SBD,M,
Boys,109.77,4,Briceon Hayes,Huntsville,103.06,238.14,140.61,249.48,628.23,Single-ply,SBD,M,
Boys,109.77,5,Cameron Barr,Conroe Caney Creek,109.77,251.74,161.03,215.46,628.23,Single-ply,SBD,M,
Boys,109.77,6,Ethan Wiggins,Montgomery Lake Creek,105.51,240.4,147.42,217.72,605.55,Single-ply,SBD,M,
Boys,109.77,7,Cody Koska,Magnolia West,107.23,249.48,133.81,222.26,605.55,Single-ply,SBD,M,
Boys,109.77,8,Ethan Robbins,Conroe Caney Creek,102.51,272.16,145.15,183.7,601.01,Single-ply,SBD,M,
Boys,109.77,9,Jakob Harris,Conroe Oak Ridge,105.14,244.94,129.27,226.8,601.01,Single-ply,SBD,M,
Boys,109.77,10,Kieron Ross,Huntsville,109.13,226.8,142.88,222.26,591.94,Single-ply,SBD,M,
Boys,109.77,11,Daniel Bonilla,Conroe Oak Ridge,108.86,249.48,111.13,215.46,576.06,Single-ply,SBD,M,
Boys,109.77,12,Quadmond Irchirl,Conroe Woodlands College Park,109.32,213.19,122.47,222.26,557.92,Single-ply,SBD,M,
Boys,109.77,13,Mitchell Mustiful,Conroe Woodlands College Park,102.15,213.19,138.35,204.12,555.65,Single-ply,SBD,M,
Boys,109.77,14,Zane Nelson,Willis,109.32,219.99,147.42,183.7,551.11,Single-ply,SBD,M,
Boys,109.77,15,Colin Simmons,Willis,105.69,213.19,127.01,208.65,548.85,Single-ply,SBD,M,
Boys,109.77,16,Haden Jansky,Magnolia West,100.06,188.24,106.59,217.72,512.56,Single-ply,SBD,M,
Boys,109.77,17,Grant Ferguson,Conroe Woodlands College Park,99.97,190.51,140.61,179.17,510.29,Single-ply,SBD,M,
Boys,109.77,18,Eric Gilbert #2,Willis,107.59,219.99,102.06,185.97,508.02,Single-ply,SBD,M,
Boys,109.77,19,Ishmael Ealoms,Bryan,106.5,190.51,120.2,176.9,487.61,Single-ply,SBD,M,
Boys,109.77,20,Austin Penning,Bryan,109.59,183.7,102.06,199.58,485.34,Single-ply,SBD,M,
Boys,109.77,21,Sean Calkin,Willis,101.7,199.58,88.45,183.7,471.74,Single-ply,SBD,M,
Boys,109.77,22,Jacob Otano,Conroe Woodlands College Park,106.14,176.9,111.13,172.37,460.4,Single-ply,SBD,M,
Boys,109.77,23,Cameron Del Rey,Conroe Oak Ridge,109.5,179.17,113.4,158.76,451.32,Single-ply,SBD,M,
Boys,109.77,24,Thomas Rose,Huntsville,109.5,149.69,108.86,167.83,426.38,Single-ply,SBD,M,
Boys,109.77,DQ,Joshua Flores,Conroe Caney Creek,102.01,,,,,Single-ply,SBD,M,
Boys,124.74,1,Jonathan Reyes,Conroe Caney Creek,121.38,317.51,174.63,249.48,741.62,Single-ply,SBD,M,
Boys,124.74,2,Jesus Hernandez #4,Conroe Oak Ridge,117.93,226.8,127.01,204.12,557.92,Single-ply,SBD,M,
Boys,124.74,3,Andrew Morrow,Magnolia,118.93,233.6,120.2,197.31,551.11,Single-ply,SBD,M,
Boys,124.74,4,Chance Jackson,Conroe Woodlands College Park,118.02,183.7,113.4,176.9,474,Single-ply,SBD,M,
Boys,124.74,DQ,Mason Kellam,Waller,123.56,167.83,,,,Single-ply,SBD,M,
Boys,124.74+,1,Cedric Harris,Magnolia,137.71,278.96,163.29,267.62,709.87,Single-ply,SBD,M,
Boys,124.74+,2,Caleb Williams #4,Conroe Woodlands College Park,126.28,274.42,188.24,242.67,705.34,Single-ply,SBD,M,
Boys,124.74+,3,Michael Flores,Conroe Caney Creek,167.83,294.84,172.37,217.72,684.92,Single-ply,SBD,M,
Boys,124.74+,4,Gus Rice,Waller,145.78,233.6,127.01,249.48,610.08,Single-ply,SBD,M,
Boys,124.74+,5,Zach Rogers,Willis,126.55,249.48,106.59,215.46,571.53,Single-ply,SBD,M,
Boys,124.74+,6,Le To,Willis,139.25,190.51,117.93,188.24,496.68,Single-ply,SBD,M,
Boys,124.74+,7,J'Quadrian McDade,Waller,153.13,176.9,133.81,179.17,489.88,Single-ply,SBD,M,
Boys,124.74+,DQ,Matthew Gaudern,Conroe Oak Ridge,150.5,272.16,124.74,,,Single-ply,SBD,M,
Boys,124.74+,DQ,Rashaad Wynn,Willis,146.24,317.51,138.35,,,Single-ply,SBD,M,
