Place,Sex,Name,CyrillicName,BodyweightKg,Bench1Kg,Bench2Kg,Bench3Kg,Best3BenchKg,Bench4Kg,TotalKg,WeightClassKg,Event,Equipment,Tested,Division,Age,BirthDate
1,F,Anastasiya Popova,Анастасия Попова,57.2,37.5,42.5,-47.5,42.5,,42.5,60,B,Raw,No,Open,27,1992-09-12
1,F,Tatyana Shashkova,Татьяна Шашкова,67.5,32.5,-35,37.5,37.5,,37.5,67.5,B,Raw,No,Open,39,1980-02-26
1,F,Aleksandra Bobyleva,Александра Бобылева,72.6,75,77.5,-85,77.5,,77.5,75,B,Raw,No,Open,31,1988-12-03
1,M,Arseniy Bogdanov,Арсений Богданов,44.3,22.5,25,27.5,27.5,,27.5,52,B,Raw,No,Teen 13-15,14,2005-01-16
1,M,Vladimir Rodin,Владимир Родин,59.65,75,-80,80,80,,80,60,B,Raw,No,Masters 50-54,50,1969-07-01
1,M,Ivan Ushakov,Иван Ушаков,65.4,27.5,30,32.5,32.5,,32.5,67.5,B,Raw,No,Open,26,1993-03-08
1,M,Aleksey Kiselyov,Алексей Киселёв,67.3,-75,80,82.5,82.5,,82.5,67.5,B,Raw,No,Masters 45-49,47,1972-02-27
1,M,Andrey Yasenev,Андрей Ясенев,71.1,75,-80,80,80,,80,75,B,Raw,No,Teen 16-17,16,2003-01-01
1,M,Aleksandr Kapustin,Александр Капустин,82.4,95,100,-105,100,,100,82.5,B,Raw,No,Teen 16-17,16,2003-08-30
1,M,Anatoliy Khokhlov,Анатолий Хохлов,81.1,95,102.5,-105,102.5,,102.5,82.5,B,Raw,No,Masters 45-49,47,1972-01-22
1,M,Nikita Fedotov,Никита Федотов,83.5,145,150,155,155,,155,90,B,Raw,No,Juniors 20-23,22,1997-03-22
1,M,Vladislav Volchanov,Владислав Волчанов,86.3,175,185,-192.5,185,,185,90,B,Raw,No,Open,44,1975-04-14
2,M,Artem Mishchenko,Артем Мищенко,89.8,-155,165,175,175,,175,90,B,Raw,No,Open,34,1985-03-17
1,M,Nikolay Kostev,Николай Костев,86.5,150,-155,,150,,150,90,B,Raw,No,Masters 60-64,63,1956-04-22
1,M,Aleksey Dyrzu,Алексей Дырзу,91.3,130,145,-160,145,,145,100,B,Raw,No,Teen 18-19,19,2000-11-23
1,M,Aleksey Melnikov,Алексей Мельников,96.1,190,200,-207.5,200,,200,100,B,Raw,No,Open,32,1987-01-22
2,M,Maksim Novichkov,Максим Новичков,100,155,-165,-165,155,,155,100,B,Raw,No,Open,31,1988-07-04
3,M,Boris Mavlonov,Борис Мавлонов,95.5,120,130,135,135,,135,100,B,Raw,No,Open,34,1985-06-05
1,M,Eduard Larin,Эдуард Ларин,107.75,185,192.5,-195,192.5,,192.5,110,B,Raw,No,Open,29,1990-01-15
1,M,Nikolay Emelyanov,Николай Емельянов,121.8,205,215,-222.5,215,,215,125,B,Raw,No,Open,40,1979-01-17
1,M,Kseniya Pantyukhina,Ксения Пантюхина,59.6,42.5,45,-47.5,45,,45,60,B,Multi-ply,No,Open,27,1992-05-17
DQ,M,Aleksey Melnikov,Алексей Мельников,96.1,-280,-280,,,,,100,B,Multi-ply,No,Open,32,1987-03-22
1,M,Nikolay Emelyanov,Николай Емельянов,121.8,280,300,-320,300,,300,125,B,Multi-ply,No,Open,40,1979-08-09
2,M,Vitaliy Seleznev,Виталий Селезнев,112.3,280,-290,-300,280,,280,125,B,Multi-ply,No,Open,32,1987-09-23
1,M,Arseniy Suchkov,Арсений Сучков,135,295,300,,300,,300,140,B,Multi-ply,No,Juniors 20-23,20,1999-03-16
