Division,WeightClassKg,Place,Name,Team,BodyweightKg,Best3SquatKg,Best3BenchKg,Best3DeadliftKg,TotalKg,Equipment,Event,Sex
Boys,51.71,1,Edward Fonseca,San Antonio Memorial,49.8,102.06,36.29,111.13,249.48,Single-ply,SBD,M
Boys,51.71,DQ,Christian Salazar,San Antonio Kennedy,51.71,,,,,Single-ply,SBD,M
Boys,55.79,1,Ethan Bierschwale,San Antonio East Central,55.75,120.2,61.23,124.74,306.17,Single-ply,SBD,M
Boys,55.79,2,Carlos Garcia Alanis,San Antonio Southwest Legacy,54.61,86.18,56.7,111.13,254.01,Single-ply,SBD,M
Boys,59.87,1,Fabian Bazan,Castroville Medina Valley,59.6,190.51,99.79,188.24,478.54,Single-ply,SBD,M
Boys,59.87,2,Ernesto Rangel,San Antonio Southwest Legacy,59.42,136.08,88.45,165.56,390.09,Single-ply,SBD,M
Boys,59.87,3,Lorenzo Barfield,San Antonio Southwest Legacy,58.42,136.08,74.84,147.42,358.34,Single-ply,SBD,M
Boys,59.87,4,Quen Syma,Lytle,57.52,129.27,77.11,142.88,349.27,Single-ply,SBD,M
Boys,59.87,DQ,Isaiah Riojas,San Antonio Southwest,59.87,174.63,,,,Single-ply,SBD,M
Boys,59.87,DQ,Jacob Sarabia,San Antonio East Central,59.33,145.15,,,,Single-ply,SBD,M
Boys,59.87,DQ,Ismael Perez,San Antonio Kennedy,59.87,,,,,Single-ply,SBD,M
Boys,67.13,1,Kevin Valdez,Castroville Medina Valley,66.5,183.7,113.4,204.12,501.22,Single-ply,SBD,M
Boys,67.13,2,Michael Martinez,San Antonio East Central,67.13,204.12,102.06,190.51,496.68,Single-ply,SBD,M
Boys,67.13,3,Michael Rodriguez #6,Stockdale,66.22,185.97,115.67,185.97,487.61,Single-ply,SBD,M
Boys,67.13,4,Derrick Rodriguez,San Antonio East Central,66.54,197.31,104.33,174.63,476.27,Single-ply,SBD,M
Boys,67.13,5,Joel Huerta,San Antonio East Central,62.51,185.97,104.33,172.37,462.66,Single-ply,SBD,M
Boys,67.13,6,David Ortega,Lytle,66.5,161.03,97.52,204.12,462.66,Single-ply,SBD,M
Boys,67.13,7,Josh Valenzuela,Castroville Medina Valley,61.23,185.97,99.79,172.37,458.13,Single-ply,SBD,M
Boys,67.13,8,Dean Jimenez,San Antonio East Central,65.41,190.51,102.06,151.95,444.52,Single-ply,SBD,M
Boys,67.13,9,Eladio Arreola,Center Point,65.41,170.1,90.72,149.69,410.5,Single-ply,SBD,M
Boys,67.13,9,Alvin Amador,Kenedy,66.95,154.22,83.91,181.44,419.57,Single-ply,SBD,M
Boys,67.13,10,Damion Legaspe,San Antonio Cole,64.41,154.22,95.25,158.76,408.23,Single-ply,SBD,M
Boys,67.13,11,Maximus Perez,Lytle,65.68,145.15,83.91,167.83,396.89,Single-ply,SBD,M
Boys,67.13,12,Rylan Wagner,Lytle,64.32,131.54,70.31,149.69,351.53,Single-ply,SBD,M
Boys,67.13,13,Dominic Reyes,Lytle,63.78,127.01,68.04,147.42,342.46,Single-ply,SBD,M
Boys,67.13,14,Nicholas Aponte,San Antonio Memorial,65.14,111.13,63.5,142.88,317.51,Single-ply,SBD,M
Boys,67.13,DQ,Justin Guevara,San Antonio Kennedy,67.13,,,,,Single-ply,SBD,M
Boys,74.84,1,Richard Villarreal,San Antonio East Central,74.07,235.87,122.47,251.74,610.08,Single-ply,SBD,M
Boys,74.84,2,Marcus Almeida,Stockdale,74.3,204.12,138.35,192.78,535.24,Single-ply,SBD,M
Boys,74.84,3,Leif Griffin,San Antonio Southwest,74.12,226.8,102.06,192.78,521.63,Single-ply,SBD,M
Boys,74.84,4,Ethan Ozuna,Center Point,72.67,217.72,108.86,192.78,519.36,Single-ply,SBD,M
Boys,74.84,5,Chance Cabaniss,Center Point,73.21,201.85,97.52,188.24,487.61,Single-ply,SBD,M
Boys,74.84,6,Guilermo Campos,San Antonio Southwest,68.67,181.44,115.67,188.24,485.34,Single-ply,SBD,M
Boys,74.84,7,Jimmy Garza,San Antonio Memorial,72.94,172.37,111.13,179.17,462.66,Single-ply,SBD,M
Boys,74.84,8,Rene Alvarado,Center Point,70.4,181.44,104.33,167.83,453.59,Single-ply,SBD,M
Boys,74.84,10,Cayden Diaz,Lytle,67.86,127.01,56.7,145.15,328.85,Single-ply,SBD,M
Boys,74.84,DQ,Jason Pena,San Antonio East Central,73.3,,,,,Single-ply,SBD,M
Boys,74.84,DQ,Kaden Crouch,Stockdale,73.94,195.04,,,,Single-ply,SBD,M
Boys,74.84,DQ,Fancisco Suttles,San Antonio Kennedy,74.84,,,,,Single-ply,SBD,M
Boys,74.84,DQ,Marco Burkman-Flaig,San Antonio Cole,70.13,215.46,113.4,,,Single-ply,SBD,M
Boys,74.84,DQ,Jimmy Guitron,San Antonio Southwest,74.12,165.56,102.06,,,Single-ply,SBD,M
Boys,82.1,1,Steban Mireles,Castroville Medina Valley,81.37,254.01,145.15,224.53,623.69,Single-ply,SBD,M
Boys,82.1,2,Garrett Ralph,Lytle,75.48,195.04,129.27,204.12,528.44,Single-ply,SBD,M
Boys,82.1,3,Jacob Ledesma,San Antonio East Central,76.02,201.85,99.79,206.38,508.02,Single-ply,SBD,M
Boys,82.1,4,Johnny Paredes,Lytle,79.56,188.24,97.52,192.78,478.54,Single-ply,SBD,M
Boys,82.1,5,Jeremy Martinez,Castroville Medina Valley,81.56,163.29,108.86,172.37,444.52,Single-ply,SBD,M
Boys,82.1,DQ,Joseph Perez,Lytle,81.37,251.74,138.35,,,Single-ply,SBD,M
Boys,82.1,DQ,Nakia Givens,Lytle,75.75,,,,,Single-ply,SBD,M
Boys,82.1,DQ,Manuel Ortiz,San Antonio Kennedy,82.1,,,,,Single-ply,SBD,M
Boys,89.81,1,Edward Keirstead,San Antonio Southwest,85.46,238.14,147.42,226.8,612.35,Single-ply,SBD,M
Boys,89.81,2,Chris Beltran,San Antonio East Central,88.27,226.8,122.47,213.19,562.45,Single-ply,SBD,M
Boys,89.81,3,Paulo Valadez,Center Point,82.55,199.58,127.01,183.7,510.29,Single-ply,SBD,M
Boys,89.81,4,Bankston Eddie,San Antonio East Central,84.28,183.7,111.13,185.97,480.81,Single-ply,SBD,M
Boys,89.81,5,Naythen Cardenas,San Antonio Southwest Legacy,85.46,158.76,111.13,167.83,437.72,Single-ply,SBD,M
Boys,99.79,1,Patrick Rhodes,San Antonio Cole,93.26,256.28,145.15,238.14,639.57,Single-ply,SBD,M
Boys,99.79,2,Nick Propst,San Antonio Southwest,90.26,204.12,136.08,204.12,544.31,Single-ply,SBD,M
Boys,99.79,3,Edward Roya,Castroville Medina Valley,98.97,204.12,129.27,190.51,523.9,Single-ply,SBD,M
Boys,99.79,DQ,Manuel Valverde,San Antonio Memorial,93.71,229.06,138.35,,,Single-ply,SBD,M
Boys,99.79,DQ,Max Eguia,San Antonio Kennedy,99.79,,,,,Single-ply,SBD,M
Boys,99.79,DQ,Manuel Arreola,San Antonio Kennedy,99.79,,,,,Single-ply,SBD,M
Boys,99.79,DQ,Frank Alvarez,San Antonio Southwest Legacy,92.85,,,,,Single-ply,SBD,M
Boys,109.77,1,Richard Villarreal,Kenedy,103.78,244.94,136.08,204.12,585.13,Single-ply,SBD,M
Boys,109.77,2,Spencer Payne,Castroville Medina Valley,107.05,217.72,131.54,199.58,548.85,Single-ply,SBD,M
Boys,109.77,3,Nathan Palacio,San Antonio Memorial,105.32,213.19,104.33,210.92,528.44,Single-ply,SBD,M
Boys,109.77,4,Joey Murillo,San Antonio Southwest,108.95,204.12,111.13,204.12,519.36,Single-ply,SBD,M
Boys,109.77,5,Josh Pereida,San Antonio Southwest Legacy,107.95,170.1,95.25,183.7,449.06,Single-ply,SBD,M
Boys,109.77,DQ,Ben Trevino,San Antonio East Central,100.61,242.67,124.74,,,Single-ply,SBD,M
Boys,124.74,1,Jalen Cano,Stockdale,113.85,274.42,167.83,238.14,680.39,Single-ply,SBD,M
Boys,124.74,2,Jorge Flores,San Antonio Memorial,122.29,281.23,149.69,240.4,671.32,Single-ply,SBD,M
Boys,124.74,3,Marcus Luna,San Antonio Southwest,123.2,249.48,142.88,215.46,607.81,Single-ply,SBD,M
Boys,124.74,4,Jacob Hernandez,Stockdale,114.03,233.6,158.76,195.04,587.4,Single-ply,SBD,M
Boys,124.74,5,Anthony Walters,San Antonio Cole,119.84,233.6,133.81,210.92,578.33,Single-ply,SBD,M
Boys,124.74,6,Trace Ferguson,Castroville Medina Valley,110.77,240.4,136.08,181.44,557.92,Single-ply,SBD,M
Boys,124.74,7,Isaiah Ibarra,San Antonio Southwest Legacy,120.11,185.97,108.86,213.19,508.02,Single-ply,SBD,M
Boys,124.74,8,Angel Banderas,San Antonio Memorial,115.12,188.24,113.4,199.58,501.22,Single-ply,SBD,M
Boys,124.74,9,Fernando Martinez,San Antonio Southwest Legacy,112.76,199.58,108.86,176.9,485.34,Single-ply,SBD,M
Boys,124.74,10,Memphis Medrano,Lytle,124.74,208.65,79.38,197.31,485.34,Single-ply,SBD,M
Boys,124.74,11,Daniel Ornelas,San Antonio Southwest Legacy,110.22,167.83,111.13,181.44,460.4,Single-ply,SBD,M
Boys,124.74,12,Jose Vasquez,San Antonio Memorial,119.29,183.7,97.52,172.37,453.59,Single-ply,SBD,M
Boys,124.74,DQ,Robert Pena-Valdez,San Antonio Kennedy,124.74,,,,,Single-ply,SBD,M
Boys,124.74,DQ,Sebastian Ramirez,Castroville Medina Valley,122.02,229.06,,,,Single-ply,SBD,M
Boys,124.74,DQ,Alec Alvarado,San Antonio Southwest Legacy,118.89,,,,,Single-ply,SBD,M
Boys,124.74+,1,Oscar Castillo,Pleasanton,133.99,331.12,208.65,233.6,773.37,Single-ply,SBD,M
Boys,124.74+,2,Jonah Barrow,Castroville Medina Valley,137.26,272.16,167.83,208.65,648.64,Single-ply,SBD,M
Boys,124.74+,3,Francisco Uhl,San Antonio Southwest,125.01,204.12,197.31,226.8,628.23,Single-ply,SBD,M
Boys,124.74+,4,Eli Amaro,San Antonio Southwest,128.55,260.82,151.95,215.46,628.23,Single-ply,SBD,M
Boys,124.74+,5,Jeremiah Price,San Antonio Southwest,131.27,258.55,158.76,183.7,601.01,Single-ply,SBD,M
Boys,124.74+,6,Ernesto Moreno,Castroville Medina Valley,161.66,249.48,158.76,183.7,591.94,Single-ply,SBD,M
Boys,124.74+,7,Andrew Romero,San Antonio Kennedy,129.73,226.8,174.63,183.7,585.13,Single-ply,SBD,M
Boys,124.74+,8,Kevin Deltorro,San Antonio Kennedy,129.82,213.19,113.4,233.6,560.19,Single-ply,SBD,M
Boys,124.74+,9,Arturo Lopez,San Antonio Southwest,134.17,226.8,142.88,179.17,548.85,Single-ply,SBD,M
Boys,124.74+,10,Roy Cantu,San Antonio Memorial,128.91,217.72,97.52,195.04,510.29,Single-ply,SBD,M
Boys,124.74+,11,Anthony Suttles,San Antonio Kennedy,130.54,142.88,102.06,156.49,401.43,Single-ply,SBD,M
Boys,124.74+,DQ,Luis Gonzales,San Antonio Southwest Legacy,145.6,,,,,Single-ply,SBD,M
