Division,WeightClassKg,Place,Name,Team,BodyweightKg,Best3SquatKg,Best3BenchKg,Best3DeadliftKg,TotalKg,Equipment,Event,Sex
Girls,44.23,1,Jessica Peoples,Cedar Hill,43,113.4,47.63,108.86,269.89,Single-ply,SBD,F
Girls,44.23,2,Ashley Fink,Little Elm,42.18,74.84,38.56,99.79,213.19,Single-ply,SBD,F
Girls,44.23,3,Lourdes James,Bonham,42.73,81.65,31.75,83.91,197.31,Single-ply,SBD,F
Girls,44.23,4,Kaitlyn Watson,Wylie,44.09,74.84,38.56,81.65,195.04,Single-ply,SBD,F
Girls,44.23,5,Danielle Rodriguez,Princeton,41.46,68.04,34.02,79.38,181.44,Single-ply,SBD,F
Girls,44.23,6,Ginger Phennel,Princeton,40.37,49.9,43.09,34.02,127.01,Single-ply,SBD,F
Girls,44.23,DQ,MaKayla Madden,Denison,44,,,,,Single-ply,SBD,F
Girls,44.23,DQ,Marisa Lourenco,Wylie,44,,,,,Single-ply,SBD,F
Girls,47.85,1,Jessica Smith,Bonham,44.45,115.67,49.9,120.2,285.76,Single-ply,SBD,F
Girls,47.85,2,Skye Johnson,Denison,47.45,90.72,47.63,108.86,247.21,Single-ply,SBD,F
Girls,47.85,3,Taylor Skinner,Midlothian,47.45,92.99,52.16,102.06,247.21,Single-ply,SBD,F
Girls,47.85,4,Sonni Gehring,Wylie,47.26,104.33,47.63,92.99,244.94,Single-ply,SBD,F
Girls,47.85,5,Ah'Lajah Lawrence,Cedar Hill,47.81,92.99,45.36,102.06,240.4,Single-ply,SBD,F
Girls,47.85,6,Paulette Herrera,Midlothian,46.36,90.72,36.29,106.59,233.6,Single-ply,SBD,F
Girls,47.85,7,Emma Beebe,Wylie East,47.63,90.72,31.75,111.13,233.6,Single-ply,SBD,F
Girls,47.85,8,Liliana Esquivel,Midlothian,46.18,88.45,45.36,97.52,231.33,Single-ply,SBD,F
Girls,47.85,9,Ashia Haddock,Cedar Hill,45.81,77.11,40.82,86.18,204.12,Single-ply,SBD,F
Girls,47.85,10,Sarah Ballenger,Princeton,45.72,63.5,29.48,74.84,167.83,Single-ply,SBD,F
Girls,47.85,DQ,Aylin Contreras,Wylie,47.63,,,,,Single-ply,SBD,F
Girls,47.85,DQ,Isela Zamora,Moody,47.63,,,,,Single-ply,SBD,F
Girls,47.85,DQ,Ana Troche,Frisco Centennial,47.85,,,,,Single-ply,SBD,F
Girls,51.94,1,Alyson Galanga,Cedar Hill,50.62,120.2,49.9,131.54,301.64,Single-ply,SBD,F
Girls,51.94,2,Katelyn Watts,Wylie,51.26,92.99,58.97,111.13,263.08,Single-ply,SBD,F
Girls,51.94,3,Laura Martinez,Denison,50.62,90.72,38.56,124.74,254.01,Single-ply,SBD,F
Girls,51.94,4,Brittany Golladay,Wylie,49.26,92.99,40.82,111.13,244.94,Single-ply,SBD,F
Girls,51.94,5,Modesty Novin,Little Elm,50.62,92.99,43.09,104.33,240.4,Single-ply,SBD,F
Girls,51.94,6,Amanda Hubbard,Moody,48.72,86.18,52.16,97.52,235.87,Single-ply,SBD,F
Girls,51.94,7,Destiny Strain,Leonard,50.53,90.72,38.56,104.33,233.6,Single-ply,SBD,F
Girls,51.94,8,Shelbie Rhodes,Little Elm,50.8,83.91,38.56,106.59,229.06,Single-ply,SBD,F
Girls,51.94,9,Jariell Brown,Wylie,50.08,92.99,36.29,92.99,222.26,Single-ply,SBD,F
Girls,51.94,10,Skyler Flippo,Moody,51.89,74.84,34.02,70.31,179.17,Single-ply,SBD,F
Girls,51.94,11,Kelly Gillette,Frisco Centennial,48.72,63.5,38.56,72.57,174.63,Single-ply,SBD,F
Girls,51.94,12,Kortni Mullikin,Moody,50.8,61.23,36.29,65.77,163.29,Single-ply,SBD,F
Girls,51.94,13,Rachel Watson,Frisco Centennial,51.44,54.43,22.68,61.23,138.35,Single-ply,SBD,F
Girls,51.94,DQ,Carissa Campbell,Leonard,50.98,77.11,36.29,,,Single-ply,SBD,F
Girls,51.94,DQ,Kailey Trice,Wylie,50.17,97.52,,,,Single-ply,SBD,F
Girls,51.94,DQ,Monica Quezeda,Carrollton Creekview,51.71,,,,,Single-ply,SBD,F
Girls,56.02,1,Brittany Trunnell,Wylie,55.7,124.74,38.56,142.88,306.17,Single-ply,SBD,F
Girls,56.02,2,Beatriz Mages,Little Elm,55.52,120.2,54.43,129.27,303.91,Single-ply,SBD,F
Girls,56.02,3,Toni Wesley,Cedar Hill,54.88,113.4,38.56,131.54,283.5,Single-ply,SBD,F
Girls,56.02,4,Allee Dana,Wylie,55.34,117.93,49.9,115.67,283.5,Single-ply,SBD,F
Girls,56.02,5,Aliyah Tyson,Wylie,52.16,108.86,47.63,124.74,281.23,Single-ply,SBD,F
Girls,56.02,6,Giovanna Valdez,Wylie,54.07,102.06,49.9,104.33,256.28,Single-ply,SBD,F
Girls,56.02,7,Jayce Cummings,Moody,55.88,97.52,52.16,104.33,254.01,Single-ply,SBD,F
Girls,56.02,8,Bernabeth Beason,Wylie,53.89,99.79,43.09,97.52,240.4,Single-ply,SBD,F
Girls,56.02,9,Lauren Dukes,Wylie East,52.98,92.99,38.56,102.06,233.6,Single-ply,SBD,F
Girls,56.02,10,Madison O'Brien,Denison,55.07,88.45,47.63,88.45,224.53,Single-ply,SBD,F
Girls,56.02,11,Simpson Kayla,Cedar Hill,55.34,68.04,43.09,99.79,210.92,Single-ply,SBD,F
Girls,56.02,12,Angell Martinez,Denison,53.89,90.72,31.75,86.18,208.65,Single-ply,SBD,F
Girls,56.02,13,Lexi Finnigan,Little Elm,55.34,83.91,40.82,83.91,208.65,Single-ply,SBD,F
Girls,56.02,14,Amy Trimble,Little Elm,53.71,77.11,36.29,86.18,199.58,Single-ply,SBD,F
Girls,56.02,15,Maddy Middleton,Sanger,54.25,77.11,40.82,68.04,185.97,Single-ply,SBD,F
Girls,56.02,16,Destiny Manzell,Royse City,55.52,54.43,43.09,88.45,185.97,Single-ply,SBD,F
Girls,56.02,17,Kelsey Heiner,Wylie East,54.25,65.77,36.29,79.38,181.44,Single-ply,SBD,F
Girls,56.02,18,Kaitlyn Agee,Royse City,54.7,68.04,34.02,79.38,181.44,Single-ply,SBD,F
Girls,56.02,19,Lauryn Reece,Cedar Hill,52.71,40.82,36.29,102.06,179.17,Single-ply,SBD,F
Girls,56.02,20,Halley Ihrig,Sanger,54.79,68.04,29.48,81.65,179.17,Single-ply,SBD,F
Girls,56.02,21,Kira Brockemehl,Wylie East,55.52,72.57,29.48,74.84,176.9,Single-ply,SBD,F
Girls,56.02,22,Maria Onelas,Frisco Centennial,52.89,63.5,24.95,63.5,151.95,Single-ply,SBD,F
Girls,56.02,DQ,Erin Plemmons,Denison,53.25,63.5,,,,Single-ply,SBD,F
Girls,56.02,DQ,Cammie Chandler,Princeton,54.88,,,,,Single-ply,SBD,F
Girls,56.02,DQ,Chassie Fisher,Moody,55.97,86.18,,,,Single-ply,SBD,F
Girls,60.1,1,Erin Escobedo,Sanger,57.33,117.93,70.31,124.74,312.98,Single-ply,SBD,F
Girls,60.1,2,Esohe Emokpae,Wylie,60.06,106.59,49.9,124.74,281.23,Single-ply,SBD,F
Girls,60.1,3,Jamie Williams #1,Royse City,58.06,106.59,52.16,115.67,274.42,Single-ply,SBD,F
Girls,60.1,4,Alyssa Hill,Bonham,57.97,102.06,47.63,120.2,269.89,Single-ply,SBD,F
Girls,60.1,5,Erica Helms,Leonard,57.33,102.06,49.9,113.4,265.35,Single-ply,SBD,F
Girls,60.1,6,Elexia Clark,Wylie,57.06,102.06,36.29,111.13,249.48,Single-ply,SBD,F
Girls,60.1,7,Abby Hendrix,Midlothian,56.7,83.91,47.63,104.33,235.87,Single-ply,SBD,F
Girls,60.1,8,Lexi Butner,Bonham,57.97,88.45,43.09,102.06,233.6,Single-ply,SBD,F
Girls,60.1,9,Keely Watson,Wylie East,58.51,83.91,38.56,99.79,222.26,Single-ply,SBD,F
Girls,60.1,10,Cameron Resurreccion,Little Elm,60.06,83.91,40.82,86.18,210.92,Single-ply,SBD,F
Girls,60.1,11,Cassidy Burns,Leonard,58.79,86.18,38.56,83.91,208.65,Single-ply,SBD,F
Girls,60.1,12,Megan Tolleson,Little Elm,57.06,70.31,34.02,97.52,201.85,Single-ply,SBD,F
Girls,60.1,13,Emma Foster,Moody,58.15,74.84,40.82,74.84,190.51,Single-ply,SBD,F
Girls,60.1,14,Denecia Kent,Cedar Hill,57.88,74.84,36.29,65.77,176.9,Single-ply,SBD,F
Girls,60.1,15,Ashley McGuire,Frisco Centennial,59.96,72.57,24.95,74.84,172.37,Single-ply,SBD,F
Girls,60.1,16,Emily Gough,Frisco Centennial,58.51,63.5,34.02,63.5,161.03,Single-ply,SBD,F
Girls,60.1,17,Ashlynn Gawande,Frisco Centennial,56.97,45.36,27.22,56.7,129.27,Single-ply,SBD,F
Girls,60.1,DQ,Alma Bustamante,Carrollton Creekview,57.61,38.56,,,,Single-ply,SBD,F
Girls,60.1,DQ,Kylie Pickering,Wylie,59.87,,,,,Single-ply,SBD,F
Girls,60.1,DQ,McKenna Ortega,Wylie East,57.61,,,,,Single-ply,SBD,F
Girls,67.36,1,Loreal Jones,Wylie,67.13,133.81,54.43,154.22,342.46,Single-ply,SBD,F
Girls,67.36,2,Ashley Otah,Wylie,67.13,111.13,61.23,154.22,326.59,Single-ply,SBD,F
Girls,67.36,3,Lindsey Tarby,Princeton,60.24,108.86,52.16,136.08,297.1,Single-ply,SBD,F
Girls,67.36,4,Briana Williams,Wylie,67.31,113.4,45.36,136.08,294.84,Single-ply,SBD,F
Girls,67.36,5,Rylee Barnes,Bonham,63.14,115.67,52.16,117.93,285.76,Single-ply,SBD,F
Girls,67.36,6,Christine Wolf,Denison,65.77,102.06,58.97,106.59,267.62,Single-ply,SBD,F
Girls,67.36,7,Natalie Dills,Leonard,62.14,104.33,49.9,106.59,260.82,Single-ply,SBD,F
Girls,67.36,8,Luci Robertson,Little Elm,63.59,95.25,40.82,117.93,254.01,Single-ply,SBD,F
Girls,67.36,9,Charley Ashworth,Leonard,65.59,81.65,49.9,113.4,244.94,Single-ply,SBD,F
Girls,67.36,10,Lyndze Curry,Princeton,66.5,83.91,52.16,99.79,235.87,Single-ply,SBD,F
Girls,67.36,11,Sarah Cortes,Midlothian,60.51,92.99,43.09,97.52,233.6,Single-ply,SBD,F
Girls,67.36,12,Kyra Houseworth,Nevada Community,61.6,77.11,52.16,97.52,226.8,Single-ply,SBD,F
Girls,67.36,13,Devon Black,Princeton,67.31,92.99,38.56,95.25,226.8,Single-ply,SBD,F
Girls,67.36,14,Sophia Inestroza,Sanger,66.68,77.11,43.09,83.91,204.12,Single-ply,SBD,F
Girls,67.36,15,Carmen Hayes,Frisco Centennial,62.05,74.84,38.56,83.91,197.31,Single-ply,SBD,F
Girls,67.36,16,Rachel Jeske,Midlothian,66.68,74.84,40.82,79.38,195.04,Single-ply,SBD,F
Girls,67.36,17,Jazmine Akin,Royse City,60.42,65.77,34.02,88.45,188.24,Single-ply,SBD,F
Girls,67.36,18,Sydney Hammonds,Sanger,62.14,65.77,31.75,68.04,165.56,Single-ply,SBD,F
Girls,67.36,19,Delyse Mitchell,Carrollton Creekview,63.14,47.63,38.56,61.23,147.42,Single-ply,SBD,F
Girls,67.36,20,Roxanne Ramos,Carrollton Creekview,65.32,52.16,31.75,61.23,145.15,Single-ply,SBD,F
Girls,67.36,21,Jaicee Morriss,Little Elm,66.95,95.25,40.82,,136.08,Single-ply,SB,F
Girls,67.36,DQ,Lexi Loving,Wylie,67.13,,,,,Single-ply,SBD,F
Girls,67.36,DQ,Morgan Trout,Nevada Community,67.13,,,,,Single-ply,SBD,F
Girls,67.36,DQ,Mackenzie Ortega,Wylie East,67.13,,,,,Single-ply,SBD,F
Girls,75.07,1,Emily Jondron,Princeton,73.57,129.27,106.59,127.01,362.87,Single-ply,SBD,F
Girls,75.07,2,Makayla Millbrook,Wylie,67.95,129.27,52.16,124.74,306.17,Single-ply,SBD,F
Girls,75.07,3,Angela Bailey,Wylie,68.95,102.06,58.97,122.47,283.5,Single-ply,SBD,F
Girls,75.07,4,Kailey Jones,Denison,70.85,97.52,45.36,124.74,267.62,Single-ply,SBD,F
Girls,75.07,5,Tiffany Murdock,Cedar Hill,70.4,111.13,49.9,102.06,263.08,Single-ply,SBD,F
Girls,75.07,6,Monica Dunn,Royse City,67.77,90.72,54.43,113.4,258.55,Single-ply,SBD,F
Girls,75.07,7,Chloe Howard,Sanger,70.31,90.72,56.7,108.86,256.28,Single-ply,SBD,F
Girls,75.07,8,Sabrina Rodriguez,Midlothian,74.75,92.99,56.7,92.99,242.67,Single-ply,SBD,F
Girls,75.07,9,Brienne Marshall,Denison,68.4,74.84,54.43,108.86,238.14,Single-ply,SBD,F
Girls,75.07,10,Meghan Jarvis,Nevada Community,74.12,90.72,45.36,102.06,238.14,Single-ply,SBD,F
Girls,75.07,11,Ashleigh Alexander,Leonard,69.67,88.45,43.09,102.06,233.6,Single-ply,SBD,F
Girls,75.07,12,Kaely Argueta,Frisco Centennial,68.22,83.91,45.36,86.18,215.46,Single-ply,SBD,F
Girls,75.07,13,Lacey Edge,Sanger,68.49,74.84,47.63,88.45,210.92,Single-ply,SBD,F
Girls,75.07,14,Hailey Mullins,Wylie East,74.75,70.31,43.09,86.18,199.58,Single-ply,SBD,F
Girls,75.07,15,Sophie Rittenberry,Frisco Centennial,72.85,65.77,40.82,77.11,183.7,Single-ply,SBD,F
Girls,75.07,16,Megan Strebeck,Nevada Community,72.76,63.5,38.56,79.38,181.44,Single-ply,SBD,F
Girls,75.07,DQ,Mariah Kirby,Princeton,74.84,,,,,Single-ply,SBD,F
Girls,75.07,DQ,Anna Hinojosa,Moody,74.84,,,,,Single-ply,SBD,F
Girls,82.33,1,Abigail Lutz,Wylie East,79.65,140.61,70.31,138.35,349.27,Single-ply,SBD,F
Girls,82.33,2,Madalyn Whaley,Wylie,81.65,136.08,58.97,131.54,326.59,Single-ply,SBD,F
Girls,82.33,3,McKenzie Crossland,Leonard,79.56,120.2,61.23,124.74,306.17,Single-ply,SBD,F
Girls,82.33,4,Destiny Crumpley,Little Elm,80.65,106.59,52.16,138.35,297.1,Single-ply,SBD,F
Girls,82.33,5,Bianca Ramirez,Wylie,81.19,97.52,56.7,127.01,281.23,Single-ply,SBD,F
Girls,82.33,6,Claire Cook,Nevada Community,81.47,111.13,47.63,113.4,272.16,Single-ply,SBD,F
Girls,82.33,7,Aubree Beard,Frisco Centennial,79.92,92.99,54.43,108.86,256.28,Single-ply,SBD,F
Girls,82.33,8,Susana Mancilla,Midlothian,75.57,92.99,49.9,102.06,244.94,Single-ply,SBD,F
Girls,82.33,9,Kayla Young,Princeton,77.93,90.72,49.9,102.06,242.67,Single-ply,SBD,F
Girls,82.33,10,Abi King,Leonard,77.75,65.77,52.16,113.4,231.33,Single-ply,SBD,F
Girls,82.33,11,Maria Guiudicy,Denison,80.2,83.91,45.36,102.06,231.33,Single-ply,SBD,F
Girls,82.33,12,BreShai Smith,Cedar Hill,80.56,83.91,43.09,86.18,213.19,Single-ply,SBD,F
Girls,90.04,1,Megan Doyle,Denison,88.63,147.42,70.31,154.22,371.95,Single-ply,SBD,F
Girls,90.04,2,Beth Bounds,Moody,88.27,131.54,70.31,140.61,342.46,Single-ply,SBD,F
Girls,90.04,3,Destiny Estrada,Princeton,89.18,111.13,58.97,120.2,290.3,Single-ply,SBD,F
Girls,90.04,4,Storri Williams,Midlothian,86.73,104.33,52.16,124.74,281.23,Single-ply,SBD,F
Girls,90.04,5,Jazmin Brooks,Midlothian,86.45,106.59,43.09,122.47,272.16,Single-ply,SBD,F
Girls,90.04,6,Brittany Hernandez,Moody,89.81,99.79,43.09,108.86,251.74,Single-ply,SBD,F
Girls,90.04,7,Clarissa Rios,Sanger,86.45,97.52,49.9,102.06,249.48,Single-ply,SBD,F
Girls,90.04,8,Flor Sardo,Wylie East,86.36,83.91,43.09,113.4,240.4,Single-ply,SBD,F
Girls,90.04,9,Elaina Eisenzopf,Wylie,83.01,92.99,43.09,97.52,233.6,Single-ply,SBD,F
Girls,90.04,DQ,Yulissa Recio,Moody,89.81,,,,,Single-ply,SBD,F
Girls,100.02,1,Jasmine Bryant,Princeton,90.9,151.95,63.5,124.74,340.19,Single-ply,SBD,F
Girls,100.02,2,Kadeija Edwards,Wylie,91.44,115.67,52.16,124.74,292.57,Single-ply,SBD,F
Girls,100.02+,1,Serena Saldivar,Wylie,105.41,192.78,83.91,142.88,419.57,Single-ply,SBD,F
Girls,100.02+,2,Devin Cantu,Cedar Hill,116.66,145.15,77.11,172.37,394.63,Single-ply,SBD,F
Girls,100.02+,3,Katrena Njiki,Wylie,105.51,165.56,68.04,158.76,392.36,Single-ply,SBD,F
Girls,100.02+,4,Leslie Quijada,Royse City,105.05,138.35,56.7,136.08,331.12,Single-ply,SBD,F
Girls,100.02+,5,Rachel Owens,Leonard,151.14,113.4,68.04,127.01,308.44,Single-ply,SBD,F
Girls,100.02+,6,Courtney Gordon,Nevada Community,101.88,99.79,58.97,108.86,267.62,Single-ply,SBD,F
Girls,100.02+,7,Alexis Bolin,Leonard,114.21,102.06,49.9,106.59,258.55,Single-ply,SBD,F
Girls,100.02+,8,Isabella Linwood,Denison,104.87,83.91,52.16,113.4,249.48,Single-ply,SBD,F
Girls,100.02+,9,Marion Wright,Wylie East,116.39,83.91,49.9,113.4,247.21,Single-ply,SBD,F
Girls,100.02+,10,Tess Hickey,Sanger,118.21,99.79,56.7,90.72,247.21,Single-ply,SBD,F
Girls,100.02+,11,Coral McKee,Royse City,108.86,61.23,52.16,99.79,213.19,Single-ply,SBD,F
Girls,100.02+,12,Makenna Wade,Moody,115.67,52.16,45.36,65.77,163.29,Single-ply,SBD,F
