Division,WeightClassKg,Place,Name,Team,BodyweightKg,Best3SquatKg,Best3BenchKg,Best3DeadliftKg,TotalKg,Equipment,Event,Sex
Girls,44.23,1,Amber Flores,Uvalde,42.91,65.77,29.48,81.65,176.9,Single-ply,SBD,F
Girls,47.85,1,Clari Castillo,Zapata,47.81,99.79,47.63,108.86,256.28,Single-ply,SBD,F
Girls,47.85,2,Alma Sanchez,Carrizo Springs,46.9,63.5,31.75,81.65,176.9,Single-ply,SBD,F
Girls,47.85,3,Katie Rodriguez,Carrizo Springs,44.91,61.23,24.95,74.84,161.03,Single-ply,SBD,F
Girls,47.85,DQ,Marisol Cortez,Roma,45.45,61.23,,,,Single-ply,SBD,F
Girls,51.94,1,Brianna Gonzalez,Zapata,51.89,131.54,63.5,138.35,333.39,Single-ply,SBD,F
Girls,51.94,2,Alexandra García,Zapata,51.35,120.2,68.04,138.35,326.59,Single-ply,SBD,F
Girls,51.94,3,Tammy Idrogo,Laredo United South,50.62,97.52,45.36,113.4,256.28,Single-ply,SBD,F
Girls,51.94,4,Monika Saldivar,Laredo United South,50.71,86.18,56.7,113.4,256.28,Single-ply,SBD,F
Girls,51.94,5,Carolina Macias,Roma,51.07,65.77,40.82,95.25,201.85,Single-ply,SBD,F
Girls,51.94,DQ,Joeli Castillo,Zapata,51.8,102.06,,,,Single-ply,SBD,F
Girls,56.02,1,Alana Montes,Zapata,55.61,145.15,72.57,147.42,365.14,Single-ply,SBD,F
Girls,56.02,2,Amanda Perez,Laredo Nixon,54.25,99.79,61.23,122.47,283.5,Single-ply,SBD,F
Girls,56.02,3,Marlene Rodriguez,Laredo United South,53.8,83.91,45.36,113.4,242.67,Single-ply,SBD,F
Girls,56.02,4,Andrea Guerra,Zapata,54.7,95.25,49.9,95.25,240.4,Single-ply,SBD,F
Girls,56.02,5,Kelly Huerta,Carrizo Springs,55.88,56.7,34.02,70.31,161.03,Single-ply,SBD,F
Girls,60.1,1,Vanessa Guerra,Zapata,60.06,113.4,65.77,131.54,310.71,Single-ply,SBD,F
Girls,60.1,2,Veronica Rodriguez,Laredo Nixon,60.06,127.01,58.97,117.93,303.91,Single-ply,SBD,F
Girls,60.1,3,Priscilla Guerra,Laredo United South,60.06,104.33,61.23,113.4,278.96,Single-ply,SBD,F
Girls,60.1,4,Tania Castro,Laredo Johnson,57.33,56.7,34.02,90.72,181.44,Single-ply,SBD,F
Girls,60.1,DQ,Bianca Cantu,Roma,57.97,,,,,Single-ply,SBD,F
Girls,67.36,1,Ashley DeAnda,Laredo Martin,66.41,122.47,56.7,131.54,310.71,Single-ply,SBD,F
Girls,67.36,2,Cindy Castillo,Laredo Nixon,61.78,117.93,63.5,111.13,292.57,Single-ply,SBD,F
Girls,67.36,3,Delilah Hernandez,Carrizo Springs,61.33,102.06,45.36,115.67,263.08,Single-ply,SBD,F
Girls,67.36,4,Sasha Flores,Zapata,64.23,99.79,54.43,104.33,258.55,Single-ply,SBD,F
Girls,67.36,5,Crystal Carrillo,Laredo Cigarroa,62.96,92.99,40.82,117.93,251.74,Single-ply,SBD,F
Girls,67.36,6,Kiana Moctezuma,Carrizo Springs,64.23,90.72,38.56,115.67,244.94,Single-ply,SBD,F
Girls,67.36,7,Lizzy Alejandro,Carrizo Springs,66.41,99.79,43.09,99.79,242.67,Single-ply,SBD,F
Girls,67.36,8,Sayra Lara,Zapata,65.86,90.72,47.63,102.06,240.4,Single-ply,SBD,F
Girls,67.36,9,Karina Guzman,Zapata,66.59,92.99,45.36,97.52,235.87,Single-ply,SBD,F
Girls,67.36,10,Nadia Gonzalez,Uvalde,67.22,90.72,43.09,99.79,233.6,Single-ply,SBD,F
Girls,67.36,11,Kassy de la Cruz,Laredo Cigarroa,66.22,88.45,36.29,99.79,224.53,Single-ply,SBD,F
Girls,67.36,12,Gabby Gonzalez,Uvalde,63.23,77.11,45.36,90.72,213.19,Single-ply,SBD,F
Girls,67.36,13,Alexis Felan,Uvalde,60.15,77.11,31.75,97.52,206.38,Single-ply,SBD,F
Girls,67.36,14,Aubrey Avila,Carrizo Springs,65.95,77.11,38.56,86.18,201.85,Single-ply,SBD,F
Girls,67.36,15,Celeste Trevino,Roma,62.23,65.77,40.82,79.38,185.97,Single-ply,SBD,F
Girls,67.36,16,Lexie Reyes,Carrizo Springs,61.96,61.23,38.56,74.84,174.63,Single-ply,SBD,F
Girls,67.36,17,Amy Garza,Laredo Johnson,62.6,61.23,38.56,61.23,161.03,Single-ply,SBD,F
Girls,67.36,DQ,Abby Esquivel #3,Zapata,61.78,104.33,,,,Single-ply,SBD,F
Girls,75.07,1,Amanda Esquivel,Zapata,73.75,145.15,88.45,156.49,390.09,Single-ply,SBD,F
Girls,75.07,2,Zena Esquivel,Carrizo Springs,74.39,149.69,83.91,147.42,381.02,Single-ply,SBD,F
Girls,75.07,3,Karina Garza,Laredo United South,71.12,136.08,54.43,154.22,344.73,Single-ply,SBD,F
Girls,75.07,4,Christa Iglesias,Laredo United South,74.3,117.93,63.5,138.35,319.78,Single-ply,SBD,F
Girls,75.07,5,Trisha Garcia,Zapata,75.02,127.01,61.23,131.54,319.78,Single-ply,SBD,F
Girls,75.07,6,Kazzandra Alaniz,Zapata,75.02,113.4,54.43,133.81,301.64,Single-ply,SBD,F
Girls,75.07,7,Leslie Suarez,Laredo Nixon,68.76,88.45,43.09,122.47,254.01,Single-ply,SBD,F
Girls,75.07,8,Alyssa Garza,Laredo Johnson,69.67,99.79,40.82,102.06,242.67,Single-ply,SBD,F
Girls,75.07,9,Erica Wickstrom,Laredo Nixon,69.94,79.38,52.16,106.59,238.14,Single-ply,SBD,F
Girls,75.07,10,Denise Alvarez,Laredo Nixon,68.76,56.7,38.56,113.4,208.65,Single-ply,SBD,F
Girls,75.07,11,Amanda Garcia,Laredo Nixon,70.58,68.04,27.22,97.52,192.78,Single-ply,SBD,F
Girls,75.07,12,Cristine Carrillo,Laredo Cigarroa,70.03,65.77,27.22,90.72,183.7,Single-ply,SBD,F
Girls,75.07,13,Katie Ruiz,Uvalde,68.04,72.57,31.75,72.57,176.9,Single-ply,SBD,F
Girls,75.07,14,Arianna Ruiz,Uvalde,69.85,65.77,29.48,77.11,172.37,Single-ply,SBD,F
Girls,75.07,15,Regina Villarreal,Laredo Johnson,69.04,65.77,36.29,63.5,165.56,Single-ply,SBD,F
Girls,82.33,1,Danielle Kent,Carrizo Springs,75.21,131.54,72.57,133.81,337.93,Single-ply,SBD,F
Girls,82.33,2,Laisha Gardner,Laredo United South,80.56,133.81,68.04,124.74,326.59,Single-ply,SBD,F
Girls,82.33,3,Mariana Mejia,Laredo Cigarroa,81.92,99.79,54.43,104.33,258.55,Single-ply,SBD,F
Girls,82.33,4,Roxy Flores,Laredo Johnson,76.38,102.06,45.36,108.86,256.28,Single-ply,SBD,F
Girls,82.33,5,Erika Moya,Laredo Cigarroa,80.92,97.52,45.36,111.13,254.01,Single-ply,SBD,F
Girls,82.33,6,Karina Mejia,Laredo Cigarroa,77.11,92.99,45.36,99.79,238.14,Single-ply,SBD,F
Girls,82.33,7,Gabriela Garcia,Roma,78.56,74.84,43.09,90.72,208.65,Single-ply,SBD,F
Girls,82.33,8,Laura Ramirez,Laredo Cigarroa,76.29,74.84,31.75,88.45,195.04,Single-ply,SBD,F
Girls,82.33,9,Ana Lyza Sanchez,Roma,78.93,52.16,38.56,63.5,154.22,Single-ply,SBD,F
Girls,90.04,1,Gaby Reyes,Zapata,87,149.69,81.65,158.76,390.09,Single-ply,SBD,F
Girls,90.04,2,Dominique Ortiz,Carrizo Springs,85.46,129.27,61.23,113.4,303.91,Single-ply,SBD,F
Girls,90.04,3,Mayra Castillo,Laredo United South,89.99,108.86,45.36,108.86,263.08,Single-ply,SBD,F
Girls,90.04,4,Kendra Kluting,Laredo Nixon,83.01,95.25,47.63,104.33,247.21,Single-ply,SBD,F
Girls,90.04,5,Nora Luna,Uvalde,89.99,79.38,43.09,74.84,197.31,Single-ply,SBD,F
Girls,100.02,1,Nadia Gomez,Uvalde,91.26,165.56,74.84,145.15,385.55,Single-ply,SBD,F
Girls,100.02,2,Sophia Hernandez,Roma,97.89,115.67,56.7,102.06,274.42,Single-ply,SBD,F
Girls,100.02,DQ,Karina Martinez,Laredo Nixon,96.98,92.99,,,,Single-ply,SBD,F
Girls,100.02+,1,Karina Davalos,Laredo Nixon,117.39,170.1,83.91,172.37,426.38,Single-ply,SBD,F
Girls,100.02+,2,Lori Torres,Laredo Cigarroa,107.32,77.11,52.16,113.4,242.67,Single-ply,SBD,F
Girls,100.02+,3,Erica Solis,Laredo Nixon,122.56,45.36,45.36,95.25,185.97,Single-ply,SBD,F
