Division,WeightClassKg,Place,Name,Team,BodyweightKg,Best3SquatKg,Best3BenchKg,Best3DeadliftKg,TotalKg,Equipment,Event,Sex
Boys,51.71,1,David Carrasco,Big Lake Reagan County,51.17,147.42,90.72,167.83,405.97,Single-ply,SBD,M
Boys,51.71,2,Juan Trejo,Friona,49.62,163.29,72.57,151.95,387.82,Single-ply,SBD,M
Boys,51.71,3,Trey Wachsmann,Miles,50.89,133.81,74.84,145.15,353.8,Single-ply,SBD,M
Boys,51.71,4,Brennan Riker,Post,50.35,133.81,74.84,131.54,340.19,Single-ply,SBD,M
Boys,51.71,5,Cody Henson,Abernathy,49.99,127.01,68.04,142.88,337.93,Single-ply,SBD,M
Boys,51.71,6,Andrew DeLeon,Roscoe Collegiate,51.71,127.01,74.84,129.27,331.12,Single-ply,SBD,M
Boys,51.71,7,Nathan Flores,Friona,49.71,120.2,58.97,136.08,315.25,Single-ply,SBD,M
Boys,51.71,8,Carlos Perez #3,Sundown,51.44,102.06,54.43,133.81,290.3,Single-ply,SBD,M
Boys,51.71,9,Jaime Rios,Big Lake Reagan County,48.9,104.33,54.43,129.27,288.03,Single-ply,SBD,M
Boys,51.71,10,Ezaiah Martinez,Dimmitt,51.62,99.79,63.5,122.47,285.76,Single-ply,SBD,M
Boys,51.71,11,Zaniel Florez,Kermit,50.98,111.13,49.9,122.47,283.5,Single-ply,SBD,M
Boys,51.71,12,Derek Barron,Muleshoe,49.62,102.06,58.97,113.4,274.42,Single-ply,SBD,M
Boys,51.71,13,Alejandro Diaz,Hart,51.62,104.33,40.82,113.4,258.55,Single-ply,SBD,M
Boys,55.79,1,Christian Teichleman,Childress,54.79,174.63,92.99,185.97,453.59,Single-ply,SBD,M
Boys,55.79,2,Raul Rey,Big Lake Reagan County,54.52,176.9,79.38,170.1,426.38,Single-ply,SBD,M
Boys,55.79,3,Jose Hernandez #15,Seagraves,54.79,145.15,88.45,172.37,405.97,Single-ply,SBD,M
Boys,55.79,4,Canaan Charleston,Clyde,55.7,161.03,92.99,147.42,401.43,Single-ply,SBD,M
Boys,55.79,5,Bryan Nguyen,Amarillo Highland Park,55.61,136.08,81.65,167.83,385.55,Single-ply,SBD,M
Boys,55.79,6,Josiah Rodriguez,Meadow,54.98,124.74,65.77,145.15,335.66,Single-ply,SBD,M
Boys,55.79,7,Adrian Whitby,Ozona,55.79,127.01,81.65,124.74,333.39,Single-ply,SBD,M
Boys,55.79,8,Landon Simmons,Slaton,54.52,131.54,72.57,127.01,331.12,Single-ply,SBD,M
Boys,55.79,9,Preston Mann,Amarillo Highland Park,53.61,122.47,74.84,124.74,322.05,Single-ply,SBD,M
Boys,55.79,DQ,Kaleb Chacon,Merkel,54.79,,,,,Single-ply,SBD,M
Boys,55.79,DQ,Carlos Rodriguez,Olton,52.34,,,,,Single-ply,SBD,M
Boys,55.79,NS,Tony Ortiz,Big Lake Reagan County,,,,,,Single-ply,SBD,M
Boys,59.87,1,Johnny Donnelly,Hawley,59.15,206.38,108.86,195.04,510.29,Single-ply,SBD,M
Boys,59.87,2,Mario Hernandez,Friona,59.87,170.1,88.45,179.17,437.72,Single-ply,SBD,M
Boys,59.87,3,Santos Yanez,Slaton,59.78,170.1,90.72,174.63,435.45,Single-ply,SBD,M
Boys,59.87,4,Riley Perry,Tuscola Jim Ned,58.06,142.88,111.13,151.95,405.97,Single-ply,SBD,M
Boys,59.87,5,Billy Lee,Amarillo Highland Park,59.69,154.22,92.99,158.76,405.97,Single-ply,SBD,M
Boys,59.87,6,Lleyton Frazier,Tuscola Jim Ned,57.88,133.81,99.79,163.29,396.89,Single-ply,SBD,M
Boys,59.87,7,Marin Santiago,Friona,59.24,154.22,74.84,167.83,396.89,Single-ply,SBD,M
Boys,59.87,8,Mac Thompson,Ropesville Ropes,59.51,158.76,65.77,163.29,387.82,Single-ply,SBD,M
Boys,59.87,9,Zack Gilbert,Lubbock Roosevelt,59.15,117.93,88.45,151.95,358.34,Single-ply,SBD,M
Boys,59.87,10,Johnathon Lopez,Ralls,57.79,124.74,68.04,145.15,337.93,Single-ply,SBD,M
Boys,59.87,DQ,Brian Jackson,Seymour,58.97,156.49,,,,Single-ply,SBD,M
Boys,59.87,DQ,Oscar Gutierrez,Sonora,57.15,147.42,79.38,,,Single-ply,SBD,M
Boys,59.87,DQ,Bryson Jones,Ralls,59.87,142.88,70.31,,,Single-ply,SBD,M
Boys,67.13,1,Jerry Simental,Seagraves,64.95,197.31,113.4,208.65,519.36,Single-ply,SBD,M
Boys,67.13,2,Brandon Victorino,Alpine,66.32,197.31,113.4,208.65,519.36,Single-ply,SBD,M
Boys,67.13,3,Miguel Vasquez,Farwell,64.23,192.78,127.01,197.31,517.1,Single-ply,SBD,M
Boys,67.13,4,Juwan Hamilton,Tahoka,63.41,195.04,92.99,215.46,503.49,Single-ply,SBD,M
Boys,67.13,5,Robert Zavala,Ralls,64.32,199.58,111.13,174.63,485.34,Single-ply,SBD,M
Boys,67.13,6,Anthony Olivares,Eldorado,66.77,172.37,106.59,179.17,458.13,Single-ply,SBD,M
Boys,67.13,7,Isaac Hernandez,Sundown,65.41,163.29,95.25,190.51,449.06,Single-ply,SBD,M
Boys,67.13,8,Zavian Florez,Kermit,65.77,190.51,86.18,172.37,449.06,Single-ply,SBD,M
Boys,67.13,9,Zach Ponciano,Abernathy,66.59,170.1,102.06,167.83,439.98,Single-ply,SBD,M
Boys,67.13,10,Ricky Cuellar,Lockney,66.32,172.37,81.65,181.44,435.45,Single-ply,SBD,M
Boys,67.13,11,Cade Cramer,Mertzon Irion County,64.86,181.44,102.06,149.69,433.18,Single-ply,SBD,M
Boys,67.13,12,Bo Franklin,Plains,64.68,167.83,90.72,165.56,424.11,Single-ply,SBD,M
Boys,67.13,DQ,Zach Holmes,Coahoma,65.68,,,,,Single-ply,SBD,M
Boys,74.84,1,Blake Hulse,Sundown,71.12,222.26,108.86,217.72,548.85,Single-ply,SBD,M
Boys,74.84,2,Sebastian Perez,Vega,71.4,217.72,113.4,213.19,544.31,Single-ply,SBD,M
Boys,74.84,3,Cody Castor,Childress,72.03,195.04,136.08,210.92,542.04,Single-ply,SBD,M
Boys,74.84,4,Francisco Garcia,Roscoe Collegiate,74.03,197.31,124.74,201.85,523.9,Single-ply,SBD,M
Boys,74.84,5,Leroy Garcia,Miles,74.3,190.51,117.93,197.31,505.76,Single-ply,SBD,M
Boys,74.84,6,Akimas Clarrett,Colorado City Colorado,68.4,192.78,102.06,204.12,498.95,Single-ply,SBD,M
Boys,74.84,7,Arnie Martinez,Floydada,71.21,181.44,108.86,201.85,492.15,Single-ply,SBD,M
Boys,74.84,8,Kingsley Rodriguez,Seagraves,72.48,190.51,104.33,195.04,489.88,Single-ply,SBD,M
Boys,74.84,9,Jayden Shaver,Panhandle,73.66,188.24,117.93,176.9,483.08,Single-ply,SBD,M
Boys,74.84,10,Alexander Herevia,Tahoka,70.03,185.97,104.33,190.51,480.81,Single-ply,SBD,M
Boys,74.84,11,Dante Flores,Abernathy,74.39,176.9,104.33,199.58,480.81,Single-ply,SBD,M
Boys,74.84,12,Joshua Grimsley,Coahoma,69.4,183.7,102.06,188.24,474,Single-ply,SBD,M
Boys,82.1,1,Steban Flores,Ozona,80.2,242.67,165.56,247.21,655.44,Single-ply,SBD,M
Boys,82.1,2,Juan Baez,Sonora,78.2,267.62,127.01,217.72,612.35,Single-ply,SBD,M
Boys,82.1,3,Brayden Castillon,Tahoka,79.92,226.8,124.74,217.72,569.26,Single-ply,SBD,M
Boys,82.1,4,Dat Luu,Amarillo Highland Park,80.01,197.31,120.2,226.8,544.31,Single-ply,SBD,M
Boys,82.1,5,Pete Lazcano,Post,80.56,199.58,122.47,213.19,535.24,Single-ply,SBD,M
Boys,82.1,6,Eulices Lupercio,Crane,79.65,204.12,138.35,176.9,519.36,Single-ply,SBD,M
Boys,82.1,7,Manual Ramos,Bovina,80.83,188.24,129.27,201.85,519.36,Single-ply,SBD,M
Boys,82.1,8,Edgar Olvera,Bovina,82.1,195.04,113.4,183.7,492.15,Single-ply,SBD,M
Boys,82.1,9,Cameron Enriquez,Dimmitt,79.92,183.7,111.13,190.51,485.34,Single-ply,SBD,M
Boys,82.1,10,Keanu Villarreal,Lockney,81.19,181.44,129.27,174.63,485.34,Single-ply,SBD,M
Boys,82.1,11,Julio Acevedo,Roby,76.2,199.58,92.99,181.44,474,Single-ply,SBD,M
Boys,82.1,12,Issahia Valenzuela,Big Lake Reagan County,81.01,179.17,99.79,170.1,449.06,Single-ply,SBD,M
Boys,89.81,1,Caleb Wilson,Mertzon Irion County,87.54,272.16,176.9,240.4,689.46,Single-ply,SBD,M
Boys,89.81,2,Donovan Gomez,Clyde,84.91,249.48,138.35,226.8,614.62,Single-ply,SBD,M
Boys,89.81,3,Adrean Perez,Crane,88,240.4,120.2,208.65,569.26,Single-ply,SBD,M
Boys,89.81,4,Nico Ortiz,Big Lake Reagan County,89.27,226.8,133.81,208.65,569.26,Single-ply,SBD,M
Boys,89.81,5,Adolph Medina,Ballinger,87.18,213.19,124.74,226.8,564.72,Single-ply,SBD,M
Boys,89.81,6,Richard Contreras,Alpine,88.81,204.12,140.61,181.44,526.17,Single-ply,SBD,M
Boys,89.81,7,Brody Black,Sundown,88.54,215.46,113.4,195.04,523.9,Single-ply,SBD,M
Boys,89.81,8,Justin Ortiz,Big Lake Reagan County,89.54,215.46,122.47,185.97,523.9,Single-ply,SBD,M
Boys,89.81,9,Ty Perez,Sonora,85.91,224.53,129.27,167.83,521.63,Single-ply,SBD,M
Boys,89.81,10,Chris Martinez,Dimmitt,85,197.31,106.59,195.04,498.95,Single-ply,SBD,M
Boys,89.81,11,Nicodemus Ayala,Tahoka,88.36,199.58,117.93,179.17,496.68,Single-ply,SBD,M
Boys,89.81,DQ,Keegan Dobbs,Coahoma,86.82,213.19,113.4,,,Single-ply,SBD,M
Boys,89.81,NS,Adrian Lomas,Roscoe Collegiate,,,,,,Single-ply,SBD,M
Boys,99.79,1,Tanner Schnoor,Hawley,98.16,260.82,136.08,251.74,648.64,Single-ply,SBD,M
Boys,99.79,2,Christian Ramon,Sonora,97.52,265.35,158.76,204.12,628.23,Single-ply,SBD,M
Boys,99.79,3,Jessy Villagomez,Roby,97.25,231.33,145.15,244.94,621.42,Single-ply,SBD,M
Boys,99.79,4,Arthur Murillo,Tuscola Jim Ned,94.26,226.8,127.01,226.8,580.6,Single-ply,SBD,M
Boys,99.79,5,Juan Barron,Tulia,97.16,226.8,136.08,213.19,576.06,Single-ply,SBD,M
Boys,99.79,6,Emmanuel Camacho,Crane,95.25,240.4,127.01,206.38,573.79,Single-ply,SBD,M
Boys,99.79,7,Alberto Sinaloa,Olton,96.43,208.65,147.42,197.31,553.38,Single-ply,SBD,M
Boys,99.79,8,Thomas Ellifritz,Childress,98.07,229.06,106.59,206.38,542.04,Single-ply,SBD,M
Boys,99.79,9,Ariel Jaramillo,Friona,96.07,210.92,111.13,208.65,530.7,Single-ply,SBD,M
Boys,99.79,10,Austin Lara,Roscoe Collegiate,96.89,219.99,108.86,192.78,521.63,Single-ply,SBD,M
Boys,99.79,11,Jesus Jaramillo,Friona,97.16,204.12,111.13,201.85,517.1,Single-ply,SBD,M
Boys,99.79,DQ,Jeremy L Hernandez,Sundown,96.52,231.33,111.13,,,Single-ply,SBD,M
Boys,109.77,1,Brandon Padilla,Anson,108.68,294.84,156.49,251.74,703.07,Single-ply,SBD,M
Boys,109.77,2,Valente Perez,Post,105.41,274.42,138.35,249.48,662.24,Single-ply,SBD,M
Boys,109.77,3,Kolter Willeford,Hawley,109.41,260.82,149.69,226.8,637.3,Single-ply,SBD,M
Boys,109.77,4,Gabriel Chavez,Olton,106.96,272.16,138.35,210.92,621.42,Single-ply,SBD,M
Boys,109.77,5,Ruben Quinonez,Tahoka,103.42,251.74,149.69,206.38,607.81,Single-ply,SBD,M
Boys,109.77,6,Caleb Smith,Roby,106.68,263.08,120.2,213.19,596.47,Single-ply,SBD,M
Boys,109.77,7,Austin Schoonmaker,Clyde,107.95,235.87,145.15,201.85,582.87,Single-ply,SBD,M
Boys,109.77,8,Aaron Longoria,Quanah,107.86,244.94,140.61,195.04,580.6,Single-ply,SBD,M
Boys,109.77,9,Tye Landeros,Tuscola Jim Ned,105.14,247.21,120.2,199.58,566.99,Single-ply,SBD,M
Boys,109.77,10,Steven Bazan,Lockney,107.77,222.26,136.08,192.78,551.11,Single-ply,SBD,M
Boys,109.77,11,Wesley Estridge,Big Lake Reagan County,107.86,231.33,124.74,188.24,544.31,Single-ply,SBD,M
Boys,109.77,12,Brady Herbst,Junction,103.87,192.78,158.76,190.51,542.04,Single-ply,SBD,M
Boys,124.74,1,Tristan Ortiz,Big Lake Reagan County,120.38,369.68,165.56,256.28,791.52,Single-ply,SBD,M
Boys,124.74,2,David Ornelas,Colorado City Colorado,123.83,272.16,181.44,219.99,673.58,Single-ply,SBD,M
Boys,124.74,3,Divad Briones,Ballinger,115.3,278.96,170.1,206.38,655.44,Single-ply,SBD,M
Boys,124.74,4,Andy Casias,Abernathy,114.49,256.28,140.61,235.87,632.76,Single-ply,SBD,M
Boys,124.74,5,Caden Williams,Forsan,120.66,238.14,147.42,229.06,614.62,Single-ply,SBD,M
Boys,124.74,6,Alexis Rosas,Crane,122.38,240.4,156.49,206.38,603.28,Single-ply,SBD,M
Boys,124.74,7,Albert Arispe,Eldorado,112.31,226.8,133.81,233.6,594.21,Single-ply,SBD,M
Boys,124.74,8,Isaiah Montes,Sudan,115.76,226.8,140.61,226.8,594.21,Single-ply,SBD,M
Boys,124.74,9,Javier Olvera,Floydada,119.57,226.8,154.22,210.92,591.94,Single-ply,SBD,M
Boys,124.74,10,Jacob Collier,Cross Plains,113.58,249.48,120.2,213.19,582.87,Single-ply,SBD,M
Boys,124.74,11,Bo Thompson,Hawley,114.58,192.78,158.76,226.8,578.33,Single-ply,SBD,M
Boys,124.74,12,Israel DelaCruz,Anson,110.95,224.53,127.01,206.38,557.92,Single-ply,SBD,M
Boys,124.74+,1,Francisco Saenz,Olton,141.43,294.84,181.44,263.08,739.36,Single-ply,SBD,M
Boys,124.74+,2,Taylor Elkins,Mertzon Irion County,143.34,276.69,183.7,244.94,705.34,Single-ply,SBD,M
Boys,124.74+,3,Zathan McIntosh,Kermit,176.9,294.84,174.63,226.8,696.26,Single-ply,SBD,M
Boys,124.74+,4,David Schuman,Merkel,130.09,240.4,147.42,215.46,603.28,Single-ply,SBD,M
Boys,124.74+,5,Brody Adams,Junction,136.8,242.67,151.95,204.12,598.74,Single-ply,SBD,M
Boys,124.74+,6,Ralph Navarette,Crane,152.59,231.33,129.27,215.46,576.06,Single-ply,SBD,M
Boys,124.74+,7,Jaron Castillo,Anson,130.36,229.06,115.67,204.12,548.85,Single-ply,SBD,M
Boys,124.74+,8,Josh Salas,Slaton,144.15,235.87,122.47,190.51,548.85,Single-ply,SBD,M
Boys,124.74+,9,Arty Lopez,Abernathy,127.19,208.65,108.86,197.31,514.83,Single-ply,SBD,M
Boys,124.74+,10,Cameron Hastings,Sundown,137.71,217.72,111.13,181.44,510.29,Single-ply,SBD,M
Boys,124.74+,11,Javen Diaz,Post,132.99,204.12,115.67,183.7,503.49,Single-ply,SBD,M
Boys,124.74+,DQ,Bradon Upshaw,Colorado City Colorado,131.45,197.31,133.81,,,Single-ply,SBD,M
Boys,124.74+,NS,Dominick Longoria,Seagraves,,,,,,Single-ply,SBD,M
