Place,Name,Sex,BirthDate,Age,Country,State,Equipment,Division,BodyweightKg,WeightClassKg,Squat1Kg,Squat2Kg,Squat3Kg,Best3SquatKg,Bench1Kg,Bench2Kg,Bench3Kg,Best3BenchKg,Deadlift1Kg,Deadlift2Kg,Deadlift3Kg,Best3DeadliftKg,TotalKg,Event
1,Kristen Haney,F,,24,USA,MO,Wraps,Open,113.22,100+,124.74,142.88,-151.95,142.88,47.63,49.9,54.43,54.43,124.74,136.08,142.88,142.88,340.19,SBD
1,Jenni Schook,F,,38,USA,MO,Raw,Submasters 35-39,74.93,75,129.27,136.08,145.15,145.15,86.18,90.72,92.99,92.99,142.88,151.95,158.76,158.76,396.89,SBD
1,Mike Schook,M,,42,USA,MO,Wraps,Masters 40-44,98.34,100,274.42,288.03,,288.03,161.03,165.56,-170.1,165.56,256.28,267.62,276.69,276.69,730.28,SBD
1,Josh Chamberlain,M,,26,USA,MO,Wraps,Open,80.01,82.5,206.38,219.99,226.8,226.8,136.08,142.88,-147.42,142.88,231.33,242.67,-247.21,242.67,612.35,SBD
2,Jesse Chamberlain,M,,24,USA,MO,Wraps,Open,78.38,82.5,181.44,197.31,-201.85,197.31,111.13,117.93,-122.47,117.93,206.38,215.46,226.8,226.8,542.04,SBD
3,Dakota England,M,,26,USA,MO,Wraps,Open,81.01,82.5,165.56,179.17,185.97,185.97,131.54,136.08,-140.61,136.08,206.38,-219.99,-219.99,206.38,528.44,SBD
1,Joey DiFranco,M,,35,USA,MO,Wraps,Open,89.36,90,217.72,229.06,244.94,244.94,158.76,165.56,167.83,167.83,260.82,272.16,-276.69,272.16,684.92,SBD
1,Joey DiFranco,M,,35,USA,MO,Wraps,Submasters 35-39,89.36,90,217.72,229.06,244.94,244.94,158.76,165.56,167.83,167.83,260.82,272.16,-276.69,272.16,684.92,SBD
