Division,WeightClassKg,Place,Name,Team,BodyweightKg,Best3SquatKg,Best3BenchKg,Best3DeadliftKg,TotalKg,Equipment,Event,Sex
Boys,55.79,1,David Donell,Seymour,54.7,108.86,61.23,108.86,278.96,Single-ply,SBD,M
Boys,55.79,2,Dylan Cortez,Castleberry,54.07,92.99,54.43,90.72,238.14,Single-ply,SBD,M
Boys,59.87,1,Daniel Perez,Olney,55.88,120.2,65.77,136.08,322.05,Single-ply,SBD,M
Boys,67.13,1,Cody Daniel,Henrietta,63.59,167.83,106.59,158.76,433.18,Single-ply,SBD,M
Boys,67.13,2,Bobby Doss,Electra,65.14,161.03,99.79,158.76,419.57,Single-ply,SBD,M
Boys,67.13,3,Jaron Humphrey,Wichita Falls Hirschi,65.86,158.76,102.06,156.49,417.3,Single-ply,SBD,M
Boys,67.13,4,Danlee Duncan,Quanah,66.68,156.49,74.84,179.17,410.5,Single-ply,SBD,M
Boys,67.13,5,Brian Jackson,Seymour,61.6,154.22,99.79,149.69,403.7,Single-ply,SBD,M
Boys,67.13,6,Houston Hare,Olney,65.68,136.08,79.38,158.76,374.21,Single-ply,SBD,M
Boys,67.13,7,Thomas Arnold,Seymour,65.59,129.27,74.84,151.95,356.07,Single-ply,SBD,M
Boys,67.13,8,Ethan Barboza,Castleberry,66.5,145.15,68.04,127.01,340.19,Single-ply,SBD,M
Boys,67.13,9,Dakota DeMoss,Petrolia,60.96,111.13,92.99,124.74,328.85,Single-ply,SBD,M
Boys,67.13,10,Jose Torres,Olney,61.14,122.47,74.84,122.47,319.78,Single-ply,SBD,M
Boys,67.13,11,Jose Ramirez,Castleberry,61.78,106.59,81.65,127.01,315.25,Single-ply,SBD,M
Boys,67.13,12,Erick Leija,Quanah,65.05,115.67,70.31,122.47,308.44,Single-ply,SBD,M
Boys,67.13,13,Adam Mangum,Archer City,61.23,102.06,63.5,122.47,288.03,Single-ply,SBD,M
Boys,74.84,1,Nathaniel Downing,Wichita Falls Hirschi,71.4,188.24,113.4,226.8,528.44,Single-ply,SBD,M
Boys,74.84,2,Cody Castor,Childress,73.03,190.51,124.74,197.31,512.56,Single-ply,SBD,M
Boys,74.84,3,Brendene Ramos,Castleberry,73.39,170.1,129.27,165.56,464.93,Single-ply,SBD,M
Boys,74.84,4,Reagan Johnson,Archer City,71.58,120.2,92.99,142.88,356.07,Single-ply,SBD,M
Boys,74.84,5,Isac DeHaro,Castleberry,73.39,113.4,68.04,149.69,331.12,Single-ply,SBD,M
Boys,74.84,6,Brian DeLaRosa,Archer City,67.31,108.86,81.65,124.74,315.25,Single-ply,SBD,M
Boys,74.84,7,Tyler Tucker #2,Electra,73.57,104.33,65.77,117.93,288.03,Single-ply,SBD,M
Boys,74.84,8,Aaron Sanchez,Wichita Falls Hirschi,69.04,99.79,68.04,,167.83,Single-ply,SB,M
Boys,74.84,DQ,Andrew Calvin,Wichita Falls Hirschi,71.4,,,,,Single-ply,SB,M
Boys,74.84,DQ,Jason Hopkins,Electra,74.43,,,,,Single-ply,SB,M
Boys,82.1,1,Travis Swenson,Henrietta,80.01,172.37,124.74,181.44,478.54,Single-ply,SBD,M
Boys,82.1,2,Justin Browning,Archer City,77.56,138.35,90.72,136.08,365.14,Single-ply,SBD,M
Boys,89.81,1,Trey Gomez,Quanah,89.81,149.69,111.13,174.63,435.45,Single-ply,SBD,M
Boys,89.81,2,Lazaro Rivera,Wichita Falls Hirschi,84.91,149.69,90.72,167.83,408.23,Single-ply,SBD,M
Boys,89.81,3,Reginald Jackson,Wichita Falls Hirschi,86.36,161.03,77.11,158.76,396.89,Single-ply,SBD,M
Boys,89.81,4,Efrain De La Paz,Wichita Falls Hirschi,82.55,151.95,83.91,151.95,387.82,Single-ply,SBD,M
Boys,89.81,5,Trip Walther,Quanah,84.19,136.08,83.91,145.15,365.14,Single-ply,SBD,M
Boys,89.81,6,Tristan Perez,Wichita Falls Hirschi,84.73,113.4,74.84,131.54,319.78,Single-ply,SBD,M
Boys,89.81,7,Jonathan Scroggs,Wichita Falls Hirschi,82.55,74.84,38.56,104.33,217.72,Single-ply,SBD,M
Boys,99.79,1,Brian Chapa,Castleberry,91.63,192.78,133.81,226.8,553.38,Single-ply,SBD,M
Boys,99.79,2,Thomas Ellifritz,Childress,99.43,224.53,106.59,204.12,535.24,Single-ply,SBD,M
Boys,99.79,3,Caesar Rojas,Childress,96.43,167.83,102.06,192.78,462.66,Single-ply,SBD,M
Boys,99.79,4,Donovan Valdez,Olney,98.79,133.81,70.31,,204.12,Single-ply,SB,M
Boys,109.77,1,Justin Shipman,Castleberry,103.6,229.06,129.27,201.85,560.19,Single-ply,SBD,M
Boys,109.77,2,Ryan Alaniz,Quanah,101.33,170.1,115.67,195.04,480.81,Single-ply,SBD,M
Boys,109.77,3,Nathan Salvi,Wichita Falls Hirschi,108.23,147.42,102.06,170.1,419.57,Single-ply,SBD,M
Boys,109.77,4,Zane Myracle,Archer City,109.23,154.22,115.67,149.69,419.57,Single-ply,SBD,M
Boys,109.77,5,Joseph Trepanier,Seymour,101.42,136.08,74.84,154.22,365.14,Single-ply,SBD,M
Boys,124.74,1,Aaron Longoria,Quanah,111.22,242.67,140.61,201.85,585.13,Single-ply,SBD,M
Boys,124.74,2,Jayden Workman,Electra,117.84,222.26,131.54,201.85,555.65,Single-ply,SBD,M
Boys,124.74,3,Jonathan Goodner,Seymour,114.12,188.24,97.52,188.24,474,Single-ply,SBD,M
Boys,124.74,4,Ethan Boren,Wichita Falls Hirschi,111.22,170.1,90.72,145.15,405.97,Single-ply,SBD,M
Boys,124.74,5,Raymond Rios,Wichita Falls Hirschi,119.48,124.74,79.38,136.08,340.19,Single-ply,SBD,M
Boys,124.74,6,Russell Freeze,Seymour,113.76,,90.72,,90.72,Single-ply,B,M
Boys,124.74+,1,Tate Sizemore,Henrietta,127.1,183.7,129.27,174.63,487.61,Single-ply,SBD,M
Boys,124.74+,2,Justin Diaz,Petrolia,141.25,183.7,104.33,163.29,451.32,Single-ply,SBD,M
Boys,,NS,Colby Jackson,Quanah,,,,,,Single-ply,SBD,M
Boys,,NS,Antonio Garcia,Wichita Falls Hirschi,,,,,,Single-ply,SBD,M
Boys,,NS,Josh Harper,Petrolia,,,,,,Single-ply,SBD,M
Boys,,NS,Dylan Looney,Petrolia,,,,,,Single-ply,SBD,M
Boys,,NS,Clay Streeter,Henrietta,,,,,,Single-ply,SBD,M
Boys,,NS,Able Tellez,Olney,,,,,,Single-ply,SBD,M
Boys,,NS,Hector Hernandez,Olney,,,,,,Single-ply,SBD,M
Boys,,NS,Gabriel Rodriguez,Castleberry,,,,,,Single-ply,SBD,M
Boys,,NS,Mario Cruz,Castleberry,,,,,,Single-ply,SBD,M
