Division,WeightClassKg,Place,Name,Team,BodyweightKg,Best3SquatKg,Best3BenchKg,Best3DeadliftKg,TotalKg,Equipment,Event,Sex,BirthDate
Boys,51.71,1,Mark Valdez,Brady,50.89,127.01,72.57,147.42,347,Single-ply,SBD,M,
Boys,51.71,2,James Townsend #2,Pflugerville,51.07,117.93,61.23,127.01,306.17,Single-ply,SBD,M,
Boys,51.71,3,Joaquin Flores,Brady,46.27,99.79,70.31,124.74,294.84,Single-ply,SBD,M,
Boys,51.71,4,Peyton Way,Lago Vista,50.8,113.4,47.63,115.67,276.69,Single-ply,SBD,M,
Boys,55.79,1,Johnathan Strickland,Lampasas,55.79,142.88,72.57,154.22,369.68,Single-ply,SBD,M,
Boys,55.79,2,Luke Keller,Llano,55.79,122.47,81.65,122.47,326.59,Single-ply,SBD,M,
Boys,55.79,3,Jasael Ruiz,Marble Falls,55.61,117.93,56.7,131.54,306.17,Single-ply,SBD,M,
Boys,55.79,5,Garrett Buster,Burnet,52.71,99.79,52.16,108.86,260.82,Single-ply,SBD,M,
Boys,55.79,DQ,Jarred Sierra,Marble Falls,53.71,,,,,Single-ply,SBD,M,
Boys,59.87,1,Kyle Arriola,Lampasas,59.87,158.76,106.59,170.1,435.45,Single-ply,SBD,M,
Boys,59.87,2,Luke Rizzo,Fredericksburg,59.87,145.15,81.65,158.76,385.55,Single-ply,SBD,M,
Boys,59.87,3,Dante Hudson,Pflugerville,59.51,142.88,68.04,151.95,362.87,Single-ply,SBD,M,
Boys,59.87,4,Kyler Pitre,Brady,58.97,136.08,63.5,147.42,347,Single-ply,SBD,M,
Boys,59.87,5,Jose Hernandez #21,Pflugerville,59.87,108.86,63.5,142.88,315.25,Single-ply,SBD,M,
Boys,67.13,1,Lorenzo Garcia,Fredericksburg,66.41,158.76,99.79,163.29,421.84,Single-ply,SBD,M,
Boys,67.13,2,Forrest Swan,Marble Falls,60.15,108.86,63.5,117.93,290.3,Single-ply,SBD,M,
Boys,74.84,1,Jack Jerome,Lampasas,74.3,244.94,147.42,226.8,619.15,Single-ply,SBD,M,
Boys,74.84,2,Quincy Prince,Llano,72.39,195.04,115.67,197.31,508.02,Single-ply,SBD,M,
Boys,74.84,3,Caleb Roberts,Burnet,70.31,172.37,90.72,188.24,451.32,Single-ply,SBD,M,
Boys,74.84,4,Roberto Rodriguez,Pflugerville,68.49,158.76,102.06,163.29,424.11,Single-ply,SBD,M,
Boys,74.84,5,Abel Prince,Llano,72.67,165.56,81.65,176.9,424.11,Single-ply,SBD,M,
Boys,74.84,6,Romanus Ike,Pflugerville,72.48,120.2,52.16,149.69,322.05,Single-ply,SBD,M,
Boys,74.84,DQ,Michael Anuzgguita,Marble Falls,72.39,115.67,,,,Single-ply,SBD,M,
Boys,82.1,1,Case Brister,Lampasas,80.74,238.14,129.27,238.14,605.55,Single-ply,SBD,M,
Boys,82.1,2,Weston Reid,Lampasas,81.74,235.87,138.35,231.33,605.55,Single-ply,SBD,M,
Boys,82.1,3,Hunter Metzger,Fredericksburg,80.01,208.65,133.81,208.65,551.11,Single-ply,SBD,M,
Boys,82.1,4,Sammy Deluna,Fredericksburg,82.1,210.92,115.67,197.31,523.9,Single-ply,SBD,M,
Boys,82.1,5,Gavin French,Fredericksburg,78.2,197.31,106.59,204.12,508.02,Single-ply,SBD,M,
Boys,82.1,6,Alex Hires,Pflugerville,81.92,183.7,122.47,199.58,505.76,Single-ply,SBD,M,
Boys,82.1,7,Austin Simpson,Fredericksburg,79.2,179.17,117.93,190.51,487.61,Single-ply,SBD,M,
Boys,82.1,NS,Ben Galindo,Brady,,,,,,Single-ply,SBD,M,
Boys,82.1,DQ,Jd Ibarra,Brady,77.38,174.63,,,,Single-ply,SBD,M,
Boys,89.81,1,Logan Duggar,Llano,86.82,260.82,122.47,235.87,619.15,Single-ply,SBD,M,
Boys,89.81,2,Daunte Cuffie,Lampasas,85.28,235.87,158.76,219.99,614.62,Single-ply,SBD,M,
Boys,89.81,3,Cris Guzman,Pflugerville,86.27,233.6,127.01,219.99,580.6,Single-ply,SBD,M,
Boys,89.81,4,Grisma Pun,Burnet,83.19,231.33,140.61,204.12,576.06,Single-ply,SBD,M,
Boys,89.81,5,Jacob Maldonado,Marble Falls,89.81,215.46,131.54,226.8,573.79,Single-ply,SBD,M,
Boys,89.81,6,Kegan Richardson,Lampasas,84.28,208.65,127.01,210.92,546.58,Single-ply,SBD,M,
Boys,89.81,7,Blake Marler,Pflugerville,88.18,204.12,108.86,215.46,528.44,Single-ply,SBD,M,
Boys,89.81,8,Jose Tonche,Marble Falls,87.27,192.78,108.86,197.31,498.95,Single-ply,SBD,M,
Boys,89.81,9,Voice Tuttle,Marble Falls,83.37,176.9,124.74,185.97,487.61,Single-ply,SBD,M,
Boys,89.81,10,Ian McKinney,Lampasas,89.63,195.04,86.18,183.7,464.93,Single-ply,SBD,M,
Boys,89.81,NS,Daniel Morgan,Brady,,,,,,Single-ply,SBD,M,
Boys,89.81,DQ,Alan Cardenas,Lago Vista,85.09,158.76,81.65,,,Single-ply,SBD,M,
Boys,89.81,DQ,Youri Estrada,Fredericksburg,87.54,195.04,127.01,,,Single-ply,SBD,M,
Boys,99.79,1,Gabriel Barker,Marble Falls,96.34,233.6,154.22,226.8,614.62,Single-ply,SBD,M,
Boys,99.79,2,Daniel Hernandez,Brady,91.26,213.19,120.2,219.99,553.38,Single-ply,SBD,M,
Boys,99.79,3,Adrian Lopez,Burnet,99.79,213.19,120.2,199.58,532.97,Single-ply,SBD,M,
Boys,99.79,4,Jose Vasquez,Marble Falls,97.61,174.63,113.4,204.12,492.15,Single-ply,SBD,M,
Boys,99.79,5,Brennen Fuhrman,Lago Vista,94.53,129.27,95.25,161.03,385.55,Single-ply,SBD,M,
Boys,99.79,7,Dalton Enberg,Llano,90.13,136.08,65.77,149.69,351.53,Single-ply,SBD,M,
Boys,109.77,1,Ethan Harris,Lago Vista,104.87,226.8,127.01,272.16,625.96,Single-ply,SBD,M,
Boys,109.77,2,Owen Seaver,Lampasas,105.05,213.19,179.17,204.12,596.47,Single-ply,SBD,M,
Boys,109.77,3,Matthew Whitley,Llano,106.68,226.8,145.15,215.46,587.4,Single-ply,SBD,M,
Boys,109.77,4,Johnathan Baker,Burnet,108.41,215.46,124.74,204.12,544.31,Single-ply,SBD,M,
Boys,109.77,5,Logan Itara,Lago Vista,102.06,199.58,104.33,199.58,503.49,Single-ply,SBD,M,
Boys,109.77,6,Noah de la Torre,Pflugerville,101.88,190.51,115.67,170.1,476.27,Single-ply,SBD,M,
Boys,109.77,7,Gerardo Hernandez,Marble Falls,109.68,172.37,104.33,149.69,426.38,Single-ply,SBD,M,
Boys,109.77,8,Dax Lawson,Lago Vista,101.24,170.1,108.86,142.88,421.84,Single-ply,SBD,M,
Boys,124.74,1,Zach Wubbolding,Fredericksburg,117.57,213.19,165.56,213.19,591.94,Single-ply,SBD,M,
Boys,124.74,2,Cristian Avilez,Fredericksburg,113.04,233.6,156.49,199.58,589.67,Single-ply,SBD,M,
Boys,124.74,3,Juan Leon,Brady,120.2,226.8,142.88,210.92,580.6,Single-ply,SBD,M,
Boys,124.74,4,Jake Hoffer,Pflugerville,120.66,174.63,129.27,151.95,455.86,Single-ply,SBD,M,
Boys,124.74,NS,Cesar Reza,Brady,,,,,,Single-ply,SBD,M,
Boys,124.74,DQ,Landon West,Fredericksburg,121.29,226.8,140.61,,,Single-ply,SBD,M,
Boys,124.74+,2,John Long,Lampasas,130.09,249.48,183.7,215.46,648.64,Single-ply,SBD,M,
Boys,124.74+,4,Travis Cates,Fredericksburg,127.01,219.99,158.76,210.92,589.67,Single-ply,SBD,M,
Boys,124.74+,5,Wyatt Crawford,Pflugerville,130.91,235.87,113.4,204.12,553.38,Single-ply,SBD,M,
Boys,124.74+,6,Caden Thrift,Lampasas,151.5,192.78,156.49,181.44,530.7,Single-ply,SBD,M,
Boys,124.74+,DQ,Jasean Wilson,Pflugerville,157.4,,,,,Single-ply,SBD,M,
Boys,,NS,Enrique Reyes,Marble Falls,,,,,,Single-ply,SBD,M,
