Division,WeightClassKg,Place,Name,Team,BodyweightKg,Best3SquatKg,Best3BenchKg,Best3DeadliftKg,TotalKg,Equipment,Event,Sex
Boys,51.71,1,Blake Rogers,Wichita Falls Rider,40.55,72.57,45.36,97.52,215.46,Single-ply,SBD,M
Boys,55.79,1,Angkennan Phannet,Wichita Falls,55.16,92.99,72.57,106.59,272.16,Single-ply,SBD,M
Boys,59.87,DQ,Casey Fung,Iowa Park,59.33,129.27,,136.08,,Single-ply,SBD,M
Boys,67.13,1,Tuan Hong,Wichita Falls City View,65.59,204.12,104.33,208.65,517.1,Single-ply,SBD,M
Boys,67.13,2,Andrew Tanguma,Wichita Falls,66,142.88,79.38,154.22,376.48,Single-ply,SBD,M
Boys,67.13,3,Christopher Laxamana,Wichita Falls Hirschi,63.96,136.08,74.84,142.88,353.8,Single-ply,SBD,M
Boys,67.13,4,John Nabors,Wichita Falls City View,65.59,115.67,77.11,142.88,335.66,Single-ply,SBD,M
Boys,67.13,5,De'Shawn Peoples,Wichita Falls City View,65.32,113.4,54.43,131.54,299.37,Single-ply,SBD,M
Boys,67.13,6,Kody Saucedo,Wichita Falls,63.05,83.91,70.31,117.93,272.16,Single-ply,SBD,M
Boys,67.13,7,Conner Kirkland,Wichita Falls City View,60.6,74.84,45.36,68.04,188.24,Single-ply,SBD,M
Boys,74.84,1,Bobby Copeland,Wichita Falls City View,72.94,156.49,83.91,197.31,437.72,Single-ply,SBD,M
Boys,74.84,2,Chris Graham #1,Wichita Falls City View,67.95,174.63,83.91,170.1,428.64,Single-ply,SBD,M
Boys,74.84,3,Brandon Hernandez #2,Iowa Park,74.84,151.95,115.67,149.69,417.3,Single-ply,SBD,M
Boys,74.84,4,Bryzon Austin,Vernon,73.12,163.29,92.99,158.76,415.04,Single-ply,SBD,M
Boys,74.84,5,Matthew Terry,Wichita Falls,74.39,158.76,83.91,170.1,412.77,Single-ply,SBD,M
Boys,74.84,6,Carson Stevens,Iowa Park,70.49,149.69,106.59,154.22,410.5,Single-ply,SBD,M
Boys,74.84,7,Segan Prince,Wichita Falls City View,68.4,97.52,68.04,136.08,301.64,Single-ply,SBD,M
Boys,74.84,DQ,Diego Marmellejo,Wichita Falls,67.59,90.72,,102.06,,Single-ply,SBD,M
Boys,74.84,DQ,Tommy Elder,Wichita Falls,70.94,102.06,,124.74,,Single-ply,SBD,M
Boys,74.84,DQ,Matt Eich,Wichita Falls Rider,72.3,136.08,97.52,,,Single-ply,SBD,M
Boys,82.1,1,Jackson Nolan,Wichita Falls City View,80.2,190.51,99.79,185.97,476.27,Single-ply,SBD,M
Boys,82.1,2,Crafton Lindenborn,Wichita Falls City View,82.1,170.1,113.4,183.7,467.2,Single-ply,SBD,M
Boys,82.1,3,Chance Bledsoe,Wichita Falls Rider,78.2,183.7,90.72,174.63,449.06,Single-ply,SBD,M
Boys,82.1,4,James Craven,Iowa Park,75.84,154.22,106.59,181.44,442.25,Single-ply,SBD,M
Boys,82.1,5,Javeri Miller,Wichita Falls City View,81.47,106.59,61.23,136.08,303.91,Single-ply,SBD,M
Boys,82.1,6,Blaiton Foretich,Wichita Falls City View,77.93,92.99,52.16,113.4,258.55,Single-ply,SBD,M
Boys,,NS,Rene Lerma,Wichita Falls City View,,133.81,83.91,161.03,,Single-ply,SBD,M
Boys,82.1,DQ,Antwone Willis,Wichita Falls City View,79.92,,,142.88,,Single-ply,SBD,M
Boys,89.81,1,Chris Nabors,Wichita Falls City View,87.09,188.24,106.59,185.97,480.81,Single-ply,SBD,M
Boys,89.81,2,Fed Fleeks,Wichita Falls Hirschi,89.54,174.63,92.99,195.04,462.66,Single-ply,SBD,M
Boys,89.81,3,Tinaye Mubvumba,Vernon,84.73,136.08,106.59,181.44,424.11,Single-ply,SBD,M
Boys,89.81,4,Austin Phillips,Iowa Park,89.45,158.76,106.59,142.88,408.23,Single-ply,SBD,M
Boys,89.81,5,Will Straight,Wichita Falls Hirschi,86.73,136.08,95.25,147.42,378.75,Single-ply,SBD,M
Boys,89.81,6,Trasee Ensley,Wichita Falls City View,84.19,129.27,70.31,142.88,342.46,Single-ply,SBD,M
Boys,89.81,DQ,Tryston Randall,Wichita Falls Hirschi,82.83,113.4,,145.15,,Single-ply,SBD,M
Boys,99.79,1,Ryan Rogers,Wichita Falls Rider,91.99,199.58,115.67,226.8,542.04,Single-ply,SBD,M
Boys,99.79,2,Makkedah Brown,Wichita Falls,99.79,195.04,127.01,204.12,526.17,Single-ply,SBD,M
Boys,99.79,3,Dalton Reagon,Vernon,89.99,181.44,122.47,161.03,464.93,Single-ply,SBD,M
Boys,99.79,4,Lazaro Rivera,Wichita Falls Hirschi,90.17,161.03,108.86,181.44,451.32,Single-ply,SBD,M
Boys,99.79,5,Tristan Perez,Wichita Falls Hirschi,91.17,172.37,95.25,170.1,437.72,Single-ply,SBD,M
Boys,99.79,6,Julian Garcia,Wichita Falls City View,96.71,165.56,99.79,165.56,430.91,Single-ply,SBD,M
Boys,99.79,7,Quantre Humphrey,Wichita Falls Hirschi,99.79,129.27,83.91,142.88,356.07,Single-ply,SBD,M
Boys,109.77,1,Jimmy Tran,Wichita Falls,102.69,249.48,129.27,208.65,587.4,Single-ply,SBD,M
Boys,109.77,2,Cameron Hudson,Wichita Falls City View,103.87,165.56,113.4,147.42,426.38,Single-ply,SBD,M
Boys,109.77,3,Cameron Dandredge,Wichita Falls City View,102.42,131.54,127.01,136.08,394.63,Single-ply,SBD,M
Boys,109.77,4,Bradey Braid,Wichita Falls City View,107.05,167.83,79.38,124.74,371.95,Single-ply,SBD,M
Boys,109.77,5,Hunter Green #1,Wichita Falls City View,103.78,136.08,81.65,127.01,344.73,Single-ply,SBD,M
Boys,124.74,1,Jeremiah Stanley,Iowa Park,119.29,204.12,161.03,208.65,573.79,Single-ply,SBD,M
Boys,124.74,2,AJ Sargent,Wichita Falls Rider,121.74,188.24,104.33,195.04,487.61,Single-ply,SBD,M
Boys,124.74,3,Conner Partridge,Wichita Falls Rider,114.67,183.7,104.33,183.7,471.74,Single-ply,SBD,M
Boys,124.74,4,Nathaniel Salvi,Wichita Falls Hirschi,118.3,161.03,97.52,174.63,433.18,Single-ply,SBD,M
Boys,124.74,5,D'Artaniyon Hernandez,Wichita Falls Hirschi,113.67,161.03,104.33,165.56,430.91,Single-ply,SBD,M
Boys,124.74,6,Fidel Varela,Wichita Falls,110.77,167.83,106.59,145.15,419.57,Single-ply,SBD,M
Boys,124.74,7,Ethan Boren,Wichita Falls Hirschi,114.49,158.76,97.52,158.76,415.04,Single-ply,SBD,M
Boys,124.74+,1,Ray Rios,Wichita Falls Hirschi,128.82,145.15,97.52,163.29,405.97,Single-ply,SBD,M
