Division,WeightClassKg,Place,Name,Team,BodyweightKg,Best3SquatKg,Best3BenchKg,Best3DeadliftKg,TotalKg,Equipment,Event,Sex,BirthDate
Boys,51.71,1,Tommy Hession,College Station,51.3,176.9,77.11,170.1,424.11,Single-ply,SBD,M,
Boys,51.71,2,Eli Saunders,Burton,48.9,129.27,63.5,142.88,335.66,Single-ply,SBD,M,
Boys,51.71,3,Isaac Rios,Killeen Ellison,47.72,95.25,79.38,102.06,276.69,Single-ply,SBD,M,
Boys,51.71,4,Cody Ferguson,Madisonville,51.71,104.33,54.43,117.93,276.69,Single-ply,SBD,M,
Boys,51.71,5,David Price,College Station A&M Cons,48.49,86.18,40.82,90.72,217.72,Single-ply,SBD,M,
Boys,55.79,1,Brayden Bromonsky,Kyle Lehman,54.52,197.31,113.4,204.12,514.83,Single-ply,SBD,M,
Boys,55.79,2,Jesus Recio,Kyle Lehman,54.88,154.22,97.52,163.29,415.04,Single-ply,SBD,M,
Boys,55.79,3,Caleb Burleson,College Station,55.79,158.76,99.79,149.69,408.23,Single-ply,SBD,M,
Boys,55.79,4,Eric Esquivel,Kyle Lehman,55.02,138.35,90.72,167.83,396.89,Single-ply,SBD,M,
Boys,55.79,5,Hayden Sechelski,Anderson-Shiro,51.94,102.06,61.23,124.74,288.03,Single-ply,SBD,M,
Boys,55.79,DQ,Anthony Currie,Bryan Rudder,54.16,61.23,,,,Single-ply,SBD,M,
Boys,59.87,1,Jacob Vasquez,Kyle Lehman,58.92,208.65,99.79,233.6,542.04,Single-ply,SBD,M,
Boys,59.87,2,Gabriel Vargas,Killeen Ellison,59.33,151.95,95.25,172.37,419.57,Single-ply,SBD,M,
Boys,59.87,3,Ricky Regalado,Warren,56.11,124.74,111.13,156.49,392.36,Single-ply,SBD,M,
Boys,59.87,4,Christian Jeanes,Kyle Lehman,59.38,136.08,81.65,154.22,371.95,Single-ply,SBD,M,
Boys,59.87,5,Caleb Dawkins,Waco,57.29,136.08,83.91,117.93,337.93,Single-ply,SBD,M,
Boys,59.87,6,Scott Jones,Warren,59.83,111.13,79.38,142.88,333.39,Single-ply,SBD,M,
Boys,59.87,DQ,Rj Rubio,Bryan Rudder,59.83,,,,,Single-ply,SBD,M,
Boys,67.13,1,Cory Price,College Station A&M Cons,65.77,210.92,124.74,215.46,551.11,Single-ply,SBD,M,
Boys,67.13,2,Alex Flores,Anderson-Shiro,67.09,183.7,129.27,213.19,526.17,Single-ply,SBD,M,
Boys,67.13,3,Ethan Hall,College Station,66.32,206.38,102.06,210.92,519.36,Single-ply,SBD,M,
Boys,67.13,4,Diego Macedo,Kyle Lehman,67.13,197.31,108.86,199.58,505.76,Single-ply,SBD,M,
Boys,67.13,5,Lane Blevins,Bryan,66.13,190.51,104.33,181.44,476.27,Single-ply,SBD,M,
Boys,67.13,6,Rolando Valenzuela,Kyle Lehman,66.95,165.56,111.13,199.58,476.27,Single-ply,SBD,M,
Boys,67.13,7,Joey Mojica,Kyle Lehman,66.54,174.63,111.13,185.97,471.74,Single-ply,SBD,M,
Boys,67.13,8,Ladavon Springs-Hargrove,Waco,65.59,167.83,111.13,170.1,449.06,Single-ply,SBD,M,
Boys,67.13,9,Tony Solano,Warren,66.45,170.1,90.72,183.7,444.52,Single-ply,SBD,M,
Boys,67.13,10,Garrett Lero,Snook,64.36,149.69,90.72,151.95,392.36,Single-ply,SBD,M,
Boys,67.13,11,Christian Marines,Pollok Central,64.23,136.08,83.91,149.69,369.68,Single-ply,SBD,M,
Boys,67.13,12,Victor Chavez,Bryan,66.04,129.27,79.38,147.42,356.07,Single-ply,SBD,M,
Boys,67.13,DQ,Tucker Backhus,Anderson-Shiro,62.96,,,,,Single-ply,SBD,M,
Boys,74.84,1,Harris Sherrod,Jewett Leon,67.4,240.4,133.81,224.53,598.74,Single-ply,SBD,M,
Boys,74.84,2,Colton Love,College Station A&M Cons,72.53,242.67,120.2,226.8,589.67,Single-ply,SBD,M,
Boys,74.84,3,Chandler Brill,Kyle Lehman,72.35,215.46,136.08,219.99,571.53,Single-ply,SBD,M,
Boys,74.84,4,Eric Cruz,Kyle Lehman,70.62,210.92,117.93,222.26,551.11,Single-ply,SBD,M,
Boys,74.84,5,Trey Goodman,Trinity,69.22,213.19,124.74,208.65,546.58,Single-ply,SBD,M,
Boys,74.84,6,David May #4,College Station A&M Cons,73.07,208.65,113.4,204.12,526.17,Single-ply,SBD,M,
Boys,74.84,7,Bobby Washington,Franklin,71.62,195.04,104.33,181.44,480.81,Single-ply,SBD,M,
Boys,74.84,8,Dorian Jones,Warren,71.58,158.76,92.99,181.44,433.18,Single-ply,SBD,M,
Boys,74.84,9,Logan Tressler,Warren,67.31,147.42,95.25,147.42,390.09,Single-ply,SBD,M,
Boys,74.84,10,Dustin Perkins,Franklin,73.07,140.61,88.45,156.49,385.55,Single-ply,SBD,M,
Boys,74.84,11,Austin Massingill,Pollok Central,72.12,129.27,74.84,158.76,362.87,Single-ply,SBD,M,
Boys,74.84,DQ,Ivan Diaz,Waco,72.35,,,,,Single-ply,SBD,M,
Boys,74.84,DQ,Luke Jakubik,Snook,70.85,,,,,Single-ply,SBD,M,
Boys,74.84,DQ,Cedric Lewis,Killeen Ellison,72.76,167.83,154.22,,,Single-ply,SBD,M,
Boys,82.1,1,Keith Guillory,Waco,79.61,210.92,136.08,215.46,562.45,Single-ply,SBD,M,
Boys,82.1,2,Patrick Brazzell,Madisonville,80.01,204.12,117.93,206.38,528.44,Single-ply,SBD,M,
Boys,82.1,3,Sloane Vavra,Bryan,81.33,213.19,111.13,199.58,523.9,Single-ply,SBD,M,
Boys,82.1,4,Antonio Cardenas,College Station A&M Cons,75.52,181.44,104.33,197.31,483.08,Single-ply,SBD,M,
Boys,82.1,5,Mason Hardy,Normangee,79.42,185.97,111.13,185.97,483.08,Single-ply,SBD,M,
Boys,82.1,6,Landon Stem,Anderson-Shiro,81.65,181.44,127.01,170.1,478.54,Single-ply,SBD,M,
Boys,82.1,7,Christopher Rodriguez,Waco,81.28,170.1,108.86,181.44,460.4,Single-ply,SBD,M,
Boys,82.1,8,Hayden Bayer,Bryan,78.88,154.22,92.99,165.56,412.77,Single-ply,SBD,M,
Boys,82.1,9,Michael Ramos,Bryan Rudder,81.78,147.42,95.25,170.1,412.77,Single-ply,SBD,M,
Boys,82.1,10,Brandon Wiley,Huntsville,75.39,124.74,83.91,158.76,367.41,Single-ply,SBD,M,
Boys,82.1,11,De'Anthony Crawford,Huntsville,75.48,120.2,95.25,149.69,365.14,Single-ply,SBD,M,
Boys,82.1,12,Victor Cabrera,Bryan Rudder,79.42,129.27,74.84,147.42,351.53,Single-ply,SBD,M,
Boys,82.1,DQ,Tyler Luchale,Huntsville,79.38,151.95,,170.1,,Single-ply,SBD,M,
Boys,89.81,1,Sean Dudo,College Station,88.45,242.67,158.76,233.6,635.03,Single-ply,SBD,M,
Boys,89.81,2,Walter Beltran,Jewett Leon,86.41,242.67,127.01,251.74,621.42,Single-ply,SBD,M,
Boys,89.81,3,Kolbe Cashion,College Station,85.77,215.46,133.81,219.99,569.26,Single-ply,SBD,M,
Boys,89.81,4,Santos Lacewell,Killeen Ellison,84.73,217.72,127.01,219.99,564.72,Single-ply,SBD,M,
Boys,89.81,5,JJ Smith,Killeen Ellison,87.77,188.24,108.86,238.14,535.24,Single-ply,SBD,M,
Boys,89.81,6,William Pelts,Warren,87.04,192.78,102.06,192.78,487.61,Single-ply,SBD,M,
Boys,89.81,7,Darren Paul,Waco,89.18,165.56,111.13,183.7,460.4,Single-ply,SBD,M,
Boys,89.81,DQ,Joseph Garcia,College Station A&M Cons,83.82,,,,,Single-ply,SBD,M,
Boys,89.81,DQ,Cobi Wright,Anderson-Shiro,88.27,,,,,Single-ply,SBD,M,
Boys,89.81,DQ,Gabriel Aguelar,Huntsville,83.01,113.4,,113.4,,Single-ply,SBD,M,
Boys,99.79,1,Dai'Shawn Fisher,Waco,97.48,260.82,136.08,260.82,657.71,Single-ply,SBD,M,
Boys,99.79,2,Nick McDaniels,Bryan,94.44,249.48,145.15,244.94,639.57,Single-ply,SBD,M,
Boys,99.79,3,Chad Roebuck,Anderson-Shiro,93.76,276.69,151.95,204.12,632.76,Single-ply,SBD,M,
Boys,99.79,4,Tyler Christensen,College Station,96.71,249.48,138.35,226.8,614.62,Single-ply,SBD,M,
Boys,99.79,5,Ezekiel Sherridan,Killeen Ellison,98.66,235.87,129.27,233.6,598.74,Single-ply,SBD,M,
Boys,99.79,6,James Williams #16,Killeen Ellison,93.8,242.67,111.13,231.33,585.13,Single-ply,SBD,M,
Boys,99.79,7,Payton Blair,College Station,96.21,226.8,142.88,201.85,571.53,Single-ply,SBD,M,
Boys,99.79,8,Charlie Stutts,Bryan,99.11,226.8,117.93,195.04,539.77,Single-ply,SBD,M,
Boys,99.79,9,Matthew Jordan #3,Snook,91.31,204.12,111.13,208.65,523.9,Single-ply,SBD,M,
Boys,99.79,10,Klayton Sheffield,College Station A&M Cons,95.21,204.12,120.2,197.31,521.63,Single-ply,SBD,M,
Boys,99.79,11,JR Molina,Normangee,97.16,201.85,120.2,188.24,510.29,Single-ply,SBD,M,
Boys,99.79,12,Tyler George,Madisonville,90.9,204.12,97.52,181.44,483.08,Single-ply,SBD,M,
Boys,99.79,13,JaMarcus Jones,Bryan Rudder,91.85,165.56,106.59,188.24,460.4,Single-ply,SBD,M,
Boys,99.79,14,Callan Shrode,Jewett Leon,94.44,142.88,99.79,172.37,415.04,Single-ply,SBD,M,
Boys,99.79,DQ,Julius Plotts,Normangee,92.85,,,,,Single-ply,SBD,M,
Boys,99.79,DQ,Braylon Cornish,Normangee,98.38,,,,,Single-ply,SBD,M,
Boys,99.79,DQ,Ryan Poth,Bryan Rudder,92.22,83.91,,124.74,,Single-ply,SBD,M,
Boys,109.77,1,Luke Miles,College Station,107.55,283.5,161.03,272.16,716.68,Single-ply,SBD,M,
Boys,109.77,2,Hayden Goodlett,College Station,109.23,272.16,181.44,247.21,700.8,Single-ply,SBD,M,
Boys,109.77,3,Amir Soliman,Killeen Ellison,106.91,240.4,147.42,254.01,641.83,Single-ply,SBD,M,
Boys,109.77,4,Jermiah Juarez,Warren,107.68,226.8,142.88,235.87,605.55,Single-ply,SBD,M,
Boys,109.77,5,Micheil Harrell,Madisonville,103.6,235.87,131.54,226.8,594.21,Single-ply,SBD,M,
Boys,109.77,6,Cody Duewall,Franklin,107.68,226.8,136.08,210.92,573.79,Single-ply,SBD,M,
Boys,109.77,7,Barton Melder,College Station A&M Cons,109.04,235.87,122.47,199.58,557.92,Single-ply,SBD,M,
Boys,109.77,8,Austin Pennington,Bryan,109.09,208.65,120.2,226.8,555.65,Single-ply,SBD,M,
Boys,109.77,9,Ethan Neal,Pollok Central,109.77,217.72,113.4,215.46,546.58,Single-ply,SBD,M,
Boys,109.77,10,Keegan Wilson,Franklin,104.24,213.19,113.4,208.65,535.24,Single-ply,SBD,M,
Boys,109.77,11,Jer'Tavius Brown,Madisonville,109.63,217.72,129.27,188.24,535.24,Single-ply,SBD,M,
Boys,109.77,12,Andrew Elmore,Franklin,106.28,204.12,127.01,167.83,498.95,Single-ply,SBD,M,
Boys,109.77,13,Colton Stewart #2,Bryan Rudder,101.56,192.78,102.06,192.78,487.61,Single-ply,SBD,M,
Boys,109.77,14,Emiliano Martinez,Bryan Rudder,107.86,181.44,92.99,195.04,469.47,Single-ply,SBD,M,
Boys,109.77,15,Trey Weiler,Jewett Leon,100.33,181.44,83.91,179.17,444.52,Single-ply,SBD,M,
Boys,109.77,DQ,Desmond Murphy,Bryan Rudder,104.92,,,,,Single-ply,SBD,M,
Boys,109.77,DQ,Vince Sheffield,College Station A&M Cons,104.19,249.48,,,,Single-ply,SBD,M,
Boys,109.77,DQ,Seth Groce,Snook,102.92,,,,,Single-ply,SBD,M,
Boys,124.74,1,Kyler Loftin,Warren,111.67,317.51,183.7,249.48,750.7,Single-ply,SBD,M,
Boys,124.74,2,Nathan Vilchez,Killeen Ellison,115.85,285.76,158.76,258.55,703.07,Single-ply,SBD,M,
Boys,124.74,3,Daylan Littlejohn,Killeen Ellison,122.79,267.62,145.15,240.4,653.17,Single-ply,SBD,M,
Boys,124.74,4,Brandon Waggoner,College Station A&M Cons,121.93,254.01,154.22,240.4,648.64,Single-ply,SBD,M,
Boys,124.74,5,Cody Noriega,Snook,110.22,217.72,117.93,199.58,535.24,Single-ply,SBD,M,
Boys,124.74,6,Trenton Freeman,Waco,115.3,199.58,127.01,206.38,532.97,Single-ply,SBD,M,
Boys,124.74,7,Joseph Lightfoot,College Station A&M Cons,109.95,213.19,113.4,195.04,521.63,Single-ply,SBD,M,
Boys,124.74,8,Kyle Bridges,Pollok Central,122.29,215.46,102.06,204.12,521.63,Single-ply,SBD,M,
Boys,124.74,9,Tanner Ross,Pollok Central,116.57,201.85,111.13,185.97,498.95,Single-ply,SBD,M,
Boys,124.74,10,Braden Adair,Anderson-Shiro,118.71,147.42,102.06,204.12,453.59,Single-ply,SBD,M,
Boys,124.74,11,Tyler Martin,Anderson-Shiro,122.33,183.7,97.52,170.1,451.32,Single-ply,SBD,M,
Boys,124.74,12,Ethan Casas,Huntsville,120.34,156.49,79.38,158.76,394.63,Single-ply,SBD,M,
Boys,124.74,13,D'Ante Thomas,Madisonville,111.04,158.76,77.11,156.49,392.36,Single-ply,SBD,M,
Boys,124.74,14,Isom McGallion,Warren,121.61,102.06,79.38,142.88,324.32,Single-ply,SBD,M,
Boys,124.74+,1,Keanu Ramirez,Killeen Ellison,155.85,251.74,183.7,244.94,680.39,Single-ply,SBD,M,
Boys,124.74+,2,Jo'Vaughn Holmes,College Station,136.76,299.37,154.22,215.46,669.05,Single-ply,SBD,M,
Boys,124.74+,3,Joseph Kiraly,Waco,148.64,254.01,154.22,208.65,616.89,Single-ply,SBD,M,
Boys,124.74+,4,Xamier Latchison,Waco,141.25,242.67,142.88,210.92,596.47,Single-ply,SBD,M,
Boys,124.74+,5,Shamar Stanford,Huntsville,136.08,217.72,99.79,172.37,489.88,Single-ply,SBD,M,
Boys,124.74+,6,Hillard Morning,Madisonville,179.35,163.29,95.25,142.88,401.43,Single-ply,SBD,M,
Boys,124.74+,DQ,Stanley Gilbert,Bryan Rudder,129.36,,,,,Single-ply,SBD,M,
Boys,124.74+,DQ,Boris Marroquin,Huntsville,127.73,226.8,,,,Single-ply,SBD,M,
Boys,124.74+,DQ,Everitt Rodgers,Killeen Ellison,143.7,238.14,,,,Single-ply,SBD,M,
