Division,WeightClassKg,Place,Name,Team,BodyweightKg,Best3SquatKg,Best3BenchKg,Best3DeadliftKg,TotalKg,Equipment,Event,Sex
Boys,55.79,1,Esai Marez,Mission Sharyland,55.79,131.54,81.65,181.44,394.63,Single-ply,SBD,M
Boys,55.79,2,Justin Romero,Sharyland Pioneer,55.7,127.01,83.91,154.22,365.14,Single-ply,SBD,M
Boys,55.79,3,Eduardo Segura,Pharr Valley View,55.34,113.4,68.04,122.47,303.91,Single-ply,SBD,M
Boys,59.87,1,Vicente Hernandez,Pharr Valley View,59.6,206.38,117.93,217.72,542.04,Single-ply,SBD,M
Boys,59.87,2,Marty Capetillo,Raymondville,59.78,210.92,108.86,190.51,510.29,Single-ply,SBD,M
Boys,59.87,3,Mauro Vargas,La Joya Juarez-Lincoln,56.43,183.7,115.67,197.31,496.68,Single-ply,SBD,M
Boys,59.87,4,Abraham Hernandez,La Joya Palmview,57.88,170.1,83.91,181.44,435.45,Single-ply,SBD,M
Boys,59.87,5,Robert Saenz,Sharyland Pioneer,57.97,147.42,108.86,170.1,426.38,Single-ply,SBD,M
Boys,67.13,1,Oscar Monjaraz,Pharr Valley View,65.59,233.6,117.93,213.19,564.72,Single-ply,SBD,M
Boys,67.13,2,Bryan Rodriguez,La Joya Juarez-Lincoln,61.87,154.22,97.52,154.22,405.97,Single-ply,SBD,M
Boys,67.13,3,Juan Gonzalez,PSJA Southwest,60.78,136.08,83.91,154.22,374.21,Single-ply,SBD,M
Boys,74.84,1,Joe H Rodriguez,PSJA Southwest,72.67,238.14,142.88,208.65,589.67,Single-ply,SBD,M
Boys,74.84,2,Julio Cerda,Sharyland Pioneer,70.22,204.12,115.67,181.44,501.22,Single-ply,SBD,M
Boys,74.84,3,Sean De La Garza,Mission Veterans Memorial,73.66,165.56,136.08,185.97,487.61,Single-ply,SBD,M
Boys,74.84,4,Garcia Isaiah,Mission Sharyland,72.67,176.9,102.06,190.51,469.47,Single-ply,SBD,M
Boys,74.84,5,Orlando Rodriguez,Mission Veterans Memorial,70.58,158.76,92.99,174.63,426.38,Single-ply,SBD,M
Boys,74.84,6,Brandon Mireles,Mission Sharyland,74.21,147.42,83.91,158.76,390.09,Single-ply,SBD,M
Boys,74.84,7,Aaron Acevedo,La Joya,69.94,140.61,86.18,145.15,371.95,Single-ply,SBD,M
Boys,74.84,8,Jacob Trevino,Sharyland Pioneer,72.57,142.88,70.31,149.69,362.87,Single-ply,SBD,M
Boys,74.84,9,Leo Cuellar,Pharr Valley View,69.31,133.81,86.18,129.27,349.27,Single-ply,SBD,M
Boys,82.1,1,Robert Hernandez,La Joya Juarez-Lincoln,80.38,256.28,161.03,265.35,682.66,Single-ply,SBD,M
Boys,82.1,2,Salvador Castillo,Mission Sharyland,80.47,238.14,129.27,256.28,623.69,Single-ply,SBD,M
Boys,82.1,3,Alexis Perez #2,Sharyland Pioneer,80.83,215.46,136.08,233.6,585.13,Single-ply,SBD,M
Boys,82.1,4,Gilbert Guarjuardo,Pharr Valley View,75.02,213.19,124.74,224.53,562.45,Single-ply,SBD,M
Boys,82.1,5,Sal Mendez,PSJA Southwest,80.92,165.56,136.08,231.33,532.97,Single-ply,SBD,M
Boys,82.1,6,Andrew Cantu,Mission Sharyland,80.1,206.38,111.13,208.65,526.17,Single-ply,SBD,M
Boys,82.1,7,Haraldo Ramirez,Rio Grande City Grulla,80.65,188.24,106.59,190.51,485.34,Single-ply,SBD,M
Boys,82.1,8,Miguel Espino,PSJA Southwest,80.01,188.24,113.4,174.63,476.27,Single-ply,SBD,M
Boys,82.1,9,Alfredo Perez,La Joya,76.48,167.83,88.45,183.7,439.98,Single-ply,SBD,M
Boys,82.1,10,Anibal Espinoza,La Joya,77.66,156.49,97.52,185.97,439.98,Single-ply,SBD,M
Boys,82.1,DQ,Javier Elizondo,Mission Sharyland,79.65,,,,,Single-ply,SBD,M
Boys,89.81,1,Fernando Hernandez,La Joya Juarez-Lincoln,89.72,240.4,154.22,251.74,646.37,Single-ply,SBD,M
Boys,89.81,2,Jose Nicoleau,Sharyland Pioneer,88,244.94,165.56,233.6,644.1,Single-ply,SBD,M
Boys,89.81,3,Senon Moya,Sharyland Pioneer,89.81,240.4,165.56,204.12,610.08,Single-ply,SBD,M
Boys,89.81,4,Obie Hernandez,Sharyland Pioneer,89.18,238.14,136.08,231.33,605.55,Single-ply,SBD,M
Boys,89.81,5,Ernesto Preciado,Pharr Valley View,86.55,219.99,131.54,204.12,555.65,Single-ply,SBD,M
Boys,89.81,6,Joel Moreno,Mission Sharyland,89.18,204.12,111.13,226.8,542.04,Single-ply,SBD,M
Boys,89.81,7,Eddie Hernandez,La Joya Juarez-Lincoln,89.81,201.85,133.81,192.78,528.44,Single-ply,SBD,M
Boys,89.81,8,Orly Trevino,PSJA Southwest,88.18,192.78,104.33,226.8,523.9,Single-ply,SBD,M
Boys,89.81,9,Darron Moncevais,Raymondville,88.09,183.7,122.47,179.17,485.34,Single-ply,SBD,M
Boys,89.81,10,Ruby Tijernia,Raymondville,84.64,179.17,106.59,183.7,469.47,Single-ply,SBD,M
Boys,89.81,11,Uriel Aguilera,Pharr Valley View,89.72,181.44,92.99,165.56,439.98,Single-ply,SBD,M
Boys,89.81,12,Ryan Alvarez,Rio Grande City,84.82,151.95,97.52,181.44,430.91,Single-ply,SBD,M
Boys,89.81,13,Mark Montalvo,Raymondville,89.27,165.56,88.45,156.49,410.5,Single-ply,SBD,M
Boys,89.81,14,Joel Garcia,Pharr Valley View,89.36,161.03,68.04,142.88,371.95,Single-ply,SBD,M
Boys,89.81,15,Osvaldo Garcia,Mission Veterans Memorial,89.54,127.01,77.11,129.27,333.39,Single-ply,SBD,M
Boys,89.81,DQ,German De La Pena,Mission Sharyland,84.19,158.76,102.06,,,Single-ply,SBD,M
Boys,99.79,1,Julio Garcia,La Joya Juarez-Lincoln,90.54,254.01,163.29,247.21,664.51,Single-ply,SBD,M
Boys,99.79,2,Luis Salinas,Sharyland Pioneer,90.72,254.01,151.95,258.55,664.51,Single-ply,SBD,M
Boys,99.79,3,Victor Garza,PSJA Southwest,90.26,242.67,147.42,217.72,607.81,Single-ply,SBD,M
Boys,99.79,4,Daniel Gonzalez,La Joya Juarez-Lincoln,97.07,219.99,138.35,231.33,589.67,Single-ply,SBD,M
Boys,99.79,5,Daniel Villarreal,La Joya,93.17,233.6,124.74,224.53,582.87,Single-ply,SBD,M
Boys,99.79,6,Quiten Martinez,Rio Grande City,96.89,224.53,108.86,235.87,569.26,Single-ply,SBD,M
Boys,99.79,7,Gilbert Romero,La Joya Juarez-Lincoln,96.34,215.46,131.54,204.12,551.11,Single-ply,SBD,M
Boys,99.79,8,Joey Castillo,PSJA Southwest,98.7,201.85,136.08,181.44,519.36,Single-ply,SBD,M
Boys,99.79,9,David Cantu,Mission Sharyland,94.62,229.06,117.93,170.1,517.1,Single-ply,SBD,M
Boys,99.79,10,Eddie Garza,Rio Grande City,91.63,167.83,131.54,172.37,471.74,Single-ply,SBD,M
Boys,99.79,11,José Fernández,La Joya,98.88,170.1,108.86,181.44,460.4,Single-ply,SBD,M
Boys,99.79,12,Caleb Longoria,Rio Grande City,99.34,170.1,104.33,174.63,449.06,Single-ply,SBD,M
Boys,99.79,13,AJ Torres,Raymondville,98.88,163.29,92.99,179.17,435.45,Single-ply,SBD,M
Boys,99.79,14,Joshua Williams,Mission Sharyland,96.8,154.22,102.06,172.37,428.64,Single-ply,SBD,M
Boys,99.79,15,Angel Gutierrez,Pharr Valley View,93.44,147.42,79.38,133.81,360.61,Single-ply,SBD,M
Boys,99.79,DQ,Emilio Chavez,Mission Sharyland,93.08,190.51,81.65,,,Single-ply,SBD,M
Boys,109.77,1,Fernando Gonzalez,La Joya Palmview,99.88,285.76,161.03,249.48,696.26,Single-ply,SBD,M
Boys,109.77,2,Sam Rodriguez,La Joya,105.23,267.62,156.49,231.33,655.44,Single-ply,SBD,M
Boys,109.77,3,Johnny Howell,Sharyland Pioneer,106.5,204.12,151.95,201.85,557.92,Single-ply,SBD,M
Boys,109.77,4,Luis Salinas,Rio Grande City,109.5,215.46,131.54,208.65,555.65,Single-ply,SBD,M
Boys,109.77,5,Aliver Chapa,La Joya Juarez-Lincoln,106.5,197.31,142.88,195.04,535.24,Single-ply,SBD,M
Boys,109.77,6,Alberto Canales,La Joya,107.05,192.78,122.47,183.7,498.95,Single-ply,SBD,M
Boys,109.77,7,Adrian Meza,Mission Veterans Memorial,106.41,149.69,86.18,136.08,371.95,Single-ply,SBD,M
Boys,109.77,DQ,Alexis Garces,PSJA Southwest,101.42,199.58,,,,Single-ply,SBD,M
Boys,124.74,1,Roger Benavidez,Rio Grande City,119.29,272.16,158.76,249.48,680.39,Single-ply,SBD,M
Boys,124.74,2,Andy Hernandez #2,La Joya Palmview,123.56,247.21,167.83,240.4,655.44,Single-ply,SBD,M
Boys,124.74,3,Christian Ozuna,La Joya Juarez-Lincoln,113.22,226.8,140.61,213.19,580.6,Single-ply,SBD,M
Boys,124.74,4,Jesus Proa,La Joya Juarez-Lincoln,116.57,213.19,149.69,206.38,569.26,Single-ply,SBD,M
Boys,124.74,5,Diego Trevino,PSJA Southwest,122.29,183.7,108.86,215.46,508.02,Single-ply,SBD,M
Boys,124.74,6,Enrique Guajardo,Pharr Valley View,116.57,158.76,97.52,165.56,421.84,Single-ply,SBD,M
Boys,124.74+,1,Shawn Gonzalez,PSJA Southwest,127.01,272.16,158.76,256.28,687.19,Single-ply,SBD,M
Boys,124.74+,2,Jaime Morin,Rio Grande City,126.46,229.06,147.42,229.06,605.55,Single-ply,SBD,M
Boys,124.74+,3,Isacc Mayrez,PSJA Southwest,125.1,190.51,129.27,174.63,494.42,Single-ply,SBD,M
